@startuml
skinparam classAttributeIconSize 0
hide methods
left to right direction

class Plataforma {
  -String designacao
}

class GrauProficiencia {
  -String designacao
  -int valor
}

class CompetenciaTecnica {
  -String codigo
  -String descBreve
  -String descDetalhada
}

class Categoria {
  -String id
  -String descricao
}

class CaraterCT {
  -Boolean obrigatoria
}

Plataforma "1" -- "*" CompetenciaTecnica : possui >
CompetenciaTecnica "1" -- "0..*" GrauProficiencia : aplica >
Plataforma "1" -- "*" Categoria : possui >
Categoria"*" -- "*" CompetenciaTecnica : requer  >
(Categoria, CompetenciaTecnica) .. CaraterCT 
CaraterCT"*" -- "1" GrauProficiencia : exige(como mínimo) >
@enduml
