@startuml
autonumber
'hide footbox
actor "Administrativo" as ADM

participant ":DefinirCategoriaUI" as UI
participant ":DefinircategoriaController" as CTRL
participant ":Plataforma" as PLAT
participant "rct:RegistoCategoriaTarefa" as RCT
participant "rctec:RegistoCompetenciaTecnica" as RCTEC
participant "raa:RegistoAreaAtividade" as RAA
participant "la\n:List<AreaAtividade>" as LIST_AT
participant "at\n:AreaAtividade" as AT
participant "cat\n:Categoria" as CAT
participant "lct\n:List<CompetenciaTecnica>" as LIST_CT
participant "ct:\nCompetenciaTecnica" as CT
participant "cct\n:CaraterCT" as CARACT_CT

activate ADM

ADM -> UI : inicia a definição de nova categoria de tarefa
activate UI
UI --> ADM : solicita a descrição
deactivate UI

ADM -> UI : introduz a descrição solicitada
activate UI
UI -> CTRL : la=novaCategoria(desc)
activate CTRL
CTRL -> PLAT : rct= getRegistoCategoriaTarefa()
activate PLAT
deactivate PLAT

CTRL -> PLAT : rctec= getRegistoCompetenciaTecnica()
activate PLAT
deactivate PLAT

CTRL -> PLAT : raa= getRegistoAreaAtividade()
activate PLAT
deactivate PLAT

CTRL -> RCT : cat=novaCategoriaTarefa(desc)

activate RCT
RCT -> RCT : catId=geraCategoriaId()
RCT--> CAT**: create(catId,desc)
deactivate RCT
CTRL -> RAA : la = getListaAT()
activate RAA
deactivate RAA
deactivate CTRL
UI --> ADM : mostra lista de AT e solicita escolha de uma delas
deactivate UI

ADM -> UI : seleciona uma AT
activate UI
UI -> CTRL : lct=setAT(atCod)
activate CTRL
CTRL -> RAA : at = getAT(atCod)
activate RAA
deactivate RAA
CTRL -> CAT : setAT(at)
activate CAT
deactivate CAT
CTRL -> RCTEC : lct = getListaCT(at)
activate RCTEC
deactivate RCTEC
deactivate CTRL
UI --> ADM : mostra lista de CT e solicita a escolha de uma delas
deactivate UI

loop
ADM -> UI : seleciona uma CT
activate UI
UI --> ADM : solicita o caráter da CT selecionada
deactivate UI

ADM -> UI : introduz o caráter da CT selecionada
activate UI
UI --> ADM : solicita o grau mínimo da CT selecionada
deactivate UI

ADM -> UI : introduz o grau mínimo da CT selecionada
activate UI
UI -> CTRL : addCaraterCT(ctCod,ob,gm)
activate CTRL
CTRL -> RCTEC : ct = getCT(ctCod)
activate RCTEC
deactivate RCTEC
CTRL -> CAT : addCaraterCT(ct,ob,gm)
activate CAT
CAT --> CARACT_CT** : create(ct,ob,gm)
CAT -> CAT : validaCaraterCT(cct)
CAT -> CAT : addCaraterCT(cct)
|||
deactivate CAT
deactivate CTRL
end loop
UI --> ADM : apresenta dados e solicita confirmação
deactivate UI

ADM -> UI : confirma
activate UI
UI -> CTRL : registaCategoria()
activate CTRL
CTRL -> RCT : registaCategoria(cat)
activate RCT
RCT -> CAT : valida()
activate CAT
deactivate CAT
RCT -> RCT : validaCategoria(cat)
RCT -> RCT : addCategoria(cat)
UI --> ADM : informa sucesso da operação
deactivate CTRL
deactivate RCT
deactivate UI

deactivate ADM

@enduml

