<?xml version="1.0" encoding="UTF-8"?><svg xmlns="http://www.w3.org/2000/svg" xmlns:xlink="http://www.w3.org/1999/xlink" contentScriptType="application/ecmascript" contentStyleType="text/css" height="995px" preserveAspectRatio="none" style="width:1182px;height:995px;" version="1.1" viewBox="0 0 1182 995" width="1182px" zoomAndPan="magnify">
    <defs>
        <filter height="300%" id="f1e2mugz9tvgqo" width="300%" x="-1" y="-1">
            <feGaussianBlur result="blurOut" stdDeviation="2.0"/>
            <feColorMatrix in="blurOut" result="blurOut2" type="matrix" values="0 0 0 0 0 0 0 0 0 0 0 0 0 0 0 0 0 0 .4 0"/>
            <feOffset dx="4.0" dy="4.0" in="blurOut2" result="blurOut3"/>
            <feBlend in="SourceGraphic" in2="blurOut3" mode="normal"/>
        </filter>
    </defs>
    <g>
        <!--class Colaborador-->
        <rect fill="#FEFECE" filter="url(#f1e2mugz9tvgqo)" height="138.6855" style="stroke: #A80036; stroke-width: 1.5;" width="215" x="193.5" y="848"/>
        <ellipse cx="260.75" cy="864" fill="#ADD1B2" rx="11" ry="11" style="stroke: #A80036; stroke-width: 1.0;"/>
        <path d="M263.2231,870.1431 Q262.6421,870.4419 262.0029,870.5913 Q261.3638,870.7407 260.6582,870.7407 Q258.1514,870.7407 256.8315,869.0889 Q255.5117,867.437 255.5117,864.3159 Q255.5117,861.1865 256.8315,859.5347 Q258.1514,857.8828 260.6582,857.8828 Q261.3638,857.8828 262.0112,858.0322 Q262.6587,858.1816 263.2231,858.4805 L263.2231,861.2031 Q262.5923,860.6221 261.9988,860.3523 Q261.4053,860.0825 260.7744,860.0825 Q259.4297,860.0825 258.7449,861.1492 Q258.0601,862.2158 258.0601,864.3159 Q258.0601,866.4077 258.7449,867.4744 Q259.4297,868.541 260.7744,868.541 Q261.4053,868.541 261.9988,868.2712 Q262.5923,868.0015 263.2231,867.4204 Z "/>
        <text fill="#000000" font-family="sans-serif" font-size="12" lengthAdjust="spacingAndGlyphs" textLength="72" x="281.25" y="868.5352">Colaborador</text>
        <line style="stroke: #A80036; stroke-width: 1.5;" x1="194.5" x2="407.5" y1="880" y2="880"/>
        <text fill="#000000" font-family="sans-serif" font-size="11" lengthAdjust="spacingAndGlyphs" textLength="71" x="199.5" y="894.6348">-String nome</text>
        <text fill="#000000" font-family="sans-serif" font-size="11" lengthAdjust="spacingAndGlyphs" textLength="78" x="199.5" y="907.5898">-String funcao</text>
        <text fill="#000000" font-family="sans-serif" font-size="11" lengthAdjust="spacingAndGlyphs" textLength="84" x="199.5" y="920.5449">-String telefone</text>
        <text fill="#000000" font-family="sans-serif" font-size="11" lengthAdjust="spacingAndGlyphs" textLength="69" x="199.5" y="933.5">-String email</text>
        <line style="stroke: #A80036; stroke-width: 1.5;" x1="194.5" x2="407.5" y1="939.8203" y2="939.8203"/>
        <text fill="#000000" font-family="sans-serif" font-size="11" lengthAdjust="spacingAndGlyphs" textLength="203" x="199.5" y="954.4551">+Colaborador(nome,função,tlf, email)</text>
        <text fill="#000000" font-family="sans-serif" font-size="11" lengthAdjust="spacingAndGlyphs" textLength="100" x="199.5" y="967.4102">+String getNome()</text>
        <text fill="#000000" font-family="sans-serif" font-size="11" lengthAdjust="spacingAndGlyphs" textLength="97" x="199.5" y="980.3652">+String getEmail()</text>
        <!--class EnderecoPostal-->
        <rect fill="#FEFECE" filter="url(#f1e2mugz9tvgqo)" height="99.8203" style="stroke: #A80036; stroke-width: 1.5;" width="248" x="691" y="867.5"/>
        <ellipse cx="766.75" cy="883.5" fill="#ADD1B2" rx="11" ry="11" style="stroke: #A80036; stroke-width: 1.0;"/>
        <path d="M769.2231,889.6431 Q768.6421,889.9419 768.0029,890.0913 Q767.3638,890.2407 766.6582,890.2407 Q764.1514,890.2407 762.8315,888.5889 Q761.5117,886.937 761.5117,883.8159 Q761.5117,880.6865 762.8315,879.0347 Q764.1514,877.3828 766.6582,877.3828 Q767.3638,877.3828 768.0112,877.5322 Q768.6587,877.6816 769.2231,877.9805 L769.2231,880.7031 Q768.5923,880.1221 767.9988,879.8523 Q767.4053,879.5825 766.7744,879.5825 Q765.4297,879.5825 764.7449,880.6492 Q764.0601,881.7158 764.0601,883.8159 Q764.0601,885.9077 764.7449,886.9744 Q765.4297,888.041 766.7744,888.041 Q767.4053,888.041 767.9988,887.7712 Q768.5923,887.5015 769.2231,886.9204 Z "/>
        <text fill="#000000" font-family="sans-serif" font-size="12" lengthAdjust="spacingAndGlyphs" textLength="88" x="787.25" y="888.0352">EnderecoPostal</text>
        <line style="stroke: #A80036; stroke-width: 1.5;" x1="692" x2="938" y1="899.5" y2="899.5"/>
        <text fill="#000000" font-family="sans-serif" font-size="11" lengthAdjust="spacingAndGlyphs" textLength="66" x="697" y="914.1348">-String local</text>
        <text fill="#000000" font-family="sans-serif" font-size="11" lengthAdjust="spacingAndGlyphs" textLength="93" x="697" y="927.0898">-String codPostal</text>
        <text fill="#000000" font-family="sans-serif" font-size="11" lengthAdjust="spacingAndGlyphs" textLength="95" x="697" y="940.0449">-String localidade</text>
        <line style="stroke: #A80036; stroke-width: 1.5;" x1="692" x2="938" y1="946.3652" y2="946.3652"/>
        <text fill="#000000" font-family="sans-serif" font-size="11" lengthAdjust="spacingAndGlyphs" textLength="236" x="697" y="961">+EnderecoPostal(local,codPostal,localidade)</text>
        <!--class Organizacao-->
        <rect fill="#FEFECE" filter="url(#f1e2mugz9tvgqo)" height="151.6406" style="stroke: #A80036; stroke-width: 1.5;" width="432" x="6" y="619"/>
        <ellipse cx="181.75" cy="635" fill="#ADD1B2" rx="11" ry="11" style="stroke: #A80036; stroke-width: 1.0;"/>
        <path d="M184.2231,641.1431 Q183.6421,641.4419 183.0029,641.5913 Q182.3638,641.7407 181.6582,641.7407 Q179.1514,641.7407 177.8315,640.0889 Q176.5117,638.437 176.5117,635.3159 Q176.5117,632.1865 177.8315,630.5347 Q179.1514,628.8828 181.6582,628.8828 Q182.3638,628.8828 183.0112,629.0322 Q183.6587,629.1816 184.2231,629.4805 L184.2231,632.2031 Q183.5923,631.6221 182.9988,631.3523 Q182.4053,631.0825 181.7744,631.0825 Q180.4297,631.0825 179.7449,632.1492 Q179.0601,633.2158 179.0601,635.3159 Q179.0601,637.4077 179.7449,638.4744 Q180.4297,639.541 181.7744,639.541 Q182.4053,639.541 182.9988,639.2712 Q183.5923,639.0015 184.2231,638.4204 Z "/>
        <text fill="#000000" font-family="sans-serif" font-size="12" lengthAdjust="spacingAndGlyphs" textLength="72" x="202.25" y="639.5352">Organizacao</text>
        <line style="stroke: #A80036; stroke-width: 1.5;" x1="7" x2="437" y1="651" y2="651"/>
        <text fill="#000000" font-family="sans-serif" font-size="11" lengthAdjust="spacingAndGlyphs" textLength="71" x="12" y="665.6348">-String nome</text>
        <text fill="#000000" font-family="sans-serif" font-size="11" lengthAdjust="spacingAndGlyphs" textLength="58" x="12" y="678.5898">-String NIF</text>
        <text fill="#000000" font-family="sans-serif" font-size="11" lengthAdjust="spacingAndGlyphs" textLength="81" x="12" y="691.5449">-String website</text>
        <text fill="#000000" font-family="sans-serif" font-size="11" lengthAdjust="spacingAndGlyphs" textLength="84" x="12" y="704.5">-String telefone</text>
        <text fill="#000000" font-family="sans-serif" font-size="11" lengthAdjust="spacingAndGlyphs" textLength="69" x="12" y="717.4551">-String email</text>
        <line style="stroke: #A80036; stroke-width: 1.5;" x1="7" x2="437" y1="723.7754" y2="723.7754"/>
        <text fill="#000000" font-family="sans-serif" font-size="11" lengthAdjust="spacingAndGlyphs" textLength="420" x="12" y="738.4102">+Organizacao(nome, NIF,webSite,telefone, email,endereco,gestorColaborador)</text>
        <text fill="#000000" font-family="sans-serif" font-size="11" lengthAdjust="spacingAndGlyphs" text-decoration="underline" textLength="316" x="12" y="751.3652">+EnderecoPostal novoEndereco(local,codPostal,localidade)</text>
        <line style="stroke: #000000; stroke-width: 1.0;" x1="12" x2="328" y1="753.3652" y2="753.3652"/>
        <text fill="#000000" font-family="sans-serif" font-size="11" lengthAdjust="spacingAndGlyphs" text-decoration="underline" textLength="301" x="12" y="764.3203">+Colaborador novoColaborador(nome,funcao,tlf, email)</text>
        <line style="stroke: #000000; stroke-width: 1.0;" x1="12" x2="313" y1="766.3203" y2="766.3203"/>
        <!--class RegistoOrganizacao-->
        <rect fill="#FEFECE" filter="url(#f1e2mugz9tvgqo)" height="112.7754" style="stroke: #A80036; stroke-width: 1.5;" width="305" x="638.5" y="429"/>
        <ellipse cx="729.75" cy="445" fill="#ADD1B2" rx="11" ry="11" style="stroke: #A80036; stroke-width: 1.0;"/>
        <path d="M732.2231,451.1431 Q731.6421,451.4419 731.0029,451.5913 Q730.3638,451.7407 729.6582,451.7407 Q727.1514,451.7407 725.8315,450.0889 Q724.5117,448.437 724.5117,445.3159 Q724.5117,442.1865 725.8315,440.5347 Q727.1514,438.8828 729.6582,438.8828 Q730.3638,438.8828 731.0112,439.0322 Q731.6587,439.1816 732.2231,439.4805 L732.2231,442.2031 Q731.5923,441.6221 730.9988,441.3523 Q730.4053,441.0825 729.7744,441.0825 Q728.4297,441.0825 727.7449,442.1492 Q727.0601,443.2158 727.0601,445.3159 Q727.0601,447.4077 727.7449,448.4744 Q728.4297,449.541 729.7744,449.541 Q730.4053,449.541 730.9988,449.2712 Q731.5923,449.0015 732.2231,448.4204 Z "/>
        <text fill="#000000" font-family="sans-serif" font-size="12" lengthAdjust="spacingAndGlyphs" textLength="114" x="750.25" y="449.5352">RegistoOrganizacao</text>
        <line style="stroke: #A80036; stroke-width: 1.5;" x1="639.5" x2="942.5" y1="461" y2="461"/>
        <line style="stroke: #A80036; stroke-width: 1.5;" x1="639.5" x2="942.5" y1="469" y2="469"/>
        <text fill="#000000" font-family="sans-serif" font-size="11" lengthAdjust="spacingAndGlyphs" textLength="288" x="644.5" y="483.6348">+novaOrganizacao(nome,NIF,endLocal,endCodPostal,</text>
        <text fill="#000000" font-family="sans-serif" font-size="11" lengthAdjust="spacingAndGlyphs" textLength="293" x="644.5" y="496.5898">endLocalidade,tlf,site,email,nomeG,função,tlfG, emailG)</text>
        <text fill="#000000" font-family="sans-serif" font-size="11" lengthAdjust="spacingAndGlyphs" textLength="141" x="644.5" y="509.5449">+registaOrganizacao(org)</text>
        <text fill="#000000" font-family="sans-serif" font-size="11" lengthAdjust="spacingAndGlyphs" textLength="135" x="644.5" y="522.5">+validaOrganizacao(org)</text>
        <text fill="#000000" font-family="sans-serif" font-size="11" lengthAdjust="spacingAndGlyphs" textLength="124" x="644.5" y="535.4551">+addOrganizacao(org)</text>
        <!--class Plataforma-->
        <rect fill="#FEFECE" filter="url(#f1e2mugz9tvgqo)" height="99.8203" style="stroke: #A80036; stroke-width: 1.5;" width="218" x="586" y="252"/>
        <ellipse cx="659.75" cy="268" fill="#ADD1B2" rx="11" ry="11" style="stroke: #A80036; stroke-width: 1.0;"/>
        <path d="M662.2231,274.1431 Q661.6421,274.4419 661.0029,274.5913 Q660.3638,274.7407 659.6582,274.7407 Q657.1514,274.7407 655.8315,273.0889 Q654.5117,271.437 654.5117,268.3159 Q654.5117,265.1865 655.8315,263.5347 Q657.1514,261.8828 659.6582,261.8828 Q660.3638,261.8828 661.0112,262.0322 Q661.6587,262.1816 662.2231,262.4805 L662.2231,265.2031 Q661.5923,264.6221 660.9988,264.3523 Q660.4053,264.0825 659.7744,264.0825 Q658.4297,264.0825 657.7449,265.1492 Q657.0601,266.2158 657.0601,268.3159 Q657.0601,270.4077 657.7449,271.4744 Q658.4297,272.541 659.7744,272.541 Q660.4053,272.541 660.9988,272.2712 Q661.5923,272.0015 662.2231,271.4204 Z "/>
        <text fill="#000000" font-family="sans-serif" font-size="12" lengthAdjust="spacingAndGlyphs" textLength="62" x="680.25" y="272.5352">Plataforma</text>
        <line style="stroke: #A80036; stroke-width: 1.5;" x1="587" x2="803" y1="284" y2="284"/>
        <text fill="#000000" font-family="sans-serif" font-size="11" lengthAdjust="spacingAndGlyphs" textLength="102" x="592" y="298.6348">-String designacao</text>
        <line style="stroke: #A80036; stroke-width: 1.5;" x1="587" x2="803" y1="304.9551" y2="304.9551"/>
        <text fill="#000000" font-family="sans-serif" font-size="11" lengthAdjust="spacingAndGlyphs" textLength="142" x="592" y="319.5898">+getRegistoOrganizacao()</text>
        <text fill="#000000" font-family="sans-serif" font-size="11" lengthAdjust="spacingAndGlyphs" textLength="206" x="592" y="332.5449">+validaOrganizacao(Organizacao org)</text>
        <text fill="#000000" font-family="sans-serif" font-size="11" lengthAdjust="spacingAndGlyphs" textLength="155" x="592" y="345.5">+getAlgoritmoGeradorPWD()</text>
        <!--class AutorizacaoFacade-->
        <rect fill="#FEFECE" filter="url(#f1e2mugz9tvgqo)" height="60.9551" style="stroke: #A80036; stroke-width: 1.5;" width="332" x="473" y="664.5"/>
        <ellipse cx="580.25" cy="680.5" fill="#ADD1B2" rx="11" ry="11" style="stroke: #A80036; stroke-width: 1.0;"/>
        <path d="M582.7231,686.6431 Q582.1421,686.9419 581.5029,687.0913 Q580.8638,687.2407 580.1582,687.2407 Q577.6514,687.2407 576.3315,685.5889 Q575.0117,683.937 575.0117,680.8159 Q575.0117,677.6865 576.3315,676.0347 Q577.6514,674.3828 580.1582,674.3828 Q580.8638,674.3828 581.5112,674.5322 Q582.1587,674.6816 582.7231,674.9805 L582.7231,677.7031 Q582.0923,677.1221 581.4988,676.8523 Q580.9053,676.5825 580.2744,676.5825 Q578.9297,676.5825 578.2449,677.6492 Q577.5601,678.7158 577.5601,680.8159 Q577.5601,682.9077 578.2449,683.9744 Q578.9297,685.041 580.2744,685.041 Q580.9053,685.041 581.4988,684.7712 Q582.0923,684.5015 582.7231,683.9204 Z "/>
        <text fill="#000000" font-family="sans-serif" font-size="12" lengthAdjust="spacingAndGlyphs" textLength="109" x="600.75" y="685.0352">AutorizacaoFacade</text>
        <line style="stroke: #A80036; stroke-width: 1.5;" x1="474" x2="804" y1="696.5" y2="696.5"/>
        <line style="stroke: #A80036; stroke-width: 1.5;" x1="474" x2="804" y1="704.5" y2="704.5"/>
        <text fill="#000000" font-family="sans-serif" font-size="11" lengthAdjust="spacingAndGlyphs" textLength="320" x="479" y="719.1348">+registaUtilizadorComPapeis(nomeG,emailG,pwd,listaPapel)</text>
        <!--class RegistarOrganizacaoController-->
        <rect fill="#FEFECE" filter="url(#f1e2mugz9tvgqo)" height="73.9102" style="stroke: #A80036; stroke-width: 1.5;" width="593" x="161.5" y="117"/>
        <ellipse cx="366.25" cy="133" fill="#ADD1B2" rx="11" ry="11" style="stroke: #A80036; stroke-width: 1.0;"/>
        <path d="M368.7231,139.1431 Q368.1421,139.4419 367.5029,139.5913 Q366.8638,139.7407 366.1582,139.7407 Q363.6514,139.7407 362.3315,138.0889 Q361.0117,136.437 361.0117,133.3159 Q361.0117,130.1865 362.3315,128.5347 Q363.6514,126.8828 366.1582,126.8828 Q366.8638,126.8828 367.5112,127.0322 Q368.1587,127.1816 368.7231,127.4805 L368.7231,130.2031 Q368.0923,129.6221 367.4988,129.3523 Q366.9053,129.0825 366.2744,129.0825 Q364.9297,129.0825 364.2449,130.1492 Q363.5601,131.2158 363.5601,133.3159 Q363.5601,135.4077 364.2449,136.4744 Q364.9297,137.541 366.2744,137.541 Q366.9053,137.541 367.4988,137.2712 Q368.0923,137.0015 368.7231,136.4204 Z "/>
        <text fill="#000000" font-family="sans-serif" font-size="12" lengthAdjust="spacingAndGlyphs" textLength="175" x="386.75" y="137.5352">RegistarOrganizacaoController</text>
        <line style="stroke: #A80036; stroke-width: 1.5;" x1="162.5" x2="753.5" y1="149" y2="149"/>
        <line style="stroke: #A80036; stroke-width: 1.5;" x1="162.5" x2="753.5" y1="157" y2="157"/>
        <text fill="#000000" font-family="sans-serif" font-size="11" lengthAdjust="spacingAndGlyphs" textLength="581" x="167.5" y="171.6348">+novaOrganizacao(nome,NIF,endLocal,endCodPostal,endLocalidade,tlf,site,email,nomeG,função,tlfG, emailG)</text>
        <text fill="#000000" font-family="sans-serif" font-size="11" lengthAdjust="spacingAndGlyphs" textLength="122" x="167.5" y="184.5898">+registaOrganizacao()</text>
        <!--class RegistarOrganizacaoUI-->
        <rect fill="#FEFECE" filter="url(#f1e2mugz9tvgqo)" height="48" style="stroke: #A80036; stroke-width: 1.5;" width="162" x="377" y="8"/>
        <ellipse cx="392" cy="24" fill="#ADD1B2" rx="11" ry="11" style="stroke: #A80036; stroke-width: 1.0;"/>
        <path d="M394.4731,30.1431 Q393.8921,30.4419 393.2529,30.5913 Q392.6138,30.7407 391.9082,30.7407 Q389.4014,30.7407 388.0815,29.0889 Q386.7617,27.437 386.7617,24.3159 Q386.7617,21.1865 388.0815,19.5347 Q389.4014,17.8828 391.9082,17.8828 Q392.6138,17.8828 393.2612,18.0322 Q393.9087,18.1816 394.4731,18.4805 L394.4731,21.2031 Q393.8423,20.6221 393.2488,20.3523 Q392.6553,20.0825 392.0244,20.0825 Q390.6797,20.0825 389.9949,21.1492 Q389.3101,22.2158 389.3101,24.3159 Q389.3101,26.4077 389.9949,27.4744 Q390.6797,28.541 392.0244,28.541 Q392.6553,28.541 393.2488,28.2712 Q393.8423,28.0015 394.4731,27.4204 Z "/>
        <text fill="#000000" font-family="sans-serif" font-size="12" lengthAdjust="spacingAndGlyphs" textLength="130" x="406" y="28.5352">RegistarOrganizacaoUI</text>
        <line style="stroke: #A80036; stroke-width: 1.5;" x1="378" x2="538" y1="40" y2="40"/>
        <line style="stroke: #A80036; stroke-width: 1.5;" x1="378" x2="538" y1="48" y2="48"/>
        <!--class AlgoritmoGeradorPasswords-->
        <rect fill="#FEFECE" filter="url(#f1e2mugz9tvgqo)" height="48" style="stroke: #A80036; stroke-width: 1.5;" width="196" x="840" y="671"/>
        <ellipse cx="855" cy="687" fill="#B4A7E5" rx="11" ry="11" style="stroke: #A80036; stroke-width: 1.0;"/>
        <path d="M851.4277,683.2651 L851.4277,681.1069 L858.8071,681.1069 L858.8071,683.2651 L856.3418,683.2651 L856.3418,691.3418 L858.8071,691.3418 L858.8071,693.5 L851.4277,693.5 L851.4277,691.3418 L853.8931,691.3418 L853.8931,683.2651 Z "/>
        <text fill="#000000" font-family="sans-serif" font-size="12" font-style="italic" lengthAdjust="spacingAndGlyphs" textLength="164" x="869" y="691.5352">AlgoritmoGeradorPasswords</text>
        <line style="stroke: #A80036; stroke-width: 1.5;" x1="841" x2="1035" y1="703" y2="703"/>
        <line style="stroke: #A80036; stroke-width: 1.5;" x1="841" x2="1035" y1="711" y2="711"/>
        <path d="M458,56.14 C458,71.83 458,93 458,111.55 " fill="none" style="stroke: #A80036; stroke-width: 1.0; stroke-dasharray: 7.0,7.0;"/>
        <polygon fill="#A80036" points="458,116.71,462,107.71,458,111.71,454,107.71,458,116.71" style="stroke: #A80036; stroke-width: 1.0;"/>
        <path d="M516.58,191.09 C544.94,208.56 579.5,229.85 610.62,249.02 " fill="none" style="stroke: #A80036; stroke-width: 1.0; stroke-dasharray: 7.0,7.0;"/>
        <polygon fill="#A80036" points="615.19,251.83,609.6336,243.6982,610.9356,249.2031,605.4307,250.5052,615.19,251.83" style="stroke: #A80036; stroke-width: 1.0;"/>
        <path d="M442.15,191.2 C404.53,277.11 309.15,494.95 257.14,613.74 " fill="none" style="stroke: #A80036; stroke-width: 1.0; stroke-dasharray: 7.0,7.0;"/>
        <polygon fill="#A80036" points="255,618.63,262.2818,611.9986,257.0108,614.0522,254.9572,608.7812,255,618.63" style="stroke: #A80036; stroke-width: 1.0;"/>
        <path d="M943.73,529.53 C986.87,549.5 1028.86,578.19 1054,619 C1089.43,676.52 1097,718.9 1054,771 C1048.89,777.2 622.91,856.86 414,895.61 " fill="none" style="stroke: #A80036; stroke-width: 1.0; stroke-dasharray: 7.0,7.0;"/>
        <polygon fill="#A80036" points="408.8,896.57,418.3798,898.8563,413.7157,895.6555,416.9165,890.9913,408.8,896.57" style="stroke: #A80036; stroke-width: 1.0;"/>
        <path d="M943.92,508.63 C1016.9,522.64 1093.08,543.54 1115,572 C1181.72,658.61 1179.13,729.45 1115,818 C1075.99,871.87 1006.56,896.81 944.31,908.13 " fill="none" style="stroke: #A80036; stroke-width: 1.0; stroke-dasharray: 7.0,7.0;"/>
        <polygon fill="#A80036" points="939.08,909.05,948.639,911.4219,944.0036,908.1794,947.2461,903.5441,939.08,909.05" style="stroke: #A80036; stroke-width: 1.0;"/>
        <path d="M750.27,542.11 C722.75,579.67 687.3,628.06 663.9,660.01 " fill="none" style="stroke: #A80036; stroke-width: 1.0; stroke-dasharray: 7.0,7.0;"/>
        <polygon fill="#A80036" points="660.82,664.21,669.3506,659.2876,663.7626,660.1676,662.8826,654.5796,660.82,664.21" style="stroke: #A80036; stroke-width: 1.0;"/>
        <path d="M720.98,352.12 C732.74,374.36 746.76,400.86 759.16,424.29 " fill="none" style="stroke: #A80036; stroke-width: 1.0;"/>
        <polygon fill="#A80036" points="761.61,428.94,760.9488,419.1134,759.2771,424.5176,753.8729,422.8459,761.61,428.94" style="stroke: #A80036; stroke-width: 1.0;"/>
        <text fill="#000000" font-family="sans-serif" font-size="13" lengthAdjust="spacingAndGlyphs" textLength="42" x="744" y="395.5684">possui</text>
        <polygon fill="#000000" points="760.5,404.3105,763.5,410.3105,766.5,404.3105,760.5,404.3105" style="stroke: #000000; stroke-width: 1.0;"/>
        <text fill="#000000" font-family="sans-serif" font-size="13" lengthAdjust="spacingAndGlyphs" textLength="8" x="715.9336" y="372.464">1</text>
        <text fill="#000000" font-family="sans-serif" font-size="13" lengthAdjust="spacingAndGlyphs" textLength="6" x="751.46" y="418.335">*</text>
        <path d="M638.52,542.11 C575.35,565.14 501.02,592.25 432.77,617.14 " fill="none" style="stroke: #A80036; stroke-width: 1.0;"/>
        <polygon fill="#A80036" points="427.87,618.92,437.6964,619.5843,432.5656,617.2021,434.9478,612.0713,427.87,618.92" style="stroke: #A80036; stroke-width: 1.0;"/>
        <polygon fill="#000000" points="548,579.1553,542,582.1553,548,585.1553,548,579.1553" style="stroke: #000000; stroke-width: 1.0;"/>
        <text fill="#000000" font-family="sans-serif" font-size="13" lengthAdjust="spacingAndGlyphs" textLength="93" x="554" y="585.5684">tem registadas</text>
        <text fill="#000000" font-family="sans-serif" font-size="13" lengthAdjust="spacingAndGlyphs" textLength="8" x="622.4515" y="542.2244">1</text>
        <text fill="#000000" font-family="sans-serif" font-size="13" lengthAdjust="spacingAndGlyphs" textLength="6" x="441.84" y="608.2939">*</text>
        <path d="M211.52,771.28 C211.69,787.06 213.7,803.36 219,818 C222.16,826.74 226.47,835.25 231.48,843.37 " fill="none" style="stroke: #A80036; stroke-width: 1.0;"/>
        <polygon fill="#A80036" points="234.33,847.84,232.8813,838.0983,231.6493,843.6193,226.1282,842.3874,234.33,847.84" style="stroke: #A80036; stroke-width: 1.0;"/>
        <text fill="#000000" font-family="sans-serif" font-size="13" lengthAdjust="spacingAndGlyphs" textLength="24" x="220" y="814.5684">tem</text>
        <polygon fill="#000000" points="227.5,823.3105,230.5,829.3105,233.5,823.3105,227.5,823.3105" style="stroke: #000000; stroke-width: 1.0;"/>
        <text fill="#000000" font-family="sans-serif" font-size="13" lengthAdjust="spacingAndGlyphs" textLength="8" x="202.2304" y="791.3398">1</text>
        <text fill="#000000" font-family="sans-serif" font-size="13" lengthAdjust="spacingAndGlyphs" textLength="22" x="204.3203" y="837.4835">1..*</text>
        <path d="M250.97,771.01 C254.74,781.07 258.51,791.27 262,801 C266.88,814.6 271.94,829.16 276.72,843.21 " fill="none" style="stroke: #A80036; stroke-width: 1.0;"/>
        <polygon fill="#A80036" points="278.33,847.95,279.2078,838.1403,276.7146,843.2181,271.6368,840.725,278.33,847.95" style="stroke: #A80036; stroke-width: 1.0;"/>
        <text fill="#000000" font-family="sans-serif" font-size="13" lengthAdjust="spacingAndGlyphs" textLength="68" x="269" y="814.5684">tem gestor</text>
        <polygon fill="#000000" points="298.5,823.3105,301.5,829.3105,304.5,823.3105,298.5,823.3105" style="stroke: #000000; stroke-width: 1.0;"/>
        <text fill="#000000" font-family="sans-serif" font-size="13" lengthAdjust="spacingAndGlyphs" textLength="8" x="245.2719" y="791.3078">1</text>
        <text fill="#000000" font-family="sans-serif" font-size="13" lengthAdjust="spacingAndGlyphs" textLength="8" x="267.413" y="837.1252">1</text>
        <path d="M424,771.11 C510.55,803.29 609.08,839.93 685.59,868.38 " fill="none" style="stroke: #A80036; stroke-width: 1.0;"/>
        <polygon fill="#A80036" points="690.59,870.24,683.5491,863.3534,685.9037,868.4969,680.7601,870.8515,690.59,870.24" style="stroke: #A80036; stroke-width: 1.0;"/>
        <text fill="#000000" font-family="sans-serif" font-size="13" lengthAdjust="spacingAndGlyphs" textLength="86" x="537" y="814.5684">localizada em</text>
        <polygon fill="#000000" points="626,808.1553,632,811.1553,626,814.1553,626,808.1553" style="stroke: #000000; stroke-width: 1.0;"/>
        <text fill="#000000" font-family="sans-serif" font-size="13" lengthAdjust="spacingAndGlyphs" textLength="8" x="433.6344" y="791.1547">1</text>
        <text fill="#000000" font-family="sans-serif" font-size="13" lengthAdjust="spacingAndGlyphs" textLength="8" x="675.1663" y="864.6567">1</text>
        <path d="M830.39,542.11 C858.96,582.43 896.36,635.23 918.71,666.77 " fill="none" style="stroke: #A80036; stroke-width: 1.0;"/>
        <polygon fill="#A80036" points="921.63,670.89,919.6891,661.2343,918.7387,666.8107,913.1623,665.8603,921.63,670.89" style="stroke: #A80036; stroke-width: 1.0;"/>
        <polygon fill="#000000" points="862,579,865,585,868,579,862,579" style="stroke: #000000; stroke-width: 1.0;"/>
        <!--
@startuml
skinparam classAttributeIconSize 0

class Colaborador {
  -String nome
  -String funcao
  -String telefone
  -String email
  +Colaborador(nome,função,tlf, email)
  +String getNome()
  +String getEmail()
}

class EnderecoPostal {
  -String local
  -String codPostal
  -String localidade
  +EnderecoPostal(local,codPostal,localidade)
}

class Organizacao {
  -String nome
  -String NIF
  -String website
  -String telefone
  -String email
  +Organizacao(nome, NIF,webSite,telefone, email,endereco,gestorColaborador)
  +{static} EnderecoPostal novoEndereco(local,codPostal,localidade)
  +{static} Colaborador novoColaborador(nome,funcao,tlf, email)
}

class RegistoOrganizacao{
   +novaOrganizacao(nome,NIF,endLocal,endCodPostal,\nendLocalidade,tlf,site,email,nomeG,função,tlfG, emailG)
   +registaOrganizacao(org)
   +validaOrganizacao(org)
   +addOrganizacao(org)
}

class Plataforma {
  -String designacao
  +getRegistoOrganizacao()
  +validaOrganizacao(Organizacao org)
  +getAlgoritmoGeradorPWD()
}

class AutorizacaoFacade {
   +registaUtilizadorComPapeis(nomeG,emailG,pwd,listaPapel)
}

class RegistarOrganizacaoController {
    +novaOrganizacao(nome,NIF,endLocal,endCodPostal,endLocalidade,tlf,site,email,nomeG,função,tlfG, emailG)
    +registaOrganizacao()
}

class RegistarOrganizacaoUI {
}

interface AlgoritmoGeradorPasswords{
}

RegistarOrganizacaoUI ..> RegistarOrganizacaoController
RegistarOrganizacaoController ..> Plataforma
RegistarOrganizacaoController ..> Organizacao
RegistoOrganizacao ..> Colaborador
RegistoOrganizacao ..> EnderecoPostal
RegistoOrganizacao ..> AutorizacaoFacade
Plataforma "1" - -> "*" RegistoOrganizacao : possui >
RegistoOrganizacao "1" - -> "*" Organizacao : tem registadas >
Organizacao "1" - -> "1..*" Colaborador: tem >
Organizacao "1" - -> "1" Colaborador: tem gestor >
Organizacao "1" - -> "1" EnderecoPostal: localizada em >
RegistoOrganizacao - -> AlgoritmoGeradorPasswords: > 

@enduml

PlantUML version 2017.11(Wed Apr 19 17:18:59 WEST 2017)
(GPL source distribution)
Java Runtime: Java(TM) SE Runtime Environment
JVM: Java HotSpot(TM) 64-Bit Server VM
Java Version: 1.8.0_111-b14
Operating System: Mac OS X
OS Version: 10.15
Default Encoding: UTF-8
Language: pt
Country: PT
-->
    </g>
</svg>
