@startuml

skinparam classAttributeIconSize 0
hide methods
left to right direction
skinparam linetype polyline

class Plataforma {
  -String designacao
}

class Organizacao {
  -String nome
  -String NIF
  -String website
  -String telefone
  -String email
}

class Colaborador {
  -String nome
  -String funcao
  -String telefone
  -String email
}

class TipoRegimento{
    -String designacao
    -String descricaoRegras
}

class Freelancer {
    -String nome
    -String NIF
    -String telefone
    -String email
}

class Tarefa {
  -String referencia
  -String designacao
  -String descInformal
  -String descTecnica
  -Integer duracaoEst
  -Double custoEst
}

class Anuncio{
    -String anuncioId
    -Date dtInicioPublicitacao
    -Date dtFimPublicitacao
    -Date dtInicioCandidatura
    -Date dtFimCandidatura
    -Date dtInicioSeriacao
    -Date dtFimSeriacao
    -long periodo
}

class Candidatura{
    -Date dataCandidatura
    -Double valorPretendido
    -Integer nrDias
    -String txtApresentacao
    -String txtMotivacao
}

class Classificacao{
    -Integer lugar
    -String justificacao
}

class ProcessoSeriacao{
    -Date dataRealizacao
    -String textoConclusao
}

class Adjudicacao{
    -Integer numSequencial
    -Date DataAdjudicacao
    -String descTarefa
    -Integer periodoReali
    -Double valorRemu
    -String anuncioId
}


Plataforma "1" -- "*" Organizacao : tem registada >
Plataforma "1" -- "*" TipoRegimento : suporta >
Plataforma "1" -- "*" Anuncio : publicita >
Plataforma "1" -- "*" Freelancer : tem/usa  >
Plataforma "1" -- "*" Adjudicacao : regista >

Organizacao "1" -- "1..*" Colaborador: tem >

Tarefa "*" -- "1" Colaborador: especificada por >

Anuncio "*" -- "1" Colaborador: publicado por >
Anuncio "1" -- "*" Candidatura: recebe >
Anuncio "1" -- "0..1" ProcessoSeriacao: agenda >
Anuncio "1" -- "0..1" ProcessoSeriacao: espoleta >
Anuncio "0..1" -- "1" Tarefa: publicita >
Anuncio "0..1" -- "1" Tarefa: dá origem <
Anuncio "*" -- "1" TipoRegimento: rege-se por >

Candidatura "*" -- "1"  Freelancer: realizada por >

ProcessoSeriacao "*" -- "1" TipoRegimento: decorre em concordância com >
ProcessoSeriacao "1" -- "1..*" Colaborador: realizado por >
ProcessoSeriacao "1" -- "*" Classificacao: resulta >
ProcessoSeriacao "*" -- "1" Adjudicacao: resulta >

Classificacao "0..1" -- "1" Candidatura: referente a >
Classificacao "*" -- "1" Adjudicacao: leva a >

Adjudicacao "*" -- "1" Organizacao: contém >
Adjudicacao "*" -- "1" Anuncio: referencia um >
Adjudicacao "*" -- "1" Freelancer: contém >

@enduml