<?xml version="1.0" encoding="UTF-8"?><svg xmlns="http://www.w3.org/2000/svg" xmlns:xlink="http://www.w3.org/1999/xlink" contentScriptType="application/ecmascript" contentStyleType="text/css" height="391px" preserveAspectRatio="none" style="width:512px;height:391px;" version="1.1" viewBox="0 0 512 391" width="512px" zoomAndPan="magnify">
    <defs>
        <filter height="300%" id="f16uhlk2xurj67" width="300%" x="-1" y="-1">
            <feGaussianBlur result="blurOut" stdDeviation="2.0"/>
            <feColorMatrix in="blurOut" result="blurOut2" type="matrix" values="0 0 0 0 0 0 0 0 0 0 0 0 0 0 0 0 0 0 .4 0"/>
            <feOffset dx="4.0" dy="4.0" in="blurOut2" result="blurOut3"/>
            <feBlend in="SourceGraphic" in2="blurOut3" mode="normal"/>
        </filter>
    </defs>
    <g>
        <rect fill="#FFFFFF" filter="url(#f16uhlk2xurj67)" height="199.4609" style="stroke: #A80036; stroke-width: 1.0;" width="10" x="97.5" y="97.6094"/>
        <rect fill="#FFFFFF" filter="url(#f16uhlk2xurj67)" height="30.3516" style="stroke: #A80036; stroke-width: 1.0;" width="10" x="466.5" y="119.6094"/>
        <rect fill="#FFFFFF" filter="url(#f16uhlk2xurj67)" height="46.3516" style="stroke: #A80036; stroke-width: 1.0;" width="10" x="466.5" y="180.3125"/>
        <rect fill="#FFFFFF" filter="url(#f16uhlk2xurj67)" height="30.3516" style="stroke: #A80036; stroke-width: 1.0;" width="10" x="466.5" y="257.3672"/>
        <line style="stroke: #A80036; stroke-width: 1.0; stroke-dasharray: 5.0,5.0;" x1="102" x2="102" y1="87.6094" y2="306.0703"/>
        <line style="stroke: #A80036; stroke-width: 1.0; stroke-dasharray: 5.0,5.0;" x1="471.5" x2="471.5" y1="87.6094" y2="306.0703"/>
        <text fill="#000000" font-family="sans-serif" font-size="14" lengthAdjust="spacingAndGlyphs" textLength="183" x="8" y="84.5332">Colaborador de Organização</text>
        <ellipse cx="102.5" cy="13" fill="#FEFECE" filter="url(#f16uhlk2xurj67)" rx="8" ry="8" style="stroke: #A80036; stroke-width: 2.0;"/>
        <path d="M102.5,21 L102.5,48 M89.5,29 L115.5,29 M102.5,48 L89.5,63 M102.5,48 L115.5,63 " fill="#FEFECE" filter="url(#f16uhlk2xurj67)" style="stroke: #A80036; stroke-width: 2.0;"/>
        <text fill="#000000" font-family="sans-serif" font-size="14" lengthAdjust="spacingAndGlyphs" textLength="183" x="8" y="319.6035">Colaborador de Organização</text>
        <ellipse cx="102.5" cy="332.6797" fill="#FEFECE" filter="url(#f16uhlk2xurj67)" rx="8" ry="8" style="stroke: #A80036; stroke-width: 2.0;"/>
        <path d="M102.5,340.6797 L102.5,367.6797 M89.5,348.6797 L115.5,348.6797 M102.5,367.6797 L89.5,382.6797 M102.5,367.6797 L115.5,382.6797 " fill="#FEFECE" filter="url(#f16uhlk2xurj67)" style="stroke: #A80036; stroke-width: 2.0;"/>
        <rect fill="#FEFECE" filter="url(#f16uhlk2xurj67)" height="31.6094" style="stroke: #A80036; stroke-width: 1.5;" width="68" x="435.5" y="51"/>
        <text fill="#000000" font-family="sans-serif" font-size="14" lengthAdjust="spacingAndGlyphs" textLength="54" x="442.5" y="72.5332">:Sistema</text>
        <rect fill="#FEFECE" filter="url(#f16uhlk2xurj67)" height="31.6094" style="stroke: #A80036; stroke-width: 1.5;" width="68" x="435.5" y="305.0703"/>
        <text fill="#000000" font-family="sans-serif" font-size="14" lengthAdjust="spacingAndGlyphs" textLength="54" x="442.5" y="326.6035">:Sistema</text>
        <rect fill="#FFFFFF" filter="url(#f16uhlk2xurj67)" height="199.4609" style="stroke: #A80036; stroke-width: 1.0;" width="10" x="97.5" y="97.6094"/>
        <rect fill="#FFFFFF" filter="url(#f16uhlk2xurj67)" height="30.3516" style="stroke: #A80036; stroke-width: 1.0;" width="10" x="466.5" y="119.6094"/>
        <rect fill="#FFFFFF" filter="url(#f16uhlk2xurj67)" height="46.3516" style="stroke: #A80036; stroke-width: 1.0;" width="10" x="466.5" y="180.3125"/>
        <rect fill="#FFFFFF" filter="url(#f16uhlk2xurj67)" height="30.3516" style="stroke: #A80036; stroke-width: 1.0;" width="10" x="466.5" y="257.3672"/>
        <polygon fill="#A80036" points="454.5,115.6094,464.5,119.6094,454.5,123.6094,458.5,119.6094" style="stroke: #A80036; stroke-width: 1.0;"/>
        <line style="stroke: #A80036; stroke-width: 1.0;" x1="107.5" x2="460.5" y1="119.6094" y2="119.6094"/>
        <text fill="#000000" font-family="sans-serif" font-size="13" font-weight="bold" lengthAdjust="spacingAndGlyphs" textLength="7" x="114.5" y="115.1045">1</text>
        <text fill="#000000" font-family="sans-serif" font-size="13" lengthAdjust="spacingAndGlyphs" textLength="105" x="125.5" y="115.1045">Adjudicar Anuncio</text>
        <polygon fill="#A80036" points="118.5,145.9609,108.5,149.9609,118.5,153.9609,114.5,149.9609" style="stroke: #A80036; stroke-width: 1.0;"/>
        <line style="stroke: #A80036; stroke-width: 1.0; stroke-dasharray: 2.0,2.0;" x1="112.5" x2="470.5" y1="149.9609" y2="149.9609"/>
        <text fill="#000000" font-family="sans-serif" font-size="13" font-weight="bold" lengthAdjust="spacingAndGlyphs" textLength="7" x="124.5" y="145.4561">2</text>
        <text fill="#000000" font-family="sans-serif" font-size="13" lengthAdjust="spacingAndGlyphs" textLength="254" x="135.5" y="145.4561">Lista de anuncios disponiveis para adjudicar</text>
        <polygon fill="#A80036" points="454.5,176.3125,464.5,180.3125,454.5,184.3125,458.5,180.3125" style="stroke: #A80036; stroke-width: 1.0;"/>
        <line style="stroke: #A80036; stroke-width: 1.0;" x1="107.5" x2="460.5" y1="180.3125" y2="180.3125"/>
        <text fill="#000000" font-family="sans-serif" font-size="13" font-weight="bold" lengthAdjust="spacingAndGlyphs" textLength="7" x="114.5" y="175.8076">3</text>
        <text fill="#000000" font-family="sans-serif" font-size="13" lengthAdjust="spacingAndGlyphs" textLength="128" x="125.5" y="175.8076">Seleciona um anuncio</text>
        <polygon fill="#A80036" points="118.5,222.6641,108.5,226.6641,118.5,230.6641,114.5,226.6641" style="stroke: #A80036; stroke-width: 1.0;"/>
        <line style="stroke: #A80036; stroke-width: 1.0; stroke-dasharray: 2.0,2.0;" x1="112.5" x2="470.5" y1="226.6641" y2="226.6641"/>
        <text fill="#000000" font-family="sans-serif" font-size="13" font-weight="bold" lengthAdjust="spacingAndGlyphs" textLength="7" x="124.5" y="214.335">4</text>
        <text fill="#000000" font-family="sans-serif" font-size="13" lengthAdjust="spacingAndGlyphs" textLength="324" x="135.5" y="206.1592">Aprensenta candidato a atribuir e a informação relevante</text>
        <text fill="#000000" font-family="sans-serif" font-size="13" lengthAdjust="spacingAndGlyphs" textLength="126" x="139.5" y="222.5107">e solicita confirmação</text>
        <polygon fill="#A80036" points="454.5,253.3672,464.5,257.3672,454.5,261.3672,458.5,257.3672" style="stroke: #A80036; stroke-width: 1.0;"/>
        <line style="stroke: #A80036; stroke-width: 1.0;" x1="107.5" x2="460.5" y1="257.3672" y2="257.3672"/>
        <text fill="#000000" font-family="sans-serif" font-size="13" font-weight="bold" lengthAdjust="spacingAndGlyphs" textLength="7" x="114.5" y="252.8623">5</text>
        <text fill="#000000" font-family="sans-serif" font-size="13" lengthAdjust="spacingAndGlyphs" textLength="51" x="125.5" y="252.8623">Confirma</text>
        <polygon fill="#A80036" points="118.5,283.7188,108.5,287.7188,118.5,291.7188,114.5,287.7188" style="stroke: #A80036; stroke-width: 1.0;"/>
        <line style="stroke: #A80036; stroke-width: 1.0; stroke-dasharray: 2.0,2.0;" x1="112.5" x2="470.5" y1="287.7188" y2="287.7188"/>
        <text fill="#000000" font-family="sans-serif" font-size="13" font-weight="bold" lengthAdjust="spacingAndGlyphs" textLength="7" x="124.5" y="283.2139">6</text>
        <text fill="#000000" font-family="sans-serif" font-size="13" lengthAdjust="spacingAndGlyphs" textLength="192" x="135.5" y="283.2139">Informa do sucesso da operação.</text>
        <!--
@startuml
autonumber
actor "Colaborador de Organização" as CLB

activate CLB
CLB -> ":Sistema" : Adjudicar Anuncio
activate ":Sistema"
":Sistema" - -> CLB : Lista de anuncios disponiveis para adjudicar
deactivate ":Sistema"
CLB -> ":Sistema" :  Seleciona um anuncio
activate ":Sistema"
":Sistema" - -> CLB : Aprensenta candidato a atribuir e a informação relevante\n e solicita confirmação
deactivate ":Sistema"
CLB -> ":Sistema" : Confirma
activate ":Sistema"
":Sistema" - -> CLB : Informa do sucesso da operação.
deactivate ":Sistema"



@enduml

PlantUML version 2017.11(Wed Apr 19 17:18:59 BST 2017)
(GPL source distribution)
Java Runtime: Java(TM) SE Runtime Environment
JVM: Java HotSpot(TM) 64-Bit Server VM
Java Version: 1.8.0_111-b14
Operating System: Windows 10
OS Version: 10.0
Default Encoding: UTF-8
Language: en
Country: US
-->
    </g>
</svg>
