<?xml version="1.0" encoding="UTF-8"?><svg xmlns="http://www.w3.org/2000/svg" xmlns:xlink="http://www.w3.org/1999/xlink" contentScriptType="application/ecmascript" contentStyleType="text/css" height="601px" preserveAspectRatio="none" style="width:2876px;height:601px;" version="1.1" viewBox="0 0 2876 601" width="2876px" zoomAndPan="magnify">
    <defs>
        <filter height="300%" id="f1qi7a7o1p16dd" width="300%" x="-1" y="-1">
            <feGaussianBlur result="blurOut" stdDeviation="2.0"/>
            <feColorMatrix in="blurOut" result="blurOut2" type="matrix" values="0 0 0 0 0 0 0 0 0 0 0 0 0 0 0 0 0 0 .4 0"/>
            <feOffset dx="4.0" dy="4.0" in="blurOut2" result="blurOut3"/>
            <feBlend in="SourceGraphic" in2="blurOut3" mode="normal"/>
        </filter>
    </defs>
    <g>
        <!--class AdjudicarAnuncioUI-->
        <rect fill="#FEFECE" filter="url(#f1qi7a7o1p16dd)" height="48" style="stroke: #A80036; stroke-width: 1.5;" width="139" x="6" y="398.5"/>
        <ellipse cx="21" cy="414.5" fill="#ADD1B2" rx="11" ry="11" style="stroke: #A80036; stroke-width: 1.0;"/>
        <path d="M23.7656,410.375 Q23.9219,410.1563 24.1094,410.0469 Q24.2969,409.9375 24.5156,409.9375 Q24.8906,409.9375 25.125,410.1953 Q25.3594,410.4531 25.3594,411.0625 L25.3594,412.5156 Q25.3594,413.125 25.125,413.3906 Q24.8906,413.6563 24.5156,413.6563 Q24.1719,413.6563 23.9688,413.4531 Q23.7656,413.2656 23.6563,412.75 Q23.6094,412.3906 23.4219,412.2031 Q23.0938,411.8281 22.4844,411.6094 Q21.875,411.3906 21.25,411.3906 Q20.4844,411.3906 19.8516,411.7188 Q19.2188,412.0469 18.7266,412.7969 Q18.2344,413.5469 18.2344,414.5781 L18.2344,415.6719 Q18.2344,416.9063 19.125,417.7266 Q20.0156,418.5469 21.6094,418.5469 Q22.5469,418.5469 23.2031,418.2969 Q23.5938,418.1406 24.0156,417.7031 Q24.2813,417.4375 24.4297,417.3594 Q24.5781,417.2813 24.7813,417.2813 Q25.1094,417.2813 25.3672,417.5391 Q25.625,417.7969 25.625,418.1406 Q25.625,418.4844 25.2813,418.8906 Q24.7813,419.4688 23.9844,419.7969 Q22.9063,420.25 21.6094,420.25 Q20.0938,420.25 18.8906,419.625 Q17.9063,419.125 17.2188,418.0547 Q16.5313,416.9844 16.5313,415.7031 L16.5313,414.5469 Q16.5313,413.2188 17.1484,412.0703 Q17.7656,410.9219 18.8594,410.3047 Q19.9531,409.6875 21.1875,409.6875 Q21.9219,409.6875 22.5703,409.8516 Q23.2188,410.0156 23.7656,410.375 Z "/>
        <text fill="#000000" font-family="sans-serif" font-size="12" lengthAdjust="spacingAndGlyphs" textLength="107" x="35" y="419.4102">AdjudicarAnuncioUI</text>
        <line style="stroke: #A80036; stroke-width: 1.5;" x1="7" x2="144" y1="430.5" y2="430.5"/>
        <line style="stroke: #A80036; stroke-width: 1.5;" x1="7" x2="144" y1="438.5" y2="438.5"/>
        <!--class AdjudicarAnuncioController-->
        <rect fill="#FEFECE" filter="url(#f1qi7a7o1p16dd)" height="89.5078" style="stroke: #A80036; stroke-width: 1.5;" width="181" x="206" y="377.5"/>
        <ellipse cx="221" cy="393.5" fill="#ADD1B2" rx="11" ry="11" style="stroke: #A80036; stroke-width: 1.0;"/>
        <path d="M223.7656,389.375 Q223.9219,389.1563 224.1094,389.0469 Q224.2969,388.9375 224.5156,388.9375 Q224.8906,388.9375 225.125,389.1953 Q225.3594,389.4531 225.3594,390.0625 L225.3594,391.5156 Q225.3594,392.125 225.125,392.3906 Q224.8906,392.6563 224.5156,392.6563 Q224.1719,392.6563 223.9688,392.4531 Q223.7656,392.2656 223.6563,391.75 Q223.6094,391.3906 223.4219,391.2031 Q223.0938,390.8281 222.4844,390.6094 Q221.875,390.3906 221.25,390.3906 Q220.4844,390.3906 219.8516,390.7188 Q219.2188,391.0469 218.7266,391.7969 Q218.2344,392.5469 218.2344,393.5781 L218.2344,394.6719 Q218.2344,395.9063 219.125,396.7266 Q220.0156,397.5469 221.6094,397.5469 Q222.5469,397.5469 223.2031,397.2969 Q223.5938,397.1406 224.0156,396.7031 Q224.2813,396.4375 224.4297,396.3594 Q224.5781,396.2813 224.7813,396.2813 Q225.1094,396.2813 225.3672,396.5391 Q225.625,396.7969 225.625,397.1406 Q225.625,397.4844 225.2813,397.8906 Q224.7813,398.4688 223.9844,398.7969 Q222.9063,399.25 221.6094,399.25 Q220.0938,399.25 218.8906,398.625 Q217.9063,398.125 217.2188,397.0547 Q216.5313,395.9844 216.5313,394.7031 L216.5313,393.5469 Q216.5313,392.2188 217.1484,391.0703 Q217.7656,389.9219 218.8594,389.3047 Q219.9531,388.6875 221.1875,388.6875 Q221.9219,388.6875 222.5703,388.8516 Q223.2188,389.0156 223.7656,389.375 Z "/>
        <text fill="#000000" font-family="sans-serif" font-size="12" lengthAdjust="spacingAndGlyphs" textLength="149" x="235" y="398.4102">AdjudicarAnuncioController</text>
        <line style="stroke: #A80036; stroke-width: 1.5;" x1="207" x2="386" y1="409.5" y2="409.5"/>
        <line style="stroke: #A80036; stroke-width: 1.5;" x1="207" x2="386" y1="417.5" y2="417.5"/>
        <text fill="#000000" font-family="sans-serif" font-size="11" lengthAdjust="spacingAndGlyphs" textLength="154" x="212" y="432.9189">+getListAnunciosPorAdjudicar()</text>
        <text fill="#000000" font-family="sans-serif" font-size="11" lengthAdjust="spacingAndGlyphs" textLength="169" x="212" y="446.7549">+getCandidatoAdjudicar(anuncioId)</text>
        <text fill="#000000" font-family="sans-serif" font-size="11" lengthAdjust="spacingAndGlyphs" textLength="122" x="212" y="460.5908">+adjudicarAnuncio(cand)</text>
        <!--class Plataforma-->
        <rect fill="#FEFECE" filter="url(#f1qi7a7o1p16dd)" height="89.5078" style="stroke: #A80036; stroke-width: 1.5;" width="145" x="448" y="377.5"/>
        <ellipse cx="486.85" cy="393.5" fill="#ADD1B2" rx="11" ry="11" style="stroke: #A80036; stroke-width: 1.0;"/>
        <path d="M489.6156,389.375 Q489.7719,389.1563 489.9594,389.0469 Q490.1469,388.9375 490.3656,388.9375 Q490.7406,388.9375 490.975,389.1953 Q491.2094,389.4531 491.2094,390.0625 L491.2094,391.5156 Q491.2094,392.125 490.975,392.3906 Q490.7406,392.6563 490.3656,392.6563 Q490.0219,392.6563 489.8188,392.4531 Q489.6156,392.2656 489.5063,391.75 Q489.4594,391.3906 489.2719,391.2031 Q488.9438,390.8281 488.3344,390.6094 Q487.725,390.3906 487.1,390.3906 Q486.3344,390.3906 485.7016,390.7188 Q485.0688,391.0469 484.5766,391.7969 Q484.0844,392.5469 484.0844,393.5781 L484.0844,394.6719 Q484.0844,395.9063 484.975,396.7266 Q485.8656,397.5469 487.4594,397.5469 Q488.3969,397.5469 489.0531,397.2969 Q489.4438,397.1406 489.8656,396.7031 Q490.1313,396.4375 490.2797,396.3594 Q490.4281,396.2813 490.6313,396.2813 Q490.9594,396.2813 491.2172,396.5391 Q491.475,396.7969 491.475,397.1406 Q491.475,397.4844 491.1313,397.8906 Q490.6313,398.4688 489.8344,398.7969 Q488.7563,399.25 487.4594,399.25 Q485.9438,399.25 484.7406,398.625 Q483.7563,398.125 483.0688,397.0547 Q482.3813,395.9844 482.3813,394.7031 L482.3813,393.5469 Q482.3813,392.2188 482.9984,391.0703 Q483.6156,389.9219 484.7094,389.3047 Q485.8031,388.6875 487.0375,388.6875 Q487.7719,388.6875 488.4203,388.8516 Q489.0688,389.0156 489.6156,389.375 Z "/>
        <text fill="#000000" font-family="sans-serif" font-size="12" lengthAdjust="spacingAndGlyphs" textLength="60" x="506.15" y="398.4102">Plataforma</text>
        <line style="stroke: #A80036; stroke-width: 1.5;" x1="449" x2="592" y1="409.5" y2="409.5"/>
        <line style="stroke: #A80036; stroke-width: 1.5;" x1="449" x2="592" y1="417.5" y2="417.5"/>
        <text fill="#000000" font-family="sans-serif" font-size="11" lengthAdjust="spacingAndGlyphs" textLength="133" x="454" y="432.9189">+getRegistoOrganizacoes()</text>
        <text fill="#000000" font-family="sans-serif" font-size="11" lengthAdjust="spacingAndGlyphs" textLength="111" x="454" y="446.7549">+getRegistoAnuncios()</text>
        <text fill="#000000" font-family="sans-serif" font-size="11" lengthAdjust="spacingAndGlyphs" textLength="125" x="454" y="460.5908">+getRegistoAdjudicacao()</text>
        <!--class RegistoOrganizacoes-->
        <rect fill="#FEFECE" filter="url(#f1qi7a7o1p16dd)" height="61.8359" style="stroke: #A80036; stroke-width: 1.5;" width="208" x="677" y="391.5"/>
        <ellipse cx="717.65" cy="407.5" fill="#ADD1B2" rx="11" ry="11" style="stroke: #A80036; stroke-width: 1.0;"/>
        <path d="M720.4156,403.375 Q720.5719,403.1563 720.7594,403.0469 Q720.9469,402.9375 721.1656,402.9375 Q721.5406,402.9375 721.775,403.1953 Q722.0094,403.4531 722.0094,404.0625 L722.0094,405.5156 Q722.0094,406.125 721.775,406.3906 Q721.5406,406.6563 721.1656,406.6563 Q720.8219,406.6563 720.6188,406.4531 Q720.4156,406.2656 720.3063,405.75 Q720.2594,405.3906 720.0719,405.2031 Q719.7438,404.8281 719.1344,404.6094 Q718.525,404.3906 717.9,404.3906 Q717.1344,404.3906 716.5016,404.7188 Q715.8688,405.0469 715.3766,405.7969 Q714.8844,406.5469 714.8844,407.5781 L714.8844,408.6719 Q714.8844,409.9063 715.775,410.7266 Q716.6656,411.5469 718.2594,411.5469 Q719.1969,411.5469 719.8531,411.2969 Q720.2438,411.1406 720.6656,410.7031 Q720.9313,410.4375 721.0797,410.3594 Q721.2281,410.2813 721.4313,410.2813 Q721.7594,410.2813 722.0172,410.5391 Q722.275,410.7969 722.275,411.1406 Q722.275,411.4844 721.9313,411.8906 Q721.4313,412.4688 720.6344,412.7969 Q719.5563,413.25 718.2594,413.25 Q716.7438,413.25 715.5406,412.625 Q714.5563,412.125 713.8688,411.0547 Q713.1813,409.9844 713.1813,408.7031 L713.1813,407.5469 Q713.1813,406.2188 713.7984,405.0703 Q714.4156,403.9219 715.5094,403.3047 Q716.6031,402.6875 717.8375,402.6875 Q718.5719,402.6875 719.2203,402.8516 Q719.8688,403.0156 720.4156,403.375 Z "/>
        <text fill="#000000" font-family="sans-serif" font-size="12" lengthAdjust="spacingAndGlyphs" textLength="119" x="737.35" y="412.4102">RegistoOrganizacoes</text>
        <line style="stroke: #A80036; stroke-width: 1.5;" x1="678" x2="884" y1="423.5" y2="423.5"/>
        <line style="stroke: #A80036; stroke-width: 1.5;" x1="678" x2="884" y1="431.5" y2="431.5"/>
        <text fill="#000000" font-family="sans-serif" font-size="11" lengthAdjust="spacingAndGlyphs" textLength="196" x="683" y="446.9189">+getOrganizacaoByEmailUtilizador(email)</text>
        <!--class Organizacao-->
        <rect fill="#FEFECE" filter="url(#f1qi7a7o1p16dd)" height="75.6719" style="stroke: #A80036; stroke-width: 1.5;" width="161" x="1306" y="384.5"/>
        <ellipse cx="1348" cy="400.5" fill="#ADD1B2" rx="11" ry="11" style="stroke: #A80036; stroke-width: 1.0;"/>
        <path d="M1350.7656,396.375 Q1350.9219,396.1563 1351.1094,396.0469 Q1351.2969,395.9375 1351.5156,395.9375 Q1351.8906,395.9375 1352.125,396.1953 Q1352.3594,396.4531 1352.3594,397.0625 L1352.3594,398.5156 Q1352.3594,399.125 1352.125,399.3906 Q1351.8906,399.6563 1351.5156,399.6563 Q1351.1719,399.6563 1350.9688,399.4531 Q1350.7656,399.2656 1350.6563,398.75 Q1350.6094,398.3906 1350.4219,398.2031 Q1350.0938,397.8281 1349.4844,397.6094 Q1348.875,397.3906 1348.25,397.3906 Q1347.4844,397.3906 1346.8516,397.7188 Q1346.2188,398.0469 1345.7266,398.7969 Q1345.2344,399.5469 1345.2344,400.5781 L1345.2344,401.6719 Q1345.2344,402.9063 1346.125,403.7266 Q1347.0156,404.5469 1348.6094,404.5469 Q1349.5469,404.5469 1350.2031,404.2969 Q1350.5938,404.1406 1351.0156,403.7031 Q1351.2813,403.4375 1351.4297,403.3594 Q1351.5781,403.2813 1351.7813,403.2813 Q1352.1094,403.2813 1352.3672,403.5391 Q1352.625,403.7969 1352.625,404.1406 Q1352.625,404.4844 1352.2813,404.8906 Q1351.7813,405.4688 1350.9844,405.7969 Q1349.9063,406.25 1348.6094,406.25 Q1347.0938,406.25 1345.8906,405.625 Q1344.9063,405.125 1344.2188,404.0547 Q1343.5313,402.9844 1343.5313,401.7031 L1343.5313,400.5469 Q1343.5313,399.2188 1344.1484,398.0703 Q1344.7656,396.9219 1345.8594,396.3047 Q1346.9531,395.6875 1348.1875,395.6875 Q1348.9219,395.6875 1349.5703,395.8516 Q1350.2188,396.0156 1350.7656,396.375 Z "/>
        <text fill="#000000" font-family="sans-serif" font-size="12" lengthAdjust="spacingAndGlyphs" textLength="69" x="1368" y="405.4102">Organizacao</text>
        <line style="stroke: #A80036; stroke-width: 1.5;" x1="1307" x2="1466" y1="416.5" y2="416.5"/>
        <line style="stroke: #A80036; stroke-width: 1.5;" x1="1307" x2="1466" y1="424.5" y2="424.5"/>
        <text fill="#000000" font-family="sans-serif" font-size="11" lengthAdjust="spacingAndGlyphs" textLength="123" x="1312" y="439.9189">+getListaColaboradores()</text>
        <text fill="#000000" font-family="sans-serif" font-size="11" lengthAdjust="spacingAndGlyphs" textLength="149" x="1312" y="453.7549">+getColaboradorByEmail(email)</text>
        <!--class RegistoAnuncios-->
        <rect fill="#FEFECE" filter="url(#f1qi7a7o1p16dd)" height="75.6719" style="stroke: #A80036; stroke-width: 1.5;" width="175" x="693.5" y="252.5"/>
        <ellipse cx="730.55" cy="268.5" fill="#ADD1B2" rx="11" ry="11" style="stroke: #A80036; stroke-width: 1.0;"/>
        <path d="M733.3156,264.375 Q733.4719,264.1563 733.6594,264.0469 Q733.8469,263.9375 734.0656,263.9375 Q734.4406,263.9375 734.675,264.1953 Q734.9094,264.4531 734.9094,265.0625 L734.9094,266.5156 Q734.9094,267.125 734.675,267.3906 Q734.4406,267.6563 734.0656,267.6563 Q733.7219,267.6563 733.5188,267.4531 Q733.3156,267.2656 733.2063,266.75 Q733.1594,266.3906 732.9719,266.2031 Q732.6438,265.8281 732.0344,265.6094 Q731.425,265.3906 730.8,265.3906 Q730.0344,265.3906 729.4016,265.7188 Q728.7688,266.0469 728.2766,266.7969 Q727.7844,267.5469 727.7844,268.5781 L727.7844,269.6719 Q727.7844,270.9063 728.675,271.7266 Q729.5656,272.5469 731.1594,272.5469 Q732.0969,272.5469 732.7531,272.2969 Q733.1438,272.1406 733.5656,271.7031 Q733.8313,271.4375 733.9797,271.3594 Q734.1281,271.2813 734.3313,271.2813 Q734.6594,271.2813 734.9172,271.5391 Q735.175,271.7969 735.175,272.1406 Q735.175,272.4844 734.8313,272.8906 Q734.3313,273.4688 733.5344,273.7969 Q732.4563,274.25 731.1594,274.25 Q729.6438,274.25 728.4406,273.625 Q727.4563,273.125 726.7688,272.0547 Q726.0813,270.9844 726.0813,269.7031 L726.0813,268.5469 Q726.0813,267.2188 726.6984,266.0703 Q727.3156,264.9219 728.4094,264.3047 Q729.5031,263.6875 730.7375,263.6875 Q731.4719,263.6875 732.1203,263.8516 Q732.7688,264.0156 733.3156,264.375 Z "/>
        <text fill="#000000" font-family="sans-serif" font-size="12" lengthAdjust="spacingAndGlyphs" textLength="94" x="749.45" y="273.4102">RegistoAnuncios</text>
        <line style="stroke: #A80036; stroke-width: 1.5;" x1="694.5" x2="867.5" y1="284.5" y2="284.5"/>
        <line style="stroke: #A80036; stroke-width: 1.5;" x1="694.5" x2="867.5" y1="292.5" y2="292.5"/>
        <text fill="#000000" font-family="sans-serif" font-size="11" lengthAdjust="spacingAndGlyphs" textLength="163" x="699.5" y="307.9189">+getAnunciosPorAdjudicar(colab)</text>
        <text fill="#000000" font-family="sans-serif" font-size="11" lengthAdjust="spacingAndGlyphs" textLength="115" x="699.5" y="321.7549">+getAnuncio(anuncioId)</text>
        <!--class Anuncio-->
        <rect fill="#FEFECE" filter="url(#f1qi7a7o1p16dd)" height="89.5078" style="stroke: #A80036; stroke-width: 1.5;" width="134" x="1319.5" y="159.5"/>
        <ellipse cx="1360.6" cy="175.5" fill="#ADD1B2" rx="11" ry="11" style="stroke: #A80036; stroke-width: 1.0;"/>
        <path d="M1363.3656,171.375 Q1363.5219,171.1563 1363.7094,171.0469 Q1363.8969,170.9375 1364.1156,170.9375 Q1364.4906,170.9375 1364.725,171.1953 Q1364.9594,171.4531 1364.9594,172.0625 L1364.9594,173.5156 Q1364.9594,174.125 1364.725,174.3906 Q1364.4906,174.6563 1364.1156,174.6563 Q1363.7719,174.6563 1363.5688,174.4531 Q1363.3656,174.2656 1363.2563,173.75 Q1363.2094,173.3906 1363.0219,173.2031 Q1362.6938,172.8281 1362.0844,172.6094 Q1361.475,172.3906 1360.85,172.3906 Q1360.0844,172.3906 1359.4516,172.7188 Q1358.8188,173.0469 1358.3266,173.7969 Q1357.8344,174.5469 1357.8344,175.5781 L1357.8344,176.6719 Q1357.8344,177.9063 1358.725,178.7266 Q1359.6156,179.5469 1361.2094,179.5469 Q1362.1469,179.5469 1362.8031,179.2969 Q1363.1938,179.1406 1363.6156,178.7031 Q1363.8813,178.4375 1364.0297,178.3594 Q1364.1781,178.2813 1364.3813,178.2813 Q1364.7094,178.2813 1364.9672,178.5391 Q1365.225,178.7969 1365.225,179.1406 Q1365.225,179.4844 1364.8813,179.8906 Q1364.3813,180.4688 1363.5844,180.7969 Q1362.5063,181.25 1361.2094,181.25 Q1359.6938,181.25 1358.4906,180.625 Q1357.5063,180.125 1356.8188,179.0547 Q1356.1313,177.9844 1356.1313,176.7031 L1356.1313,175.5469 Q1356.1313,174.2188 1356.7484,173.0703 Q1357.3656,171.9219 1358.4594,171.3047 Q1359.5531,170.6875 1360.7875,170.6875 Q1361.5219,170.6875 1362.1703,170.8516 Q1362.8188,171.0156 1363.3656,171.375 Z "/>
        <text fill="#000000" font-family="sans-serif" font-size="12" lengthAdjust="spacingAndGlyphs" textLength="44" x="1380.4" y="180.4102">Anuncio</text>
        <line style="stroke: #A80036; stroke-width: 1.5;" x1="1320.5" x2="1452.5" y1="191.5" y2="191.5"/>
        <line style="stroke: #A80036; stroke-width: 1.5;" x1="1320.5" x2="1452.5" y1="199.5" y2="199.5"/>
        <text fill="#000000" font-family="sans-serif" font-size="11" lengthAdjust="spacingAndGlyphs" textLength="118" x="1325.5" y="214.9189">+getProcessoSeriacao()</text>
        <text fill="#000000" font-family="sans-serif" font-size="11" lengthAdjust="spacingAndGlyphs" textLength="61" x="1325.5" y="228.7549">+getTarefa()</text>
        <text fill="#000000" font-family="sans-serif" font-size="11" lengthAdjust="spacingAndGlyphs" textLength="122" x="1325.5" y="242.5908">+getReferenciaAnuncio()</text>
        <!--class ProcessoSeriacao-->
        <rect fill="#FEFECE" filter="url(#f1qi7a7o1p16dd)" height="61.8359" style="stroke: #A80036; stroke-width: 1.5;" width="181" x="1578" y="173.5"/>
        <ellipse cx="1614.15" cy="189.5" fill="#ADD1B2" rx="11" ry="11" style="stroke: #A80036; stroke-width: 1.0;"/>
        <path d="M1616.9156,185.375 Q1617.0719,185.1563 1617.2594,185.0469 Q1617.4469,184.9375 1617.6656,184.9375 Q1618.0406,184.9375 1618.275,185.1953 Q1618.5094,185.4531 1618.5094,186.0625 L1618.5094,187.5156 Q1618.5094,188.125 1618.275,188.3906 Q1618.0406,188.6563 1617.6656,188.6563 Q1617.3219,188.6563 1617.1188,188.4531 Q1616.9156,188.2656 1616.8063,187.75 Q1616.7594,187.3906 1616.5719,187.2031 Q1616.2438,186.8281 1615.6344,186.6094 Q1615.025,186.3906 1614.4,186.3906 Q1613.6344,186.3906 1613.0016,186.7188 Q1612.3688,187.0469 1611.8766,187.7969 Q1611.3844,188.5469 1611.3844,189.5781 L1611.3844,190.6719 Q1611.3844,191.9063 1612.275,192.7266 Q1613.1656,193.5469 1614.7594,193.5469 Q1615.6969,193.5469 1616.3531,193.2969 Q1616.7438,193.1406 1617.1656,192.7031 Q1617.4313,192.4375 1617.5797,192.3594 Q1617.7281,192.2813 1617.9313,192.2813 Q1618.2594,192.2813 1618.5172,192.5391 Q1618.775,192.7969 1618.775,193.1406 Q1618.775,193.4844 1618.4313,193.8906 Q1617.9313,194.4688 1617.1344,194.7969 Q1616.0563,195.25 1614.7594,195.25 Q1613.2438,195.25 1612.0406,194.625 Q1611.0563,194.125 1610.3688,193.0547 Q1609.6813,191.9844 1609.6813,190.7031 L1609.6813,189.5469 Q1609.6813,188.2188 1610.2984,187.0703 Q1610.9156,185.9219 1612.0094,185.3047 Q1613.1031,184.6875 1614.3375,184.6875 Q1615.0719,184.6875 1615.7203,184.8516 Q1616.3688,185.0156 1616.9156,185.375 Z "/>
        <text fill="#000000" font-family="sans-serif" font-size="12" lengthAdjust="spacingAndGlyphs" textLength="102" x="1632.85" y="194.4102">ProcessoSeriacao</text>
        <line style="stroke: #A80036; stroke-width: 1.5;" x1="1579" x2="1758" y1="205.5" y2="205.5"/>
        <line style="stroke: #A80036; stroke-width: 1.5;" x1="1579" x2="1758" y1="213.5" y2="213.5"/>
        <text fill="#000000" font-family="sans-serif" font-size="11" lengthAdjust="spacingAndGlyphs" textLength="169" x="1584" y="228.9189">+getCandidatoAdjudicar(anuncioId)</text>
        <!--class Tarefa-->
        <rect fill="#FEFECE" filter="url(#f1qi7a7o1p16dd)" height="61.8359" style="stroke: #A80036; stroke-width: 1.5;" width="90" x="2009.5" y="442.5"/>
        <ellipse cx="2034.85" cy="458.5" fill="#ADD1B2" rx="11" ry="11" style="stroke: #A80036; stroke-width: 1.0;"/>
        <path d="M2037.6156,454.375 Q2037.7719,454.1563 2037.9594,454.0469 Q2038.1469,453.9375 2038.3656,453.9375 Q2038.7406,453.9375 2038.975,454.1953 Q2039.2094,454.4531 2039.2094,455.0625 L2039.2094,456.5156 Q2039.2094,457.125 2038.975,457.3906 Q2038.7406,457.6563 2038.3656,457.6563 Q2038.0219,457.6563 2037.8188,457.4531 Q2037.6156,457.2656 2037.5063,456.75 Q2037.4594,456.3906 2037.2719,456.2031 Q2036.9438,455.8281 2036.3344,455.6094 Q2035.725,455.3906 2035.1,455.3906 Q2034.3344,455.3906 2033.7016,455.7188 Q2033.0688,456.0469 2032.5766,456.7969 Q2032.0844,457.5469 2032.0844,458.5781 L2032.0844,459.6719 Q2032.0844,460.9063 2032.975,461.7266 Q2033.8656,462.5469 2035.4594,462.5469 Q2036.3969,462.5469 2037.0531,462.2969 Q2037.4438,462.1406 2037.8656,461.7031 Q2038.1313,461.4375 2038.2797,461.3594 Q2038.4281,461.2813 2038.6313,461.2813 Q2038.9594,461.2813 2039.2172,461.5391 Q2039.475,461.7969 2039.475,462.1406 Q2039.475,462.4844 2039.1313,462.8906 Q2038.6313,463.4688 2037.8344,463.7969 Q2036.7563,464.25 2035.4594,464.25 Q2033.9438,464.25 2032.7406,463.625 Q2031.7563,463.125 2031.0688,462.0547 Q2030.3813,460.9844 2030.3813,459.7031 L2030.3813,458.5469 Q2030.3813,457.2188 2030.9984,456.0703 Q2031.6156,454.9219 2032.7094,454.3047 Q2033.8031,453.6875 2035.0375,453.6875 Q2035.7719,453.6875 2036.4203,453.8516 Q2037.0688,454.0156 2037.6156,454.375 Z "/>
        <text fill="#000000" font-family="sans-serif" font-size="12" lengthAdjust="spacingAndGlyphs" textLength="35" x="2051.15" y="463.4102">Tarefa</text>
        <line style="stroke: #A80036; stroke-width: 1.5;" x1="2010.5" x2="2098.5" y1="474.5" y2="474.5"/>
        <line style="stroke: #A80036; stroke-width: 1.5;" x1="2010.5" x2="2098.5" y1="482.5" y2="482.5"/>
        <text fill="#000000" font-family="sans-serif" font-size="11" lengthAdjust="spacingAndGlyphs" textLength="78" x="2015.5" y="497.9189">+getDescricao()</text>
        <!--class Candidatura-->
        <rect fill="#FEFECE" filter="url(#f1qi7a7o1p16dd)" height="89.5078" style="stroke: #A80036; stroke-width: 1.5;" width="100" x="2388" y="55.5"/>
        <ellipse cx="2403" cy="71.5" fill="#ADD1B2" rx="11" ry="11" style="stroke: #A80036; stroke-width: 1.0;"/>
        <path d="M2405.7656,67.375 Q2405.9219,67.1563 2406.1094,67.0469 Q2406.2969,66.9375 2406.5156,66.9375 Q2406.8906,66.9375 2407.125,67.1953 Q2407.3594,67.4531 2407.3594,68.0625 L2407.3594,69.5156 Q2407.3594,70.125 2407.125,70.3906 Q2406.8906,70.6563 2406.5156,70.6563 Q2406.1719,70.6563 2405.9688,70.4531 Q2405.7656,70.2656 2405.6563,69.75 Q2405.6094,69.3906 2405.4219,69.2031 Q2405.0938,68.8281 2404.4844,68.6094 Q2403.875,68.3906 2403.25,68.3906 Q2402.4844,68.3906 2401.8516,68.7188 Q2401.2188,69.0469 2400.7266,69.7969 Q2400.2344,70.5469 2400.2344,71.5781 L2400.2344,72.6719 Q2400.2344,73.9063 2401.125,74.7266 Q2402.0156,75.5469 2403.6094,75.5469 Q2404.5469,75.5469 2405.2031,75.2969 Q2405.5938,75.1406 2406.0156,74.7031 Q2406.2813,74.4375 2406.4297,74.3594 Q2406.5781,74.2813 2406.7813,74.2813 Q2407.1094,74.2813 2407.3672,74.5391 Q2407.625,74.7969 2407.625,75.1406 Q2407.625,75.4844 2407.2813,75.8906 Q2406.7813,76.4688 2405.9844,76.7969 Q2404.9063,77.25 2403.6094,77.25 Q2402.0938,77.25 2400.8906,76.625 Q2399.9063,76.125 2399.2188,75.0547 Q2398.5313,73.9844 2398.5313,72.7031 L2398.5313,71.5469 Q2398.5313,70.2188 2399.1484,69.0703 Q2399.7656,67.9219 2400.8594,67.3047 Q2401.9531,66.6875 2403.1875,66.6875 Q2403.9219,66.6875 2404.5703,66.8516 Q2405.2188,67.0156 2405.7656,67.375 Z "/>
        <text fill="#000000" font-family="sans-serif" font-size="12" lengthAdjust="spacingAndGlyphs" textLength="68" x="2417" y="76.4102">Candidatura</text>
        <line style="stroke: #A80036; stroke-width: 1.5;" x1="2389" x2="2487" y1="87.5" y2="87.5"/>
        <line style="stroke: #A80036; stroke-width: 1.5;" x1="2389" x2="2487" y1="95.5" y2="95.5"/>
        <text fill="#000000" font-family="sans-serif" font-size="11" lengthAdjust="spacingAndGlyphs" textLength="61" x="2394" y="110.9189">+getNrDias()</text>
        <text fill="#000000" font-family="sans-serif" font-size="11" lengthAdjust="spacingAndGlyphs" textLength="55" x="2394" y="124.7549">+getValor()</text>
        <text fill="#000000" font-family="sans-serif" font-size="11" lengthAdjust="spacingAndGlyphs" textLength="81" x="2394" y="138.5908">+getFreelancer()</text>
        <!--class RegistoAdjudicacao-->
        <rect fill="#FEFECE" filter="url(#f1qi7a7o1p16dd)" height="117.1797" style="stroke: #A80036; stroke-width: 1.5;" width="361" x="915" y="475"/>
        <ellipse cx="1036.25" cy="491" fill="#ADD1B2" rx="11" ry="11" style="stroke: #A80036; stroke-width: 1.0;"/>
        <path d="M1039.0156,486.875 Q1039.1719,486.6563 1039.3594,486.5469 Q1039.5469,486.4375 1039.7656,486.4375 Q1040.1406,486.4375 1040.375,486.6953 Q1040.6094,486.9531 1040.6094,487.5625 L1040.6094,489.0156 Q1040.6094,489.625 1040.375,489.8906 Q1040.1406,490.1563 1039.7656,490.1563 Q1039.4219,490.1563 1039.2188,489.9531 Q1039.0156,489.7656 1038.9063,489.25 Q1038.8594,488.8906 1038.6719,488.7031 Q1038.3438,488.3281 1037.7344,488.1094 Q1037.125,487.8906 1036.5,487.8906 Q1035.7344,487.8906 1035.1016,488.2188 Q1034.4688,488.5469 1033.9766,489.2969 Q1033.4844,490.0469 1033.4844,491.0781 L1033.4844,492.1719 Q1033.4844,493.4063 1034.375,494.2266 Q1035.2656,495.0469 1036.8594,495.0469 Q1037.7969,495.0469 1038.4531,494.7969 Q1038.8438,494.6406 1039.2656,494.2031 Q1039.5313,493.9375 1039.6797,493.8594 Q1039.8281,493.7813 1040.0313,493.7813 Q1040.3594,493.7813 1040.6172,494.0391 Q1040.875,494.2969 1040.875,494.6406 Q1040.875,494.9844 1040.5313,495.3906 Q1040.0313,495.9688 1039.2344,496.2969 Q1038.1563,496.75 1036.8594,496.75 Q1035.3438,496.75 1034.1406,496.125 Q1033.1563,495.625 1032.4688,494.5547 Q1031.7813,493.4844 1031.7813,492.2031 L1031.7813,491.0469 Q1031.7813,489.7188 1032.3984,488.5703 Q1033.0156,487.4219 1034.1094,486.8047 Q1035.2031,486.1875 1036.4375,486.1875 Q1037.1719,486.1875 1037.8203,486.3516 Q1038.4688,486.5156 1039.0156,486.875 Z "/>
        <text fill="#000000" font-family="sans-serif" font-size="12" lengthAdjust="spacingAndGlyphs" textLength="110" x="1056.75" y="495.9102">RegistoAdjudicacao</text>
        <line style="stroke: #A80036; stroke-width: 1.5;" x1="916" x2="1275" y1="507" y2="507"/>
        <line style="stroke: #A80036; stroke-width: 1.5;" x1="916" x2="1275" y1="515" y2="515"/>
        <text fill="#000000" font-family="sans-serif" font-size="11" lengthAdjust="spacingAndGlyphs" textLength="349" x="921" y="530.4189">+novaAdjudicacao(org,free,descTarefa,periodoReali,valorRemu,refAnu)</text>
        <text fill="#000000" font-family="sans-serif" font-size="11" lengthAdjust="spacingAndGlyphs" textLength="93" x="921" y="544.2549">+geraNumPorAno()</text>
        <text fill="#000000" font-family="sans-serif" font-size="11" lengthAdjust="spacingAndGlyphs" textLength="81" x="921" y="558.0908">+getDataAdjudi()</text>
        <text fill="#000000" font-family="sans-serif" font-size="11" lengthAdjust="spacingAndGlyphs" textLength="102" x="921" y="571.9268">+validaAdjudicacao()</text>
        <text fill="#000000" font-family="sans-serif" font-size="11" lengthAdjust="spacingAndGlyphs" textLength="120" x="921" y="585.7627">+addAdjudicacao(adjudi)</text>
        <!--class Adjudicacao-->
        <rect fill="#FEFECE" filter="url(#f1qi7a7o1p16dd)" height="61.8359" style="stroke: #A80036; stroke-width: 1.5;" width="404" x="2236" y="312.5"/>
        <ellipse cx="2400.25" cy="328.5" fill="#ADD1B2" rx="11" ry="11" style="stroke: #A80036; stroke-width: 1.0;"/>
        <path d="M2403.0156,324.375 Q2403.1719,324.1563 2403.3594,324.0469 Q2403.5469,323.9375 2403.7656,323.9375 Q2404.1406,323.9375 2404.375,324.1953 Q2404.6094,324.4531 2404.6094,325.0625 L2404.6094,326.5156 Q2404.6094,327.125 2404.375,327.3906 Q2404.1406,327.6563 2403.7656,327.6563 Q2403.4219,327.6563 2403.2188,327.4531 Q2403.0156,327.2656 2402.9063,326.75 Q2402.8594,326.3906 2402.6719,326.2031 Q2402.3438,325.8281 2401.7344,325.6094 Q2401.125,325.3906 2400.5,325.3906 Q2399.7344,325.3906 2399.1016,325.7188 Q2398.4688,326.0469 2397.9766,326.7969 Q2397.4844,327.5469 2397.4844,328.5781 L2397.4844,329.6719 Q2397.4844,330.9063 2398.375,331.7266 Q2399.2656,332.5469 2400.8594,332.5469 Q2401.7969,332.5469 2402.4531,332.2969 Q2402.8438,332.1406 2403.2656,331.7031 Q2403.5313,331.4375 2403.6797,331.3594 Q2403.8281,331.2813 2404.0313,331.2813 Q2404.3594,331.2813 2404.6172,331.5391 Q2404.875,331.7969 2404.875,332.1406 Q2404.875,332.4844 2404.5313,332.8906 Q2404.0313,333.4688 2403.2344,333.7969 Q2402.1563,334.25 2400.8594,334.25 Q2399.3438,334.25 2398.1406,333.625 Q2397.1563,333.125 2396.4688,332.0547 Q2395.7813,330.9844 2395.7813,329.7031 L2395.7813,328.5469 Q2395.7813,327.2188 2396.3984,326.0703 Q2397.0156,324.9219 2398.1094,324.3047 Q2399.2031,323.6875 2400.4375,323.6875 Q2401.1719,323.6875 2401.8203,323.8516 Q2402.4688,324.0156 2403.0156,324.375 Z "/>
        <text fill="#000000" font-family="sans-serif" font-size="12" lengthAdjust="spacingAndGlyphs" textLength="67" x="2420.75" y="333.4102">Adjudicacao</text>
        <line style="stroke: #A80036; stroke-width: 1.5;" x1="2237" x2="2639" y1="344.5" y2="344.5"/>
        <line style="stroke: #A80036; stroke-width: 1.5;" x1="2237" x2="2639" y1="352.5" y2="352.5"/>
        <text fill="#000000" font-family="sans-serif" font-size="11" lengthAdjust="spacingAndGlyphs" textLength="392" x="2242" y="367.9189">+create(numSeq,dataAdjudi,org,free,descTarefa,periodoReali,valorRemu,refAnu)</text>
        <!--class ListaColaboradores-->
        <rect fill="#FEFECE" filter="url(#f1qi7a7o1p16dd)" height="48" style="stroke: #A80036; stroke-width: 1.5;" width="142" x="1597.5" y="373.5"/>
        <ellipse cx="1612.5" cy="389.5" fill="#ADD1B2" rx="11" ry="11" style="stroke: #A80036; stroke-width: 1.0;"/>
        <path d="M1615.2656,385.375 Q1615.4219,385.1563 1615.6094,385.0469 Q1615.7969,384.9375 1616.0156,384.9375 Q1616.3906,384.9375 1616.625,385.1953 Q1616.8594,385.4531 1616.8594,386.0625 L1616.8594,387.5156 Q1616.8594,388.125 1616.625,388.3906 Q1616.3906,388.6563 1616.0156,388.6563 Q1615.6719,388.6563 1615.4688,388.4531 Q1615.2656,388.2656 1615.1563,387.75 Q1615.1094,387.3906 1614.9219,387.2031 Q1614.5938,386.8281 1613.9844,386.6094 Q1613.375,386.3906 1612.75,386.3906 Q1611.9844,386.3906 1611.3516,386.7188 Q1610.7188,387.0469 1610.2266,387.7969 Q1609.7344,388.5469 1609.7344,389.5781 L1609.7344,390.6719 Q1609.7344,391.9063 1610.625,392.7266 Q1611.5156,393.5469 1613.1094,393.5469 Q1614.0469,393.5469 1614.7031,393.2969 Q1615.0938,393.1406 1615.5156,392.7031 Q1615.7813,392.4375 1615.9297,392.3594 Q1616.0781,392.2813 1616.2813,392.2813 Q1616.6094,392.2813 1616.8672,392.5391 Q1617.125,392.7969 1617.125,393.1406 Q1617.125,393.4844 1616.7813,393.8906 Q1616.2813,394.4688 1615.4844,394.7969 Q1614.4063,395.25 1613.1094,395.25 Q1611.5938,395.25 1610.3906,394.625 Q1609.4063,394.125 1608.7188,393.0547 Q1608.0313,391.9844 1608.0313,390.7031 L1608.0313,389.5469 Q1608.0313,388.2188 1608.6484,387.0703 Q1609.2656,385.9219 1610.3594,385.3047 Q1611.4531,384.6875 1612.6875,384.6875 Q1613.4219,384.6875 1614.0703,384.8516 Q1614.7188,385.0156 1615.2656,385.375 Z "/>
        <text fill="#000000" font-family="sans-serif" font-size="12" lengthAdjust="spacingAndGlyphs" textLength="110" x="1626.5" y="394.4102">ListaColaboradores</text>
        <line style="stroke: #A80036; stroke-width: 1.5;" x1="1598.5" x2="1738.5" y1="405.5" y2="405.5"/>
        <line style="stroke: #A80036; stroke-width: 1.5;" x1="1598.5" x2="1738.5" y1="413.5" y2="413.5"/>
        <!--class ListaTarefas-->
        <rect fill="#FEFECE" filter="url(#f1qi7a7o1p16dd)" height="48" style="stroke: #A80036; stroke-width: 1.5;" width="101" x="1618" y="456.5"/>
        <ellipse cx="1633" cy="472.5" fill="#ADD1B2" rx="11" ry="11" style="stroke: #A80036; stroke-width: 1.0;"/>
        <path d="M1635.7656,468.375 Q1635.9219,468.1563 1636.1094,468.0469 Q1636.2969,467.9375 1636.5156,467.9375 Q1636.8906,467.9375 1637.125,468.1953 Q1637.3594,468.4531 1637.3594,469.0625 L1637.3594,470.5156 Q1637.3594,471.125 1637.125,471.3906 Q1636.8906,471.6563 1636.5156,471.6563 Q1636.1719,471.6563 1635.9688,471.4531 Q1635.7656,471.2656 1635.6563,470.75 Q1635.6094,470.3906 1635.4219,470.2031 Q1635.0938,469.8281 1634.4844,469.6094 Q1633.875,469.3906 1633.25,469.3906 Q1632.4844,469.3906 1631.8516,469.7188 Q1631.2188,470.0469 1630.7266,470.7969 Q1630.2344,471.5469 1630.2344,472.5781 L1630.2344,473.6719 Q1630.2344,474.9063 1631.125,475.7266 Q1632.0156,476.5469 1633.6094,476.5469 Q1634.5469,476.5469 1635.2031,476.2969 Q1635.5938,476.1406 1636.0156,475.7031 Q1636.2813,475.4375 1636.4297,475.3594 Q1636.5781,475.2813 1636.7813,475.2813 Q1637.1094,475.2813 1637.3672,475.5391 Q1637.625,475.7969 1637.625,476.1406 Q1637.625,476.4844 1637.2813,476.8906 Q1636.7813,477.4688 1635.9844,477.7969 Q1634.9063,478.25 1633.6094,478.25 Q1632.0938,478.25 1630.8906,477.625 Q1629.9063,477.125 1629.2188,476.0547 Q1628.5313,474.9844 1628.5313,473.7031 L1628.5313,472.5469 Q1628.5313,471.2188 1629.1484,470.0703 Q1629.7656,468.9219 1630.8594,468.3047 Q1631.9531,467.6875 1633.1875,467.6875 Q1633.9219,467.6875 1634.5703,467.8516 Q1635.2188,468.0156 1635.7656,468.375 Z "/>
        <text fill="#000000" font-family="sans-serif" font-size="12" lengthAdjust="spacingAndGlyphs" textLength="69" x="1647" y="477.4102">ListaTarefas</text>
        <line style="stroke: #A80036; stroke-width: 1.5;" x1="1619" x2="1718" y1="488.5" y2="488.5"/>
        <line style="stroke: #A80036; stroke-width: 1.5;" x1="1619" x2="1718" y1="496.5" y2="496.5"/>
        <!--class Colaborador-->
        <rect fill="#FEFECE" filter="url(#f1qi7a7o1p16dd)" height="48" style="stroke: #A80036; stroke-width: 1.5;" width="101" x="2004" y="294.5"/>
        <ellipse cx="2019" cy="310.5" fill="#ADD1B2" rx="11" ry="11" style="stroke: #A80036; stroke-width: 1.0;"/>
        <path d="M2021.7656,306.375 Q2021.9219,306.1563 2022.1094,306.0469 Q2022.2969,305.9375 2022.5156,305.9375 Q2022.8906,305.9375 2023.125,306.1953 Q2023.3594,306.4531 2023.3594,307.0625 L2023.3594,308.5156 Q2023.3594,309.125 2023.125,309.3906 Q2022.8906,309.6563 2022.5156,309.6563 Q2022.1719,309.6563 2021.9688,309.4531 Q2021.7656,309.2656 2021.6563,308.75 Q2021.6094,308.3906 2021.4219,308.2031 Q2021.0938,307.8281 2020.4844,307.6094 Q2019.875,307.3906 2019.25,307.3906 Q2018.4844,307.3906 2017.8516,307.7188 Q2017.2188,308.0469 2016.7266,308.7969 Q2016.2344,309.5469 2016.2344,310.5781 L2016.2344,311.6719 Q2016.2344,312.9063 2017.125,313.7266 Q2018.0156,314.5469 2019.6094,314.5469 Q2020.5469,314.5469 2021.2031,314.2969 Q2021.5938,314.1406 2022.0156,313.7031 Q2022.2813,313.4375 2022.4297,313.3594 Q2022.5781,313.2813 2022.7813,313.2813 Q2023.1094,313.2813 2023.3672,313.5391 Q2023.625,313.7969 2023.625,314.1406 Q2023.625,314.4844 2023.2813,314.8906 Q2022.7813,315.4688 2021.9844,315.7969 Q2020.9063,316.25 2019.6094,316.25 Q2018.0938,316.25 2016.8906,315.625 Q2015.9063,315.125 2015.2188,314.0547 Q2014.5313,312.9844 2014.5313,311.7031 L2014.5313,310.5469 Q2014.5313,309.2188 2015.1484,308.0703 Q2015.7656,306.9219 2016.8594,306.3047 Q2017.9531,305.6875 2019.1875,305.6875 Q2019.9219,305.6875 2020.5703,305.8516 Q2021.2188,306.0156 2021.7656,306.375 Z "/>
        <text fill="#000000" font-family="sans-serif" font-size="12" lengthAdjust="spacingAndGlyphs" textLength="69" x="2033" y="315.4102">Colaborador</text>
        <line style="stroke: #A80036; stroke-width: 1.5;" x1="2005" x2="2104" y1="326.5" y2="326.5"/>
        <line style="stroke: #A80036; stroke-width: 1.5;" x1="2005" x2="2104" y1="334.5" y2="334.5"/>
        <!--class TipoRegimento-->
        <rect fill="#FEFECE" filter="url(#f1qi7a7o1p16dd)" height="48" style="stroke: #A80036; stroke-width: 1.5;" width="117" x="1996" y="102.5"/>
        <ellipse cx="2011" cy="118.5" fill="#ADD1B2" rx="11" ry="11" style="stroke: #A80036; stroke-width: 1.0;"/>
        <path d="M2013.7656,114.375 Q2013.9219,114.1563 2014.1094,114.0469 Q2014.2969,113.9375 2014.5156,113.9375 Q2014.8906,113.9375 2015.125,114.1953 Q2015.3594,114.4531 2015.3594,115.0625 L2015.3594,116.5156 Q2015.3594,117.125 2015.125,117.3906 Q2014.8906,117.6563 2014.5156,117.6563 Q2014.1719,117.6563 2013.9688,117.4531 Q2013.7656,117.2656 2013.6563,116.75 Q2013.6094,116.3906 2013.4219,116.2031 Q2013.0938,115.8281 2012.4844,115.6094 Q2011.875,115.3906 2011.25,115.3906 Q2010.4844,115.3906 2009.8516,115.7188 Q2009.2188,116.0469 2008.7266,116.7969 Q2008.2344,117.5469 2008.2344,118.5781 L2008.2344,119.6719 Q2008.2344,120.9063 2009.125,121.7266 Q2010.0156,122.5469 2011.6094,122.5469 Q2012.5469,122.5469 2013.2031,122.2969 Q2013.5938,122.1406 2014.0156,121.7031 Q2014.2813,121.4375 2014.4297,121.3594 Q2014.5781,121.2813 2014.7813,121.2813 Q2015.1094,121.2813 2015.3672,121.5391 Q2015.625,121.7969 2015.625,122.1406 Q2015.625,122.4844 2015.2813,122.8906 Q2014.7813,123.4688 2013.9844,123.7969 Q2012.9063,124.25 2011.6094,124.25 Q2010.0938,124.25 2008.8906,123.625 Q2007.9063,123.125 2007.2188,122.0547 Q2006.5313,120.9844 2006.5313,119.7031 L2006.5313,118.5469 Q2006.5313,117.2188 2007.1484,116.0703 Q2007.7656,114.9219 2008.8594,114.3047 Q2009.9531,113.6875 2011.1875,113.6875 Q2011.9219,113.6875 2012.5703,113.8516 Q2013.2188,114.0156 2013.7656,114.375 Z "/>
        <text fill="#000000" font-family="sans-serif" font-size="12" lengthAdjust="spacingAndGlyphs" textLength="85" x="2025" y="123.4102">TipoRegimento</text>
        <line style="stroke: #A80036; stroke-width: 1.5;" x1="1997" x2="2112" y1="134.5" y2="134.5"/>
        <line style="stroke: #A80036; stroke-width: 1.5;" x1="1997" x2="2112" y1="142.5" y2="142.5"/>
        <!--class ListaCandidaturas-->
        <rect fill="#FEFECE" filter="url(#f1qi7a7o1p16dd)" height="48" style="stroke: #A80036; stroke-width: 1.5;" width="134" x="1810.5" y="8.5"/>
        <ellipse cx="1825.5" cy="24.5" fill="#ADD1B2" rx="11" ry="11" style="stroke: #A80036; stroke-width: 1.0;"/>
        <path d="M1828.2656,20.375 Q1828.4219,20.1563 1828.6094,20.0469 Q1828.7969,19.9375 1829.0156,19.9375 Q1829.3906,19.9375 1829.625,20.1953 Q1829.8594,20.4531 1829.8594,21.0625 L1829.8594,22.5156 Q1829.8594,23.125 1829.625,23.3906 Q1829.3906,23.6563 1829.0156,23.6563 Q1828.6719,23.6563 1828.4688,23.4531 Q1828.2656,23.2656 1828.1563,22.75 Q1828.1094,22.3906 1827.9219,22.2031 Q1827.5938,21.8281 1826.9844,21.6094 Q1826.375,21.3906 1825.75,21.3906 Q1824.9844,21.3906 1824.3516,21.7188 Q1823.7188,22.0469 1823.2266,22.7969 Q1822.7344,23.5469 1822.7344,24.5781 L1822.7344,25.6719 Q1822.7344,26.9063 1823.625,27.7266 Q1824.5156,28.5469 1826.1094,28.5469 Q1827.0469,28.5469 1827.7031,28.2969 Q1828.0938,28.1406 1828.5156,27.7031 Q1828.7813,27.4375 1828.9297,27.3594 Q1829.0781,27.2813 1829.2813,27.2813 Q1829.6094,27.2813 1829.8672,27.5391 Q1830.125,27.7969 1830.125,28.1406 Q1830.125,28.4844 1829.7813,28.8906 Q1829.2813,29.4688 1828.4844,29.7969 Q1827.4063,30.25 1826.1094,30.25 Q1824.5938,30.25 1823.3906,29.625 Q1822.4063,29.125 1821.7188,28.0547 Q1821.0313,26.9844 1821.0313,25.7031 L1821.0313,24.5469 Q1821.0313,23.2188 1821.6484,22.0703 Q1822.2656,20.9219 1823.3594,20.3047 Q1824.4531,19.6875 1825.6875,19.6875 Q1826.4219,19.6875 1827.0703,19.8516 Q1827.7188,20.0156 1828.2656,20.375 Z "/>
        <text fill="#000000" font-family="sans-serif" font-size="12" lengthAdjust="spacingAndGlyphs" textLength="102" x="1839.5" y="29.4102">ListaCandidaturas</text>
        <line style="stroke: #A80036; stroke-width: 1.5;" x1="1811.5" x2="1943.5" y1="40.5" y2="40.5"/>
        <line style="stroke: #A80036; stroke-width: 1.5;" x1="1811.5" x2="1943.5" y1="48.5" y2="48.5"/>
        <!--class Freelancer-->
        <rect fill="#FEFECE" filter="url(#f1qi7a7o1p16dd)" height="48" style="stroke: #A80036; stroke-width: 1.5;" width="91" x="2776" y="76.5"/>
        <ellipse cx="2791" cy="92.5" fill="#ADD1B2" rx="11" ry="11" style="stroke: #A80036; stroke-width: 1.0;"/>
        <path d="M2793.7656,88.375 Q2793.9219,88.1563 2794.1094,88.0469 Q2794.2969,87.9375 2794.5156,87.9375 Q2794.8906,87.9375 2795.125,88.1953 Q2795.3594,88.4531 2795.3594,89.0625 L2795.3594,90.5156 Q2795.3594,91.125 2795.125,91.3906 Q2794.8906,91.6563 2794.5156,91.6563 Q2794.1719,91.6563 2793.9688,91.4531 Q2793.7656,91.2656 2793.6563,90.75 Q2793.6094,90.3906 2793.4219,90.2031 Q2793.0938,89.8281 2792.4844,89.6094 Q2791.875,89.3906 2791.25,89.3906 Q2790.4844,89.3906 2789.8516,89.7188 Q2789.2188,90.0469 2788.7266,90.7969 Q2788.2344,91.5469 2788.2344,92.5781 L2788.2344,93.6719 Q2788.2344,94.9063 2789.125,95.7266 Q2790.0156,96.5469 2791.6094,96.5469 Q2792.5469,96.5469 2793.2031,96.2969 Q2793.5938,96.1406 2794.0156,95.7031 Q2794.2813,95.4375 2794.4297,95.3594 Q2794.5781,95.2813 2794.7813,95.2813 Q2795.1094,95.2813 2795.3672,95.5391 Q2795.625,95.7969 2795.625,96.1406 Q2795.625,96.4844 2795.2813,96.8906 Q2794.7813,97.4688 2793.9844,97.7969 Q2792.9063,98.25 2791.6094,98.25 Q2790.0938,98.25 2788.8906,97.625 Q2787.9063,97.125 2787.2188,96.0547 Q2786.5313,94.9844 2786.5313,93.7031 L2786.5313,92.5469 Q2786.5313,91.2188 2787.1484,90.0703 Q2787.7656,88.9219 2788.8594,88.3047 Q2789.9531,87.6875 2791.1875,87.6875 Q2791.9219,87.6875 2792.5703,87.8516 Q2793.2188,88.0156 2793.7656,88.375 Z "/>
        <text fill="#000000" font-family="sans-serif" font-size="12" lengthAdjust="spacingAndGlyphs" textLength="59" x="2805" y="97.4102">Freelancer</text>
        <line style="stroke: #A80036; stroke-width: 1.5;" x1="2777" x2="2866" y1="108.5" y2="108.5"/>
        <line style="stroke: #A80036; stroke-width: 1.5;" x1="2777" x2="2866" y1="116.5" y2="116.5"/>
        <!--class Classificacao-->
        <rect fill="#FEFECE" filter="url(#f1qi7a7o1p16dd)" height="48" style="stroke: #A80036; stroke-width: 1.5;" width="107" x="2001" y="185.5"/>
        <ellipse cx="2016" cy="201.5" fill="#ADD1B2" rx="11" ry="11" style="stroke: #A80036; stroke-width: 1.0;"/>
        <path d="M2018.7656,197.375 Q2018.9219,197.1563 2019.1094,197.0469 Q2019.2969,196.9375 2019.5156,196.9375 Q2019.8906,196.9375 2020.125,197.1953 Q2020.3594,197.4531 2020.3594,198.0625 L2020.3594,199.5156 Q2020.3594,200.125 2020.125,200.3906 Q2019.8906,200.6563 2019.5156,200.6563 Q2019.1719,200.6563 2018.9688,200.4531 Q2018.7656,200.2656 2018.6563,199.75 Q2018.6094,199.3906 2018.4219,199.2031 Q2018.0938,198.8281 2017.4844,198.6094 Q2016.875,198.3906 2016.25,198.3906 Q2015.4844,198.3906 2014.8516,198.7188 Q2014.2188,199.0469 2013.7266,199.7969 Q2013.2344,200.5469 2013.2344,201.5781 L2013.2344,202.6719 Q2013.2344,203.9063 2014.125,204.7266 Q2015.0156,205.5469 2016.6094,205.5469 Q2017.5469,205.5469 2018.2031,205.2969 Q2018.5938,205.1406 2019.0156,204.7031 Q2019.2813,204.4375 2019.4297,204.3594 Q2019.5781,204.2813 2019.7813,204.2813 Q2020.1094,204.2813 2020.3672,204.5391 Q2020.625,204.7969 2020.625,205.1406 Q2020.625,205.4844 2020.2813,205.8906 Q2019.7813,206.4688 2018.9844,206.7969 Q2017.9063,207.25 2016.6094,207.25 Q2015.0938,207.25 2013.8906,206.625 Q2012.9063,206.125 2012.2188,205.0547 Q2011.5313,203.9844 2011.5313,202.7031 L2011.5313,201.5469 Q2011.5313,200.2188 2012.1484,199.0703 Q2012.7656,197.9219 2013.8594,197.3047 Q2014.9531,196.6875 2016.1875,196.6875 Q2016.9219,196.6875 2017.5703,196.8516 Q2018.2188,197.0156 2018.7656,197.375 Z "/>
        <text fill="#000000" font-family="sans-serif" font-size="12" lengthAdjust="spacingAndGlyphs" textLength="75" x="2030" y="206.4102">Classificacao</text>
        <line style="stroke: #A80036; stroke-width: 1.5;" x1="2002" x2="2107" y1="217.5" y2="217.5"/>
        <line style="stroke: #A80036; stroke-width: 1.5;" x1="2002" x2="2107" y1="225.5" y2="225.5"/>
        <path d="M145.192,422.5 C162.735,422.5 181.909,422.5 200.514,422.5 " fill="none" style="stroke: #A80036; stroke-width: 1.0; stroke-dasharray: 7.0,7.0;"/>
        <polygon fill="#A80036" points="205.744,422.5,196.744,418.5,200.744,422.5,196.744,426.5,205.744,422.5" style="stroke: #A80036; stroke-width: 1.0;"/>
        <path d="M387.156,422.5 C405.635,422.5 424.935,422.5 442.901,422.5 " fill="none" style="stroke: #A80036; stroke-width: 1.0; stroke-dasharray: 7.0,7.0;"/>
        <polygon fill="#A80036" points="447.931,422.5,438.931,418.5,442.931,422.5,438.931,426.5,447.931,422.5" style="stroke: #A80036; stroke-width: 1.0;"/>
        <path d="M593.163,422.5 C617.397,422.5 645.026,422.5 671.467,422.5 " fill="none" style="stroke: #A80036; stroke-width: 1.0;"/>
        <polygon fill="#A80036" points="676.738,422.5,667.738,418.5,671.738,422.5,667.738,426.5,676.738,422.5" style="stroke: #A80036; stroke-width: 1.0;"/>
        <text fill="#000000" font-family="sans-serif" font-size="13" lengthAdjust="spacingAndGlyphs" textLength="22" x="624" y="418.9951">tem</text>
        <text fill="#000000" font-family="sans-serif" font-size="13" lengthAdjust="spacingAndGlyphs" textLength="7" x="601.0173" y="436.8636">1</text>
        <text fill="#000000" font-family="sans-serif" font-size="13" lengthAdjust="spacingAndGlyphs" textLength="7" x="662.161" y="436.5757">1</text>
        <path d="M593.163,385.906 C626.625,368.819 666.559,348.427 700.902,330.891 " fill="none" style="stroke: #A80036; stroke-width: 1.0;"/>
        <polygon fill="#A80036" points="705.493,328.546,695.6584,329.0749,701.0396,330.8191,699.2954,336.2004,705.493,328.546" style="stroke: #A80036; stroke-width: 1.0;"/>
        <text fill="#000000" font-family="sans-serif" font-size="13" lengthAdjust="spacingAndGlyphs" textLength="22" x="624" y="355.9951">tem</text>
        <text fill="#000000" font-family="sans-serif" font-size="13" lengthAdjust="spacingAndGlyphs" textLength="7" x="601.0173" y="396.4959">1</text>
        <text fill="#000000" font-family="sans-serif" font-size="13" lengthAdjust="spacingAndGlyphs" textLength="7" x="685.4075" y="349.7238">1</text>
        <path d="M593.237,447.708 C619.358,456.193 649.279,465.116 677,471.5 C752.401,488.864 836.629,502.4519 909.575,512.4245 " fill="none" style="stroke: #A80036; stroke-width: 1.0;"/>
        <polygon fill="#A80036" points="914.808,513.1363,906.4296,507.9591,909.8537,512.462,905.3508,515.8861,914.808,513.1363" style="stroke: #A80036; stroke-width: 1.0;"/>
        <text fill="#000000" font-family="sans-serif" font-size="13" lengthAdjust="spacingAndGlyphs" textLength="22" x="624" y="452.9951">tem</text>
        <text fill="#000000" font-family="sans-serif" font-size="13" lengthAdjust="spacingAndGlyphs" textLength="7" x="601.0989" y="464.6712">1</text>
        <text fill="#000000" font-family="sans-serif" font-size="13" lengthAdjust="spacingAndGlyphs" textLength="7" x="900.0374" y="526.1134">1</text>
        <path d="M885.06,422.5 C1002.373,422.5 1191.81,422.5 1300.86,422.5 " fill="none" style="stroke: #A80036; stroke-width: 1.0;"/>
        <polygon fill="#A80036" points="1305.99,422.5,1296.99,418.5,1300.99,422.5,1296.99,426.5,1305.99,422.5" style="stroke: #A80036; stroke-width: 1.0;"/>
        <text fill="#000000" font-family="sans-serif" font-size="13" lengthAdjust="spacingAndGlyphs" textLength="86" x="1052.5" y="418.9951">tem registadas</text>
        <text fill="#000000" font-family="sans-serif" font-size="13" lengthAdjust="spacingAndGlyphs" textLength="7" x="892.9589" y="436.6016">1</text>
        <text fill="#000000" font-family="sans-serif" font-size="13" lengthAdjust="spacingAndGlyphs" textLength="5" x="1293.0781" y="436.79">*</text>
        <path d="M868.788,278.133 C988.71,261.043 1202.85,230.528 1314.05,214.681 " fill="none" style="stroke: #A80036; stroke-width: 1.0;"/>
        <polygon fill="#A80036" points="1319.27,213.938,1309.791,211.2644,1314.3213,214.6521,1310.9335,219.1824,1319.27,213.938" style="stroke: #A80036; stroke-width: 1.0;"/>
        <text fill="#000000" font-family="sans-serif" font-size="13" lengthAdjust="spacingAndGlyphs" textLength="48" x="1071.5" y="216.9951">publicita</text>
        <text fill="#000000" font-family="sans-serif" font-size="13" lengthAdjust="spacingAndGlyphs" textLength="7" x="876.6331" y="291.282">1</text>
        <text fill="#000000" font-family="sans-serif" font-size="13" lengthAdjust="spacingAndGlyphs" textLength="5" x="1306.6433" y="229.3865">*</text>
        <path d="M1276.02,548.1351 C1351.74,553.1391 1440.85,557.5 1521.5,557.5 C1521.5,557.5 1521.5,557.5 2055.5,557.5 C2200.32,557.5 2341.08,438.748 2403.47,378.167 " fill="none" style="stroke: #A80036; stroke-width: 1.0;"/>
        <polygon fill="#A80036" points="2407.1,374.617,2397.8696,378.0521,2403.5261,378.1138,2403.4645,383.7703,2407.1,374.617" style="stroke: #A80036; stroke-width: 1.0;"/>
        <text fill="#000000" font-family="sans-serif" font-size="13" lengthAdjust="spacingAndGlyphs" textLength="86" x="1625.5" y="553.9951">tem registadas</text>
        <text fill="#000000" font-family="sans-serif" font-size="13" lengthAdjust="spacingAndGlyphs" textLength="7" x="1283.7833" y="562.5888">1</text>
        <text fill="#000000" font-family="sans-serif" font-size="13" lengthAdjust="spacingAndGlyphs" textLength="5" x="2395.5244" y="395.864">*</text>
        <path d="M1467.36,415.369 C1506.5,411.875 1553.38,407.689 1591.93,404.248 " fill="none" style="stroke: #A80036; stroke-width: 1.0;"/>
        <polygon fill="#A80036" points="1597.07,403.789,1587.7511,400.6017,1592.0896,404.2318,1588.4596,408.5703,1597.07,403.789" style="stroke: #A80036; stroke-width: 1.0;"/>
        <text fill="#000000" font-family="sans-serif" font-size="13" lengthAdjust="spacingAndGlyphs" textLength="22" x="1511.5" y="404.9951">tem</text>
        <text fill="#000000" font-family="sans-serif" font-size="13" lengthAdjust="spacingAndGlyphs" textLength="7" x="1474.8733" y="428.9718">1</text>
        <text fill="#000000" font-family="sans-serif" font-size="13" lengthAdjust="spacingAndGlyphs" textLength="7" x="1582.3428" y="418.7758">1</text>
        <path d="M1467.36,439.043 C1513.96,448.695 1571.53,460.621 1612.95,469.2 " fill="none" style="stroke: #A80036; stroke-width: 1.0;"/>
        <polygon fill="#A80036" points="1617.92,470.229,1609.9186,464.4863,1613.024,469.2146,1608.2957,472.32,1617.92,470.229" style="stroke: #A80036; stroke-width: 1.0;"/>
        <text fill="#000000" font-family="sans-serif" font-size="13" lengthAdjust="spacingAndGlyphs" textLength="22" x="1511.5" y="441.9951">tem</text>
        <text fill="#000000" font-family="sans-serif" font-size="13" lengthAdjust="spacingAndGlyphs" textLength="7" x="1474.8733" y="454.7542">1</text>
        <text fill="#000000" font-family="sans-serif" font-size="13" lengthAdjust="spacingAndGlyphs" textLength="7" x="1602.977" y="483.4164">1</text>
        <path d="M1739.79,396.055 C1800.76,393.196 1890.79,385.084 1966,362.5 C1980.21,358.232 1994.91,351.759 2008.1,345.082 " fill="none" style="stroke: #A80036; stroke-width: 1.0;"/>
        <polygon fill="#A80036" points="2012.89,342.616,2003.057,343.1738,2008.4433,344.9022,2006.7149,350.2886,2012.89,342.616" style="stroke: #A80036; stroke-width: 1.0;"/>
        <text fill="#000000" font-family="sans-serif" font-size="13" lengthAdjust="spacingAndGlyphs" textLength="22" x="1866.5" y="358.9951">tem</text>
        <text fill="#000000" font-family="sans-serif" font-size="13" lengthAdjust="spacingAndGlyphs" textLength="7" x="1747.5027" y="410.2442">1</text>
        <text fill="#000000" font-family="sans-serif" font-size="13" lengthAdjust="spacingAndGlyphs" textLength="20" x="1980.3101" y="363.9822">1..*</text>
        <path d="M1719.31,479.592 C1793.13,478.246 1930.75,475.738 2004.25,474.398 " fill="none" style="stroke: #A80036; stroke-width: 1.0;"/>
        <polygon fill="#A80036" points="2009.43,474.303,2000.3627,470.4579,2004.4307,474.3887,2000.4999,478.4567,2009.43,474.303" style="stroke: #A80036; stroke-width: 1.0;"/>
        <text fill="#000000" font-family="sans-serif" font-size="13" lengthAdjust="spacingAndGlyphs" textLength="22" x="1866.5" y="470.9951">tem</text>
        <text fill="#000000" font-family="sans-serif" font-size="13" lengthAdjust="spacingAndGlyphs" textLength="7" x="1726.9473" y="494.1091">1</text>
        <text fill="#000000" font-family="sans-serif" font-size="13" lengthAdjust="spacingAndGlyphs" textLength="5" x="1996.5512" y="489.2988">*</text>
        <path d="M1453.69,186.073 C1490.16,176.363 1536.35,164.784 1578,156.5 C1670.96,138.008 1694.47,132.407 1789,125.5 C1867.46,119.767 1887.33,125.05 1966,125.5 C1973.93,125.545 1982.26,125.614 1990.49,125.694 " fill="none" style="stroke: #A80036; stroke-width: 1.0;"/>
        <polygon fill="#A80036" points="1995.61,125.745,1986.6563,121.6424,1990.6103,125.6879,1986.5649,129.6419,1995.61,125.745" style="stroke: #A80036; stroke-width: 1.0;"/>
        <text fill="#000000" font-family="sans-serif" font-size="13" lengthAdjust="spacingAndGlyphs" textLength="65" x="1636" y="123.9951">rege-se por</text>
        <text fill="#000000" font-family="sans-serif" font-size="13" lengthAdjust="spacingAndGlyphs" textLength="5" x="1461.3123" y="198.4738">*</text>
        <text fill="#000000" font-family="sans-serif" font-size="13" lengthAdjust="spacingAndGlyphs" textLength="7" x="1981.0062" y="140.1445">1</text>
        <path d="M1453.88,231.899 C1490.01,245.774 1535.82,261.711 1578,271.5 C1727.54,306.209 1909.37,315.297 1998.65,317.669 " fill="none" style="stroke: #A80036; stroke-width: 1.0;"/>
        <polygon fill="#A80036" points="2003.88,317.803,1994.9858,313.5729,1998.8817,317.6744,1994.7801,321.5703,2003.88,317.803" style="stroke: #A80036; stroke-width: 1.0;"/>
        <text fill="#000000" font-family="sans-serif" font-size="13" lengthAdjust="spacingAndGlyphs" textLength="77" x="1630" y="267.9951">publicado por</text>
        <text fill="#000000" font-family="sans-serif" font-size="13" lengthAdjust="spacingAndGlyphs" textLength="5" x="1461.5231" y="249.312">*</text>
        <text fill="#000000" font-family="sans-serif" font-size="13" lengthAdjust="spacingAndGlyphs" textLength="7" x="1988.9311" y="332.3966">1</text>
        <path d="M1414.08,159.197 C1433.32,130.767 1462.04,96.086 1497,77.5 C1594.31,25.767 1725.11,22.222 1804.97,26.112 " fill="none" style="stroke: #A80036; stroke-width: 1.0;"/>
        <polygon fill="#A80036" points="1810.16,26.378,1801.365,21.9455,1805.1659,26.1351,1800.9763,29.936,1810.16,26.378" style="stroke: #A80036; stroke-width: 1.0;"/>
        <text fill="#000000" font-family="sans-serif" font-size="13" lengthAdjust="spacingAndGlyphs" textLength="46" x="1499.5" y="53.9951">recebeu</text>
        <text fill="#000000" font-family="sans-serif" font-size="13" lengthAdjust="spacingAndGlyphs" textLength="7" x="1410.7672" y="148.5947">1</text>
        <text fill="#000000" font-family="sans-serif" font-size="13" lengthAdjust="spacingAndGlyphs" textLength="7" x="1795.4119" y="40.0977">1</text>
        <path d="M1944.76,40.568 C2056.43,54.164 2279.98,81.382 2382.88,93.911 " fill="none" style="stroke: #A80036; stroke-width: 1.0;"/>
        <polygon fill="#A80036" points="2387.99,94.533,2379.535,89.482,2383.0261,93.933,2378.5751,97.4242,2387.99,94.533" style="stroke: #A80036; stroke-width: 1.0;"/>
        <text fill="#000000" font-family="sans-serif" font-size="13" lengthAdjust="spacingAndGlyphs" textLength="22" x="2043.5" y="43.9951">tem</text>
        <text fill="#000000" font-family="sans-serif" font-size="13" lengthAdjust="spacingAndGlyphs" textLength="7" x="1952.4994" y="55.8398">1</text>
        <text fill="#000000" font-family="sans-serif" font-size="13" lengthAdjust="spacingAndGlyphs" textLength="5" x="2374.9494" y="108.404">*</text>
        <path d="M1453.5,204.5 C1489.01,204.5 1533.44,204.5 1572.59,204.5 " fill="none" style="stroke: #A80036; stroke-width: 1.0;"/>
        <polygon fill="#A80036" points="1577.83,204.5,1568.83,200.5,1572.83,204.5,1568.83,208.5,1577.83,204.5" style="stroke: #A80036; stroke-width: 1.0;"/>
        <text fill="#000000" font-family="sans-serif" font-size="13" lengthAdjust="spacingAndGlyphs" textLength="49" x="1498" y="200.9951">espoleta</text>
        <text fill="#000000" font-family="sans-serif" font-size="13" lengthAdjust="spacingAndGlyphs" textLength="7" x="1461.6516" y="218.9689">1</text>
        <text fill="#000000" font-family="sans-serif" font-size="13" lengthAdjust="spacingAndGlyphs" textLength="22" x="1548.0459" y="218.6274">0..1</text>
        <path d="M2488.09,100.5 C2562.76,100.5 2703.75,100.5 2775.74,100.5 " fill="none" style="stroke: #A80036; stroke-width: 1.0;"/>
        <text fill="#000000" font-family="sans-serif" font-size="13" lengthAdjust="spacingAndGlyphs" textLength="74" x="2671" y="96.9951">realizada por</text>
        <text fill="#000000" font-family="sans-serif" font-size="13" lengthAdjust="spacingAndGlyphs" textLength="5" x="2496.1428" y="115.2847">*</text>
        <text fill="#000000" font-family="sans-serif" font-size="13" lengthAdjust="spacingAndGlyphs" textLength="7" x="2760.8892" y="115.2981">1</text>
        <path d="M1759.24,188.349 C1818.16,177.475 1896.83,162.441 1966,147.5 C1973.97,145.779 1982.32,143.888 1990.57,141.966 " fill="none" style="stroke: #A80036; stroke-width: 1.0;"/>
        <polygon fill="#A80036" points="1995.69,140.767,1986.0192,138.9027,1990.8192,141.8961,1987.8258,146.6961,1995.69,140.767" style="stroke: #A80036; stroke-width: 1.0;"/>
        <text fill="#000000" font-family="sans-serif" font-size="13" lengthAdjust="spacingAndGlyphs" textLength="175" x="1790" y="143.9951">decorre em concordância com</text>
        <text fill="#000000" font-family="sans-serif" font-size="13" lengthAdjust="spacingAndGlyphs" textLength="5" x="1766.9614" y="201.1905">*</text>
        <text fill="#000000" font-family="sans-serif" font-size="13" lengthAdjust="spacingAndGlyphs" textLength="7" x="1981.096" y="156.9973">1</text>
        <path d="M1759.05,231.084 C1833.35,253.142 1936.6,283.795 1999.03,302.328 " fill="none" style="stroke: #A80036; stroke-width: 1.0;"/>
        <polygon fill="#A80036" points="2003.82,303.752,1996.3376,297.3479,1999.0283,302.3238,1994.0524,305.0145,2003.82,303.752" style="stroke: #A80036; stroke-width: 1.0;"/>
        <text fill="#000000" font-family="sans-serif" font-size="13" lengthAdjust="spacingAndGlyphs" textLength="74" x="1840.5" y="236.9951">realizado por</text>
        <text fill="#000000" font-family="sans-serif" font-size="13" lengthAdjust="spacingAndGlyphs" textLength="7" x="1767.1324" y="247.5733">1</text>
        <text fill="#000000" font-family="sans-serif" font-size="13" lengthAdjust="spacingAndGlyphs" textLength="20" x="1976.0454" y="298.3551">1..*</text>
        <path d="M1759.05,205.666 C1832.01,206.616 1932.9,207.93 1995.62,208.746 " fill="none" style="stroke: #A80036; stroke-width: 1.0;"/>
        <polygon fill="#A80036" points="2000.82,208.814,1991.8781,204.6858,1995.8205,208.7426,1991.7638,212.685,2000.82,208.814" style="stroke: #A80036; stroke-width: 1.0;"/>
        <text fill="#000000" font-family="sans-serif" font-size="13" lengthAdjust="spacingAndGlyphs" textLength="39" x="1858" y="201.9951">resulta</text>
        <text fill="#000000" font-family="sans-serif" font-size="13" lengthAdjust="spacingAndGlyphs" textLength="7" x="1767.1324" y="219.971">1</text>
        <text fill="#000000" font-family="sans-serif" font-size="13" lengthAdjust="spacingAndGlyphs" textLength="5" x="1987.9197" y="223.3624">*</text>
        <path d="M2108.15,194.458 C2180.41,173.813 2309.66,136.884 2382.75,116 " fill="none" style="stroke: #A80036; stroke-width: 1.0;"/>
        <polygon fill="#A80036" points="2387.91,114.525,2378.1579,113.1476,2383.1018,115.8967,2380.3527,120.8406,2387.91,114.525" style="stroke: #A80036; stroke-width: 1.0;"/>
        <text fill="#000000" font-family="sans-serif" font-size="13" lengthAdjust="spacingAndGlyphs" textLength="61" x="2144" y="163.9951">referente a</text>
        <text fill="#000000" font-family="sans-serif" font-size="13" lengthAdjust="spacingAndGlyphs" textLength="22" x="2116.0292" y="207.1163">0..1</text>
        <text fill="#000000" font-family="sans-serif" font-size="13" lengthAdjust="spacingAndGlyphs" textLength="7" x="2373.039" y="131.317">1</text>
        <path d="M2108.15,227.991 C2170.18,249.782 2274.22,286.326 2348.67,312.476 " fill="none" style="stroke: #A80036; stroke-width: 1.0;"/>
        <text fill="#000000" font-family="sans-serif" font-size="13" lengthAdjust="spacingAndGlyphs" textLength="33" x="2151.5" y="237.9951">leva a</text>
        <polygon fill="#000000" points="2187.5,231.1758,2193.5,234.1758,2187.5,237.1758,2187.5,231.1758" style="stroke: #000000; stroke-width: 1.0;"/>
        <text fill="#000000" font-family="sans-serif" font-size="13" lengthAdjust="spacingAndGlyphs" textLength="5" x="2116.0461" y="245.2361">*</text>
        <text fill="#000000" font-family="sans-serif" font-size="13" lengthAdjust="spacingAndGlyphs" textLength="7" x="2321.3634" y="301.491">1</text>
        <!--
@startuml
skinparam classAttributeIconSize 0
left to right direction

class AdjudicarAnuncioUI{
}

class AdjudicarAnuncioController{
+getListAnunciosPorAdjudicar()
+getCandidatoAdjudicar(anuncioId)
+adjudicarAnuncio(cand)
}
class Plataforma{
+getRegistoOrganizacoes()
+getRegistoAnuncios()
+getRegistoAdjudicacao()
}
class RegistoOrganizacoes{
+getOrganizacaoByEmailUtilizador(email)
}
class Organizacao{
+getListaColaboradores()
+getColaboradorByEmail(email)
}
class RegistoAnuncios{
+getAnunciosPorAdjudicar(colab)
+getAnuncio(anuncioId)
}
class Anuncio{
+getProcessoSeriacao()
+getTarefa()
+getReferenciaAnuncio()
}
class ProcessoSeriacao{
+getCandidatoAdjudicar(anuncioId)
}
class Tarefa{
+getDescricao()
}
class Candidatura{
+getNrDias()
+getValor()
+getFreelancer()
}
class RegistoAdjudicacao{
+novaAdjudicacao(org,free,descTarefa,periodoReali,valorRemu,refAnu)
+geraNumPorAno()
+getDataAdjudi()
+validaAdjudicacao()
+addAdjudicacao(adjudi)
}
class Adjudicacao{
+create(numSeq,dataAdjudi,org,free,descTarefa,periodoReali,valorRemu,refAnu)
}

AdjudicarAnuncioUI ..> AdjudicarAnuncioController
AdjudicarAnuncioController ..> Plataforma
Plataforma "1" - -> "1" RegistoOrganizacoes : tem
Plataforma "1" - -> "1" RegistoAnuncios : tem
Plataforma "1" - -> "1" RegistoAdjudicacao : tem

RegistoOrganizacoes "1" - -> "*" Organizacao : tem registadas
RegistoAnuncios "1" - -> "*" Anuncio : publicita
RegistoAdjudicacao "1" - -> "*" Adjudicacao : tem registadas

Organizacao "1" - -> "1" ListaColaboradores: tem
Organizacao "1" - -> "1" ListaTarefas: tem

ListaColaboradores "1" - -> "1..*" Colaborador: tem
ListaTarefas "1" - -> "*" Tarefa: tem

Anuncio "*" - -> "1" TipoRegimento: rege-se por
Anuncio "*" - -> "1" Colaborador: publicado por
Anuncio "1" - -> "1" ListaCandidaturas: recebeu
ListaCandidaturas "1" - -> "*" Candidatura: tem
Anuncio "1" - -> "0..1" ProcessoSeriacao: espoleta

Candidatura "*" - - "1"  Freelancer: realizada por

ProcessoSeriacao "*" - -> "1" TipoRegimento: decorre em concordância com
ProcessoSeriacao "1" - -> "1..*" Colaborador: realizado por
ProcessoSeriacao "1" - -> "*" Classificacao: resulta

Classificacao "0..1" - -> "1" Candidatura: referente a
Classificacao "*" - - "1" Adjudicacao: leva a >



@enduml

PlantUML version 2017.11(Wed Apr 19 17:18:59 BST 2017)
(GPL source distribution)
Java Runtime: Java(TM) SE Runtime Environment
JVM: Java HotSpot(TM) 64-Bit Server VM
Java Version: 1.8.0_111-b14
Operating System: Windows 10
OS Version: 10.0
Default Encoding: UTF-8
Language: en
Country: US
-->
    </g>
</svg>
