<?xml version="1.0" encoding="UTF-8"?><svg xmlns="http://www.w3.org/2000/svg" xmlns:xlink="http://www.w3.org/1999/xlink" contentScriptType="application/ecmascript" contentStyleType="text/css" height="920px" preserveAspectRatio="none" style="width:2017px;height:920px;" version="1.1" viewBox="0 0 2017 920" width="2017px" zoomAndPan="magnify">
    <defs>
        <filter height="300%" id="f1hwnz9bgndg46" width="300%" x="-1" y="-1">
            <feGaussianBlur result="blurOut" stdDeviation="2.0"/>
            <feColorMatrix in="blurOut" result="blurOut2" type="matrix" values="0 0 0 0 0 0 0 0 0 0 0 0 0 0 0 0 0 0 .4 0"/>
            <feOffset dx="4.0" dy="4.0" in="blurOut2" result="blurOut3"/>
            <feBlend in="SourceGraphic" in2="blurOut3" mode="normal"/>
        </filter>
    </defs>
    <g>
        <!--class Plataforma-->
        <rect fill="#FEFECE" filter="url(#f1hwnz9bgndg46)" height="53.8359" style="stroke: #A80036; stroke-width: 1.5;" width="103" x="6" y="465"/>
        <ellipse cx="25.95" cy="481" fill="#ADD1B2" rx="11" ry="11" style="stroke: #A80036; stroke-width: 1.0;"/>
        <path d="M28.7156,476.875 Q28.8719,476.6563 29.0594,476.5469 Q29.2469,476.4375 29.4656,476.4375 Q29.8406,476.4375 30.075,476.6953 Q30.3094,476.9531 30.3094,477.5625 L30.3094,479.0156 Q30.3094,479.625 30.075,479.8906 Q29.8406,480.1563 29.4656,480.1563 Q29.1219,480.1563 28.9188,479.9531 Q28.7156,479.7656 28.6063,479.25 Q28.5594,478.8906 28.3719,478.7031 Q28.0438,478.3281 27.4344,478.1094 Q26.825,477.8906 26.2,477.8906 Q25.4344,477.8906 24.8016,478.2188 Q24.1688,478.5469 23.6766,479.2969 Q23.1844,480.0469 23.1844,481.0781 L23.1844,482.1719 Q23.1844,483.4063 24.075,484.2266 Q24.9656,485.0469 26.5594,485.0469 Q27.4969,485.0469 28.1531,484.7969 Q28.5438,484.6406 28.9656,484.2031 Q29.2313,483.9375 29.3797,483.8594 Q29.5281,483.7813 29.7313,483.7813 Q30.0594,483.7813 30.3172,484.0391 Q30.575,484.2969 30.575,484.6406 Q30.575,484.9844 30.2313,485.3906 Q29.7313,485.9688 28.9344,486.2969 Q27.8563,486.75 26.5594,486.75 Q25.0438,486.75 23.8406,486.125 Q22.8563,485.625 22.1688,484.5547 Q21.4813,483.4844 21.4813,482.2031 L21.4813,481.0469 Q21.4813,479.7188 22.0984,478.5703 Q22.7156,477.4219 23.8094,476.8047 Q24.9031,476.1875 26.1375,476.1875 Q26.8719,476.1875 27.5203,476.3516 Q28.1688,476.5156 28.7156,476.875 Z "/>
        <text fill="#000000" font-family="sans-serif" font-size="12" lengthAdjust="spacingAndGlyphs" textLength="60" x="41.05" y="485.9102">Plataforma</text>
        <line style="stroke: #A80036; stroke-width: 1.5;" x1="7" x2="108" y1="497" y2="497"/>
        <text fill="#000000" font-family="sans-serif" font-size="11" lengthAdjust="spacingAndGlyphs" textLength="91" x="12" y="512.4189">-String designacao</text>
        <!--class Tarefa-->
        <rect fill="#FEFECE" filter="url(#f1hwnz9bgndg46)" height="123.0156" style="stroke: #A80036; stroke-width: 1.5;" width="109" x="1629" y="556.5"/>
        <ellipse cx="1662.9" cy="572.5" fill="#ADD1B2" rx="11" ry="11" style="stroke: #A80036; stroke-width: 1.0;"/>
        <path d="M1665.6656,568.375 Q1665.8219,568.1563 1666.0094,568.0469 Q1666.1969,567.9375 1666.4156,567.9375 Q1666.7906,567.9375 1667.025,568.1953 Q1667.2594,568.4531 1667.2594,569.0625 L1667.2594,570.5156 Q1667.2594,571.125 1667.025,571.3906 Q1666.7906,571.6563 1666.4156,571.6563 Q1666.0719,571.6563 1665.8688,571.4531 Q1665.6656,571.2656 1665.5563,570.75 Q1665.5094,570.3906 1665.3219,570.2031 Q1664.9938,569.8281 1664.3844,569.6094 Q1663.775,569.3906 1663.15,569.3906 Q1662.3844,569.3906 1661.7516,569.7188 Q1661.1188,570.0469 1660.6266,570.7969 Q1660.1344,571.5469 1660.1344,572.5781 L1660.1344,573.6719 Q1660.1344,574.9063 1661.025,575.7266 Q1661.9156,576.5469 1663.5094,576.5469 Q1664.4469,576.5469 1665.1031,576.2969 Q1665.4938,576.1406 1665.9156,575.7031 Q1666.1813,575.4375 1666.3297,575.3594 Q1666.4781,575.2813 1666.6813,575.2813 Q1667.0094,575.2813 1667.2672,575.5391 Q1667.525,575.7969 1667.525,576.1406 Q1667.525,576.4844 1667.1813,576.8906 Q1666.6813,577.4688 1665.8844,577.7969 Q1664.8063,578.25 1663.5094,578.25 Q1661.9938,578.25 1660.7906,577.625 Q1659.8063,577.125 1659.1188,576.0547 Q1658.4313,574.9844 1658.4313,573.7031 L1658.4313,572.5469 Q1658.4313,571.2188 1659.0484,570.0703 Q1659.6656,568.9219 1660.7594,568.3047 Q1661.8531,567.6875 1663.0875,567.6875 Q1663.8219,567.6875 1664.4703,567.8516 Q1665.1188,568.0156 1665.6656,568.375 Z "/>
        <text fill="#000000" font-family="sans-serif" font-size="12" lengthAdjust="spacingAndGlyphs" textLength="35" x="1681.1" y="577.4102">Tarefa</text>
        <line style="stroke: #A80036; stroke-width: 1.5;" x1="1630" x2="1737" y1="588.5" y2="588.5"/>
        <text fill="#000000" font-family="sans-serif" font-size="11" lengthAdjust="spacingAndGlyphs" textLength="85" x="1635" y="603.9189">-String referencia</text>
        <text fill="#000000" font-family="sans-serif" font-size="11" lengthAdjust="spacingAndGlyphs" textLength="91" x="1635" y="617.7549">-String designacao</text>
        <text fill="#000000" font-family="sans-serif" font-size="11" lengthAdjust="spacingAndGlyphs" textLength="97" x="1635" y="631.5908">-String descInformal</text>
        <text fill="#000000" font-family="sans-serif" font-size="11" lengthAdjust="spacingAndGlyphs" textLength="97" x="1635" y="645.4268">-String descTecnica</text>
        <text fill="#000000" font-family="sans-serif" font-size="11" lengthAdjust="spacingAndGlyphs" textLength="95" x="1635" y="659.2627">-Integer duracaoEst</text>
        <text fill="#000000" font-family="sans-serif" font-size="11" lengthAdjust="spacingAndGlyphs" textLength="82" x="1635" y="673.0986">-Double custoEst</text>
        <!--class TipoRegimento-->
        <rect fill="#FEFECE" filter="url(#f1hwnz9bgndg46)" height="67.6719" style="stroke: #A80036; stroke-width: 1.5;" width="130" x="872" y="178"/>
        <ellipse cx="892.85" cy="194" fill="#ADD1B2" rx="11" ry="11" style="stroke: #A80036; stroke-width: 1.0;"/>
        <path d="M895.6156,189.875 Q895.7719,189.6563 895.9594,189.5469 Q896.1469,189.4375 896.3656,189.4375 Q896.7406,189.4375 896.975,189.6953 Q897.2094,189.9531 897.2094,190.5625 L897.2094,192.0156 Q897.2094,192.625 896.975,192.8906 Q896.7406,193.1563 896.3656,193.1563 Q896.0219,193.1563 895.8188,192.9531 Q895.6156,192.7656 895.5063,192.25 Q895.4594,191.8906 895.2719,191.7031 Q894.9438,191.3281 894.3344,191.1094 Q893.725,190.8906 893.1,190.8906 Q892.3344,190.8906 891.7016,191.2188 Q891.0688,191.5469 890.5766,192.2969 Q890.0844,193.0469 890.0844,194.0781 L890.0844,195.1719 Q890.0844,196.4063 890.975,197.2266 Q891.8656,198.0469 893.4594,198.0469 Q894.3969,198.0469 895.0531,197.7969 Q895.4438,197.6406 895.8656,197.2031 Q896.1313,196.9375 896.2797,196.8594 Q896.4281,196.7813 896.6313,196.7813 Q896.9594,196.7813 897.2172,197.0391 Q897.475,197.2969 897.475,197.6406 Q897.475,197.9844 897.1313,198.3906 Q896.6313,198.9688 895.8344,199.2969 Q894.7563,199.75 893.4594,199.75 Q891.9438,199.75 890.7406,199.125 Q889.7563,198.625 889.0688,197.5547 Q888.3813,196.4844 888.3813,195.2031 L888.3813,194.0469 Q888.3813,192.7188 888.9984,191.5703 Q889.6156,190.4219 890.7094,189.8047 Q891.8031,189.1875 893.0375,189.1875 Q893.7719,189.1875 894.4203,189.3516 Q895.0688,189.5156 895.6156,189.875 Z "/>
        <text fill="#000000" font-family="sans-serif" font-size="12" lengthAdjust="spacingAndGlyphs" textLength="85" x="908.15" y="198.9102">TipoRegimento</text>
        <line style="stroke: #A80036; stroke-width: 1.5;" x1="873" x2="1001" y1="210" y2="210"/>
        <text fill="#000000" font-family="sans-serif" font-size="11" lengthAdjust="spacingAndGlyphs" textLength="91" x="878" y="225.4189">-String designacao</text>
        <text fill="#000000" font-family="sans-serif" font-size="11" lengthAdjust="spacingAndGlyphs" textLength="118" x="878" y="239.2549">-String descricaoRegras</text>
        <!--class Anuncio-->
        <rect fill="#FEFECE" filter="url(#f1hwnz9bgndg46)" height="123.0156" style="stroke: #A80036; stroke-width: 1.5;" width="132" x="232" y="430.5"/>
        <ellipse cx="272.2" cy="446.5" fill="#ADD1B2" rx="11" ry="11" style="stroke: #A80036; stroke-width: 1.0;"/>
        <path d="M274.9656,442.375 Q275.1219,442.1563 275.3094,442.0469 Q275.4969,441.9375 275.7156,441.9375 Q276.0906,441.9375 276.325,442.1953 Q276.5594,442.4531 276.5594,443.0625 L276.5594,444.5156 Q276.5594,445.125 276.325,445.3906 Q276.0906,445.6563 275.7156,445.6563 Q275.3719,445.6563 275.1688,445.4531 Q274.9656,445.2656 274.8563,444.75 Q274.8094,444.3906 274.6219,444.2031 Q274.2938,443.8281 273.6844,443.6094 Q273.075,443.3906 272.45,443.3906 Q271.6844,443.3906 271.0516,443.7188 Q270.4188,444.0469 269.9266,444.7969 Q269.4344,445.5469 269.4344,446.5781 L269.4344,447.6719 Q269.4344,448.9063 270.325,449.7266 Q271.2156,450.5469 272.8094,450.5469 Q273.7469,450.5469 274.4031,450.2969 Q274.7938,450.1406 275.2156,449.7031 Q275.4813,449.4375 275.6297,449.3594 Q275.7781,449.2813 275.9813,449.2813 Q276.3094,449.2813 276.5672,449.5391 Q276.825,449.7969 276.825,450.1406 Q276.825,450.4844 276.4813,450.8906 Q275.9813,451.4688 275.1844,451.7969 Q274.1063,452.25 272.8094,452.25 Q271.2938,452.25 270.0906,451.625 Q269.1063,451.125 268.4188,450.0547 Q267.7313,448.9844 267.7313,447.7031 L267.7313,446.5469 Q267.7313,445.2188 268.3484,444.0703 Q268.9656,442.9219 270.0594,442.3047 Q271.1531,441.6875 272.3875,441.6875 Q273.1219,441.6875 273.7703,441.8516 Q274.4188,442.0156 274.9656,442.375 Z "/>
        <text fill="#000000" font-family="sans-serif" font-size="12" lengthAdjust="spacingAndGlyphs" textLength="44" x="291.8" y="451.4102">Anuncio</text>
        <line style="stroke: #A80036; stroke-width: 1.5;" x1="233" x2="363" y1="462.5" y2="462.5"/>
        <text fill="#000000" font-family="sans-serif" font-size="11" lengthAdjust="spacingAndGlyphs" textLength="119" x="238" y="477.9189">-Date dtInicioPublicitacao</text>
        <text fill="#000000" font-family="sans-serif" font-size="11" lengthAdjust="spacingAndGlyphs" textLength="111" x="238" y="491.7549">-Date dtFimPublicitacao</text>
        <text fill="#000000" font-family="sans-serif" font-size="11" lengthAdjust="spacingAndGlyphs" textLength="120" x="238" y="505.5908">-Date dtInicioCandidatura</text>
        <text fill="#000000" font-family="sans-serif" font-size="11" lengthAdjust="spacingAndGlyphs" textLength="112" x="238" y="519.4268">-Date dtFimCandidatura</text>
        <text fill="#000000" font-family="sans-serif" font-size="11" lengthAdjust="spacingAndGlyphs" textLength="105" x="238" y="533.2627">-Date dtInicioSeriacao</text>
        <text fill="#000000" font-family="sans-serif" font-size="11" lengthAdjust="spacingAndGlyphs" textLength="97" x="238" y="547.0986">-Date dtFimSeriacao</text>
        <!--class Colaborador-->
        <rect fill="#FEFECE" filter="url(#f1hwnz9bgndg46)" height="95.3438" style="stroke: #A80036; stroke-width: 1.5;" width="101" x="1907" y="685.5"/>
        <ellipse cx="1922" cy="701.5" fill="#ADD1B2" rx="11" ry="11" style="stroke: #A80036; stroke-width: 1.0;"/>
        <path d="M1924.7656,697.375 Q1924.9219,697.1563 1925.1094,697.0469 Q1925.2969,696.9375 1925.5156,696.9375 Q1925.8906,696.9375 1926.125,697.1953 Q1926.3594,697.4531 1926.3594,698.0625 L1926.3594,699.5156 Q1926.3594,700.125 1926.125,700.3906 Q1925.8906,700.6563 1925.5156,700.6563 Q1925.1719,700.6563 1924.9688,700.4531 Q1924.7656,700.2656 1924.6563,699.75 Q1924.6094,699.3906 1924.4219,699.2031 Q1924.0938,698.8281 1923.4844,698.6094 Q1922.875,698.3906 1922.25,698.3906 Q1921.4844,698.3906 1920.8516,698.7188 Q1920.2188,699.0469 1919.7266,699.7969 Q1919.2344,700.5469 1919.2344,701.5781 L1919.2344,702.6719 Q1919.2344,703.9063 1920.125,704.7266 Q1921.0156,705.5469 1922.6094,705.5469 Q1923.5469,705.5469 1924.2031,705.2969 Q1924.5938,705.1406 1925.0156,704.7031 Q1925.2813,704.4375 1925.4297,704.3594 Q1925.5781,704.2813 1925.7813,704.2813 Q1926.1094,704.2813 1926.3672,704.5391 Q1926.625,704.7969 1926.625,705.1406 Q1926.625,705.4844 1926.2813,705.8906 Q1925.7813,706.4688 1924.9844,706.7969 Q1923.9063,707.25 1922.6094,707.25 Q1921.0938,707.25 1919.8906,706.625 Q1918.9063,706.125 1918.2188,705.0547 Q1917.5313,703.9844 1917.5313,702.7031 L1917.5313,701.5469 Q1917.5313,700.2188 1918.1484,699.0703 Q1918.7656,697.9219 1919.8594,697.3047 Q1920.9531,696.6875 1922.1875,696.6875 Q1922.9219,696.6875 1923.5703,696.8516 Q1924.2188,697.0156 1924.7656,697.375 Z "/>
        <text fill="#000000" font-family="sans-serif" font-size="12" lengthAdjust="spacingAndGlyphs" textLength="69" x="1936" y="706.4102">Colaborador</text>
        <line style="stroke: #A80036; stroke-width: 1.5;" x1="1908" x2="2007" y1="717.5" y2="717.5"/>
        <text fill="#000000" font-family="sans-serif" font-size="11" lengthAdjust="spacingAndGlyphs" textLength="61" x="1913" y="732.9189">-String nome</text>
        <text fill="#000000" font-family="sans-serif" font-size="11" lengthAdjust="spacingAndGlyphs" textLength="69" x="1913" y="746.7549">-String funcao</text>
        <text fill="#000000" font-family="sans-serif" font-size="11" lengthAdjust="spacingAndGlyphs" textLength="74" x="1913" y="760.5908">-String telefone</text>
        <text fill="#000000" font-family="sans-serif" font-size="11" lengthAdjust="spacingAndGlyphs" textLength="59" x="1913" y="774.4268">-String email</text>
        <!--class Freelancer-->
        <rect fill="#FEFECE" filter="url(#f1hwnz9bgndg46)" height="95.3438" style="stroke: #A80036; stroke-width: 1.5;" width="91" x="1420" y="77.5"/>
        <ellipse cx="1435" cy="93.5" fill="#ADD1B2" rx="11" ry="11" style="stroke: #A80036; stroke-width: 1.0;"/>
        <path d="M1437.7656,89.375 Q1437.9219,89.1563 1438.1094,89.0469 Q1438.2969,88.9375 1438.5156,88.9375 Q1438.8906,88.9375 1439.125,89.1953 Q1439.3594,89.4531 1439.3594,90.0625 L1439.3594,91.5156 Q1439.3594,92.125 1439.125,92.3906 Q1438.8906,92.6563 1438.5156,92.6563 Q1438.1719,92.6563 1437.9688,92.4531 Q1437.7656,92.2656 1437.6563,91.75 Q1437.6094,91.3906 1437.4219,91.2031 Q1437.0938,90.8281 1436.4844,90.6094 Q1435.875,90.3906 1435.25,90.3906 Q1434.4844,90.3906 1433.8516,90.7188 Q1433.2188,91.0469 1432.7266,91.7969 Q1432.2344,92.5469 1432.2344,93.5781 L1432.2344,94.6719 Q1432.2344,95.9063 1433.125,96.7266 Q1434.0156,97.5469 1435.6094,97.5469 Q1436.5469,97.5469 1437.2031,97.2969 Q1437.5938,97.1406 1438.0156,96.7031 Q1438.2813,96.4375 1438.4297,96.3594 Q1438.5781,96.2813 1438.7813,96.2813 Q1439.1094,96.2813 1439.3672,96.5391 Q1439.625,96.7969 1439.625,97.1406 Q1439.625,97.4844 1439.2813,97.8906 Q1438.7813,98.4688 1437.9844,98.7969 Q1436.9063,99.25 1435.6094,99.25 Q1434.0938,99.25 1432.8906,98.625 Q1431.9063,98.125 1431.2188,97.0547 Q1430.5313,95.9844 1430.5313,94.7031 L1430.5313,93.5469 Q1430.5313,92.2188 1431.1484,91.0703 Q1431.7656,89.9219 1432.8594,89.3047 Q1433.9531,88.6875 1435.1875,88.6875 Q1435.9219,88.6875 1436.5703,88.8516 Q1437.2188,89.0156 1437.7656,89.375 Z "/>
        <text fill="#000000" font-family="sans-serif" font-size="12" lengthAdjust="spacingAndGlyphs" textLength="59" x="1449" y="98.4102">Freelancer</text>
        <line style="stroke: #A80036; stroke-width: 1.5;" x1="1421" x2="1510" y1="109.5" y2="109.5"/>
        <text fill="#000000" font-family="sans-serif" font-size="11" lengthAdjust="spacingAndGlyphs" textLength="61" x="1426" y="124.9189">-String nome</text>
        <text fill="#000000" font-family="sans-serif" font-size="11" lengthAdjust="spacingAndGlyphs" textLength="50" x="1426" y="138.7549">-String NIF</text>
        <text fill="#000000" font-family="sans-serif" font-size="11" lengthAdjust="spacingAndGlyphs" textLength="74" x="1426" y="152.5908">-String telefone</text>
        <text fill="#000000" font-family="sans-serif" font-size="11" lengthAdjust="spacingAndGlyphs" textLength="59" x="1426" y="166.4268">-String email</text>
        <!--class Candidatura-->
        <rect fill="#FEFECE" filter="url(#f1hwnz9bgndg46)" height="109.1797" style="stroke: #A80036; stroke-width: 1.5;" width="128" x="1138" y="79.5"/>
        <ellipse cx="1165.6" cy="95.5" fill="#ADD1B2" rx="11" ry="11" style="stroke: #A80036; stroke-width: 1.0;"/>
        <path d="M1168.3656,91.375 Q1168.5219,91.1563 1168.7094,91.0469 Q1168.8969,90.9375 1169.1156,90.9375 Q1169.4906,90.9375 1169.725,91.1953 Q1169.9594,91.4531 1169.9594,92.0625 L1169.9594,93.5156 Q1169.9594,94.125 1169.725,94.3906 Q1169.4906,94.6563 1169.1156,94.6563 Q1168.7719,94.6563 1168.5688,94.4531 Q1168.3656,94.2656 1168.2563,93.75 Q1168.2094,93.3906 1168.0219,93.2031 Q1167.6938,92.8281 1167.0844,92.6094 Q1166.475,92.3906 1165.85,92.3906 Q1165.0844,92.3906 1164.4516,92.7188 Q1163.8188,93.0469 1163.3266,93.7969 Q1162.8344,94.5469 1162.8344,95.5781 L1162.8344,96.6719 Q1162.8344,97.9063 1163.725,98.7266 Q1164.6156,99.5469 1166.2094,99.5469 Q1167.1469,99.5469 1167.8031,99.2969 Q1168.1938,99.1406 1168.6156,98.7031 Q1168.8813,98.4375 1169.0297,98.3594 Q1169.1781,98.2813 1169.3813,98.2813 Q1169.7094,98.2813 1169.9672,98.5391 Q1170.225,98.7969 1170.225,99.1406 Q1170.225,99.4844 1169.8813,99.8906 Q1169.3813,100.4688 1168.5844,100.7969 Q1167.5063,101.25 1166.2094,101.25 Q1164.6938,101.25 1163.4906,100.625 Q1162.5063,100.125 1161.8188,99.0547 Q1161.1313,97.9844 1161.1313,96.7031 L1161.1313,95.5469 Q1161.1313,94.2188 1161.7484,93.0703 Q1162.3656,91.9219 1163.4594,91.3047 Q1164.5531,90.6875 1165.7875,90.6875 Q1166.5219,90.6875 1167.1703,90.8516 Q1167.8188,91.0156 1168.3656,91.375 Z "/>
        <text fill="#000000" font-family="sans-serif" font-size="12" lengthAdjust="spacingAndGlyphs" textLength="68" x="1182.4" y="100.4102">Candidatura</text>
        <line style="stroke: #A80036; stroke-width: 1.5;" x1="1139" x2="1265" y1="111.5" y2="111.5"/>
        <text fill="#000000" font-family="sans-serif" font-size="11" lengthAdjust="spacingAndGlyphs" textLength="108" x="1144" y="126.9189">-Date dataCandidatura</text>
        <text fill="#000000" font-family="sans-serif" font-size="11" lengthAdjust="spacingAndGlyphs" textLength="115" x="1144" y="140.7549">-Double valorPretendido</text>
        <text fill="#000000" font-family="sans-serif" font-size="11" lengthAdjust="spacingAndGlyphs" textLength="71" x="1144" y="154.5908">-Integer nrDias</text>
        <text fill="#000000" font-family="sans-serif" font-size="11" lengthAdjust="spacingAndGlyphs" textLength="116" x="1144" y="168.4268">-String txtApresentacao</text>
        <text fill="#000000" font-family="sans-serif" font-size="11" lengthAdjust="spacingAndGlyphs" textLength="96" x="1144" y="182.2627">-String txtMotivacao</text>
        <!--class Classificacao-->
        <rect fill="#FEFECE" filter="url(#f1hwnz9bgndg46)" height="53.8359" style="stroke: #A80036; stroke-width: 1.5;" width="107" x="883.5" y="352"/>
        <ellipse cx="898.5" cy="368" fill="#ADD1B2" rx="11" ry="11" style="stroke: #A80036; stroke-width: 1.0;"/>
        <path d="M901.2656,363.875 Q901.4219,363.6563 901.6094,363.5469 Q901.7969,363.4375 902.0156,363.4375 Q902.3906,363.4375 902.625,363.6953 Q902.8594,363.9531 902.8594,364.5625 L902.8594,366.0156 Q902.8594,366.625 902.625,366.8906 Q902.3906,367.1563 902.0156,367.1563 Q901.6719,367.1563 901.4688,366.9531 Q901.2656,366.7656 901.1563,366.25 Q901.1094,365.8906 900.9219,365.7031 Q900.5938,365.3281 899.9844,365.1094 Q899.375,364.8906 898.75,364.8906 Q897.9844,364.8906 897.3516,365.2188 Q896.7188,365.5469 896.2266,366.2969 Q895.7344,367.0469 895.7344,368.0781 L895.7344,369.1719 Q895.7344,370.4063 896.625,371.2266 Q897.5156,372.0469 899.1094,372.0469 Q900.0469,372.0469 900.7031,371.7969 Q901.0938,371.6406 901.5156,371.2031 Q901.7813,370.9375 901.9297,370.8594 Q902.0781,370.7813 902.2813,370.7813 Q902.6094,370.7813 902.8672,371.0391 Q903.125,371.2969 903.125,371.6406 Q903.125,371.9844 902.7813,372.3906 Q902.2813,372.9688 901.4844,373.2969 Q900.4063,373.75 899.1094,373.75 Q897.5938,373.75 896.3906,373.125 Q895.4063,372.625 894.7188,371.5547 Q894.0313,370.4844 894.0313,369.2031 L894.0313,368.0469 Q894.0313,366.7188 894.6484,365.5703 Q895.2656,364.4219 896.3594,363.8047 Q897.4531,363.1875 898.6875,363.1875 Q899.4219,363.1875 900.0703,363.3516 Q900.7188,363.5156 901.2656,363.875 Z "/>
        <text fill="#000000" font-family="sans-serif" font-size="12" lengthAdjust="spacingAndGlyphs" textLength="75" x="912.5" y="372.9102">Classificacao</text>
        <line style="stroke: #A80036; stroke-width: 1.5;" x1="884.5" x2="989.5" y1="384" y2="384"/>
        <text fill="#000000" font-family="sans-serif" font-size="11" lengthAdjust="spacingAndGlyphs" textLength="64" x="889.5" y="399.4189">-Integer lugar</text>
        <!--class Organizacao-->
        <rect fill="#FEFECE" filter="url(#f1hwnz9bgndg46)" height="109.1797" style="stroke: #A80036; stroke-width: 1.5;" width="101" x="1415" y="742.5"/>
        <ellipse cx="1430" cy="758.5" fill="#ADD1B2" rx="11" ry="11" style="stroke: #A80036; stroke-width: 1.0;"/>
        <path d="M1432.7656,754.375 Q1432.9219,754.1563 1433.1094,754.0469 Q1433.2969,753.9375 1433.5156,753.9375 Q1433.8906,753.9375 1434.125,754.1953 Q1434.3594,754.4531 1434.3594,755.0625 L1434.3594,756.5156 Q1434.3594,757.125 1434.125,757.3906 Q1433.8906,757.6563 1433.5156,757.6563 Q1433.1719,757.6563 1432.9688,757.4531 Q1432.7656,757.2656 1432.6563,756.75 Q1432.6094,756.3906 1432.4219,756.2031 Q1432.0938,755.8281 1431.4844,755.6094 Q1430.875,755.3906 1430.25,755.3906 Q1429.4844,755.3906 1428.8516,755.7188 Q1428.2188,756.0469 1427.7266,756.7969 Q1427.2344,757.5469 1427.2344,758.5781 L1427.2344,759.6719 Q1427.2344,760.9063 1428.125,761.7266 Q1429.0156,762.5469 1430.6094,762.5469 Q1431.5469,762.5469 1432.2031,762.2969 Q1432.5938,762.1406 1433.0156,761.7031 Q1433.2813,761.4375 1433.4297,761.3594 Q1433.5781,761.2813 1433.7813,761.2813 Q1434.1094,761.2813 1434.3672,761.5391 Q1434.625,761.7969 1434.625,762.1406 Q1434.625,762.4844 1434.2813,762.8906 Q1433.7813,763.4688 1432.9844,763.7969 Q1431.9063,764.25 1430.6094,764.25 Q1429.0938,764.25 1427.8906,763.625 Q1426.9063,763.125 1426.2188,762.0547 Q1425.5313,760.9844 1425.5313,759.7031 L1425.5313,758.5469 Q1425.5313,757.2188 1426.1484,756.0703 Q1426.7656,754.9219 1427.8594,754.3047 Q1428.9531,753.6875 1430.1875,753.6875 Q1430.9219,753.6875 1431.5703,753.8516 Q1432.2188,754.0156 1432.7656,754.375 Z "/>
        <text fill="#000000" font-family="sans-serif" font-size="12" lengthAdjust="spacingAndGlyphs" textLength="69" x="1444" y="763.4102">Organizacao</text>
        <line style="stroke: #A80036; stroke-width: 1.5;" x1="1416" x2="1515" y1="774.5" y2="774.5"/>
        <text fill="#000000" font-family="sans-serif" font-size="11" lengthAdjust="spacingAndGlyphs" textLength="61" x="1421" y="789.9189">-String nome</text>
        <text fill="#000000" font-family="sans-serif" font-size="11" lengthAdjust="spacingAndGlyphs" textLength="50" x="1421" y="803.7549">-String NIF</text>
        <text fill="#000000" font-family="sans-serif" font-size="11" lengthAdjust="spacingAndGlyphs" textLength="74" x="1421" y="817.5908">-String website</text>
        <text fill="#000000" font-family="sans-serif" font-size="11" lengthAdjust="spacingAndGlyphs" textLength="74" x="1421" y="831.4268">-String telefone</text>
        <text fill="#000000" font-family="sans-serif" font-size="11" lengthAdjust="spacingAndGlyphs" textLength="59" x="1421" y="845.2627">-String email</text>
        <!--class Adjudicacao-->
        <rect fill="#FEFECE" filter="url(#f1hwnz9bgndg46)" height="67.6719" style="stroke: #A80036; stroke-width: 1.5;" width="125" x="1139.5" y="461"/>
        <ellipse cx="1166.2" cy="477" fill="#ADD1B2" rx="11" ry="11" style="stroke: #A80036; stroke-width: 1.0;"/>
        <path d="M1168.9656,472.875 Q1169.1219,472.6563 1169.3094,472.5469 Q1169.4969,472.4375 1169.7156,472.4375 Q1170.0906,472.4375 1170.325,472.6953 Q1170.5594,472.9531 1170.5594,473.5625 L1170.5594,475.0156 Q1170.5594,475.625 1170.325,475.8906 Q1170.0906,476.1563 1169.7156,476.1563 Q1169.3719,476.1563 1169.1688,475.9531 Q1168.9656,475.7656 1168.8563,475.25 Q1168.8094,474.8906 1168.6219,474.7031 Q1168.2938,474.3281 1167.6844,474.1094 Q1167.075,473.8906 1166.45,473.8906 Q1165.6844,473.8906 1165.0516,474.2188 Q1164.4188,474.5469 1163.9266,475.2969 Q1163.4344,476.0469 1163.4344,477.0781 L1163.4344,478.1719 Q1163.4344,479.4063 1164.325,480.2266 Q1165.2156,481.0469 1166.8094,481.0469 Q1167.7469,481.0469 1168.4031,480.7969 Q1168.7938,480.6406 1169.2156,480.2031 Q1169.4813,479.9375 1169.6297,479.8594 Q1169.7781,479.7813 1169.9813,479.7813 Q1170.3094,479.7813 1170.5672,480.0391 Q1170.825,480.2969 1170.825,480.6406 Q1170.825,480.9844 1170.4813,481.3906 Q1169.9813,481.9688 1169.1844,482.2969 Q1168.1063,482.75 1166.8094,482.75 Q1165.2938,482.75 1164.0906,482.125 Q1163.1063,481.625 1162.4188,480.5547 Q1161.7313,479.4844 1161.7313,478.2031 L1161.7313,477.0469 Q1161.7313,475.7188 1162.3484,474.5703 Q1162.9656,473.4219 1164.0594,472.8047 Q1165.1531,472.1875 1166.3875,472.1875 Q1167.1219,472.1875 1167.7703,472.3516 Q1168.4188,472.5156 1168.9656,472.875 Z "/>
        <text fill="#000000" font-family="sans-serif" font-size="12" lengthAdjust="spacingAndGlyphs" textLength="67" x="1182.8" y="481.9102">Adjudicacao</text>
        <line style="stroke: #A80036; stroke-width: 1.5;" x1="1140.5" x2="1263.5" y1="493" y2="493"/>
        <text fill="#000000" font-family="sans-serif" font-size="11" lengthAdjust="spacingAndGlyphs" textLength="113" x="1145.5" y="508.4189">-Integer numSequencial</text>
        <text fill="#000000" font-family="sans-serif" font-size="11" lengthAdjust="spacingAndGlyphs" textLength="111" x="1145.5" y="522.2549">-Date DataAdjudicacao</text>
        <!--class ProcessoSeriacao-->
        <rect fill="#FEFECE" filter="url(#f1hwnz9bgndg46)" height="67.6719" style="stroke: #A80036; stroke-width: 1.5;" width="134" x="488" y="361"/>
        <ellipse cx="503" cy="377" fill="#ADD1B2" rx="11" ry="11" style="stroke: #A80036; stroke-width: 1.0;"/>
        <path d="M505.7656,372.875 Q505.9219,372.6563 506.1094,372.5469 Q506.2969,372.4375 506.5156,372.4375 Q506.8906,372.4375 507.125,372.6953 Q507.3594,372.9531 507.3594,373.5625 L507.3594,375.0156 Q507.3594,375.625 507.125,375.8906 Q506.8906,376.1563 506.5156,376.1563 Q506.1719,376.1563 505.9688,375.9531 Q505.7656,375.7656 505.6563,375.25 Q505.6094,374.8906 505.4219,374.7031 Q505.0938,374.3281 504.4844,374.1094 Q503.875,373.8906 503.25,373.8906 Q502.4844,373.8906 501.8516,374.2188 Q501.2188,374.5469 500.7266,375.2969 Q500.2344,376.0469 500.2344,377.0781 L500.2344,378.1719 Q500.2344,379.4063 501.125,380.2266 Q502.0156,381.0469 503.6094,381.0469 Q504.5469,381.0469 505.2031,380.7969 Q505.5938,380.6406 506.0156,380.2031 Q506.2813,379.9375 506.4297,379.8594 Q506.5781,379.7813 506.7813,379.7813 Q507.1094,379.7813 507.3672,380.0391 Q507.625,380.2969 507.625,380.6406 Q507.625,380.9844 507.2813,381.3906 Q506.7813,381.9688 505.9844,382.2969 Q504.9063,382.75 503.6094,382.75 Q502.0938,382.75 500.8906,382.125 Q499.9063,381.625 499.2188,380.5547 Q498.5313,379.4844 498.5313,378.2031 L498.5313,377.0469 Q498.5313,375.7188 499.1484,374.5703 Q499.7656,373.4219 500.8594,372.8047 Q501.9531,372.1875 503.1875,372.1875 Q503.9219,372.1875 504.5703,372.3516 Q505.2188,372.5156 505.7656,372.875 Z "/>
        <text fill="#000000" font-family="sans-serif" font-size="12" lengthAdjust="spacingAndGlyphs" textLength="102" x="517" y="381.9102">ProcessoSeriacao</text>
        <line style="stroke: #A80036; stroke-width: 1.5;" x1="489" x2="621" y1="393" y2="393"/>
        <text fill="#000000" font-family="sans-serif" font-size="11" lengthAdjust="spacingAndGlyphs" textLength="103" x="494" y="408.4189">-Date dataRealizacao</text>
        <text fill="#000000" font-family="sans-serif" font-size="11" lengthAdjust="spacingAndGlyphs" textLength="110" x="494" y="422.2549">-String textoConclusao</text>
        <path d="M60.621,519.035 C69.5912,612.898 112.954,919 297,919 C297,919 297,919 1203,919 C1282.65,919 1364.24,871.9376 1414.63,836.2731 " fill="none" style="stroke: #A80036; stroke-width: 1.0;"/>
        <text fill="#000000" font-family="sans-serif" font-size="13" lengthAdjust="spacingAndGlyphs" textLength="86" x="697.5" y="915.4951">tem registadas</text>
        <polygon fill="#000000" points="786.5,908.6758,792.5,911.6758,786.5,914.6758,786.5,908.6758" style="stroke: #000000; stroke-width: 1.0;"/>
        <text fill="#000000" font-family="sans-serif" font-size="13" lengthAdjust="spacingAndGlyphs" textLength="7" x="53.5381" y="540.2504">1</text>
        <text fill="#000000" font-family="sans-serif" font-size="13" lengthAdjust="spacingAndGlyphs" textLength="5" x="1402.1248" y="856.4281">*</text>
        <path d="M94.718,464.82 C165.933,412.852 330.951,299.631 488,244 C557.564,219.358 578.494,224.572 652,218 C727.277,211.269 814.202,210.447 871.853,210.871 " fill="none" style="stroke: #A80036; stroke-width: 1.0;"/>
        <text fill="#000000" font-family="sans-serif" font-size="13" lengthAdjust="spacingAndGlyphs" textLength="43" x="398" y="252.4951">suporta</text>
        <polygon fill="#000000" points="444,245.6758,450,248.6758,444,251.6758,444,245.6758" style="stroke: #000000; stroke-width: 1.0;"/>
        <text fill="#000000" font-family="sans-serif" font-size="13" lengthAdjust="spacingAndGlyphs" textLength="7" x="95.5153" y="454.2394">1</text>
        <text fill="#000000" font-family="sans-serif" font-size="13" lengthAdjust="spacingAndGlyphs" textLength="5" x="859.0313" y="207.3499">*</text>
        <path d="M109.08,492 C144.905,492 193.273,492 231.967,492 " fill="none" style="stroke: #A80036; stroke-width: 1.0;"/>
        <text fill="#000000" font-family="sans-serif" font-size="13" lengthAdjust="spacingAndGlyphs" textLength="48" x="140" y="488.4951">publicita</text>
        <polygon fill="#000000" points="191,481.6758,197,484.6758,191,487.6758,191,481.6758" style="stroke: #000000; stroke-width: 1.0;"/>
        <text fill="#000000" font-family="sans-serif" font-size="13" lengthAdjust="spacingAndGlyphs" textLength="7" x="117.1699" y="506.708">1</text>
        <text fill="#000000" font-family="sans-serif" font-size="13" lengthAdjust="spacingAndGlyphs" textLength="5" x="219.0429" y="506.4395">*</text>
        <path d="M59.5705,464.932 C65.0778,365.476 98.4204,26 297,26 C297,26 297,26 1203,26 C1286.89,26 1308.07,42.544 1385,76 C1396.75,81.108 1408.81,87.73 1419.88,94.445 " fill="none" style="stroke: #A80036; stroke-width: 1.0;"/>
        <text fill="#000000" font-family="sans-serif" font-size="13" lengthAdjust="spacingAndGlyphs" textLength="47" x="717" y="22.4951">tem/usa</text>
        <polygon fill="#000000" points="767,15.6758,773,18.6758,767,21.6758,767,15.6758" style="stroke: #000000; stroke-width: 1.0;"/>
        <text fill="#000000" font-family="sans-serif" font-size="13" lengthAdjust="spacingAndGlyphs" textLength="7" x="52.2221" y="453.9421">1</text>
        <text fill="#000000" font-family="sans-serif" font-size="13" lengthAdjust="spacingAndGlyphs" textLength="5" x="1406.9101" y="104.2051">*</text>
        <path d="M63.8179,519.169 C81.2975,599.612 144.804,831 297,831 C297,831 297,831 748,831 C910.985,831 899.19,693.475 1032,599 C1067.09,574.038 1108.21,548.657 1141.1,529.218 " fill="none" style="stroke: #A80036; stroke-width: 1.0;"/>
        <text fill="#000000" font-family="sans-serif" font-size="13" lengthAdjust="spacingAndGlyphs" textLength="39" x="529" y="827.4951">regista</text>
        <polygon fill="#000000" points="571,820.6758,577,823.6758,571,826.6758,571,820.6758" style="stroke: #000000; stroke-width: 1.0;"/>
        <text fill="#000000" font-family="sans-serif" font-size="13" lengthAdjust="spacingAndGlyphs" textLength="7" x="65.9656" y="540.4137">1</text>
        <text fill="#000000" font-family="sans-serif" font-size="13" lengthAdjust="spacingAndGlyphs" textLength="5" x="1126.3919" y="549.2298">*</text>
        <path d="M1232.49,529.056 C1277.44,580.964 1363.52,680.379 1417.25,742.434 " fill="none" style="stroke: #A80036; stroke-width: 1.0;"/>
        <text fill="#000000" font-family="sans-serif" font-size="13" lengthAdjust="spacingAndGlyphs" textLength="38" x="1315" y="606.4951">possui</text>
        <polygon fill="#000000" points="1329.5,615.3516,1332.5,621.3516,1335.5,615.3516,1329.5,615.3516" style="stroke: #000000; stroke-width: 1.0;"/>
        <text fill="#000000" font-family="sans-serif" font-size="13" lengthAdjust="spacingAndGlyphs" textLength="5" x="1232.4757" y="550.1029">*</text>
        <text fill="#000000" font-family="sans-serif" font-size="13" lengthAdjust="spacingAndGlyphs" textLength="7" x="1403.2961" y="731.5334">1</text>
        <path d="M1139.36,495.888 C1012.05,497.673 710.837,501.639 458,503 C429.556,503.153 422.397,504.639 394,503 C384.303,502.44 374.077,501.562 364.071,500.54 " fill="none" style="stroke: #A80036; stroke-width: 1.0;"/>
        <polygon fill="#000000" points="728.5,488.6758,722.5,491.6758,728.5,494.6758,728.5,488.6758" style="stroke: #000000; stroke-width: 1.0;"/>
        <text fill="#000000" font-family="sans-serif" font-size="13" lengthAdjust="spacingAndGlyphs" textLength="38" x="734.5" y="495.4951">possui</text>
        <text fill="#000000" font-family="sans-serif" font-size="13" lengthAdjust="spacingAndGlyphs" textLength="5" x="1126.4211" y="510.5078">*</text>
        <text fill="#000000" font-family="sans-serif" font-size="13" lengthAdjust="spacingAndGlyphs" textLength="7" x="372.1151" y="498.117">1</text>
        <path d="M1211.28,460.882 C1223.62,415.58 1250.41,334.913 1296,280 C1326.47,243.297 1349.57,251.94 1385,220 C1400.65,205.889 1415.97,188.66 1428.92,172.768 " fill="none" style="stroke: #A80036; stroke-width: 1.0;"/>
        <polygon fill="#000000" points="1329.5,213,1332.5,207,1335.5,213,1329.5,213" style="stroke: #000000; stroke-width: 1.0;"/>
        <text fill="#000000" font-family="sans-serif" font-size="13" lengthAdjust="spacingAndGlyphs" textLength="38" x="1315" y="229.4951">possui</text>
        <text fill="#000000" font-family="sans-serif" font-size="13" lengthAdjust="spacingAndGlyphs" textLength="5" x="1207.6148" y="450.152">*</text>
        <text fill="#000000" font-family="sans-serif" font-size="13" lengthAdjust="spacingAndGlyphs" textLength="7" x="1416.0333" y="194.4546">1</text>
        <path d="M1516.29,799.943 C1570.92,802.362 1661.1,803.964 1738,794 C1801.18,785.814 1815.8,776.69 1877,759 C1886.63,756.218 1896.84,753.046 1906.62,749.898 " fill="none" style="stroke: #A80036; stroke-width: 1.0;"/>
        <text fill="#000000" font-family="sans-serif" font-size="13" lengthAdjust="spacingAndGlyphs" textLength="22" x="1666" y="790.4951">tem</text>
        <polygon fill="#000000" points="1691,783.6758,1697,786.6758,1691,789.6758,1691,783.6758" style="stroke: #000000; stroke-width: 1.0;"/>
        <text fill="#000000" font-family="sans-serif" font-size="13" lengthAdjust="spacingAndGlyphs" textLength="7" x="1523.9245" y="814.9891">1</text>
        <text fill="#000000" font-family="sans-serif" font-size="13" lengthAdjust="spacingAndGlyphs" textLength="20" x="1878.8197" y="766.5837">1..*</text>
        <path d="M1516.23,788.942 C1548.36,783.835 1591.11,777.23 1629,772 C1727.27,758.435 1842.53,745.368 1906.77,738.338 " fill="none" style="stroke: #A80036; stroke-width: 1.0;"/>
        <text fill="#000000" font-family="sans-serif" font-size="13" lengthAdjust="spacingAndGlyphs" textLength="62" x="1646" y="754.4951">tem gestor</text>
        <polygon fill="#000000" points="1711,747.6758,1717,750.6758,1711,753.6758,1711,747.6758" style="stroke: #000000; stroke-width: 1.0;"/>
        <text fill="#000000" font-family="sans-serif" font-size="13" lengthAdjust="spacingAndGlyphs" textLength="7" x="1523.8561" y="797.8785">1</text>
        <text fill="#000000" font-family="sans-serif" font-size="13" lengthAdjust="spacingAndGlyphs" textLength="7" x="1892.1439" y="753.7093">1</text>
        <path d="M1516.27,767.906 C1547.64,749.17 1584.81,726.126 1599,714 C1611.01,703.738 1622.82,691.719 1633.61,679.726 " fill="none" style="stroke: #A80036; stroke-width: 1.0;"/>
        <text fill="#000000" font-family="sans-serif" font-size="13" lengthAdjust="spacingAndGlyphs" textLength="38" x="1547" y="710.4951">possui</text>
        <polygon fill="#000000" points="1588,703.6758,1594,706.6758,1588,709.6758,1588,703.6758" style="stroke: #000000; stroke-width: 1.0;"/>
        <text fill="#000000" font-family="sans-serif" font-size="13" lengthAdjust="spacingAndGlyphs" textLength="7" x="1523.9017" y="778.4469">1</text>
        <text fill="#000000" font-family="sans-serif" font-size="13" lengthAdjust="spacingAndGlyphs" textLength="5" x="1622.8798" y="700.8658">*</text>
        <path d="M1738.24,640.72 C1787.32,661.47 1859.29,691.9 1906.99,712.069 " fill="none" style="stroke: #A80036; stroke-width: 1.0;"/>
        <text fill="#000000" font-family="sans-serif" font-size="13" lengthAdjust="spacingAndGlyphs" textLength="94" x="1769" y="651.4951">especificada por</text>
        <polygon fill="#000000" points="1866,644.6758,1872,647.6758,1866,650.6758,1866,644.6758" style="stroke: #000000; stroke-width: 1.0;"/>
        <text fill="#000000" font-family="sans-serif" font-size="13" lengthAdjust="spacingAndGlyphs" textLength="5" x="1745.9316" y="658.3657">*</text>
        <text fill="#000000" font-family="sans-serif" font-size="13" lengthAdjust="spacingAndGlyphs" textLength="7" x="1892.0573" y="723.6655">1</text>
        <path d="M364.21,544.888 C413.341,579.369 484.003,618 554,618 C554,618 554,618 1466.5,618 C1521.81,618 1585.09,618 1628.8,618 " fill="none" style="stroke: #A80036; stroke-width: 1.0;"/>
        <text fill="#000000" font-family="sans-serif" font-size="13" lengthAdjust="spacingAndGlyphs" textLength="48" x="1039.5" y="614.4951">publicita</text>
        <polygon fill="#000000" points="1090.5,607.6758,1096.5,610.6758,1090.5,613.6758,1090.5,607.6758" style="stroke: #000000; stroke-width: 1.0;"/>
        <text fill="#000000" font-family="sans-serif" font-size="13" lengthAdjust="spacingAndGlyphs" textLength="22" x="372.1723" y="564.6795">0..1</text>
        <text fill="#000000" font-family="sans-serif" font-size="13" lengthAdjust="spacingAndGlyphs" textLength="7" x="1613.9794" y="632.5927">1</text>
        <path d="M341.286,553.522 C386.535,611.324 464.071,689 554,689 C554,689 554,689 1341.5,689 C1444.91,689 1562.32,657.321 1628.88,636.284 " fill="none" style="stroke: #A80036; stroke-width: 1.0;"/>
        <polygon fill="#000000" points="1042,678.6758,1036,681.6758,1042,684.6758,1042,678.6758" style="stroke: #000000; stroke-width: 1.0;"/>
        <text fill="#000000" font-family="sans-serif" font-size="13" lengthAdjust="spacingAndGlyphs" textLength="57" x="1048" y="685.4951">dá origem</text>
        <text fill="#000000" font-family="sans-serif" font-size="13" lengthAdjust="spacingAndGlyphs" textLength="22" x="323.0191" y="575.075">0..1</text>
        <text fill="#000000" font-family="sans-serif" font-size="13" lengthAdjust="spacingAndGlyphs" textLength="7" x="1614.0701" y="653.3336">1</text>
        <path d="M363.431,430.39 C373.435,421.593 383.83,412.87 394,405 C498.029,324.504 527.158,301.426 652,260 C725.207,235.708 813.301,223.263 871.764,217.208 " fill="none" style="stroke: #A80036; stroke-width: 1.0;"/>
        <text fill="#000000" font-family="sans-serif" font-size="13" lengthAdjust="spacingAndGlyphs" textLength="65" x="516" y="266.4951">rege-se por</text>
        <polygon fill="#000000" points="584,259.6758,590,262.6758,584,265.6758,584,259.6758" style="stroke: #000000; stroke-width: 1.0;"/>
        <text fill="#000000" font-family="sans-serif" font-size="13" lengthAdjust="spacingAndGlyphs" textLength="5" x="372.1347" y="437.0379">*</text>
        <text fill="#000000" font-family="sans-serif" font-size="13" lengthAdjust="spacingAndGlyphs" textLength="7" x="856.8164" y="232.2696">1</text>
        <path d="M318.663,553.698 C333.699,591.634 358.043,638.471 394,668 C427.788,695.747 445.546,686.55 488,697 C894.887,797.155 997.73,830.6164 1415,869 C1621.94,888.0357 1688.75,885.0134 1877,797 C1887.27,792.197 1897.38,785.796 1906.76,778.895 " fill="none" style="stroke: #A80036; stroke-width: 1.0;"/>
        <text fill="#000000" font-family="sans-serif" font-size="13" lengthAdjust="spacingAndGlyphs" textLength="77" x="1157" y="834.4951">publicado por</text>
        <polygon fill="#000000" points="1237,827.6758,1243,830.6758,1237,833.6758,1237,827.6758" style="stroke: #000000; stroke-width: 1.0;"/>
        <text fill="#000000" font-family="sans-serif" font-size="13" lengthAdjust="spacingAndGlyphs" textLength="5" x="315.6496" y="574.8347">*</text>
        <text fill="#000000" font-family="sans-serif" font-size="13" lengthAdjust="spacingAndGlyphs" textLength="7" x="1892.1325" y="799.9697">1</text>
        <path d="M303.877,430.228 C312.122,369.68 334.308,279.483 394,230 C613.553,47.996 989.486,93.549 1137.99,120.783 " fill="none" style="stroke: #A80036; stroke-width: 1.0;"/>
        <text fill="#000000" font-family="sans-serif" font-size="13" lengthAdjust="spacingAndGlyphs" textLength="39" x="721" y="91.4951">recebe</text>
        <polygon fill="#000000" points="763,84.6758,769,87.6758,763,90.6758,763,84.6758" style="stroke: #000000; stroke-width: 1.0;"/>
        <text fill="#000000" font-family="sans-serif" font-size="13" lengthAdjust="spacingAndGlyphs" textLength="7" x="297.1518" y="419.6752">1</text>
        <text fill="#000000" font-family="sans-serif" font-size="13" lengthAdjust="spacingAndGlyphs" textLength="5" x="1124.8841" y="133.6528">*</text>
        <path d="M364.007,467.272 C401.93,452.846 449.652,434.693 487.78,420.189 " fill="none" style="stroke: #A80036; stroke-width: 1.0;"/>
        <text fill="#000000" font-family="sans-serif" font-size="13" lengthAdjust="spacingAndGlyphs" textLength="42" x="398.5" y="427.4951">agenda</text>
        <polygon fill="#000000" points="443.5,420.6758,449.5,423.6758,443.5,426.6758,443.5,420.6758" style="stroke: #000000; stroke-width: 1.0;"/>
        <text fill="#000000" font-family="sans-serif" font-size="13" lengthAdjust="spacingAndGlyphs" textLength="7" x="372.0437" y="478.8524">1</text>
        <text fill="#000000" font-family="sans-serif" font-size="13" lengthAdjust="spacingAndGlyphs" textLength="22" x="458.0802" y="436.9846">0..1</text>
        <path d="M364.282,496.936 C393.931,496.833 428.816,493.332 458,481 C484.589,469.765 508.758,448.015 526.194,429.201 " fill="none" style="stroke: #A80036; stroke-width: 1.0;"/>
        <text fill="#000000" font-family="sans-serif" font-size="13" lengthAdjust="spacingAndGlyphs" textLength="49" x="395" y="477.4951">espoleta</text>
        <polygon fill="#000000" points="447,470.6758,453,473.6758,447,476.6758,447,470.6758" style="stroke: #000000; stroke-width: 1.0;"/>
        <text fill="#000000" font-family="sans-serif" font-size="13" lengthAdjust="spacingAndGlyphs" textLength="7" x="371.9144" y="511.8644">1</text>
        <text fill="#000000" font-family="sans-serif" font-size="13" lengthAdjust="spacingAndGlyphs" textLength="22" x="497.1036" y="450.2737">0..1</text>
        <path d="M1266.24,174.841 C1275.89,179.43 1285.98,183.388 1296,186 C1334.28,195.975 1347.54,198.714 1385,186 C1397.19,181.862 1408.98,175.019 1419.57,167.381 " fill="none" style="stroke: #A80036; stroke-width: 1.0;"/>
        <text fill="#000000" font-family="sans-serif" font-size="13" lengthAdjust="spacingAndGlyphs" textLength="74" x="1297" y="182.4951">realizada por</text>
        <polygon fill="#000000" points="1374,175.6758,1380,178.6758,1374,181.6758,1374,175.6758" style="stroke: #000000; stroke-width: 1.0;"/>
        <text fill="#000000" font-family="sans-serif" font-size="13" lengthAdjust="spacingAndGlyphs" textLength="5" x="1273.9568" y="193.9933">*</text>
        <text fill="#000000" font-family="sans-serif" font-size="13" lengthAdjust="spacingAndGlyphs" textLength="7" x="1405.001" y="188.5913">1</text>
        <path d="M1266.23,112.284 C1276.09,109.68 1286.24,107.437 1296,106 C1335.13,100.237 1345.72,101.371 1385,106 C1396.42,107.345 1408.57,109.741 1419.84,112.389 " fill="none" style="stroke: #A80036; stroke-width: 1.0;"/>
        <polygon fill="#000000" points="1320.5,91.6758,1314.5,94.6758,1320.5,97.6758,1320.5,91.6758" style="stroke: #000000; stroke-width: 1.0;"/>
        <text fill="#000000" font-family="sans-serif" font-size="13" lengthAdjust="spacingAndGlyphs" textLength="41" x="1326.5" y="98.4951">elimina</text>
        <text fill="#000000" font-family="sans-serif" font-size="13" lengthAdjust="spacingAndGlyphs" textLength="20" x="1273.885" y="124.3735">1..*</text>
        <text fill="#000000" font-family="sans-serif" font-size="13" lengthAdjust="spacingAndGlyphs" textLength="7" x="1405.0051" y="125.1499">1</text>
        <path d="M1266.21,134.497 C1301.23,134.473 1345.55,133.951 1385,132 C1396.35,131.439 1408.58,130.519 1419.97,129.528 " fill="none" style="stroke: #A80036; stroke-width: 1.0;"/>
        <polygon fill="#000000" points="1318.5,121.6758,1312.5,124.6758,1318.5,127.6758,1318.5,121.6758" style="stroke: #000000; stroke-width: 1.0;"/>
        <text fill="#000000" font-family="sans-serif" font-size="13" lengthAdjust="spacingAndGlyphs" textLength="45" x="1324.5" y="128.4951">atualiza</text>
        <text fill="#000000" font-family="sans-serif" font-size="13" lengthAdjust="spacingAndGlyphs" textLength="20" x="1273.8629" y="148.8772">1..*</text>
        <text fill="#000000" font-family="sans-serif" font-size="13" lengthAdjust="spacingAndGlyphs" textLength="7" x="1404.8494" y="145.0987">1</text>
        <path d="M590.091,360.799 C607.292,345.44 629.295,328.458 652,318 C730.064,282.044 763.303,316.548 842,282 C862.122,273.167 881.996,259.328 898.25,246.279 " fill="none" style="stroke: #A80036; stroke-width: 1.0;"/>
        <text fill="#000000" font-family="sans-serif" font-size="13" lengthAdjust="spacingAndGlyphs" textLength="175" x="653" y="278.4951">decorre em concordância com</text>
        <polygon fill="#000000" points="831,271.6758,837,274.6758,831,277.6758,831,271.6758" style="stroke: #000000; stroke-width: 1.0;"/>
        <text fill="#000000" font-family="sans-serif" font-size="13" lengthAdjust="spacingAndGlyphs" textLength="5" x="591.5074" y="350.0527">*</text>
        <text fill="#000000" font-family="sans-serif" font-size="13" lengthAdjust="spacingAndGlyphs" textLength="7" x="883.9883" y="267.0992">1</text>
        <path d="M622.025,368.125 C631.961,364.7 642.172,361.518 652,359 C742.691,335.762 975.379,299 1069,299 C1069,299 1069,299 1684.5,299 C1865.23,299 1930.44,572.572 1949.63,685.313 " fill="none" style="stroke: #A80036; stroke-width: 1.0;"/>
        <text fill="#000000" font-family="sans-serif" font-size="13" lengthAdjust="spacingAndGlyphs" textLength="74" x="1297" y="295.4951">realizado por</text>
        <polygon fill="#000000" points="1374,288.6758,1380,291.6758,1374,294.6758,1374,288.6758" style="stroke: #000000; stroke-width: 1.0;"/>
        <text fill="#000000" font-family="sans-serif" font-size="13" lengthAdjust="spacingAndGlyphs" textLength="7" x="630.1795" y="379.477">1</text>
        <text fill="#000000" font-family="sans-serif" font-size="13" lengthAdjust="spacingAndGlyphs" textLength="20" x="1927.0053" y="674.6297">1..*</text>
        <path d="M622.191,392.213 C696.403,389.088 815.249,384.084 883.4,381.215 " fill="none" style="stroke: #A80036; stroke-width: 1.0;"/>
        <text fill="#000000" font-family="sans-serif" font-size="13" lengthAdjust="spacingAndGlyphs" textLength="39" x="721" y="379.4951">resulta</text>
        <polygon fill="#000000" points="763,372.6758,769,375.6758,763,378.6758,763,372.6758" style="stroke: #000000; stroke-width: 1.0;"/>
        <text fill="#000000" font-family="sans-serif" font-size="13" lengthAdjust="spacingAndGlyphs" textLength="7" x="629.9228" y="397.4405">1</text>
        <text fill="#000000" font-family="sans-serif" font-size="13" lengthAdjust="spacingAndGlyphs" textLength="5" x="870.5109" y="396.1829">*</text>
        <path d="M622.296,405.278 C747.669,424.716 1017.82,466.6 1139.44,485.456 " fill="none" style="stroke: #A80036; stroke-width: 1.0;"/>
        <text fill="#000000" font-family="sans-serif" font-size="13" lengthAdjust="spacingAndGlyphs" textLength="39" x="911" y="441.4951">resulta</text>
        <polygon fill="#000000" points="953,434.6758,959,437.6758,953,440.6758,953,434.6758" style="stroke: #000000; stroke-width: 1.0;"/>
        <text fill="#000000" font-family="sans-serif" font-size="13" lengthAdjust="spacingAndGlyphs" textLength="5" x="629.9299" y="420.8094">*</text>
        <text fill="#000000" font-family="sans-serif" font-size="13" lengthAdjust="spacingAndGlyphs" textLength="7" x="1124.3889" y="480.8544">1</text>
        <path d="M967.15,351.845 C1009.28,312.6 1088.08,239.187 1142.49,188.504 " fill="none" style="stroke: #A80036; stroke-width: 1.0;"/>
        <text fill="#000000" font-family="sans-serif" font-size="13" lengthAdjust="spacingAndGlyphs" textLength="61" x="1033" y="223.4951">referente a</text>
        <polygon fill="#000000" points="1097,216.6758,1103,219.6758,1097,222.6758,1097,216.6758" style="stroke: #000000; stroke-width: 1.0;"/>
        <text fill="#000000" font-family="sans-serif" font-size="13" lengthAdjust="spacingAndGlyphs" textLength="22" x="949.5784" y="341.2701">0..1</text>
        <text fill="#000000" font-family="sans-serif" font-size="13" lengthAdjust="spacingAndGlyphs" textLength="7" x="1127.4168" y="210.0185">1</text>
        <path d="M990.778,391.656 C1025.1,400.872 1070.32,414.899 1108,433 C1124.09,440.73 1140.63,450.911 1155.21,460.783 " fill="none" style="stroke: #A80036; stroke-width: 1.0;"/>
        <text fill="#000000" font-family="sans-serif" font-size="13" lengthAdjust="spacingAndGlyphs" textLength="33" x="1047" y="400.4951">leva a</text>
        <polygon fill="#000000" points="1083,393.6758,1089,396.6758,1083,399.6758,1083,393.6758" style="stroke: #000000; stroke-width: 1.0;"/>
        <text fill="#000000" font-family="sans-serif" font-size="13" lengthAdjust="spacingAndGlyphs" textLength="5" x="998.3404" y="407.9614">*</text>
        <text fill="#000000" font-family="sans-serif" font-size="13" lengthAdjust="spacingAndGlyphs" textLength="7" x="1138.3092" y="450.0336">1</text>
        <!--
@startuml
skinparam classAttributeIconSize 0
hide methods
left to right direction

class Plataforma {
  -String designacao
}

class Tarefa {
  -String referencia
  -String designacao
  -String descInformal
  -String descTecnica
  -Integer duracaoEst
  -Double custoEst
}

class TipoRegimento{
-String designacao
-String descricaoRegras
}

class Anuncio{
-Date dtInicioPublicitacao
-Date dtFimPublicitacao
-Date dtInicioCandidatura
-Date dtFimCandidatura
-Date dtInicioSeriacao
-Date dtFimSeriacao
}

class Colaborador {
  -String nome
  -String funcao
  -String telefone
  -String email
}

class Freelancer {
-String nome
-String NIF
-String telefone
-String email
}

class Candidatura{
-Date dataCandidatura
-Double valorPretendido
-Integer nrDias
-String txtApresentacao
-String txtMotivacao
}

class Classificacao{
-Integer lugar
}


class Organizacao {
  -String nome
  -String NIF
  -String website
  -String telefone
  -String email
}

class Adjudicacao{
-Integer numSequencial
-Date DataAdjudicacao
}

class ProcessoSeriacao{
-Date dataRealizacao
-String textoConclusao
}


Plataforma "1" - - "*" Organizacao : tem registadas >
Plataforma "1" - - "*" TipoRegimento : suporta >
Plataforma "1" - - "*" Anuncio : publicita >
Plataforma "1" - - "*" Freelancer : tem/usa  >
Plataforma "1" - - "*" Adjudicacao : regista >

Adjudicacao "*" - - "1" Organizacao: possui >
Adjudicacao "*" - - "1" Anuncio: possui >
Adjudicacao "*" - - "1" Freelancer: possui >

Organizacao "1" - - "1..*" Colaborador: tem >
Organizacao "1" - - "1" Colaborador: tem gestor >
Organizacao "1" - - "*" Tarefa: possui >

Tarefa "*" - - "1" Colaborador: especificada por >


Anuncio "0..1" - - "1" Tarefa: publicita >
Anuncio "0..1" - - "1" Tarefa: dá origem <
Anuncio "*" - - "1" TipoRegimento: rege-se por >
Anuncio "*" - - "1" Colaborador: publicado por >
Anuncio "1" - - "*" Candidatura: recebe >
Anuncio "1" - - "0..1" ProcessoSeriacao: agenda >
Anuncio "1" - - "0..1" ProcessoSeriacao: espoleta >

Candidatura "*" - - "1"  Freelancer: realizada por >
Candidatura "1..*" - - "1" Freelancer: elimina <
Candidatura "1..*" - - "1" Freelancer: atualiza <

ProcessoSeriacao "*" - - "1" TipoRegimento: decorre em concordância com >
ProcessoSeriacao "1" - - "1..*" Colaborador: realizado por >
ProcessoSeriacao "1" - - "*" Classificacao: resulta >
ProcessoSeriacao "*" - - "1" Adjudicacao: resulta >

Classificacao "0..1" - - "1" Candidatura: referente a >
Classificacao "*" - - "1" Adjudicacao: leva a >


@enduml

PlantUML version 2017.11(Wed Apr 19 17:18:59 BST 2017)
(GPL source distribution)
Java Runtime: Java(TM) SE Runtime Environment
JVM: Java HotSpot(TM) 64-Bit Server VM
Java Version: 1.8.0_111-b14
Operating System: Windows 10
OS Version: 10.0
Default Encoding: UTF-8
Language: en
Country: US
-->
    </g>
</svg>
