@startuml
skinparam classAttributeIconSize 0
left to right direction
package UI <<Folder>> {

class AdjudicarAnuncioUI{
}

}

package Controladores <<Folder>> {

class AdjudicarAnuncioController{
+getListAnunciosPorAdjudicar()
+getCandidatoAdjudicar(anuncioId)
+adjudicarAnuncio()
}

}

package Domínio <<Folder>> {

class Plataforma{
-designacao
+getRegistoOrganizacoes()
+getRegistoAnuncios()
+getRegistoAdjudicacao()
}
class RegistoOrganizacoes{
+getOrganizacaoByEmailUtilizador(email)
}
class Organizacao{
-String nome
-String NIF
-String website
-String telefone
-String emai
+getListaColaboradores()
+getColaboradorByEmail(email)
}
class RegistoAnuncios{
+getAnunciosPorAdjudicar(colab)
+getAnuncio(anuncioId)
}
class Anuncio{
-Date dtInicioPublicitacao
-Date dtFimPublicitacao
-Date dtInicioCandidatura
-Date dtFimCandidatura
-Date dtInicioSeriacao
-Date dtFimSeriacao
+getProcessoSeriacao()
+getTarefa()
+getReferenciaAnuncio()
}
class ProcessoSeriacao{
-Date dataRealizacao
+getCandidatoAdjudicar(anuncioId)
}
class Tarefa{
-String referencia
-String designacao
-String descInformal
-String descTecnica
-Integer duracaoEst
-Double custoEst
+getDescricao()
}
class Candidatura{
-Date dataCandidatura
-Double valorPretendido
-Integer nrDias
-String txtApresentacao
-String txtMotivacao
+getNrDias()
+getValor()
+getFreelancer()
}
class RegistoAdjudicacao{
+novaAdjudicacao(org,free,descTarefa,periodoReali,valorRemu,refAnu)
+geraNumPorAno()
+getDataAdjudi()
+validaAdjudicacao()
+addAdjudicacao(adjudi)
}
class Adjudicacao{
-Integer numeroSequencial
-Date dataRealizacao
-Double valor
-String descInfTarefa
-Integer nrDias
+create(numSeq,dataAdjudi,org,free,descTarefa,periodoReali,valorRemu,refAnu)
}

class Freelancer{
-String nome
-String NIF
-String telefone
-String email
}

class Classificacao{
-Integer lugar
}
class Colaborador{
    -String nome
    -String funcao
    -String telefone
    -String email
}
class ListaColaboradores{
    +getColaboradores()
    +getColaboradorByEmail(email)
}
class ListaTarefas{
}
interface TipoRegimento{
   +seriarListaCandidatos(lstCand,tipoReg)
}
class ListaCandidaturas{
}

}
AdjudicarAnuncioUI ..> AdjudicarAnuncioController
AdjudicarAnuncioController ..> Plataforma
AdjudicarAnuncioController ..> RegistoOrganizacoes
AdjudicarAnuncioController ..> RegistoAnuncios
AdjudicarAnuncioController ..> RegistoAdjudicacao

Plataforma "1" --> "1" RegistoOrganizacoes : tem
Plataforma "1" --> "1" RegistoAnuncios : tem
Plataforma "1" --> "1" RegistoAdjudicacao : tem

RegistoOrganizacoes "1" --> "*" Organizacao : tem registadas
RegistoAnuncios "1" --> "*" Anuncio : publicita
RegistoAdjudicacao "1" --> "*" Adjudicacao : tem registadas

Organizacao "1" --> "1" ListaColaboradores: tem
Organizacao "1" --> "1" ListaTarefas: tem

ListaColaboradores "1" --> "1..*" Colaborador: tem
ListaTarefas "1" --> "*" Tarefa: tem

Anuncio "*" --> "1" TipoRegimento: rege-se por
Anuncio "*" --> "1" Colaborador: publicado por
Anuncio "1" --> "1" ListaCandidaturas: recebeu
ListaCandidaturas "1" --> "*" Candidatura: tem
Anuncio "1" --> "0..1" ProcessoSeriacao: espoleta

Candidatura "*" -- "1"  Freelancer: realizada por

ProcessoSeriacao "*" --> "1" TipoRegimento: decorre em concordância com
ProcessoSeriacao "1" --> "1..*" Colaborador: realizado por
ProcessoSeriacao "1" --> "*" Classificacao: resulta

Classificacao "0..1" --> "1" Candidatura: referente a
Classificacao "*" -- "1" Adjudicacao: leva a >



@enduml