@startuml
autonumber
actor "Colaborador de Organização" as CLB

activate CLB
CLB -> ":Sistema" : Adjudicar Anuncio
activate ":Sistema"
":Sistema" --> CLB : Lista de anuncios disponiveis para adjudicar
deactivate ":Sistema"
CLB -> ":Sistema" :  Seleciona um anuncio
activate ":Sistema"
":Sistema" --> CLB : Aprensenta candidato a atribuir e a informação relevante\n e solicita confirmação
deactivate ":Sistema"
CLB -> ":Sistema" : Confirma
activate ":Sistema"
":Sistema" --> CLB : Informa do sucesso da operação.
deactivate ":Sistema"



@enduml
