<?xml version="1.0" encoding="UTF-8"?><svg xmlns="http://www.w3.org/2000/svg" xmlns:xlink="http://www.w3.org/1999/xlink" contentScriptType="application/ecmascript" contentStyleType="text/css" height="615px" preserveAspectRatio="none" style="width:1121px;height:615px;" version="1.1" viewBox="0 0 1121 615" width="1121px" zoomAndPan="magnify">
    <defs>
        <filter height="300%" id="fia7xz0he40nt" width="300%" x="-1" y="-1">
            <feGaussianBlur result="blurOut" stdDeviation="2.0"/>
            <feColorMatrix in="blurOut" result="blurOut2" type="matrix" values="0 0 0 0 0 0 0 0 0 0 0 0 0 0 0 0 0 0 .4 0"/>
            <feOffset dx="4.0" dy="4.0" in="blurOut2" result="blurOut3"/>
            <feBlend in="SourceGraphic" in2="blurOut3" mode="normal"/>
        </filter>
    </defs>
    <g>
        <text fill="#000000" font-family="sans-serif" font-size="14" font-weight="bold" lengthAdjust="spacingAndGlyphs" textLength="253" x="436" y="24.5332">SD_getAnunciosPorAdjudicar(colab)</text>
        <rect fill="#FFFFFF" filter="url(#fia7xz0he40nt)" height="449.4375" style="stroke: #A80036; stroke-width: 1.0;" width="10" x="110" y="98.8281"/>
        <rect fill="#FEFECE" filter="url(#fia7xz0he40nt)" height="49.2188" style="stroke: #A80036; stroke-width: 1.5;" width="114" x="895" y="142.1797"/>
        <text fill="#000000" font-family="sans-serif" font-size="14" lengthAdjust="spacingAndGlyphs" textLength="54" x="925" y="163.7129">listaAnu:</text>
        <text fill="#000000" font-family="sans-serif" font-size="14" lengthAdjust="spacingAndGlyphs" textLength="96" x="906" y="181.3223">List&lt;Anuncios&gt;</text>
        <rect fill="#FFFFFF" filter="url(#fia7xz0he40nt)" height="267.1641" style="stroke: #000000; stroke-width: 2.0;" width="1099" x="13" y="274.1016"/>
        <rect fill="#FFFFFF" filter="url(#fia7xz0he40nt)" height="174.1094" style="stroke: #000000; stroke-width: 2.0;" width="1079" x="23" y="360.1563"/>
        <rect fill="#FFFFFF" filter="url(#fia7xz0he40nt)" height="111.4063" style="stroke: #000000; stroke-width: 2.0;" width="1000" x="33" y="415.8594"/>
        <rect fill="#FFFFFF" filter="url(#fia7xz0he40nt)" height="48.7031" style="stroke: #000000; stroke-width: 2.0;" width="980" x="43" y="471.5625"/>
        <line style="stroke: #A80036; stroke-width: 1.0; stroke-dasharray: 5.0,5.0;" x1="115" x2="115" y1="88.8281" y2="558.2656"/>
        <line style="stroke: #A80036; stroke-width: 1.0; stroke-dasharray: 5.0,5.0;" x1="390" x2="390" y1="88.8281" y2="558.2656"/>
        <line style="stroke: #A80036; stroke-width: 1.0; stroke-dasharray: 5.0,5.0;" x1="522" x2="522" y1="88.8281" y2="558.2656"/>
        <line style="stroke: #A80036; stroke-width: 1.0; stroke-dasharray: 5.0,5.0;" x1="670" x2="670" y1="88.8281" y2="558.2656"/>
        <line style="stroke: #A80036; stroke-width: 1.0; stroke-dasharray: 5.0,5.0;" x1="813" x2="813" y1="88.8281" y2="558.2656"/>
        <line style="stroke: #A80036; stroke-width: 1.0; stroke-dasharray: 5.0,5.0;" x1="954" x2="954" y1="184.2891" y2="558.2656"/>
        <line style="stroke: #A80036; stroke-width: 1.0; stroke-dasharray: 5.0,5.0;" x1="1057" x2="1057" y1="88.8281" y2="558.2656"/>
        <rect fill="#FEFECE" filter="url(#fia7xz0he40nt)" height="49.2188" style="stroke: #A80036; stroke-width: 1.5;" width="120" x="53" y="34.6094"/>
        <text fill="#000000" font-family="sans-serif" font-size="14" lengthAdjust="spacingAndGlyphs" textLength="33" x="96.5" y="56.1426">ranu:</text>
        <text fill="#000000" font-family="sans-serif" font-size="14" lengthAdjust="spacingAndGlyphs" textLength="106" x="60" y="73.752">RegistoAnuncios</text>
        <rect fill="#FEFECE" filter="url(#fia7xz0he40nt)" height="49.2188" style="stroke: #A80036; stroke-width: 1.5;" width="120" x="53" y="557.2656"/>
        <text fill="#000000" font-family="sans-serif" font-size="14" lengthAdjust="spacingAndGlyphs" textLength="33" x="96.5" y="578.7988">ranu:</text>
        <text fill="#000000" font-family="sans-serif" font-size="14" lengthAdjust="spacingAndGlyphs" textLength="106" x="60" y="596.4082">RegistoAnuncios</text>
        <rect fill="#FEFECE" filter="url(#fia7xz0he40nt)" height="31.6094" style="stroke: #A80036; stroke-width: 1.5;" width="86" x="345" y="52.2188"/>
        <text fill="#000000" font-family="sans-serif" font-size="14" lengthAdjust="spacingAndGlyphs" textLength="72" x="352" y="73.752">:Plataforma</text>
        <rect fill="#FEFECE" filter="url(#fia7xz0he40nt)" height="31.6094" style="stroke: #A80036; stroke-width: 1.5;" width="86" x="345" y="557.2656"/>
        <text fill="#000000" font-family="sans-serif" font-size="14" lengthAdjust="spacingAndGlyphs" textLength="72" x="352" y="578.7988">:Plataforma</text>
        <rect fill="#FEFECE" filter="url(#fia7xz0he40nt)" height="49.2188" style="stroke: #A80036; stroke-width: 1.5;" width="150" x="445" y="34.6094"/>
        <text fill="#000000" font-family="sans-serif" font-size="14" lengthAdjust="spacingAndGlyphs" textLength="43" x="498.5" y="56.1426">radjudi</text>
        <text fill="#000000" font-family="sans-serif" font-size="14" lengthAdjust="spacingAndGlyphs" textLength="136" x="452" y="73.752">:RegistoAdjudicacoes</text>
        <rect fill="#FEFECE" filter="url(#fia7xz0he40nt)" height="49.2188" style="stroke: #A80036; stroke-width: 1.5;" width="150" x="445" y="557.2656"/>
        <text fill="#000000" font-family="sans-serif" font-size="14" lengthAdjust="spacingAndGlyphs" textLength="43" x="498.5" y="578.7988">radjudi</text>
        <text fill="#000000" font-family="sans-serif" font-size="14" lengthAdjust="spacingAndGlyphs" textLength="136" x="452" y="596.4082">:RegistoAdjudicacoes</text>
        <rect fill="#FEFECE" filter="url(#fia7xz0he40nt)" height="31.6094" style="stroke: #A80036; stroke-width: 1.5;" width="118" x="609" y="52.2188"/>
        <text fill="#000000" font-family="sans-serif" font-size="14" lengthAdjust="spacingAndGlyphs" textLength="104" x="616" y="73.752">: List&lt;Anuncios&gt;</text>
        <rect fill="#FEFECE" filter="url(#fia7xz0he40nt)" height="31.6094" style="stroke: #A80036; stroke-width: 1.5;" width="118" x="609" y="557.2656"/>
        <text fill="#000000" font-family="sans-serif" font-size="14" lengthAdjust="spacingAndGlyphs" textLength="104" x="616" y="578.7988">: List&lt;Anuncios&gt;</text>
        <rect fill="#FEFECE" filter="url(#fia7xz0he40nt)" height="49.2188" style="stroke: #A80036; stroke-width: 1.5;" width="140" x="741" y="34.6094"/>
        <text fill="#000000" font-family="sans-serif" font-size="14" lengthAdjust="spacingAndGlyphs" textLength="49" x="786.5" y="56.1426">listaAdj:</text>
        <text fill="#000000" font-family="sans-serif" font-size="14" lengthAdjust="spacingAndGlyphs" textLength="122" x="752" y="73.752">List&lt;Adjudicacoes&gt;</text>
        <rect fill="#FEFECE" filter="url(#fia7xz0he40nt)" height="49.2188" style="stroke: #A80036; stroke-width: 1.5;" width="140" x="741" y="557.2656"/>
        <text fill="#000000" font-family="sans-serif" font-size="14" lengthAdjust="spacingAndGlyphs" textLength="49" x="786.5" y="578.7988">listaAdj:</text>
        <text fill="#000000" font-family="sans-serif" font-size="14" lengthAdjust="spacingAndGlyphs" textLength="122" x="752" y="596.4082">List&lt;Adjudicacoes&gt;</text>
        <rect fill="#FEFECE" filter="url(#fia7xz0he40nt)" height="49.2188" style="stroke: #A80036; stroke-width: 1.5;" width="114" x="895" y="557.2656"/>
        <text fill="#000000" font-family="sans-serif" font-size="14" lengthAdjust="spacingAndGlyphs" textLength="54" x="925" y="578.7988">listaAnu:</text>
        <text fill="#000000" font-family="sans-serif" font-size="14" lengthAdjust="spacingAndGlyphs" textLength="96" x="906" y="596.4082">List&lt;Anuncios&gt;</text>
        <rect fill="#FEFECE" filter="url(#fia7xz0he40nt)" height="49.2188" style="stroke: #A80036; stroke-width: 1.5;" width="65" x="1023" y="34.6094"/>
        <text fill="#000000" font-family="sans-serif" font-size="14" lengthAdjust="spacingAndGlyphs" textLength="28" x="1041.5" y="56.1426">anu:</text>
        <text fill="#000000" font-family="sans-serif" font-size="14" lengthAdjust="spacingAndGlyphs" textLength="51" x="1030" y="73.752">Anuncio</text>
        <rect fill="#FEFECE" filter="url(#fia7xz0he40nt)" height="49.2188" style="stroke: #A80036; stroke-width: 1.5;" width="65" x="1023" y="557.2656"/>
        <text fill="#000000" font-family="sans-serif" font-size="14" lengthAdjust="spacingAndGlyphs" textLength="28" x="1041.5" y="578.7988">anu:</text>
        <text fill="#000000" font-family="sans-serif" font-size="14" lengthAdjust="spacingAndGlyphs" textLength="51" x="1030" y="596.4082">Anuncio</text>
        <rect fill="#FFFFFF" filter="url(#fia7xz0he40nt)" height="449.4375" style="stroke: #A80036; stroke-width: 1.0;" width="10" x="110" y="98.8281"/>
        <line style="stroke: #A80036; stroke-width: 1.0;" x1="120" x2="162" y1="121.1797" y2="121.1797"/>
        <line style="stroke: #A80036; stroke-width: 1.0;" x1="162" x2="162" y1="121.1797" y2="134.1797"/>
        <line style="stroke: #A80036; stroke-width: 1.0;" x1="121" x2="162" y1="134.1797" y2="134.1797"/>
        <polygon fill="#A80036" points="131,130.1797,121,134.1797,131,138.1797,127,134.1797" style="stroke: #A80036; stroke-width: 1.0;"/>
        <text fill="#000000" font-family="sans-serif" font-size="13" font-weight="bold" lengthAdjust="spacingAndGlyphs" textLength="7" x="127" y="116.3232">1</text>
        <text fill="#000000" font-family="sans-serif" font-size="13" lengthAdjust="spacingAndGlyphs" textLength="240" x="138" y="116.3232">listaAnu=getAnunciosPorAdjudicar(colab)</text>
        <polygon fill="#A80036" points="883,160.1797,893,164.1797,883,168.1797,887,164.1797" style="stroke: #A80036; stroke-width: 1.0;"/>
        <line style="stroke: #A80036; stroke-width: 1.0;" x1="120" x2="889" y1="164.1797" y2="164.1797"/>
        <text fill="#000000" font-family="sans-serif" font-size="13" font-weight="bold" lengthAdjust="spacingAndGlyphs" textLength="7" x="127" y="159.6748">2</text>
        <text fill="#000000" font-family="sans-serif" font-size="13" lengthAdjust="spacingAndGlyphs" textLength="44" x="138" y="159.6748">create()</text>
        <rect fill="#FEFECE" filter="url(#fia7xz0he40nt)" height="49.2188" style="stroke: #A80036; stroke-width: 1.5;" width="114" x="895" y="142.1797"/>
        <text fill="#000000" font-family="sans-serif" font-size="14" lengthAdjust="spacingAndGlyphs" textLength="54" x="925" y="163.7129">listaAnu:</text>
        <text fill="#000000" font-family="sans-serif" font-size="14" lengthAdjust="spacingAndGlyphs" textLength="96" x="906" y="181.3223">List&lt;Anuncios&gt;</text>
        <polygon fill="#A80036" points="378,224.3984,388,228.3984,378,232.3984,382,228.3984" style="stroke: #A80036; stroke-width: 1.0;"/>
        <line style="stroke: #A80036; stroke-width: 1.0;" x1="120" x2="384" y1="228.3984" y2="228.3984"/>
        <text fill="#000000" font-family="sans-serif" font-size="13" font-weight="bold" lengthAdjust="spacingAndGlyphs" textLength="7" x="127" y="223.8936">3</text>
        <text fill="#000000" font-family="sans-serif" font-size="13" lengthAdjust="spacingAndGlyphs" textLength="148" x="138" y="223.8936">getRegistoAdjudicacoes()</text>
        <polygon fill="#A80036" points="510,254.75,520,258.75,510,262.75,514,258.75" style="stroke: #A80036; stroke-width: 1.0;"/>
        <line style="stroke: #A80036; stroke-width: 1.0;" x1="120" x2="516" y1="258.75" y2="258.75"/>
        <text fill="#000000" font-family="sans-serif" font-size="13" font-weight="bold" lengthAdjust="spacingAndGlyphs" textLength="7" x="127" y="254.2451">4</text>
        <text fill="#000000" font-family="sans-serif" font-size="13" lengthAdjust="spacingAndGlyphs" textLength="73" x="138" y="254.2451">getListaAdj()</text>
        <rect fill="none" height="267.1641" style="stroke: #000000; stroke-width: 2.0;" width="1099" x="13" y="274.1016"/>
        <polygon fill="#EEEEEE" points="13,274.1016,86,274.1016,86,282.1016,76,292.1016,13,292.1016,13,274.1016" style="stroke: #000000; stroke-width: 2.0;"/>
        <text fill="#000000" font-family="sans-serif" font-size="13" font-weight="bold" lengthAdjust="spacingAndGlyphs" textLength="28" x="28" y="288.5967">loop</text>
        <a target="_top" xlink:actuate="onRequest" xlink:href="" xlink:show="new" xlink:title="" xlink:type="simple">
            <text fill="#0000FF" font-family="sans-serif" font-size="11" font-weight="bold" lengthAdjust="spacingAndGlyphs" text-decoration="underline" textLength="154" x="101" y="287.5205">Para cada anúncio registado</text>
            <line style="stroke: #0000FF; stroke-width: 1.0;" x1="101" x2="255" y1="289.5205" y2="289.5205"/>
        </a>
        <polygon fill="#A80036" points="658,310.4531,668,314.4531,658,318.4531,662,314.4531" style="stroke: #A80036; stroke-width: 1.0;"/>
        <line style="stroke: #A80036; stroke-width: 1.0;" x1="120" x2="664" y1="314.4531" y2="314.4531"/>
        <text fill="#000000" font-family="sans-serif" font-size="13" font-weight="bold" lengthAdjust="spacingAndGlyphs" textLength="7" x="127" y="309.9482">5</text>
        <text fill="#000000" font-family="sans-serif" font-size="13" lengthAdjust="spacingAndGlyphs" textLength="66" x="138" y="309.9482">anu = get(i)</text>
        <polygon fill="#A80036" points="1045.5,340.8047,1055.5,344.8047,1045.5,348.8047,1049.5,344.8047" style="stroke: #A80036; stroke-width: 1.0;"/>
        <line style="stroke: #A80036; stroke-width: 1.0;" x1="120" x2="1051.5" y1="344.8047" y2="344.8047"/>
        <text fill="#000000" font-family="sans-serif" font-size="13" font-weight="bold" lengthAdjust="spacingAndGlyphs" textLength="7" x="127" y="340.2998">6</text>
        <text fill="#000000" font-family="sans-serif" font-size="13" lengthAdjust="spacingAndGlyphs" textLength="120" x="138" y="340.2998">seriado = isSeriado()</text>
        <rect fill="none" height="174.1094" style="stroke: #000000; stroke-width: 2.0;" width="1079" x="23" y="360.1563"/>
        <polygon fill="#EEEEEE" points="23,360.1563,88,360.1563,88,368.1563,78,378.1563,23,378.1563,23,360.1563" style="stroke: #000000; stroke-width: 2.0;"/>
        <text fill="#000000" font-family="sans-serif" font-size="13" font-weight="bold" lengthAdjust="spacingAndGlyphs" textLength="20" x="38" y="374.6514">opt</text>
        <a target="_top" xlink:actuate="onRequest" xlink:href="" xlink:show="new" xlink:title="" xlink:type="simple">
            <text fill="#0000FF" font-family="sans-serif" font-size="11" font-weight="bold" lengthAdjust="spacingAndGlyphs" text-decoration="underline" textLength="83" x="103" y="373.5752">seriado == true</text>
            <line style="stroke: #0000FF; stroke-width: 1.0;" x1="103" x2="186" y1="375.5752" y2="375.5752"/>
        </a>
        <polygon fill="#A80036" points="1045.5,396.5078,1055.5,400.5078,1045.5,404.5078,1049.5,400.5078" style="stroke: #A80036; stroke-width: 1.0;"/>
        <line style="stroke: #A80036; stroke-width: 1.0;" x1="120" x2="1051.5" y1="400.5078" y2="400.5078"/>
        <text fill="#000000" font-family="sans-serif" font-size="13" font-weight="bold" lengthAdjust="spacingAndGlyphs" textLength="7" x="127" y="396.0029">7</text>
        <text fill="#000000" font-family="sans-serif" font-size="13" lengthAdjust="spacingAndGlyphs" textLength="166" x="138" y="396.0029">adjudicar = adjudicacaoOpt()</text>
        <rect fill="none" height="111.4063" style="stroke: #000000; stroke-width: 2.0;" width="1000" x="33" y="415.8594"/>
        <polygon fill="#EEEEEE" points="33,415.8594,98,415.8594,98,423.8594,88,433.8594,33,433.8594,33,415.8594" style="stroke: #000000; stroke-width: 2.0;"/>
        <text fill="#000000" font-family="sans-serif" font-size="13" font-weight="bold" lengthAdjust="spacingAndGlyphs" textLength="20" x="48" y="430.3545">opt</text>
        <a target="_top" xlink:actuate="onRequest" xlink:href="" xlink:show="new" xlink:title="" xlink:type="simple">
            <text fill="#0000FF" font-family="sans-serif" font-size="11" font-weight="bold" lengthAdjust="spacingAndGlyphs" text-decoration="underline" textLength="91" x="113" y="429.2783">adjudicar == true</text>
            <line style="stroke: #0000FF; stroke-width: 1.0;" x1="113" x2="204" y1="431.2783" y2="431.2783"/>
        </a>
        <polygon fill="#A80036" points="801,452.2109,811,456.2109,801,460.2109,805,456.2109" style="stroke: #A80036; stroke-width: 1.0;"/>
        <line style="stroke: #A80036; stroke-width: 1.0;" x1="120" x2="807" y1="456.2109" y2="456.2109"/>
        <text fill="#000000" font-family="sans-serif" font-size="13" font-weight="bold" lengthAdjust="spacingAndGlyphs" textLength="7" x="127" y="451.7061">8</text>
        <text fill="#000000" font-family="sans-serif" font-size="13" lengthAdjust="spacingAndGlyphs" textLength="145" x="138" y="451.7061">b = temAdjudicacao(anu)</text>
        <rect fill="none" height="48.7031" style="stroke: #000000; stroke-width: 2.0;" width="980" x="43" y="471.5625"/>
        <polygon fill="#EEEEEE" points="43,471.5625,108,471.5625,108,479.5625,98,489.5625,43,489.5625,43,471.5625" style="stroke: #000000; stroke-width: 2.0;"/>
        <text fill="#000000" font-family="sans-serif" font-size="13" font-weight="bold" lengthAdjust="spacingAndGlyphs" textLength="20" x="58" y="486.0576">opt</text>
        <a target="_top" xlink:actuate="onRequest" xlink:href="" xlink:show="new" xlink:title="" xlink:type="simple">
            <text fill="#0000FF" font-family="sans-serif" font-size="11" font-weight="bold" lengthAdjust="spacingAndGlyphs" text-decoration="underline" textLength="52" x="123" y="484.9814">b == false</text>
            <line style="stroke: #0000FF; stroke-width: 1.0;" x1="123" x2="175" y1="486.9814" y2="486.9814"/>
        </a>
        <polygon fill="#A80036" points="942,507.9141,952,511.9141,942,515.9141,946,511.9141" style="stroke: #A80036; stroke-width: 1.0;"/>
        <line style="stroke: #A80036; stroke-width: 1.0;" x1="120" x2="948" y1="511.9141" y2="511.9141"/>
        <text fill="#000000" font-family="sans-serif" font-size="13" font-weight="bold" lengthAdjust="spacingAndGlyphs" textLength="7" x="127" y="507.4092">9</text>
        <text fill="#000000" font-family="sans-serif" font-size="13" lengthAdjust="spacingAndGlyphs" textLength="50" x="138" y="507.4092">add(anu)</text>
        <!--
@startuml
autonumber

title SD_getAnunciosPorAdjudicar(colab)

participant "ranu:\nRegistoAnuncios" as RANU
participant ":Plataforma" as PLAT
participant "radjudi\n:RegistoAdjudicacoes" as RADJ
participant ": List<Anuncios>" as LA
participant "listaAdj:\n List<Adjudicacoes>" as LADJ
participant "listaAnu:\n List<Anuncios>" as LSTAE
participant "anu:\nAnuncio" as ANUN

activate RANU
RANU -> RANU : listaAnu=getAnunciosPorAdjudicar(colab)
RANU -> LSTAE **:create()
RANU -> PLAT: getRegistoAdjudicacoes()
RANU -> RADJ : getListaAdj()
loop [ Para cada anúncio registado ]
RANU -> LA : anu = get(i)

RANU -> ANUN: seriado = isSeriado()
OPT [ seriado == true]
RANU -> ANUN: adjudicar = adjudicacaoOpt()
OPT [ adjudicar == true ]
RANU -> LADJ: b = temAdjudicacao(anu)
OPT [ b == false ]
RANU -> LSTAE : add(anu)
end OPT
end OPT
end OPT
end loop

deactivate RANU
@enduml

PlantUML version 2017.11(Wed Apr 19 17:18:59 BST 2017)
(GPL source distribution)
Java Runtime: Java(TM) SE Runtime Environment
JVM: Java HotSpot(TM) 64-Bit Server VM
Java Version: 1.8.0_111-b14
Operating System: Windows 10
OS Version: 10.0
Default Encoding: UTF-8
Language: en
Country: US
-->
    </g>
</svg>
