<?xml version="1.0" encoding="UTF-8"?><svg xmlns="http://www.w3.org/2000/svg" xmlns:xlink="http://www.w3.org/1999/xlink" contentScriptType="application/ecmascript" contentStyleType="text/css" height="511px" preserveAspectRatio="none" style="width:1518px;height:511px;" version="1.1" viewBox="0 0 1518 511" width="1518px" zoomAndPan="magnify">
    <defs>
        <filter height="300%" id="f1p1kk9tenii3d" width="300%" x="-1" y="-1">
            <feGaussianBlur result="blurOut" stdDeviation="2.0"/>
            <feColorMatrix in="blurOut" result="blurOut2" type="matrix" values="0 0 0 0 0 0 0 0 0 0 0 0 0 0 0 0 0 0 .4 0"/>
            <feOffset dx="4.0" dy="4.0" in="blurOut2" result="blurOut3"/>
            <feBlend in="SourceGraphic" in2="blurOut3" mode="normal"/>
        </filter>
    </defs>
    <g>
        <!--class Plataforma-->
        <rect fill="#FEFECE" filter="url(#f1p1kk9tenii3d)" height="52.9551" style="stroke: #A80036; stroke-width: 1.5;" width="114" x="6" y="343.5"/>
        <ellipse cx="30" cy="359.5" fill="#ADD1B2" rx="11" ry="11" style="stroke: #A80036; stroke-width: 1.0;"/>
        <path d="M32.4731,365.6431 Q31.8921,365.9419 31.2529,366.0913 Q30.6138,366.2407 29.9082,366.2407 Q27.4014,366.2407 26.0815,364.5889 Q24.7617,362.937 24.7617,359.8159 Q24.7617,356.6865 26.0815,355.0347 Q27.4014,353.3828 29.9082,353.3828 Q30.6138,353.3828 31.2612,353.5322 Q31.9087,353.6816 32.4731,353.9805 L32.4731,356.7031 Q31.8423,356.1221 31.2488,355.8523 Q30.6553,355.5825 30.0244,355.5825 Q28.6797,355.5825 27.9949,356.6492 Q27.3101,357.7158 27.3101,359.8159 Q27.3101,361.9077 27.9949,362.9744 Q28.6797,364.041 30.0244,364.041 Q30.6553,364.041 31.2488,363.7712 Q31.8423,363.5015 32.4731,362.9204 Z "/>
        <text fill="#000000" font-family="sans-serif" font-size="12" lengthAdjust="spacingAndGlyphs" textLength="62" x="46" y="364.0352">Plataforma</text>
        <line style="stroke: #A80036; stroke-width: 1.5;" x1="7" x2="119" y1="375.5" y2="375.5"/>
        <text fill="#000000" font-family="sans-serif" font-size="11" lengthAdjust="spacingAndGlyphs" textLength="102" x="12" y="390.1348">-String designacao</text>
        <!--class AlgoritmoExternoGeracaoPWD-->
        <rect fill="#FEFECE" filter="url(#f1p1kk9tenii3d)" height="40" style="stroke: #A80036; stroke-width: 1.5;" width="205" x="394" y="400"/>
        <ellipse cx="409" cy="416" fill="#ADD1B2" rx="11" ry="11" style="stroke: #A80036; stroke-width: 1.0;"/>
        <path d="M411.4731,422.1431 Q410.8921,422.4419 410.2529,422.5913 Q409.6138,422.7407 408.9082,422.7407 Q406.4014,422.7407 405.0815,421.0889 Q403.7617,419.437 403.7617,416.3159 Q403.7617,413.1865 405.0815,411.5347 Q406.4014,409.8828 408.9082,409.8828 Q409.6138,409.8828 410.2612,410.0322 Q410.9087,410.1816 411.4731,410.4805 L411.4731,413.2031 Q410.8423,412.6221 410.2488,412.3523 Q409.6553,412.0825 409.0244,412.0825 Q407.6797,412.0825 406.9949,413.1492 Q406.3101,414.2158 406.3101,416.3159 Q406.3101,418.4077 406.9949,419.4744 Q407.6797,420.541 409.0244,420.541 Q409.6553,420.541 410.2488,420.2712 Q410.8423,420.0015 411.4731,419.4204 Z "/>
        <text fill="#000000" font-family="sans-serif" font-size="12" lengthAdjust="spacingAndGlyphs" textLength="173" x="423" y="420.5352">AlgoritmoExternoGeracaoPWD</text>
        <line style="stroke: #A80036; stroke-width: 1.5;" x1="395" x2="598" y1="432" y2="432"/>
        <!--class Freelancer-->
        <rect fill="#FEFECE" filter="url(#f1p1kk9tenii3d)" height="91.8203" style="stroke: #A80036; stroke-width: 1.5;" width="100" x="632" y="184"/>
        <ellipse cx="650.6" cy="200" fill="#ADD1B2" rx="11" ry="11" style="stroke: #A80036; stroke-width: 1.0;"/>
        <path d="M653.0731,206.1431 Q652.4921,206.4419 651.8529,206.5913 Q651.2138,206.7407 650.5082,206.7407 Q648.0014,206.7407 646.6815,205.0889 Q645.3617,203.437 645.3617,200.3159 Q645.3617,197.1865 646.6815,195.5347 Q648.0014,193.8828 650.5082,193.8828 Q651.2138,193.8828 651.8612,194.0322 Q652.5087,194.1816 653.0731,194.4805 L653.0731,197.2031 Q652.4423,196.6221 651.8488,196.3523 Q651.2553,196.0825 650.6244,196.0825 Q649.2797,196.0825 648.5949,197.1492 Q647.9101,198.2158 647.9101,200.3159 Q647.9101,202.4077 648.5949,203.4744 Q649.2797,204.541 650.6244,204.541 Q651.2553,204.541 651.8488,204.2712 Q652.4423,204.0015 653.0731,203.4204 Z "/>
        <text fill="#000000" font-family="sans-serif" font-size="12" lengthAdjust="spacingAndGlyphs" textLength="60" x="665.4" y="204.5352">Freelancer</text>
        <line style="stroke: #A80036; stroke-width: 1.5;" x1="633" x2="731" y1="216" y2="216"/>
        <text fill="#000000" font-family="sans-serif" font-size="11" lengthAdjust="spacingAndGlyphs" textLength="71" x="638" y="230.6348">-String nome</text>
        <text fill="#000000" font-family="sans-serif" font-size="11" lengthAdjust="spacingAndGlyphs" textLength="58" x="638" y="243.5898">-String NIF</text>
        <text fill="#000000" font-family="sans-serif" font-size="11" lengthAdjust="spacingAndGlyphs" textLength="88" x="638" y="256.5449">-String contacto</text>
        <text fill="#000000" font-family="sans-serif" font-size="11" lengthAdjust="spacingAndGlyphs" textLength="69" x="638" y="269.5">-String email</text>
        <!--class Habilitacao-->
        <rect fill="#FEFECE" filter="url(#f1p1kk9tenii3d)" height="91.8203" style="stroke: #A80036; stroke-width: 1.5;" width="115" x="901.5" y="123"/>
        <ellipse cx="925.05" cy="139" fill="#ADD1B2" rx="11" ry="11" style="stroke: #A80036; stroke-width: 1.0;"/>
        <path d="M927.5231,145.1431 Q926.9421,145.4419 926.3029,145.5913 Q925.6638,145.7407 924.9582,145.7407 Q922.4514,145.7407 921.1315,144.0889 Q919.8117,142.437 919.8117,139.3159 Q919.8117,136.1865 921.1315,134.5347 Q922.4514,132.8828 924.9582,132.8828 Q925.6638,132.8828 926.3112,133.0322 Q926.9587,133.1816 927.5231,133.4805 L927.5231,136.2031 Q926.8923,135.6221 926.2988,135.3523 Q925.7053,135.0825 925.0744,135.0825 Q923.7297,135.0825 923.0449,136.1492 Q922.3601,137.2158 922.3601,139.3159 Q922.3601,141.4077 923.0449,142.4744 Q923.7297,143.541 925.0744,143.541 Q925.7053,143.541 926.2988,143.2712 Q926.8923,143.0015 927.5231,142.4204 Z "/>
        <text fill="#000000" font-family="sans-serif" font-size="12" lengthAdjust="spacingAndGlyphs" textLength="64" x="940.95" y="143.5352">Habilitacao</text>
        <line style="stroke: #A80036; stroke-width: 1.5;" x1="902.5" x2="1015.5" y1="155" y2="155"/>
        <text fill="#000000" font-family="sans-serif" font-size="11" lengthAdjust="spacingAndGlyphs" textLength="66" x="907.5" y="169.6348">-String grau</text>
        <text fill="#000000" font-family="sans-serif" font-size="11" lengthAdjust="spacingAndGlyphs" textLength="103" x="907.5" y="182.5898">-String desigCurso</text>
        <text fill="#000000" font-family="sans-serif" font-size="11" lengthAdjust="spacingAndGlyphs" textLength="97" x="907.5" y="195.5449">-String instituicao</text>
        <text fill="#000000" font-family="sans-serif" font-size="11" lengthAdjust="spacingAndGlyphs" textLength="78" x="907.5" y="208.5">-double media</text>
        <!--class EnderecoPostal-->
        <rect fill="#FEFECE" filter="url(#f1p1kk9tenii3d)" height="78.8652" style="stroke: #A80036; stroke-width: 1.5;" width="120" x="899" y="8.5"/>
        <ellipse cx="914" cy="24.5" fill="#ADD1B2" rx="11" ry="11" style="stroke: #A80036; stroke-width: 1.0;"/>
        <path d="M916.4731,30.6431 Q915.8921,30.9419 915.2529,31.0913 Q914.6138,31.2407 913.9082,31.2407 Q911.4014,31.2407 910.0815,29.5889 Q908.7617,27.937 908.7617,24.8159 Q908.7617,21.6865 910.0815,20.0347 Q911.4014,18.3828 913.9082,18.3828 Q914.6138,18.3828 915.2612,18.5322 Q915.9087,18.6816 916.4731,18.9805 L916.4731,21.7031 Q915.8423,21.1221 915.2488,20.8523 Q914.6553,20.5825 914.0244,20.5825 Q912.6797,20.5825 911.9949,21.6492 Q911.3101,22.7158 911.3101,24.8159 Q911.3101,26.9077 911.9949,27.9744 Q912.6797,29.041 914.0244,29.041 Q914.6553,29.041 915.2488,28.7712 Q915.8423,28.5015 916.4731,27.9204 Z "/>
        <text fill="#000000" font-family="sans-serif" font-size="12" lengthAdjust="spacingAndGlyphs" textLength="88" x="928" y="29.0352">EnderecoPostal</text>
        <line style="stroke: #A80036; stroke-width: 1.5;" x1="900" x2="1018" y1="40.5" y2="40.5"/>
        <text fill="#000000" font-family="sans-serif" font-size="11" lengthAdjust="spacingAndGlyphs" textLength="66" x="905" y="55.1348">-String local</text>
        <text fill="#000000" font-family="sans-serif" font-size="11" lengthAdjust="spacingAndGlyphs" textLength="93" x="905" y="68.0898">-String codPostal</text>
        <text fill="#000000" font-family="sans-serif" font-size="11" lengthAdjust="spacingAndGlyphs" textLength="95" x="905" y="81.0449">-String localidade</text>
        <!--class CompetenciaTecnica-->
        <rect fill="#FEFECE" filter="url(#f1p1kk9tenii3d)" height="78.8652" style="stroke: #A80036; stroke-width: 1.5;" width="151" x="1121" y="347.5"/>
        <ellipse cx="1136" cy="363.5" fill="#ADD1B2" rx="11" ry="11" style="stroke: #A80036; stroke-width: 1.0;"/>
        <path d="M1138.4731,369.6431 Q1137.8921,369.9419 1137.2529,370.0913 Q1136.6138,370.2407 1135.9082,370.2407 Q1133.4014,370.2407 1132.0815,368.5889 Q1130.7617,366.937 1130.7617,363.8159 Q1130.7617,360.6865 1132.0815,359.0347 Q1133.4014,357.3828 1135.9082,357.3828 Q1136.6138,357.3828 1137.2612,357.5322 Q1137.9087,357.6816 1138.4731,357.9805 L1138.4731,360.7031 Q1137.8423,360.1221 1137.2488,359.8523 Q1136.6553,359.5825 1136.0244,359.5825 Q1134.6797,359.5825 1133.9949,360.6492 Q1133.3101,361.7158 1133.3101,363.8159 Q1133.3101,365.9077 1133.9949,366.9744 Q1134.6797,368.041 1136.0244,368.041 Q1136.6553,368.041 1137.2488,367.7712 Q1137.8423,367.5015 1138.4731,366.9204 Z "/>
        <text fill="#000000" font-family="sans-serif" font-size="12" lengthAdjust="spacingAndGlyphs" textLength="119" x="1150" y="368.0352">CompetenciaTecnica</text>
        <line style="stroke: #A80036; stroke-width: 1.5;" x1="1122" x2="1271" y1="379.5" y2="379.5"/>
        <text fill="#000000" font-family="sans-serif" font-size="11" lengthAdjust="spacingAndGlyphs" textLength="78" x="1127" y="394.1348">-String codigo</text>
        <text fill="#000000" font-family="sans-serif" font-size="11" lengthAdjust="spacingAndGlyphs" textLength="95" x="1127" y="407.0898">-String descBreve</text>
        <text fill="#000000" font-family="sans-serif" font-size="11" lengthAdjust="spacingAndGlyphs" textLength="119" x="1127" y="420.0449">-String descDetalhada</text>
        <!--class GrauProficiencia-->
        <rect fill="#FEFECE" filter="url(#f1p1kk9tenii3d)" height="65.9102" style="stroke: #A80036; stroke-width: 1.5;" width="125" x="1384" y="299"/>
        <ellipse cx="1399" cy="315" fill="#ADD1B2" rx="11" ry="11" style="stroke: #A80036; stroke-width: 1.0;"/>
        <path d="M1401.4731,321.1431 Q1400.8921,321.4419 1400.2529,321.5913 Q1399.6138,321.7407 1398.9082,321.7407 Q1396.4014,321.7407 1395.0815,320.0889 Q1393.7617,318.437 1393.7617,315.3159 Q1393.7617,312.1865 1395.0815,310.5347 Q1396.4014,308.8828 1398.9082,308.8828 Q1399.6138,308.8828 1400.2612,309.0322 Q1400.9087,309.1816 1401.4731,309.4805 L1401.4731,312.2031 Q1400.8423,311.6221 1400.2488,311.3523 Q1399.6553,311.0825 1399.0244,311.0825 Q1397.6797,311.0825 1396.9949,312.1492 Q1396.3101,313.2158 1396.3101,315.3159 Q1396.3101,317.4077 1396.9949,318.4744 Q1397.6797,319.541 1399.0244,319.541 Q1399.6553,319.541 1400.2488,319.2712 Q1400.8423,319.0015 1401.4731,318.4204 Z "/>
        <text fill="#000000" font-family="sans-serif" font-size="12" lengthAdjust="spacingAndGlyphs" textLength="93" x="1413" y="319.5352">GrauProficiencia</text>
        <line style="stroke: #A80036; stroke-width: 1.5;" x1="1385" x2="1508" y1="331" y2="331"/>
        <text fill="#000000" font-family="sans-serif" font-size="11" lengthAdjust="spacingAndGlyphs" textLength="74" x="1390" y="345.6348">-Integer valor</text>
        <text fill="#000000" font-family="sans-serif" font-size="11" lengthAdjust="spacingAndGlyphs" textLength="102" x="1390" y="358.5898">-String designacao</text>
        <!--class Administrativo-->
        <rect fill="#FEFECE" filter="url(#f1p1kk9tenii3d)" height="40" style="stroke: #A80036; stroke-width: 1.5;" width="114" x="250" y="316"/>
        <ellipse cx="265" cy="332" fill="#ADD1B2" rx="11" ry="11" style="stroke: #A80036; stroke-width: 1.0;"/>
        <path d="M267.4731,338.1431 Q266.8921,338.4419 266.2529,338.5913 Q265.6138,338.7407 264.9082,338.7407 Q262.4014,338.7407 261.0815,337.0889 Q259.7617,335.437 259.7617,332.3159 Q259.7617,329.1865 261.0815,327.5347 Q262.4014,325.8828 264.9082,325.8828 Q265.6138,325.8828 266.2612,326.0322 Q266.9087,326.1816 267.4731,326.4805 L267.4731,329.2031 Q266.8423,328.6221 266.2488,328.3523 Q265.6553,328.0825 265.0244,328.0825 Q263.6797,328.0825 262.9949,329.1492 Q262.3101,330.2158 262.3101,332.3159 Q262.3101,334.4077 262.9949,335.4744 Q263.6797,336.541 265.0244,336.541 Q265.6553,336.541 266.2488,336.2712 Q266.8423,336.0015 267.4731,335.4204 Z "/>
        <text fill="#000000" font-family="sans-serif" font-size="12" lengthAdjust="spacingAndGlyphs" textLength="82" x="279" y="336.5352">Administrativo</text>
        <line style="stroke: #A80036; stroke-width: 1.5;" x1="251" x2="363" y1="348" y2="348"/>
        <!--class Utilizador-->
        <rect fill="#FEFECE" filter="url(#f1p1kk9tenii3d)" height="78.8652" style="stroke: #A80036; stroke-width: 1.5;" width="105" x="906.5" y="338.5"/>
        <ellipse cx="929.6" cy="354.5" fill="#ADD1B2" rx="11" ry="11" style="stroke: #A80036; stroke-width: 1.0;"/>
        <path d="M932.0731,360.6431 Q931.4921,360.9419 930.8529,361.0913 Q930.2138,361.2407 929.5082,361.2407 Q927.0014,361.2407 925.6815,359.5889 Q924.3617,357.937 924.3617,354.8159 Q924.3617,351.6865 925.6815,350.0347 Q927.0014,348.3828 929.5082,348.3828 Q930.2138,348.3828 930.8612,348.5322 Q931.5087,348.6816 932.0731,348.9805 L932.0731,351.7031 Q931.4423,351.1221 930.8488,350.8523 Q930.2553,350.5825 929.6244,350.5825 Q928.2797,350.5825 927.5949,351.6492 Q926.9101,352.7158 926.9101,354.8159 Q926.9101,356.9077 927.5949,357.9744 Q928.2797,359.041 929.6244,359.041 Q930.2553,359.041 930.8488,358.7712 Q931.4423,358.5015 932.0731,357.9204 Z "/>
        <text fill="#000000" font-family="sans-serif" font-size="12" lengthAdjust="spacingAndGlyphs" textLength="55" x="945.4" y="359.0352">Utilizador</text>
        <line style="stroke: #A80036; stroke-width: 1.5;" x1="907.5" x2="1010.5" y1="370.5" y2="370.5"/>
        <text fill="#000000" font-family="sans-serif" font-size="11" lengthAdjust="spacingAndGlyphs" textLength="71" x="912.5" y="385.1348">-String nome</text>
        <text fill="#000000" font-family="sans-serif" font-size="11" lengthAdjust="spacingAndGlyphs" textLength="69" x="912.5" y="398.0898">-String email</text>
        <text fill="#000000" font-family="sans-serif" font-size="11" lengthAdjust="spacingAndGlyphs" textLength="93" x="912.5" y="411.0449">-String password</text>
        <!--class Reconhecimento-->
        <rect fill="#FEFECE" filter="url(#f1p1kk9tenii3d)" height="52.9551" style="stroke: #A80036; stroke-width: 1.5;" width="126" x="896" y="250.5"/>
        <ellipse cx="911" cy="266.5" fill="#ADD1B2" rx="11" ry="11" style="stroke: #A80036; stroke-width: 1.0;"/>
        <path d="M913.4731,272.6431 Q912.8921,272.9419 912.2529,273.0913 Q911.6138,273.2407 910.9082,273.2407 Q908.4014,273.2407 907.0815,271.5889 Q905.7617,269.937 905.7617,266.8159 Q905.7617,263.6865 907.0815,262.0347 Q908.4014,260.3828 910.9082,260.3828 Q911.6138,260.3828 912.2612,260.5322 Q912.9087,260.6816 913.4731,260.9805 L913.4731,263.7031 Q912.8423,263.1221 912.2488,262.8523 Q911.6553,262.5825 911.0244,262.5825 Q909.6797,262.5825 908.9949,263.6492 Q908.3101,264.7158 908.3101,266.8159 Q908.3101,268.9077 908.9949,269.9744 Q909.6797,271.041 911.0244,271.041 Q911.6553,271.041 912.2488,270.7712 Q912.8423,270.5015 913.4731,269.9204 Z "/>
        <text fill="#000000" font-family="sans-serif" font-size="12" lengthAdjust="spacingAndGlyphs" textLength="94" x="925" y="271.0352">Reconhecimento</text>
        <line style="stroke: #A80036; stroke-width: 1.5;" x1="897" x2="1021" y1="282.5" y2="282.5"/>
        <text fill="#000000" font-family="sans-serif" font-size="11" lengthAdjust="spacingAndGlyphs" textLength="56" x="902" y="297.1348">-Data data</text>
        <path d="M114.03,343.24 C132.95,333.12 150,324 150,324 C150,324 394,254 394,254 C394,254 550.02,240.95 631.99,234.1 " fill="none" style="stroke: #A80036; stroke-width: 1.0;"/>
        <text fill="#000000" font-family="sans-serif" font-size="13" lengthAdjust="spacingAndGlyphs" textLength="42" x="279.5" y="259.5684">possui</text>
        <polygon fill="#000000" points="324.5,253.1553,330.5,256.1553,324.5,259.1553,324.5,253.1553" style="stroke: #000000; stroke-width: 1.0;"/>
        <text fill="#000000" font-family="sans-serif" font-size="13" lengthAdjust="spacingAndGlyphs" textLength="8" x="116.9057" y="332.9268">1</text>
        <text fill="#000000" font-family="sans-serif" font-size="13" lengthAdjust="spacingAndGlyphs" textLength="6" x="617.8728" y="248.4821">*</text>
        <path d="M120.4,378.53 C136.61,380.98 150,383 150,383 C150,383 291.79,398.18 393.71,409.1 " fill="none" style="stroke: #A80036; stroke-width: 1.0;"/>
        <text fill="#000000" font-family="sans-serif" font-size="13" lengthAdjust="spacingAndGlyphs" textLength="55" x="151" y="379.5684">recorre a</text>
        <polygon fill="#000000" points="209,373.1553,215,376.1553,209,379.1553,209,373.1553" style="stroke: #000000; stroke-width: 1.0;"/>
        <text fill="#000000" font-family="sans-serif" font-size="13" lengthAdjust="spacingAndGlyphs" textLength="8" x="127.8831" y="393.0737">1</text>
        <text fill="#000000" font-family="sans-serif" font-size="13" lengthAdjust="spacingAndGlyphs" textLength="8" x="377.8676" y="421.4301">1</text>
        <path d="M599.13,410.73 C694.22,402.06 832.39,389.46 906.49,382.7 " fill="none" style="stroke: #A80036; stroke-width: 1.0;"/>
        <text fill="#000000" font-family="sans-serif" font-size="13" lengthAdjust="spacingAndGlyphs" textLength="91" x="630" y="395.5684">gera password</text>
        <polygon fill="#000000" points="724,389.1553,730,392.1553,724,395.1553,724,389.1553" style="stroke: #000000; stroke-width: 1.0;"/>
        <text fill="#000000" font-family="sans-serif" font-size="13" lengthAdjust="spacingAndGlyphs" textLength="8" x="606.9606" y="423.1798">1</text>
        <text fill="#000000" font-family="sans-serif" font-size="13" lengthAdjust="spacingAndGlyphs" textLength="6" x="892.337" y="397.0929">*</text>
        <path d="M732.12,191.66 C749.58,178.03 765,166 765,166 C765,166 842.05,118.89 898.78,84.21 " fill="none" style="stroke: #A80036; stroke-width: 1.0;"/>
        <text fill="#000000" font-family="sans-serif" font-size="13" lengthAdjust="spacingAndGlyphs" textLength="86" x="766" y="103.5684">localizada em</text>
        <polygon fill="#000000" points="855,97.1553,861,100.1553,855,103.1553,855,97.1553" style="stroke: #000000; stroke-width: 1.0;"/>
        <text fill="#000000" font-family="sans-serif" font-size="13" lengthAdjust="spacingAndGlyphs" textLength="8" x="740.0689" y="199.7347">1</text>
        <text fill="#000000" font-family="sans-serif" font-size="13" lengthAdjust="spacingAndGlyphs" textLength="8" x="882.9532" y="102.1327">1</text>
        <path d="M732.16,219.09 C779.59,208.57 851.34,192.66 901.19,181.6 " fill="none" style="stroke: #A80036; stroke-width: 1.0;"/>
        <text fill="#000000" font-family="sans-serif" font-size="13" lengthAdjust="spacingAndGlyphs" textLength="39" x="789.5" y="187.5684">detém</text>
        <polygon fill="#000000" points="831.5,181.1553,837.5,184.1553,831.5,187.1553,831.5,181.1553" style="stroke: #000000; stroke-width: 1.0;"/>
        <text fill="#000000" font-family="sans-serif" font-size="13" lengthAdjust="spacingAndGlyphs" textLength="8" x="740.1148" y="231.1935">1</text>
        <text fill="#000000" font-family="sans-serif" font-size="13" lengthAdjust="spacingAndGlyphs" textLength="22" x="871.6639" y="196.3936">1..*</text>
        <path d="M732.12,263.55 C749.58,275.47 765,286 765,286 C765,286 866,322 866,322 C866,322 885.38,333.8 906.35,346.56 " fill="none" style="stroke: #A80036; stroke-width: 1.0;"/>
        <text fill="#000000" font-family="sans-serif" font-size="13" lengthAdjust="spacingAndGlyphs" textLength="66" x="776" y="282.5684">atua como</text>
        <polygon fill="#000000" points="845,276.1553,851,279.1553,845,282.1553,845,276.1553" style="stroke: #000000; stroke-width: 1.0;"/>
        <text fill="#000000" font-family="sans-serif" font-size="13" lengthAdjust="spacingAndGlyphs" textLength="24" x="740.0791" y="281.4093">0..1</text>
        <text fill="#000000" font-family="sans-serif" font-size="13" lengthAdjust="spacingAndGlyphs" textLength="8" x="890.3836" y="355.7931">1</text>
        <path d="M364.06,338.91 C505.56,346.27 866,365 866,365 C866,365 885.38,367.74 906.35,370.7 " fill="none" style="stroke: #A80036; stroke-width: 1.0;"/>
        <text fill="#000000" font-family="sans-serif" font-size="13" lengthAdjust="spacingAndGlyphs" textLength="66" x="642.5" y="349.5684">atua como</text>
        <polygon fill="#000000" points="711.5,343.1553,717.5,346.1553,711.5,349.1553,711.5,343.1553" style="stroke: #000000; stroke-width: 1.0;"/>
        <text fill="#000000" font-family="sans-serif" font-size="13" lengthAdjust="spacingAndGlyphs" textLength="24" x="372.0451" y="352.7">0..1</text>
        <text fill="#000000" font-family="sans-serif" font-size="13" lengthAdjust="spacingAndGlyphs" textLength="8" x="890.3836" y="383.3278">1</text>
        <path d="M1016.96,303.62 C1035.78,312.42 1052,320 1052,320 C1052,320 1085.94,335.85 1120.81,352.13 " fill="none" style="stroke: #A80036; stroke-width: 1.0;"/>
        <text fill="#000000" font-family="sans-serif" font-size="13" lengthAdjust="spacingAndGlyphs" textLength="24" x="1053" y="316.5684">tem</text>
        <polygon fill="#000000" points="1080,310.1553,1086,313.1553,1080,316.1553,1080,310.1553" style="stroke: #000000; stroke-width: 1.0;"/>
        <text fill="#000000" font-family="sans-serif" font-size="13" lengthAdjust="spacingAndGlyphs" textLength="8" x="1021.4383" y="324.1197">1</text>
        <text fill="#000000" font-family="sans-serif" font-size="13" lengthAdjust="spacingAndGlyphs" textLength="8" x="1104.9655" y="362.026">1</text>
        <path d="M1022.48,284.08 C1115.83,294.65 1290.66,314.46 1383.65,324.99 " fill="none" style="stroke: #A80036; stroke-width: 1.0;"/>
        <text fill="#000000" font-family="sans-serif" font-size="13" lengthAdjust="spacingAndGlyphs" textLength="24" x="1178" y="292.5684">tem</text>
        <polygon fill="#000000" points="1205,286.1553,1211,289.1553,1205,292.1553,1205,286.1553" style="stroke: #000000; stroke-width: 1.0;"/>
        <text fill="#000000" font-family="sans-serif" font-size="13" lengthAdjust="spacingAndGlyphs" textLength="8" x="1029.8606" y="298.2625">1</text>
        <text fill="#000000" font-family="sans-serif" font-size="13" lengthAdjust="spacingAndGlyphs" textLength="8" x="1367.9205" y="337.6382">1</text>
        <path d="M732.16,238.4 C777.89,246.22 846.23,257.9 895.75,266.36 " fill="none" style="stroke: #A80036; stroke-width: 1.0;"/>
        <text fill="#000000" font-family="sans-serif" font-size="13" lengthAdjust="spacingAndGlyphs" textLength="24" x="797" y="242.5684">tem</text>
        <polygon fill="#000000" points="824,236.1553,830,239.1553,824,242.1553,824,236.1553" style="stroke: #000000; stroke-width: 1.0;"/>
        <text fill="#000000" font-family="sans-serif" font-size="13" lengthAdjust="spacingAndGlyphs" textLength="8" x="740.1148" y="253.3397">1</text>
        <text fill="#000000" font-family="sans-serif" font-size="13" lengthAdjust="spacingAndGlyphs" textLength="22" x="866.093" y="278.6229">0..*</text>
        <path d="M364.4,320.92 C380.61,316.58 394,313 394,313 C394,313 599,275 599,275 C599,275 614.42,266.54 631.88,256.96 " fill="none" style="stroke: #A80036; stroke-width: 1.0;"/>
        <text fill="#000000" font-family="sans-serif" font-size="13" lengthAdjust="spacingAndGlyphs" textLength="43" x="468.5" y="271.5684">regista</text>
        <polygon fill="#000000" points="514.5,265.1553,520.5,268.1553,514.5,271.1553,514.5,265.1553" style="stroke: #000000; stroke-width: 1.0;"/>
        <text fill="#000000" font-family="sans-serif" font-size="13" lengthAdjust="spacingAndGlyphs" textLength="8" x="371.8831" y="332.5835">1</text>
        <text fill="#000000" font-family="sans-serif" font-size="13" lengthAdjust="spacingAndGlyphs" textLength="6" x="618.078" y="274.6257">*</text>
        <path d="M110.09,396.66 C180.3,437.28 306,510 306,510 C306,510 306,510 960,510 C960,510 1051.99,461.95 1120.99,425.92 " fill="none" style="stroke: #A80036; stroke-width: 1.0;"/>
        <text fill="#000000" font-family="sans-serif" font-size="13" lengthAdjust="spacingAndGlyphs" textLength="42" x="654.5" y="506.5684">possui</text>
        <polygon fill="#000000" points="699.5,500.1553,705.5,503.1553,699.5,506.1553,699.5,500.1553" style="stroke: #000000; stroke-width: 1.0;"/>
        <text fill="#000000" font-family="sans-serif" font-size="13" lengthAdjust="spacingAndGlyphs" textLength="8" x="112.0546" y="417.169">1</text>
        <text fill="#000000" font-family="sans-serif" font-size="13" lengthAdjust="spacingAndGlyphs" textLength="6" x="1106.8937" y="443.2984">*</text>
        <path d="M120.13,362.11 C159.08,356.64 210.78,349.38 249.76,343.9 " fill="none" style="stroke: #A80036; stroke-width: 1.0;"/>
        <text fill="#000000" font-family="sans-serif" font-size="13" lengthAdjust="spacingAndGlyphs" textLength="24" x="166.5" y="345.5684">tem</text>
        <polygon fill="#000000" points="193.5,339.1553,199.5,342.1553,193.5,345.1553,193.5,339.1553" style="stroke: #000000; stroke-width: 1.0;"/>
        <text fill="#000000" font-family="sans-serif" font-size="13" lengthAdjust="spacingAndGlyphs" textLength="8" x="127.9623" y="374.6512">1</text>
        <text fill="#000000" font-family="sans-serif" font-size="13" lengthAdjust="spacingAndGlyphs" textLength="6" x="236.0417" y="358.4614">*</text>
        <path d="M1272.24,370.42 C1307.9,362.52 1350.04,353.17 1383.84,345.68 " fill="none" style="stroke: #A80036; stroke-width: 1.0;"/>
        <text fill="#000000" font-family="sans-serif" font-size="13" lengthAdjust="spacingAndGlyphs" textLength="37" x="1303" y="349.5684">aplica</text>
        <polygon fill="#000000" points="1343,343.1553,1349,346.1553,1343,349.1553,1343,343.1553" style="stroke: #000000; stroke-width: 1.0;"/>
        <text fill="#000000" font-family="sans-serif" font-size="13" lengthAdjust="spacingAndGlyphs" textLength="8" x="1280.0894" y="382.1165">1</text>
        <text fill="#000000" font-family="sans-serif" font-size="13" lengthAdjust="spacingAndGlyphs" textLength="22" x="1353.7834" y="360.5868">0..*</text>
        <!--
@startuml
skinparam classAttributeIconSize 0
hide methods
left to right direction
skinparam linetype polyline

class Plataforma {
  -String designacao
}

class AlgoritmoExternoGeracaoPWD{
}

class Freelancer {
  -String nome
  -String NIF
  -String contacto
  -String email
}

class Habilitacao{
  -String grau
  -String desigCurso
  -String instituicao
  -double media
}

class EnderecoPostal {
  -String local
  -String codPostal
  -String localidade
}


class CompetenciaTecnica {
  -String codigo
  -String descBreve
  -String descDetalhada
}

class GrauProficiencia {
  -Integer valor
  -String designacao
}

class Administrativo {
}

class Utilizador {
  -String nome
  -String email
  -String password
}

class Reconhecimento {
   -Data data
}

Plataforma "1" - - "*" Freelancer : possui >
Plataforma "1" - - "1" AlgoritmoExternoGeracaoPWD : recorre a >
AlgoritmoExternoGeracaoPWD "1" - - "*" Utilizador : gera password >
Freelancer "1" - - "1" EnderecoPostal: localizada em >
Freelancer "1" - - "1..*" Habilitacao: detém >
Freelancer "0..1" - - "1" Utilizador: atua como >
Administrativo "0..1" - - "1" Utilizador: atua como >
Reconhecimento "1" - - "1" CompetenciaTecnica: tem >
Reconhecimento "1" - - "1" GrauProficiencia: tem >

Freelancer "1" - - "0..*" Reconhecimento: tem >

Administrativo "1" - - "*" Freelancer: regista >

Plataforma "1" - - "*" CompetenciaTecnica : possui >
Plataforma "1" - - "*" Administrativo : tem >

CompetenciaTecnica "1" - - "0..*" GrauProficiencia : aplica >

@enduml

PlantUML version 2017.11(Wed Apr 19 17:18:59 WEST 2017)
(GPL source distribution)
Java Runtime: Java(TM) SE Runtime Environment
JVM: Java HotSpot(TM) 64-Bit Server VM
Java Version: 1.8.0_111-b14
Operating System: Mac OS X
OS Version: 10.15
Default Encoding: UTF-8
Language: pt
Country: PT
-->
    </g>
</svg>
