@startuml
skinparam classAttributeIconSize 0
hide methods
left to right direction
skinparam linetype polyline

class Plataforma {
  -String designacao
}

class AlgoritmoExternoGeracaoPWD{
}

class Freelancer {
  -String nome
  -String NIF
  -String contacto
  -String email
}

class Habilitacao{
  -String grau
  -String desigCurso
  -String instituicao
  -double media
}

class EnderecoPostal {
  -String local
  -String codPostal
  -String localidade
}


class CompetenciaTecnica {
  -String codigo
  -String descBreve
  -String descDetalhada
}

class GrauProficiencia {
  -Integer valor
  -String designacao
}

class Administrativo {
}

class Utilizador {
  -String nome
  -String email
  -String password
}

class Reconhecimento {
   -Data data
}

Plataforma "1" -- "*" Freelancer : possui >
Plataforma "1" -- "1" AlgoritmoExternoGeracaoPWD : recorre a >
AlgoritmoExternoGeracaoPWD "1" -- "*" Utilizador : gera password >
Freelancer "1" -- "1" EnderecoPostal: localizada em >
Freelancer "1" -- "1..*" Habilitacao: detém >
Freelancer "0..1" -- "1" Utilizador: atua como >
Administrativo "0..1" -- "1" Utilizador: atua como >
Reconhecimento "1" -- "1" CompetenciaTecnica: tem >
Reconhecimento "1" -- "1" GrauProficiencia: tem >

Freelancer "1" -- "0..*" Reconhecimento: tem >

Administrativo "1" -- "*" Freelancer: regista >

Plataforma "1" -- "*" CompetenciaTecnica : possui >
Plataforma "1" -- "*" Administrativo : tem >

CompetenciaTecnica "1" -- "0..*" GrauProficiencia : aplica >

@enduml
