<?xml version="1.0" encoding="UTF-8"?><svg xmlns="http://www.w3.org/2000/svg" xmlns:xlink="http://www.w3.org/1999/xlink" contentScriptType="application/ecmascript" contentStyleType="text/css" height="1955px" preserveAspectRatio="none" style="width:3723px;height:1955px;" version="1.1" viewBox="0 0 3723 1955" width="3723px" zoomAndPan="magnify">
    <defs>
        <filter height="300%" id="f12brenbklstj8" width="300%" x="-1" y="-1">
            <feGaussianBlur result="blurOut" stdDeviation="2.0"/>
            <feColorMatrix in="blurOut" result="blurOut2" type="matrix" values="0 0 0 0 0 0 0 0 0 0 0 0 0 0 0 0 0 0 .4 0"/>
            <feOffset dx="4.0" dy="4.0" in="blurOut2" result="blurOut3"/>
            <feBlend in="SourceGraphic" in2="blurOut3" mode="normal"/>
        </filter>
    </defs>
    <g>
        <rect fill="#FFFFFF" filter="url(#f12brenbklstj8)" height="1756.4844" style="stroke: #A80036; stroke-width: 1.0;" width="10" x="71" y="96.4883"/>
        <rect fill="#FFFFFF" filter="url(#f12brenbklstj8)" height="29.3105" style="stroke: #A80036; stroke-width: 1.0;" width="10" x="668" y="117.4883"/>
        <rect fill="#FFFFFF" filter="url(#f12brenbklstj8)" height="500.3926" style="stroke: #A80036; stroke-width: 1.0;" width="10" x="668" y="176.1094"/>
        <rect fill="#FFFFFF" filter="url(#f12brenbklstj8)" height="284.3516" style="stroke: #A80036; stroke-width: 1.0;" width="10" x="668" y="705.8125"/>
        <rect fill="#FFFFFF" filter="url(#f12brenbklstj8)" height="29.3105" style="stroke: #A80036; stroke-width: 1.0;" width="10" x="668" y="1043.7852"/>
        <rect fill="#FFFFFF" filter="url(#f12brenbklstj8)" height="29.3105" style="stroke: #A80036; stroke-width: 1.0;" width="10" x="668" y="1102.4063"/>
        <rect fill="#FFFFFF" filter="url(#f12brenbklstj8)" height="385.1504" style="stroke: #A80036; stroke-width: 1.0;" width="10" x="668" y="1161.0273"/>
        <rect fill="#FFFFFF" filter="url(#f12brenbklstj8)" height="277.4844" style="stroke: #A80036; stroke-width: 1.0;" width="10" x="668" y="1575.4883"/>
        <rect fill="#FFFFFF" filter="url(#f12brenbklstj8)" height="386.2832" style="stroke: #A80036; stroke-width: 1.0;" width="10" x="1105" y="220.4199"/>
        <rect fill="#FFFFFF" filter="url(#f12brenbklstj8)" height="225.7305" style="stroke: #A80036; stroke-width: 1.0;" width="10" x="1105" y="735.123"/>
        <rect fill="#FFFFFF" filter="url(#f12brenbklstj8)" height="326.5293" style="stroke: #A80036; stroke-width: 1.0;" width="10" x="1105" y="1190.3379"/>
        <rect fill="#FFFFFF" filter="url(#f12brenbklstj8)" height="248.1738" style="stroke: #A80036; stroke-width: 1.0;" width="10" x="1105" y="1604.7988"/>
        <rect fill="#FFFFFF" filter="url(#f12brenbklstj8)" height="30" style="stroke: #A80036; stroke-width: 1.0;" width="10" x="1281" y="250.041"/>
        <rect fill="#FFFFFF" filter="url(#f12brenbklstj8)" height="30" style="stroke: #A80036; stroke-width: 1.0;" width="10" x="1405" y="309.3516"/>
        <rect fill="#FFFFFF" filter="url(#f12brenbklstj8)" height="30" style="stroke: #A80036; stroke-width: 1.0;" width="10" x="1667" y="368.6621"/>
        <rect fill="#FFFFFF" filter="url(#f12brenbklstj8)" height="30" style="stroke: #A80036; stroke-width: 1.0;" width="10" x="1667" y="427.9727"/>
        <rect fill="#FFFFFF" filter="url(#f12brenbklstj8)" height="104.4199" style="stroke: #A80036; stroke-width: 1.0;" width="10" x="1803" y="502.2832"/>
        <rect fill="#FFFFFF" filter="url(#f12brenbklstj8)" height="30" style="stroke: #A80036; stroke-width: 1.0;" width="10" x="1803" y="1486.8672"/>
        <rect fill="#FFFFFF" filter="url(#f12brenbklstj8)" height="182.5527" style="stroke: #A80036; stroke-width: 1.0;" width="10" x="1803" y="1634.1094"/>
        <rect fill="#FFFFFF" filter="url(#f12brenbklstj8)" height="30" style="stroke: #A80036; stroke-width: 1.0;" width="10" x="2007.5" y="930.8535"/>
        <rect fill="#FFFFFF" filter="url(#f12brenbklstj8)" height="30" style="stroke: #A80036; stroke-width: 1.0;" width="10" x="2007.5" y="1219.6484"/>
        <rect fill="#FFFFFF" filter="url(#f12brenbklstj8)" height="29.3105" style="stroke: #A80036; stroke-width: 1.0;" width="10" x="2231" y="531.9043"/>
        <rect fill="#FFFFFF" filter="url(#f12brenbklstj8)" height="123.1094" style="stroke: #A80036; stroke-width: 1.0;" width="10" x="2346.5" y="764.4336"/>
        <rect fill="#FFFFFF" filter="url(#f12brenbklstj8)" height="139.5977" style="stroke: #A80036; stroke-width: 1.0;" width="10" x="2346.5" y="1278.959"/>
        <rect fill="#FFFFFF" filter="url(#f12brenbklstj8)" height="30" style="stroke: #A80036; stroke-width: 1.0;" width="10" x="2346.5" y="1663.4199"/>
        <rect fill="#FEFECE" filter="url(#f12brenbklstj8)" height="30.4883" style="stroke: #A80036; stroke-width: 1.5;" width="149" x="2573" y="540.2148"/>
        <text fill="#000000" font-family="sans-serif" font-size="14" lengthAdjust="spacingAndGlyphs" textLength="135" x="2580" y="560.75">end:EnderecoPostal</text>
        <rect fill="#FEFECE" filter="url(#f12brenbklstj8)" height="30.4883" style="stroke: #A80036; stroke-width: 1.5;" width="117" x="2291" y="585.7031"/>
        <text fill="#000000" font-family="sans-serif" font-size="14" lengthAdjust="spacingAndGlyphs" textLength="103" x="2298" y="606.2383">free:Freelancer</text>
        <rect fill="#FFFFFF" filter="url(#f12brenbklstj8)" height="264.6621" style="stroke: #000000; stroke-width: 2.0;" width="2922" x="13" y="638.1914"/>
        <rect fill="#FEFECE" filter="url(#f12brenbklstj8)" height="30.4883" style="stroke: #A80036; stroke-width: 1.5;" width="185" x="2736" y="772.7441"/>
        <text fill="#000000" font-family="sans-serif" font-size="14" lengthAdjust="spacingAndGlyphs" textLength="171" x="2743" y="793.2793">ha:HabilitacaoAcademica</text>
        <rect fill="#FFFFFF" filter="url(#f12brenbklstj8)" height="453.3926" style="stroke: #000000; stroke-width: 2.0;" width="3597" x="13" y="1005.4746"/>
        <rect fill="#FEFECE" filter="url(#f12brenbklstj8)" height="46.9766" style="stroke: #A80036; stroke-width: 1.5;" width="132" x="3464" y="1287.2695"/>
        <text fill="#000000" font-family="sans-serif" font-size="14" lengthAdjust="spacingAndGlyphs" textLength="21" x="3519.5" y="1307.8047">rec</text>
        <text fill="#000000" font-family="sans-serif" font-size="14" lengthAdjust="spacingAndGlyphs" textLength="118" x="3471" y="1324.293">:Reconhecimento</text>
        <line style="stroke: #A80036; stroke-width: 1.0; stroke-dasharray: 5.0,5.0;" x1="76" x2="76" y1="86.4883" y2="1871.2832"/>
        <line style="stroke: #A80036; stroke-width: 1.0; stroke-dasharray: 5.0,5.0;" x1="673" x2="673" y1="86.4883" y2="1871.2832"/>
        <line style="stroke: #A80036; stroke-width: 1.0; stroke-dasharray: 5.0,5.0;" x1="1110" x2="1110" y1="86.4883" y2="1871.2832"/>
        <line style="stroke: #A80036; stroke-width: 1.0; stroke-dasharray: 5.0,5.0;" x1="1286" x2="1286" y1="86.4883" y2="1871.2832"/>
        <line style="stroke: #A80036; stroke-width: 1.0; stroke-dasharray: 5.0,5.0;" x1="1410" x2="1410" y1="86.4883" y2="1871.2832"/>
        <line style="stroke: #A80036; stroke-width: 1.0; stroke-dasharray: 5.0,5.0;" x1="1546" x2="1546" y1="86.4883" y2="1871.2832"/>
        <line style="stroke: #A80036; stroke-width: 1.0; stroke-dasharray: 5.0,5.0;" x1="1672" x2="1672" y1="86.4883" y2="1871.2832"/>
        <line style="stroke: #A80036; stroke-width: 1.0; stroke-dasharray: 5.0,5.0;" x1="1808" x2="1808" y1="86.4883" y2="1871.2832"/>
        <line style="stroke: #A80036; stroke-width: 1.0; stroke-dasharray: 5.0,5.0;" x1="2012" x2="2012" y1="86.4883" y2="1871.2832"/>
        <line style="stroke: #A80036; stroke-width: 1.0; stroke-dasharray: 5.0,5.0;" x1="2236" x2="2236" y1="86.4883" y2="1871.2832"/>
        <line style="stroke: #A80036; stroke-width: 1.0; stroke-dasharray: 5.0,5.0;" x1="2351" x2="2351" y1="618.4473" y2="1871.2832"/>
        <line style="stroke: #A80036; stroke-width: 1.0; stroke-dasharray: 5.0,5.0;" x1="2649" x2="2649" y1="572.959" y2="1871.2832"/>
        <line style="stroke: #A80036; stroke-width: 1.0; stroke-dasharray: 5.0,5.0;" x1="2830" x2="2830" y1="805.4883" y2="1871.2832"/>
        <line style="stroke: #A80036; stroke-width: 1.0; stroke-dasharray: 5.0,5.0;" x1="3039" x2="3039" y1="86.4883" y2="1871.2832"/>
        <line style="stroke: #A80036; stroke-width: 1.0; stroke-dasharray: 5.0,5.0;" x1="3234" x2="3234" y1="86.4883" y2="1871.2832"/>
        <line style="stroke: #A80036; stroke-width: 1.0; stroke-dasharray: 5.0,5.0;" x1="3389" x2="3389" y1="86.4883" y2="1871.2832"/>
        <line style="stroke: #A80036; stroke-width: 1.0; stroke-dasharray: 5.0,5.0;" x1="3532" x2="3532" y1="1328.2578" y2="1871.2832"/>
        <line style="stroke: #A80036; stroke-width: 1.0; stroke-dasharray: 5.0,5.0;" x1="3662" x2="3662" y1="86.4883" y2="1871.2832"/>
        <text fill="#000000" font-family="sans-serif" font-size="14" lengthAdjust="spacingAndGlyphs" textLength="100" x="23" y="83.5352">Administrativo</text>
        <ellipse cx="76" cy="13" fill="#FEFECE" filter="url(#f12brenbklstj8)" rx="8" ry="8" style="stroke: #A80036; stroke-width: 2.0;"/>
        <path d="M76,21 L76,48 M63,29 L89,29 M76,48 L63,63 M76,48 L89,63 " fill="#FEFECE" filter="url(#f12brenbklstj8)" style="stroke: #A80036; stroke-width: 2.0;"/>
        <text fill="#000000" font-family="sans-serif" font-size="14" lengthAdjust="spacingAndGlyphs" textLength="100" x="23" y="1883.8184">Administrativo</text>
        <ellipse cx="76" cy="1896.7715" fill="#FEFECE" filter="url(#f12brenbklstj8)" rx="8" ry="8" style="stroke: #A80036; stroke-width: 2.0;"/>
        <path d="M76,1904.7715 L76,1931.7715 M63,1912.7715 L89,1912.7715 M76,1931.7715 L63,1946.7715 M76,1931.7715 L89,1946.7715 " fill="#FEFECE" filter="url(#f12brenbklstj8)" style="stroke: #A80036; stroke-width: 2.0;"/>
        <rect fill="#FEFECE" filter="url(#f12brenbklstj8)" height="30.4883" style="stroke: #A80036; stroke-width: 1.5;" width="160" x="591" y="51"/>
        <text fill="#000000" font-family="sans-serif" font-size="14" lengthAdjust="spacingAndGlyphs" textLength="146" x="598" y="71.5352">:RegistarFreelancerUI</text>
        <rect fill="#FEFECE" filter="url(#f12brenbklstj8)" height="30.4883" style="stroke: #A80036; stroke-width: 1.5;" width="160" x="591" y="1870.2832"/>
        <text fill="#000000" font-family="sans-serif" font-size="14" lengthAdjust="spacingAndGlyphs" textLength="146" x="598" y="1890.8184">:RegistarFreelancerUI</text>
        <rect fill="#FEFECE" filter="url(#f12brenbklstj8)" height="30.4883" style="stroke: #A80036; stroke-width: 1.5;" width="216" x="1000" y="51"/>
        <text fill="#000000" font-family="sans-serif" font-size="14" lengthAdjust="spacingAndGlyphs" textLength="202" x="1007" y="71.5352">:RegistarFreelancerController</text>
        <rect fill="#FEFECE" filter="url(#f12brenbklstj8)" height="30.4883" style="stroke: #A80036; stroke-width: 1.5;" width="216" x="1000" y="1870.2832"/>
        <text fill="#000000" font-family="sans-serif" font-size="14" lengthAdjust="spacingAndGlyphs" textLength="202" x="1007" y="1890.8184">:RegistarFreelancerController</text>
        <rect fill="#FEFECE" filter="url(#f12brenbklstj8)" height="30.4883" style="stroke: #A80036; stroke-width: 1.5;" width="108" x="1230" y="51"/>
        <text fill="#000000" font-family="sans-serif" font-size="14" lengthAdjust="spacingAndGlyphs" textLength="94" x="1237" y="71.5352">AplicacaoPOT</text>
        <rect fill="#FEFECE" filter="url(#f12brenbklstj8)" height="30.4883" style="stroke: #A80036; stroke-width: 1.5;" width="108" x="1230" y="1870.2832"/>
        <text fill="#000000" font-family="sans-serif" font-size="14" lengthAdjust="spacingAndGlyphs" textLength="94" x="1237" y="1890.8184">AplicacaoPOT</text>
        <rect fill="#FEFECE" filter="url(#f12brenbklstj8)" height="46.9766" style="stroke: #A80036; stroke-width: 1.5;" width="112" x="1352" y="34.5117"/>
        <text fill="#000000" font-family="sans-serif" font-size="14" lengthAdjust="spacingAndGlyphs" textLength="26" x="1395" y="55.0469">app</text>
        <text fill="#000000" font-family="sans-serif" font-size="14" lengthAdjust="spacingAndGlyphs" textLength="98" x="1359" y="71.5352">:AplicacaoPOT</text>
        <rect fill="#FEFECE" filter="url(#f12brenbklstj8)" height="46.9766" style="stroke: #A80036; stroke-width: 1.5;" width="112" x="1352" y="1870.2832"/>
        <text fill="#000000" font-family="sans-serif" font-size="14" lengthAdjust="spacingAndGlyphs" textLength="26" x="1395" y="1890.8184">app</text>
        <text fill="#000000" font-family="sans-serif" font-size="14" lengthAdjust="spacingAndGlyphs" textLength="98" x="1359" y="1907.3066">:AplicacaoPOT</text>
        <rect fill="#FEFECE" filter="url(#f12brenbklstj8)" height="46.9766" style="stroke: #A80036; stroke-width: 1.5;" width="132" x="1478" y="34.5117"/>
        <text fill="#000000" font-family="sans-serif" font-size="14" lengthAdjust="spacingAndGlyphs" textLength="46" x="1521" y="55.0469">sessao</text>
        <text fill="#000000" font-family="sans-serif" font-size="14" lengthAdjust="spacingAndGlyphs" textLength="118" x="1485" y="71.5352">:SessaoUtilizador</text>
        <rect fill="#FEFECE" filter="url(#f12brenbklstj8)" height="46.9766" style="stroke: #A80036; stroke-width: 1.5;" width="132" x="1478" y="1870.2832"/>
        <text fill="#000000" font-family="sans-serif" font-size="14" lengthAdjust="spacingAndGlyphs" textLength="46" x="1521" y="1890.8184">sessao</text>
        <text fill="#000000" font-family="sans-serif" font-size="14" lengthAdjust="spacingAndGlyphs" textLength="118" x="1485" y="1907.3066">:SessaoUtilizador</text>
        <rect fill="#FEFECE" filter="url(#f12brenbklstj8)" height="30.4883" style="stroke: #A80036; stroke-width: 1.5;" width="92" x="1624" y="51"/>
        <text fill="#000000" font-family="sans-serif" font-size="14" lengthAdjust="spacingAndGlyphs" textLength="78" x="1631" y="71.5352">:Plataforma</text>
        <rect fill="#FEFECE" filter="url(#f12brenbklstj8)" height="30.4883" style="stroke: #A80036; stroke-width: 1.5;" width="92" x="1624" y="1870.2832"/>
        <text fill="#000000" font-family="sans-serif" font-size="14" lengthAdjust="spacingAndGlyphs" textLength="78" x="1631" y="1890.8184">:Plataforma</text>
        <rect fill="#FEFECE" filter="url(#f12brenbklstj8)" height="30.4883" style="stroke: #A80036; stroke-width: 1.5;" width="152" x="1730" y="51"/>
        <text fill="#000000" font-family="sans-serif" font-size="14" lengthAdjust="spacingAndGlyphs" textLength="138" x="1737" y="71.5352">rf:RegistoFreelancer</text>
        <rect fill="#FEFECE" filter="url(#f12brenbklstj8)" height="30.4883" style="stroke: #A80036; stroke-width: 1.5;" width="152" x="1730" y="1870.2832"/>
        <text fill="#000000" font-family="sans-serif" font-size="14" lengthAdjust="spacingAndGlyphs" textLength="138" x="1737" y="1890.8184">rf:RegistoFreelancer</text>
        <rect fill="#FEFECE" filter="url(#f12brenbklstj8)" height="30.4883" style="stroke: #A80036; stroke-width: 1.5;" width="229" x="1896" y="51"/>
        <text fill="#000000" font-family="sans-serif" font-size="14" lengthAdjust="spacingAndGlyphs" textLength="215" x="1903" y="71.5352">rct:RegistoCompetenciaTecnica</text>
        <rect fill="#FEFECE" filter="url(#f12brenbklstj8)" height="30.4883" style="stroke: #A80036; stroke-width: 1.5;" width="229" x="1896" y="1870.2832"/>
        <text fill="#000000" font-family="sans-serif" font-size="14" lengthAdjust="spacingAndGlyphs" textLength="215" x="1903" y="1890.8184">rct:RegistoCompetenciaTecnica</text>
        <rect fill="#FEFECE" filter="url(#f12brenbklstj8)" height="30.4883" style="stroke: #A80036; stroke-width: 1.5;" width="86" x="2191" y="51"/>
        <text fill="#000000" font-family="sans-serif" font-size="14" lengthAdjust="spacingAndGlyphs" textLength="72" x="2198" y="71.5352">Freelancer</text>
        <rect fill="#FEFECE" filter="url(#f12brenbklstj8)" height="30.4883" style="stroke: #A80036; stroke-width: 1.5;" width="86" x="2191" y="1870.2832"/>
        <text fill="#000000" font-family="sans-serif" font-size="14" lengthAdjust="spacingAndGlyphs" textLength="72" x="2198" y="1890.8184">Freelancer</text>
        <rect fill="#FEFECE" filter="url(#f12brenbklstj8)" height="30.4883" style="stroke: #A80036; stroke-width: 1.5;" width="117" x="2291" y="1870.2832"/>
        <text fill="#000000" font-family="sans-serif" font-size="14" lengthAdjust="spacingAndGlyphs" textLength="103" x="2298" y="1890.8184">free:Freelancer</text>
        <rect fill="#FEFECE" filter="url(#f12brenbklstj8)" height="30.4883" style="stroke: #A80036; stroke-width: 1.5;" width="149" x="2573" y="1870.2832"/>
        <text fill="#000000" font-family="sans-serif" font-size="14" lengthAdjust="spacingAndGlyphs" textLength="135" x="2580" y="1890.8184">end:EnderecoPostal</text>
        <rect fill="#FEFECE" filter="url(#f12brenbklstj8)" height="30.4883" style="stroke: #A80036; stroke-width: 1.5;" width="185" x="2736" y="1870.2832"/>
        <text fill="#000000" font-family="sans-serif" font-size="14" lengthAdjust="spacingAndGlyphs" textLength="171" x="2743" y="1890.8184">ha:HabilitacaoAcademica</text>
        <rect fill="#FEFECE" filter="url(#f12brenbklstj8)" height="46.9766" style="stroke: #A80036; stroke-width: 1.5;" width="205" x="2935" y="34.5117"/>
        <text fill="#000000" font-family="sans-serif" font-size="14" lengthAdjust="spacingAndGlyphs" textLength="16" x="3029.5" y="55.0469">lct</text>
        <text fill="#000000" font-family="sans-serif" font-size="14" lengthAdjust="spacingAndGlyphs" textLength="191" x="2942" y="71.5352">:List&lt;CompetenciaTecnica&gt;</text>
        <rect fill="#FEFECE" filter="url(#f12brenbklstj8)" height="46.9766" style="stroke: #A80036; stroke-width: 1.5;" width="205" x="2935" y="1870.2832"/>
        <text fill="#000000" font-family="sans-serif" font-size="14" lengthAdjust="spacingAndGlyphs" textLength="16" x="3029.5" y="1890.8184">lct</text>
        <text fill="#000000" font-family="sans-serif" font-size="14" lengthAdjust="spacingAndGlyphs" textLength="191" x="2942" y="1907.3066">:List&lt;CompetenciaTecnica&gt;</text>
        <rect fill="#FEFECE" filter="url(#f12brenbklstj8)" height="46.9766" style="stroke: #A80036; stroke-width: 1.5;" width="156" x="3154" y="34.5117"/>
        <text fill="#000000" font-family="sans-serif" font-size="14" lengthAdjust="spacingAndGlyphs" textLength="16" x="3224" y="55.0469">ct:</text>
        <text fill="#000000" font-family="sans-serif" font-size="14" lengthAdjust="spacingAndGlyphs" textLength="142" x="3161" y="71.5352">CompetenciaTecnica</text>
        <rect fill="#FEFECE" filter="url(#f12brenbklstj8)" height="46.9766" style="stroke: #A80036; stroke-width: 1.5;" width="156" x="3154" y="1870.2832"/>
        <text fill="#000000" font-family="sans-serif" font-size="14" lengthAdjust="spacingAndGlyphs" textLength="16" x="3224" y="1890.8184">ct:</text>
        <text fill="#000000" font-family="sans-serif" font-size="14" lengthAdjust="spacingAndGlyphs" textLength="142" x="3161" y="1907.3066">CompetenciaTecnica</text>
        <rect fill="#FEFECE" filter="url(#f12brenbklstj8)" height="46.9766" style="stroke: #A80036; stroke-width: 1.5;" width="126" x="3324" y="34.5117"/>
        <text fill="#000000" font-family="sans-serif" font-size="14" lengthAdjust="spacingAndGlyphs" textLength="22" x="3376" y="55.0469">gp:</text>
        <text fill="#000000" font-family="sans-serif" font-size="14" lengthAdjust="spacingAndGlyphs" textLength="112" x="3331" y="71.5352">GrauProficiencia</text>
        <rect fill="#FEFECE" filter="url(#f12brenbklstj8)" height="46.9766" style="stroke: #A80036; stroke-width: 1.5;" width="126" x="3324" y="1870.2832"/>
        <text fill="#000000" font-family="sans-serif" font-size="14" lengthAdjust="spacingAndGlyphs" textLength="22" x="3376" y="1890.8184">gp:</text>
        <text fill="#000000" font-family="sans-serif" font-size="14" lengthAdjust="spacingAndGlyphs" textLength="112" x="3331" y="1907.3066">GrauProficiencia</text>
        <rect fill="#FEFECE" filter="url(#f12brenbklstj8)" height="46.9766" style="stroke: #A80036; stroke-width: 1.5;" width="132" x="3464" y="1870.2832"/>
        <text fill="#000000" font-family="sans-serif" font-size="14" lengthAdjust="spacingAndGlyphs" textLength="21" x="3519.5" y="1890.8184">rec</text>
        <text fill="#000000" font-family="sans-serif" font-size="14" lengthAdjust="spacingAndGlyphs" textLength="118" x="3471" y="1907.3066">:Reconhecimento</text>
        <rect fill="#FEFECE" filter="url(#f12brenbklstj8)" height="46.9766" style="stroke: #A80036; stroke-width: 1.5;" width="101" x="3610" y="34.5117"/>
        <text fill="#000000" font-family="sans-serif" font-size="14" lengthAdjust="spacingAndGlyphs" textLength="87" x="3617" y="55.0469">:Autorizacao</text>
        <text fill="#000000" font-family="sans-serif" font-size="14" lengthAdjust="spacingAndGlyphs" textLength="48" x="3636.5" y="71.5352">Facade</text>
        <rect fill="#FEFECE" filter="url(#f12brenbklstj8)" height="46.9766" style="stroke: #A80036; stroke-width: 1.5;" width="101" x="3610" y="1870.2832"/>
        <text fill="#000000" font-family="sans-serif" font-size="14" lengthAdjust="spacingAndGlyphs" textLength="87" x="3617" y="1890.8184">:Autorizacao</text>
        <text fill="#000000" font-family="sans-serif" font-size="14" lengthAdjust="spacingAndGlyphs" textLength="48" x="3636.5" y="1907.3066">Facade</text>
        <rect fill="#FFFFFF" filter="url(#f12brenbklstj8)" height="1756.4844" style="stroke: #A80036; stroke-width: 1.0;" width="10" x="71" y="96.4883"/>
        <rect fill="#FFFFFF" filter="url(#f12brenbklstj8)" height="29.3105" style="stroke: #A80036; stroke-width: 1.0;" width="10" x="668" y="117.4883"/>
        <rect fill="#FFFFFF" filter="url(#f12brenbklstj8)" height="500.3926" style="stroke: #A80036; stroke-width: 1.0;" width="10" x="668" y="176.1094"/>
        <rect fill="#FFFFFF" filter="url(#f12brenbklstj8)" height="284.3516" style="stroke: #A80036; stroke-width: 1.0;" width="10" x="668" y="705.8125"/>
        <rect fill="#FFFFFF" filter="url(#f12brenbklstj8)" height="29.3105" style="stroke: #A80036; stroke-width: 1.0;" width="10" x="668" y="1043.7852"/>
        <rect fill="#FFFFFF" filter="url(#f12brenbklstj8)" height="29.3105" style="stroke: #A80036; stroke-width: 1.0;" width="10" x="668" y="1102.4063"/>
        <rect fill="#FFFFFF" filter="url(#f12brenbklstj8)" height="385.1504" style="stroke: #A80036; stroke-width: 1.0;" width="10" x="668" y="1161.0273"/>
        <rect fill="#FFFFFF" filter="url(#f12brenbklstj8)" height="277.4844" style="stroke: #A80036; stroke-width: 1.0;" width="10" x="668" y="1575.4883"/>
        <rect fill="#FFFFFF" filter="url(#f12brenbklstj8)" height="386.2832" style="stroke: #A80036; stroke-width: 1.0;" width="10" x="1105" y="220.4199"/>
        <rect fill="#FFFFFF" filter="url(#f12brenbklstj8)" height="225.7305" style="stroke: #A80036; stroke-width: 1.0;" width="10" x="1105" y="735.123"/>
        <rect fill="#FFFFFF" filter="url(#f12brenbklstj8)" height="326.5293" style="stroke: #A80036; stroke-width: 1.0;" width="10" x="1105" y="1190.3379"/>
        <rect fill="#FFFFFF" filter="url(#f12brenbklstj8)" height="248.1738" style="stroke: #A80036; stroke-width: 1.0;" width="10" x="1105" y="1604.7988"/>
        <rect fill="#FFFFFF" filter="url(#f12brenbklstj8)" height="30" style="stroke: #A80036; stroke-width: 1.0;" width="10" x="1281" y="250.041"/>
        <rect fill="#FFFFFF" filter="url(#f12brenbklstj8)" height="30" style="stroke: #A80036; stroke-width: 1.0;" width="10" x="1405" y="309.3516"/>
        <rect fill="#FFFFFF" filter="url(#f12brenbklstj8)" height="30" style="stroke: #A80036; stroke-width: 1.0;" width="10" x="1667" y="368.6621"/>
        <rect fill="#FFFFFF" filter="url(#f12brenbklstj8)" height="30" style="stroke: #A80036; stroke-width: 1.0;" width="10" x="1667" y="427.9727"/>
        <rect fill="#FFFFFF" filter="url(#f12brenbklstj8)" height="104.4199" style="stroke: #A80036; stroke-width: 1.0;" width="10" x="1803" y="502.2832"/>
        <rect fill="#FFFFFF" filter="url(#f12brenbklstj8)" height="30" style="stroke: #A80036; stroke-width: 1.0;" width="10" x="1803" y="1486.8672"/>
        <rect fill="#FFFFFF" filter="url(#f12brenbklstj8)" height="182.5527" style="stroke: #A80036; stroke-width: 1.0;" width="10" x="1803" y="1634.1094"/>
        <rect fill="#FFFFFF" filter="url(#f12brenbklstj8)" height="30" style="stroke: #A80036; stroke-width: 1.0;" width="10" x="2007.5" y="930.8535"/>
        <rect fill="#FFFFFF" filter="url(#f12brenbklstj8)" height="30" style="stroke: #A80036; stroke-width: 1.0;" width="10" x="2007.5" y="1219.6484"/>
        <rect fill="#FFFFFF" filter="url(#f12brenbklstj8)" height="29.3105" style="stroke: #A80036; stroke-width: 1.0;" width="10" x="2231" y="531.9043"/>
        <rect fill="#FFFFFF" filter="url(#f12brenbklstj8)" height="123.1094" style="stroke: #A80036; stroke-width: 1.0;" width="10" x="2346.5" y="764.4336"/>
        <rect fill="#FFFFFF" filter="url(#f12brenbklstj8)" height="139.5977" style="stroke: #A80036; stroke-width: 1.0;" width="10" x="2346.5" y="1278.959"/>
        <rect fill="#FFFFFF" filter="url(#f12brenbklstj8)" height="30" style="stroke: #A80036; stroke-width: 1.0;" width="10" x="2346.5" y="1663.4199"/>
        <polygon fill="#A80036" points="656,113.4883,666,117.4883,656,121.4883,660,117.4883" style="stroke: #A80036; stroke-width: 1.0;"/>
        <line style="stroke: #A80036; stroke-width: 1.0;" x1="81" x2="662" y1="117.4883" y2="117.4883"/>
        <text fill="#000000" font-family="sans-serif" font-size="13" font-weight="bold" lengthAdjust="spacingAndGlyphs" textLength="9" x="88" y="113.0566">1</text>
        <text fill="#000000" font-family="sans-serif" font-size="13" lengthAdjust="spacingAndGlyphs" textLength="238" x="101" y="113.0566">Inicia o registo de um novo freelancer</text>
        <polygon fill="#A80036" points="92,142.7988,82,146.7988,92,150.7988,88,146.7988" style="stroke: #A80036; stroke-width: 1.0;"/>
        <line style="stroke: #A80036; stroke-width: 1.0; stroke-dasharray: 2.0,2.0;" x1="86" x2="672" y1="146.7988" y2="146.7988"/>
        <text fill="#000000" font-family="sans-serif" font-size="13" font-weight="bold" lengthAdjust="spacingAndGlyphs" textLength="9" x="98" y="142.3672">2</text>
        <text fill="#000000" font-family="sans-serif" font-size="13" lengthAdjust="spacingAndGlyphs" textLength="404" x="111" y="142.3672">Solicita dados necessários(nome, nif, endereço, contacto, email)</text>
        <polygon fill="#A80036" points="656,172.1094,666,176.1094,656,180.1094,660,176.1094" style="stroke: #A80036; stroke-width: 1.0;"/>
        <line style="stroke: #A80036; stroke-width: 1.0;" x1="81" x2="662" y1="176.1094" y2="176.1094"/>
        <text fill="#000000" font-family="sans-serif" font-size="13" font-weight="bold" lengthAdjust="spacingAndGlyphs" textLength="9" x="88" y="171.6777">3</text>
        <text fill="#000000" font-family="sans-serif" font-size="13" lengthAdjust="spacingAndGlyphs" textLength="187" x="101" y="171.6777">Introduz os dados solicitados</text>
        <polygon fill="#A80036" points="1093,216.4199,1103,220.4199,1093,224.4199,1097,220.4199" style="stroke: #A80036; stroke-width: 1.0;"/>
        <line style="stroke: #A80036; stroke-width: 1.0;" x1="678" x2="1099" y1="220.4199" y2="220.4199"/>
        <text fill="#000000" font-family="sans-serif" font-size="13" font-weight="bold" lengthAdjust="spacingAndGlyphs" textLength="9" x="685" y="208.6436">4</text>
        <text fill="#000000" font-family="sans-serif" font-size="13" lengthAdjust="spacingAndGlyphs" textLength="313" x="698" y="200.9883">novoFreelancer(nome,NIF,endLocal,endCodPostal,</text>
        <text fill="#000000" font-family="sans-serif" font-size="13" lengthAdjust="spacingAndGlyphs" textLength="191" x="698" y="216.2988">endLocalidade,contacto,email)</text>
        <polygon fill="#A80036" points="1269,246.041,1279,250.041,1269,254.041,1273,250.041" style="stroke: #A80036; stroke-width: 1.0;"/>
        <line style="stroke: #A80036; stroke-width: 1.0;" x1="1115" x2="1275" y1="250.041" y2="250.041"/>
        <text fill="#000000" font-family="sans-serif" font-size="13" font-weight="bold" lengthAdjust="spacingAndGlyphs" textLength="9" x="1122" y="245.6094">5</text>
        <text fill="#000000" font-family="sans-serif" font-size="13" lengthAdjust="spacingAndGlyphs" textLength="122" x="1135" y="245.6094">app = getInstance()</text>
        <polygon fill="#A80036" points="1393,305.3516,1403,309.3516,1393,313.3516,1397,309.3516" style="stroke: #A80036; stroke-width: 1.0;"/>
        <line style="stroke: #A80036; stroke-width: 1.0;" x1="1115" x2="1399" y1="309.3516" y2="309.3516"/>
        <text fill="#000000" font-family="sans-serif" font-size="13" font-weight="bold" lengthAdjust="spacingAndGlyphs" textLength="9" x="1122" y="304.9199">6</text>
        <text fill="#000000" font-family="sans-serif" font-size="13" lengthAdjust="spacingAndGlyphs" textLength="165" x="1135" y="304.9199">sessao = getSessaoAtual()</text>
        <polygon fill="#A80036" points="1655,364.6621,1665,368.6621,1655,372.6621,1659,368.6621" style="stroke: #A80036; stroke-width: 1.0;"/>
        <line style="stroke: #A80036; stroke-width: 1.0;" x1="1115" x2="1661" y1="368.6621" y2="368.6621"/>
        <text fill="#000000" font-family="sans-serif" font-size="13" font-weight="bold" lengthAdjust="spacingAndGlyphs" textLength="9" x="1122" y="364.2305">7</text>
        <text fill="#000000" font-family="sans-serif" font-size="13" lengthAdjust="spacingAndGlyphs" textLength="167" x="1135" y="364.2305">rf = getRegistoFreelancer()</text>
        <polygon fill="#A80036" points="1655,423.9727,1665,427.9727,1655,431.9727,1659,427.9727" style="stroke: #A80036; stroke-width: 1.0;"/>
        <line style="stroke: #A80036; stroke-width: 1.0;" x1="1115" x2="1661" y1="427.9727" y2="427.9727"/>
        <text fill="#000000" font-family="sans-serif" font-size="13" font-weight="bold" lengthAdjust="spacingAndGlyphs" textLength="9" x="1122" y="423.541">8</text>
        <text fill="#000000" font-family="sans-serif" font-size="13" lengthAdjust="spacingAndGlyphs" textLength="240" x="1135" y="423.541">rct = getRegistoCompetenciaTecnica()</text>
        <polygon fill="#A80036" points="1791,498.2832,1801,502.2832,1791,506.2832,1795,502.2832" style="stroke: #A80036; stroke-width: 1.0;"/>
        <line style="stroke: #A80036; stroke-width: 1.0;" x1="1115" x2="1797" y1="502.2832" y2="502.2832"/>
        <text fill="#000000" font-family="sans-serif" font-size="13" font-weight="bold" lengthAdjust="spacingAndGlyphs" textLength="9" x="1122" y="490.5068">9</text>
        <text fill="#000000" font-family="sans-serif" font-size="13" lengthAdjust="spacingAndGlyphs" textLength="449" x="1135" y="482.8516">free = novoFreelancer(nome,NIF,endLocal,endCodPostal,endLocalidade,</text>
        <text fill="#000000" font-family="sans-serif" font-size="13" lengthAdjust="spacingAndGlyphs" textLength="97" x="1135" y="498.1621">contacto,email)</text>
        <polygon fill="#A80036" points="2219,527.9043,2229,531.9043,2219,535.9043,2223,531.9043" style="stroke: #A80036; stroke-width: 1.0;"/>
        <line style="stroke: #A80036; stroke-width: 1.0;" x1="1813" x2="2225" y1="531.9043" y2="531.9043"/>
        <text fill="#000000" font-family="sans-serif" font-size="13" font-weight="bold" lengthAdjust="spacingAndGlyphs" textLength="18" x="1820" y="527.4727">10</text>
        <text fill="#000000" font-family="sans-serif" font-size="13" lengthAdjust="spacingAndGlyphs" textLength="377" x="1842" y="527.4727">end = novoEndereco(endLocal,endCodPostal,endLocalidade)</text>
        <polygon fill="#A80036" points="2561,557.2148,2571,561.2148,2561,565.2148,2565,561.2148" style="stroke: #A80036; stroke-width: 1.0;"/>
        <line style="stroke: #A80036; stroke-width: 1.0; stroke-dasharray: 2.0,2.0;" x1="2236" x2="2567" y1="561.2148" y2="561.2148"/>
        <text fill="#000000" font-family="sans-serif" font-size="13" font-weight="bold" lengthAdjust="spacingAndGlyphs" textLength="18" x="2243" y="556.7832">11</text>
        <text fill="#000000" font-family="sans-serif" font-size="13" lengthAdjust="spacingAndGlyphs" textLength="286" x="2265" y="556.7832">create(endLocal,endCodPostal,endLocalidade)</text>
        <rect fill="#FEFECE" filter="url(#f12brenbklstj8)" height="30.4883" style="stroke: #A80036; stroke-width: 1.5;" width="149" x="2573" y="540.2148"/>
        <text fill="#000000" font-family="sans-serif" font-size="14" lengthAdjust="spacingAndGlyphs" textLength="135" x="2580" y="560.75">end:EnderecoPostal</text>
        <polygon fill="#A80036" points="2279,602.7031,2289,606.7031,2279,610.7031,2283,606.7031" style="stroke: #A80036; stroke-width: 1.0;"/>
        <line style="stroke: #A80036; stroke-width: 1.0; stroke-dasharray: 2.0,2.0;" x1="1808" x2="2285" y1="606.7031" y2="606.7031"/>
        <text fill="#000000" font-family="sans-serif" font-size="13" font-weight="bold" lengthAdjust="spacingAndGlyphs" textLength="18" x="1815" y="602.2715">12</text>
        <text fill="#000000" font-family="sans-serif" font-size="13" lengthAdjust="spacingAndGlyphs" textLength="230" x="1837" y="602.2715">create(nome,NIF,end,contacto,email)</text>
        <rect fill="#FEFECE" filter="url(#f12brenbklstj8)" height="30.4883" style="stroke: #A80036; stroke-width: 1.5;" width="117" x="2291" y="585.7031"/>
        <text fill="#000000" font-family="sans-serif" font-size="14" lengthAdjust="spacingAndGlyphs" textLength="103" x="2298" y="606.2383">free:Freelancer</text>
        <rect fill="none" height="264.6621" style="stroke: #000000; stroke-width: 2.0;" width="2922" x="13" y="638.1914"/>
        <polygon fill="#EEEEEE" points="13,638.1914,87,638.1914,87,645.1914,77,655.1914,13,655.1914,13,638.1914" style="stroke: #000000; stroke-width: 2.0;"/>
        <text fill="#000000" font-family="sans-serif" font-size="13" font-weight="bold" lengthAdjust="spacingAndGlyphs" textLength="29" x="28" y="651.7598">loop</text>
        <polygon fill="#A80036" points="92,672.502,82,676.502,92,680.502,88,676.502" style="stroke: #A80036; stroke-width: 1.0;"/>
        <line style="stroke: #A80036; stroke-width: 1.0; stroke-dasharray: 2.0,2.0;" x1="86" x2="672" y1="676.502" y2="676.502"/>
        <text fill="#000000" font-family="sans-serif" font-size="13" font-weight="bold" lengthAdjust="spacingAndGlyphs" textLength="18" x="98" y="672.0703">13</text>
        <text fill="#000000" font-family="sans-serif" font-size="13" lengthAdjust="spacingAndGlyphs" textLength="541" x="120" y="672.0703">Solicita dados necessários sobre a HA(grau, designação do curso, instituição e média)</text>
        <polygon fill="#A80036" points="656,701.8125,666,705.8125,656,709.8125,660,705.8125" style="stroke: #A80036; stroke-width: 1.0;"/>
        <line style="stroke: #A80036; stroke-width: 1.0;" x1="81" x2="662" y1="705.8125" y2="705.8125"/>
        <text fill="#000000" font-family="sans-serif" font-size="13" font-weight="bold" lengthAdjust="spacingAndGlyphs" textLength="18" x="88" y="701.3809">14</text>
        <text fill="#000000" font-family="sans-serif" font-size="13" lengthAdjust="spacingAndGlyphs" textLength="187" x="110" y="701.3809">introduz os dados solicitados</text>
        <polygon fill="#A80036" points="1093,731.123,1103,735.123,1093,739.123,1097,735.123" style="stroke: #A80036; stroke-width: 1.0;"/>
        <line style="stroke: #A80036; stroke-width: 1.0;" x1="678" x2="1099" y1="735.123" y2="735.123"/>
        <text fill="#000000" font-family="sans-serif" font-size="13" font-weight="bold" lengthAdjust="spacingAndGlyphs" textLength="18" x="685" y="730.6914">15</text>
        <text fill="#000000" font-family="sans-serif" font-size="13" lengthAdjust="spacingAndGlyphs" textLength="386" x="707" y="730.6914">addHabilitacaoAcademica(grau,desigCurso,instituicao,media)</text>
        <polygon fill="#A80036" points="2334.5,760.4336,2344.5,764.4336,2334.5,768.4336,2338.5,764.4336" style="stroke: #A80036; stroke-width: 1.0;"/>
        <line style="stroke: #A80036; stroke-width: 1.0;" x1="1115" x2="2340.5" y1="764.4336" y2="764.4336"/>
        <text fill="#000000" font-family="sans-serif" font-size="13" font-weight="bold" lengthAdjust="spacingAndGlyphs" textLength="18" x="1122" y="760.002">16</text>
        <text fill="#000000" font-family="sans-serif" font-size="13" lengthAdjust="spacingAndGlyphs" textLength="386" x="1144" y="760.002">addHabilitacaoAcademica(grau,desigCurso,instituicao,media)</text>
        <polygon fill="#A80036" points="2724,789.7441,2734,793.7441,2724,797.7441,2728,793.7441" style="stroke: #A80036; stroke-width: 1.0;"/>
        <line style="stroke: #A80036; stroke-width: 1.0; stroke-dasharray: 2.0,2.0;" x1="2356.5" x2="2730" y1="793.7441" y2="793.7441"/>
        <text fill="#000000" font-family="sans-serif" font-size="13" font-weight="bold" lengthAdjust="spacingAndGlyphs" textLength="18" x="2363.5" y="789.3125">17</text>
        <text fill="#000000" font-family="sans-serif" font-size="13" lengthAdjust="spacingAndGlyphs" textLength="262" x="2385.5" y="789.3125">create(grau,desigCurso,instituicao,media)</text>
        <rect fill="#FEFECE" filter="url(#f12brenbklstj8)" height="30.4883" style="stroke: #A80036; stroke-width: 1.5;" width="185" x="2736" y="772.7441"/>
        <text fill="#000000" font-family="sans-serif" font-size="14" lengthAdjust="spacingAndGlyphs" textLength="171" x="2743" y="793.2793">ha:HabilitacaoAcademica</text>
        <line style="stroke: #A80036; stroke-width: 1.0;" x1="2356.5" x2="2398.5" y1="839.543" y2="839.543"/>
        <line style="stroke: #A80036; stroke-width: 1.0;" x1="2398.5" x2="2398.5" y1="839.543" y2="852.543"/>
        <line style="stroke: #A80036; stroke-width: 1.0;" x1="2357.5" x2="2398.5" y1="852.543" y2="852.543"/>
        <polygon fill="#A80036" points="2367.5,848.543,2357.5,852.543,2367.5,856.543,2363.5,852.543" style="stroke: #A80036; stroke-width: 1.0;"/>
        <text fill="#000000" font-family="sans-serif" font-size="13" font-weight="bold" lengthAdjust="spacingAndGlyphs" textLength="18" x="2363.5" y="834.8008">18</text>
        <text fill="#000000" font-family="sans-serif" font-size="13" lengthAdjust="spacingAndGlyphs" textLength="199" x="2385.5" y="834.8008">validaHabilitacaoAcademica(ha)</text>
        <line style="stroke: #A80036; stroke-width: 1.0;" x1="2356.5" x2="2398.5" y1="886.8535" y2="886.8535"/>
        <line style="stroke: #A80036; stroke-width: 1.0;" x1="2398.5" x2="2398.5" y1="886.8535" y2="899.8535"/>
        <line style="stroke: #A80036; stroke-width: 1.0;" x1="2351.5" x2="2398.5" y1="899.8535" y2="899.8535"/>
        <polygon fill="#A80036" points="2361.5,895.8535,2351.5,899.8535,2361.5,903.8535,2357.5,899.8535" style="stroke: #A80036; stroke-width: 1.0;"/>
        <text fill="#000000" font-family="sans-serif" font-size="13" font-weight="bold" lengthAdjust="spacingAndGlyphs" textLength="18" x="2363.5" y="882.1113">19</text>
        <text fill="#000000" font-family="sans-serif" font-size="13" lengthAdjust="spacingAndGlyphs" textLength="185" x="2385.5" y="882.1113">addHabilitacaoAcademica(ha)</text>
        <polygon fill="#A80036" points="1995.5,926.8535,2005.5,930.8535,1995.5,934.8535,1999.5,930.8535" style="stroke: #A80036; stroke-width: 1.0;"/>
        <line style="stroke: #A80036; stroke-width: 1.0;" x1="1115" x2="2001.5" y1="930.8535" y2="930.8535"/>
        <text fill="#000000" font-family="sans-serif" font-size="13" font-weight="bold" lengthAdjust="spacingAndGlyphs" textLength="18" x="1122" y="926.4219">20</text>
        <text fill="#000000" font-family="sans-serif" font-size="13" lengthAdjust="spacingAndGlyphs" textLength="109" x="1144" y="926.4219">lct = getListaCT()</text>
        <polygon fill="#A80036" points="92,986.1641,82,990.1641,92,994.1641,88,990.1641" style="stroke: #A80036; stroke-width: 1.0;"/>
        <line style="stroke: #A80036; stroke-width: 1.0; stroke-dasharray: 2.0,2.0;" x1="86" x2="672" y1="990.1641" y2="990.1641"/>
        <text fill="#000000" font-family="sans-serif" font-size="13" font-weight="bold" lengthAdjust="spacingAndGlyphs" textLength="18" x="98" y="985.7324">21</text>
        <text fill="#000000" font-family="sans-serif" font-size="13" lengthAdjust="spacingAndGlyphs" textLength="470" x="120" y="985.7324">Apresenta a lista de CT e solicita a escolha de uma que o freelancer possui</text>
        <rect fill="none" height="453.3926" style="stroke: #000000; stroke-width: 2.0;" width="3597" x="13" y="1005.4746"/>
        <polygon fill="#EEEEEE" points="13,1005.4746,87,1005.4746,87,1012.4746,77,1022.4746,13,1022.4746,13,1005.4746" style="stroke: #000000; stroke-width: 2.0;"/>
        <text fill="#000000" font-family="sans-serif" font-size="13" font-weight="bold" lengthAdjust="spacingAndGlyphs" textLength="29" x="28" y="1019.043">loop</text>
        <polygon fill="#A80036" points="656,1039.7852,666,1043.7852,656,1047.7852,660,1043.7852" style="stroke: #A80036; stroke-width: 1.0;"/>
        <line style="stroke: #A80036; stroke-width: 1.0;" x1="81" x2="662" y1="1043.7852" y2="1043.7852"/>
        <text fill="#000000" font-family="sans-serif" font-size="13" font-weight="bold" lengthAdjust="spacingAndGlyphs" textLength="18" x="88" y="1039.3535">22</text>
        <text fill="#000000" font-family="sans-serif" font-size="13" lengthAdjust="spacingAndGlyphs" textLength="111" x="110" y="1039.3535">seleciona uma CT</text>
        <polygon fill="#A80036" points="92,1069.0957,82,1073.0957,92,1077.0957,88,1073.0957" style="stroke: #A80036; stroke-width: 1.0;"/>
        <line style="stroke: #A80036; stroke-width: 1.0; stroke-dasharray: 2.0,2.0;" x1="86" x2="672" y1="1073.0957" y2="1073.0957"/>
        <text fill="#000000" font-family="sans-serif" font-size="13" font-weight="bold" lengthAdjust="spacingAndGlyphs" textLength="18" x="98" y="1068.6641">23</text>
        <text fill="#000000" font-family="sans-serif" font-size="13" lengthAdjust="spacingAndGlyphs" textLength="401" x="120" y="1068.6641">solicita o GP que o Freelancer possui referente a CT selecionada</text>
        <polygon fill="#A80036" points="656,1098.4063,666,1102.4063,656,1106.4063,660,1102.4063" style="stroke: #A80036; stroke-width: 1.0;"/>
        <line style="stroke: #A80036; stroke-width: 1.0;" x1="81" x2="662" y1="1102.4063" y2="1102.4063"/>
        <text fill="#000000" font-family="sans-serif" font-size="13" font-weight="bold" lengthAdjust="spacingAndGlyphs" textLength="18" x="88" y="1097.9746">24</text>
        <text fill="#000000" font-family="sans-serif" font-size="13" lengthAdjust="spacingAndGlyphs" textLength="91" x="110" y="1097.9746">seleciona o GP</text>
        <polygon fill="#A80036" points="92,1127.7168,82,1131.7168,92,1135.7168,88,1131.7168" style="stroke: #A80036; stroke-width: 1.0;"/>
        <line style="stroke: #A80036; stroke-width: 1.0; stroke-dasharray: 2.0,2.0;" x1="86" x2="672" y1="1131.7168" y2="1131.7168"/>
        <text fill="#000000" font-family="sans-serif" font-size="13" font-weight="bold" lengthAdjust="spacingAndGlyphs" textLength="18" x="98" y="1127.2852">25</text>
        <text fill="#000000" font-family="sans-serif" font-size="13" lengthAdjust="spacingAndGlyphs" textLength="299" x="120" y="1127.2852">Solicita a data em que ocorre o reconhecimento</text>
        <polygon fill="#A80036" points="656,1157.0273,666,1161.0273,656,1165.0273,660,1161.0273" style="stroke: #A80036; stroke-width: 1.0;"/>
        <line style="stroke: #A80036; stroke-width: 1.0;" x1="81" x2="662" y1="1161.0273" y2="1161.0273"/>
        <text fill="#000000" font-family="sans-serif" font-size="13" font-weight="bold" lengthAdjust="spacingAndGlyphs" textLength="18" x="88" y="1156.5957">26</text>
        <text fill="#000000" font-family="sans-serif" font-size="13" lengthAdjust="spacingAndGlyphs" textLength="220" x="110" y="1156.5957">Introduz a data do reconhecimento</text>
        <polygon fill="#A80036" points="1093,1186.3379,1103,1190.3379,1093,1194.3379,1097,1190.3379" style="stroke: #A80036; stroke-width: 1.0;"/>
        <line style="stroke: #A80036; stroke-width: 1.0;" x1="678" x2="1099" y1="1190.3379" y2="1190.3379"/>
        <text fill="#000000" font-family="sans-serif" font-size="13" font-weight="bold" lengthAdjust="spacingAndGlyphs" textLength="18" x="685" y="1185.9063">27</text>
        <text fill="#000000" font-family="sans-serif" font-size="13" lengthAdjust="spacingAndGlyphs" textLength="223" x="707" y="1185.9063">addReconhecimento(ctCod,gp,data)</text>
        <polygon fill="#A80036" points="1995.5,1215.6484,2005.5,1219.6484,1995.5,1223.6484,1999.5,1219.6484" style="stroke: #A80036; stroke-width: 1.0;"/>
        <line style="stroke: #A80036; stroke-width: 1.0;" x1="1115" x2="2001.5" y1="1219.6484" y2="1219.6484"/>
        <text fill="#000000" font-family="sans-serif" font-size="13" font-weight="bold" lengthAdjust="spacingAndGlyphs" textLength="18" x="1122" y="1215.2168">28</text>
        <text fill="#000000" font-family="sans-serif" font-size="13" lengthAdjust="spacingAndGlyphs" textLength="112" x="1144" y="1215.2168">ct = getCT(ctCod)</text>
        <polygon fill="#A80036" points="2334.5,1274.959,2344.5,1278.959,2334.5,1282.959,2338.5,1278.959" style="stroke: #A80036; stroke-width: 1.0;"/>
        <line style="stroke: #A80036; stroke-width: 1.0;" x1="1115" x2="2340.5" y1="1278.959" y2="1278.959"/>
        <text fill="#000000" font-family="sans-serif" font-size="13" font-weight="bold" lengthAdjust="spacingAndGlyphs" textLength="18" x="1122" y="1274.5273">29</text>
        <text fill="#000000" font-family="sans-serif" font-size="13" lengthAdjust="spacingAndGlyphs" textLength="231" x="1144" y="1274.5273">novoReconhecimento(ctCod,gp,data)</text>
        <polygon fill="#A80036" points="3452,1304.2695,3462,1308.2695,3452,1312.2695,3456,1308.2695" style="stroke: #A80036; stroke-width: 1.0;"/>
        <line style="stroke: #A80036; stroke-width: 1.0; stroke-dasharray: 2.0,2.0;" x1="2356.5" x2="3458" y1="1308.2695" y2="1308.2695"/>
        <text fill="#000000" font-family="sans-serif" font-size="13" font-weight="bold" lengthAdjust="spacingAndGlyphs" textLength="18" x="2363.5" y="1303.8379">30</text>
        <text fill="#000000" font-family="sans-serif" font-size="13" lengthAdjust="spacingAndGlyphs" textLength="134" x="2385.5" y="1303.8379">create(ctCod,gp,data)</text>
        <rect fill="#FEFECE" filter="url(#f12brenbklstj8)" height="46.9766" style="stroke: #A80036; stroke-width: 1.5;" width="132" x="3464" y="1287.2695"/>
        <text fill="#000000" font-family="sans-serif" font-size="14" lengthAdjust="spacingAndGlyphs" textLength="21" x="3519.5" y="1307.8047">rec</text>
        <text fill="#000000" font-family="sans-serif" font-size="14" lengthAdjust="spacingAndGlyphs" textLength="118" x="3471" y="1324.293">:Reconhecimento</text>
        <line style="stroke: #A80036; stroke-width: 1.0;" x1="2356.5" x2="2398.5" y1="1370.5566" y2="1370.5566"/>
        <line style="stroke: #A80036; stroke-width: 1.0;" x1="2398.5" x2="2398.5" y1="1370.5566" y2="1383.5566"/>
        <line style="stroke: #A80036; stroke-width: 1.0;" x1="2357.5" x2="2398.5" y1="1383.5566" y2="1383.5566"/>
        <polygon fill="#A80036" points="2367.5,1379.5566,2357.5,1383.5566,2367.5,1387.5566,2363.5,1383.5566" style="stroke: #A80036; stroke-width: 1.0;"/>
        <text fill="#000000" font-family="sans-serif" font-size="13" font-weight="bold" lengthAdjust="spacingAndGlyphs" textLength="18" x="2363.5" y="1365.8145">31</text>
        <text fill="#000000" font-family="sans-serif" font-size="13" lengthAdjust="spacingAndGlyphs" textLength="168" x="2385.5" y="1365.8145">validaReconhecimento(rec)</text>
        <line style="stroke: #A80036; stroke-width: 1.0;" x1="2356.5" x2="2398.5" y1="1417.8672" y2="1417.8672"/>
        <line style="stroke: #A80036; stroke-width: 1.0;" x1="2398.5" x2="2398.5" y1="1417.8672" y2="1430.8672"/>
        <line style="stroke: #A80036; stroke-width: 1.0;" x1="2351.5" x2="2398.5" y1="1430.8672" y2="1430.8672"/>
        <polygon fill="#A80036" points="2361.5,1426.8672,2351.5,1430.8672,2361.5,1434.8672,2357.5,1430.8672" style="stroke: #A80036; stroke-width: 1.0;"/>
        <text fill="#000000" font-family="sans-serif" font-size="13" font-weight="bold" lengthAdjust="spacingAndGlyphs" textLength="18" x="2363.5" y="1413.125">32</text>
        <text fill="#000000" font-family="sans-serif" font-size="13" lengthAdjust="spacingAndGlyphs" textLength="154" x="2385.5" y="1413.125">addReconhecimento(rec)</text>
        <polygon fill="#A80036" points="1791,1482.8672,1801,1486.8672,1791,1490.8672,1795,1486.8672" style="stroke: #A80036; stroke-width: 1.0;"/>
        <line style="stroke: #A80036; stroke-width: 1.0;" x1="1115" x2="1797" y1="1486.8672" y2="1486.8672"/>
        <text fill="#000000" font-family="sans-serif" font-size="13" font-weight="bold" lengthAdjust="spacingAndGlyphs" textLength="18" x="1122" y="1482.4355">33</text>
        <text fill="#000000" font-family="sans-serif" font-size="13" lengthAdjust="spacingAndGlyphs" textLength="133" x="1144" y="1482.4355">validaFreelancer(free)</text>
        <polygon fill="#A80036" points="92,1542.1777,82,1546.1777,92,1550.1777,88,1546.1777" style="stroke: #A80036; stroke-width: 1.0;"/>
        <line style="stroke: #A80036; stroke-width: 1.0; stroke-dasharray: 2.0,2.0;" x1="86" x2="672" y1="1546.1777" y2="1546.1777"/>
        <text fill="#000000" font-family="sans-serif" font-size="13" font-weight="bold" lengthAdjust="spacingAndGlyphs" textLength="18" x="98" y="1541.7461">34</text>
        <text fill="#000000" font-family="sans-serif" font-size="13" lengthAdjust="spacingAndGlyphs" textLength="265" x="120" y="1541.7461">apresenta os dados e solicita confirmação</text>
        <polygon fill="#A80036" points="656,1571.4883,666,1575.4883,656,1579.4883,660,1575.4883" style="stroke: #A80036; stroke-width: 1.0;"/>
        <line style="stroke: #A80036; stroke-width: 1.0;" x1="81" x2="662" y1="1575.4883" y2="1575.4883"/>
        <text fill="#000000" font-family="sans-serif" font-size="13" font-weight="bold" lengthAdjust="spacingAndGlyphs" textLength="18" x="88" y="1571.0566">35</text>
        <text fill="#000000" font-family="sans-serif" font-size="13" lengthAdjust="spacingAndGlyphs" textLength="56" x="110" y="1571.0566">confirma</text>
        <polygon fill="#A80036" points="1093,1600.7988,1103,1604.7988,1093,1608.7988,1097,1604.7988" style="stroke: #A80036; stroke-width: 1.0;"/>
        <line style="stroke: #A80036; stroke-width: 1.0;" x1="678" x2="1099" y1="1604.7988" y2="1604.7988"/>
        <text fill="#000000" font-family="sans-serif" font-size="13" font-weight="bold" lengthAdjust="spacingAndGlyphs" textLength="18" x="685" y="1600.3672">36</text>
        <text fill="#000000" font-family="sans-serif" font-size="13" lengthAdjust="spacingAndGlyphs" textLength="115" x="707" y="1600.3672">registaFreelancer()</text>
        <polygon fill="#A80036" points="1791,1630.1094,1801,1634.1094,1791,1638.1094,1795,1634.1094" style="stroke: #A80036; stroke-width: 1.0;"/>
        <line style="stroke: #A80036; stroke-width: 1.0;" x1="1115" x2="1797" y1="1634.1094" y2="1634.1094"/>
        <text fill="#000000" font-family="sans-serif" font-size="13" font-weight="bold" lengthAdjust="spacingAndGlyphs" textLength="18" x="1122" y="1629.6777">37</text>
        <text fill="#000000" font-family="sans-serif" font-size="13" lengthAdjust="spacingAndGlyphs" textLength="139" x="1144" y="1629.6777">registaFreelancer(free)</text>
        <polygon fill="#A80036" points="2334.5,1659.4199,2344.5,1663.4199,2334.5,1667.4199,2338.5,1663.4199" style="stroke: #A80036; stroke-width: 1.0;"/>
        <line style="stroke: #A80036; stroke-width: 1.0;" x1="1813" x2="2340.5" y1="1663.4199" y2="1663.4199"/>
        <text fill="#000000" font-family="sans-serif" font-size="13" font-weight="bold" lengthAdjust="spacingAndGlyphs" textLength="18" x="1820" y="1658.9883">38</text>
        <text fill="#000000" font-family="sans-serif" font-size="13" lengthAdjust="spacingAndGlyphs" textLength="45" x="1842" y="1658.9883">valida()</text>
        <line style="stroke: #A80036; stroke-width: 1.0;" x1="1813" x2="1855" y1="1723.041" y2="1723.041"/>
        <line style="stroke: #A80036; stroke-width: 1.0;" x1="1855" x2="1855" y1="1723.041" y2="1736.041"/>
        <line style="stroke: #A80036; stroke-width: 1.0;" x1="1814" x2="1855" y1="1736.041" y2="1736.041"/>
        <polygon fill="#A80036" points="1824,1732.041,1814,1736.041,1824,1740.041,1820,1736.041" style="stroke: #A80036; stroke-width: 1.0;"/>
        <text fill="#000000" font-family="sans-serif" font-size="13" font-weight="bold" lengthAdjust="spacingAndGlyphs" textLength="18" x="1820" y="1718.2988">39</text>
        <text fill="#000000" font-family="sans-serif" font-size="13" lengthAdjust="spacingAndGlyphs" textLength="133" x="1842" y="1718.2988">validaFreelancer(free)</text>
        <rect fill="#FFFFFF" filter="url(#f12brenbklstj8)" height="40.6211" style="stroke: #000000; stroke-width: 2.0;" width="1987" x="1727" y="1744.041"/>
        <polygon fill="#EEEEEE" points="1727,1744.041,1791,1744.041,1791,1751.041,1781,1761.041,1727,1761.041,1727,1744.041" style="stroke: #000000; stroke-width: 2.0;"/>
        <text fill="#000000" font-family="sans-serif" font-size="13" font-weight="bold" lengthAdjust="spacingAndGlyphs" textLength="19" x="1740" y="1758.6094">ref</text>
        <text fill="#000000" font-family="sans-serif" font-size="13" lengthAdjust="spacingAndGlyphs" textLength="237" x="2604" y="1777.6094">SD_RegistarFreelancerComoUtilizador</text>
        <line style="stroke: #A80036; stroke-width: 1.0;" x1="1813" x2="1855" y1="1815.9727" y2="1815.9727"/>
        <line style="stroke: #A80036; stroke-width: 1.0;" x1="1855" x2="1855" y1="1815.9727" y2="1828.9727"/>
        <line style="stroke: #A80036; stroke-width: 1.0;" x1="1808" x2="1855" y1="1828.9727" y2="1828.9727"/>
        <polygon fill="#A80036" points="1818,1824.9727,1808,1828.9727,1818,1832.9727,1814,1828.9727" style="stroke: #A80036; stroke-width: 1.0;"/>
        <text fill="#000000" font-family="sans-serif" font-size="13" font-weight="bold" lengthAdjust="spacingAndGlyphs" textLength="18" x="1820" y="1811.2305">40</text>
        <text fill="#000000" font-family="sans-serif" font-size="13" lengthAdjust="spacingAndGlyphs" textLength="119" x="1842" y="1811.2305">addFreelancer(free)</text>
        <polygon fill="#A80036" points="87,1848.9727,77,1852.9727,87,1856.9727,83,1852.9727" style="stroke: #A80036; stroke-width: 1.0;"/>
        <line style="stroke: #A80036; stroke-width: 1.0; stroke-dasharray: 2.0,2.0;" x1="81" x2="672" y1="1852.9727" y2="1852.9727"/>
        <text fill="#000000" font-family="sans-serif" font-size="13" font-weight="bold" lengthAdjust="spacingAndGlyphs" textLength="18" x="93" y="1848.541">41</text>
        <text fill="#000000" font-family="sans-serif" font-size="13" lengthAdjust="spacingAndGlyphs" textLength="184" x="115" y="1848.541">informa sucesso da operação</text>
        <!--
@startuml
autonumber
'hide footbox
actor "Administrativo" as ADM

participant ":RegistarFreelancerUI" as UI
participant ":RegistarFreelancerController" as CTRL
participant "AplicacaoPOT" as _APP
participant "app\n:AplicacaoPOT" as APP
participant "sessao\n:SessaoUtilizador" as SESSAO
participant ":Plataforma" as PLAT
participant "rf:RegistoFreelancer" as RF
participant "rct:RegistoCompetenciaTecnica" as RCT
participant "Freelancer" as _FREE
participant "free:Freelancer" as FREE
participant "end:EnderecoPostal" as END
participant "ha:HabilitacaoAcademica" as HA
participant "lct\n:List<CompetenciaTecnica>" as LIST_CT
participant "ct:\nCompetenciaTecnica" as CT
participant "gp:\nGrauProficiencia" as GP
participant "rec\n:Reconhecimento" as RECO_FREE
participant ":Autorizacao\nFacade" as AUT

activate ADM

ADM -> UI : Inicia o registo de um novo freelancer
activate UI
UI - -> ADM : Solicita dados necessários(nome, nif, endereço, contacto, email)
deactivate UI

ADM -> UI : Introduz os dados solicitados
activate UI

UI -> CTRL : novoFreelancer(nome,NIF,endLocal,endCodPostal,\nendLocalidade,contacto,email)
activate CTRL

CTRL -> _APP: app = getInstance()
activate _APP
deactivate _APP
CTRL -> APP: sessao = getSessaoAtual()
activate APP
deactivate APP

CTRL -> PLAT : rf = getRegistoFreelancer()
activate PLAT
deactivate PLAT

CTRL -> PLAT : rct = getRegistoCompetenciaTecnica()
activate PLAT
deactivate PLAT

CTRL -> RF : free = novoFreelancer(nome,NIF,endLocal,endCodPostal,endLocalidade,\ncontacto,email)
activate RF

RF -> _FREE: end = novoEndereco(endLocal,endCodPostal,endLocalidade)
activate _FREE
_FREE - -> END ** : create(endLocal,endCodPostal,endLocalidade)
deactivate _FREE

RF - -> FREE ** : create(nome,NIF,end,contacto,email)
deactivate RF
deactivate CTRL

loop
UI - -> ADM : Solicita dados necessários sobre a HA(grau, designação do curso, instituição e média)
deactivate UI

ADM -> UI : introduz os dados solicitados
activate UI

UI -> CTRL : addHabilitacaoAcademica(grau,desigCurso,instituicao,media)
activate CTRL
CTRL -> FREE : addHabilitacaoAcademica(grau,desigCurso,instituicao,media)
activate FREE
FREE - -> HA ** : create(grau,desigCurso,instituicao,media)
FREE -> FREE : validaHabilitacaoAcademica(ha)
FREE -> FREE : addHabilitacaoAcademica(ha)
deactivate FREE

end


CTRL -> RCT : lct = getListaCT()
activate RCT
deactivate RCT
deactivate CTRL

UI - -> ADM : Apresenta a lista de CT e solicita a escolha de uma que o freelancer possui
deactivate UI

loop
ADM -> UI : seleciona uma CT
activate UI

UI - -> ADM : solicita o GP que o Freelancer possui referente a CT selecionada
deactivate UI

ADM -> UI : seleciona o GP
activate UI

UI - -> ADM : Solicita a data em que ocorre o reconhecimento
deactivate UI

ADM -> UI : Introduz a data do reconhecimento
activate UI

UI -> CTRL : addReconhecimento(ctCod,gp,data)
activate CTRL

CTRL -> RCT : ct = getCT(ctCod)
activate RCT
deactivate RCT

CTRL -> FREE : novoReconhecimento(ctCod,gp,data)
activate FREE
FREE - -> RECO_FREE** : create(ctCod,gp,data)
FREE -> FREE : validaReconhecimento(rec)
FREE -> FREE : addReconhecimento(rec)
|||
deactivate FREE
end loop

CTRL -> RF: validaFreelancer(free)
activate RF
deactivate RF
deactivate CTRL

UI - -> ADM : apresenta os dados e solicita confirmação
deactivate UI

ADM -> UI : confirma
activate UI
UI -> CTRL : registaFreelancer()
activate CTRL

CTRL -> RF: registaFreelancer(free)
activate RF
RF -> FREE: valida()
activate FREE
deactivate FREE
RF -> RF: validaFreelancer(free)

ref over RF, AUT : SD_RegistarFreelancerComoUtilizador

RF -> RF: addFreelancer(free)
deactivate RF

UI - -> ADM : informa sucesso da operação
deactivate CTRL
deactivate UI

deactivate ADM


@enduml

PlantUML version 2017.11(Wed Apr 19 17:18:59 WEST 2017)
(GPL source distribution)
Java Runtime: Java(TM) SE Runtime Environment
JVM: Java HotSpot(TM) 64-Bit Server VM
Java Version: 1.8.0_111-b14
Operating System: Mac OS X
OS Version: 10.15
Default Encoding: UTF-8
Language: pt
Country: PT
-->
    </g>
</svg>
