<?xml version="1.0" encoding="UTF-8"?><svg xmlns="http://www.w3.org/2000/svg" xmlns:xlink="http://www.w3.org/1999/xlink" contentScriptType="application/ecmascript" contentStyleType="text/css" height="308px" preserveAspectRatio="none" style="width:1025px;height:308px;" version="1.1" viewBox="0 0 1025 308" width="1025px" zoomAndPan="magnify">
    <defs>
        <filter height="300%" id="f6m10kzubepy6" width="300%" x="-1" y="-1">
            <feGaussianBlur result="blurOut" stdDeviation="2.0"/>
            <feColorMatrix in="blurOut" result="blurOut2" type="matrix" values="0 0 0 0 0 0 0 0 0 0 0 0 0 0 0 0 0 0 .4 0"/>
            <feOffset dx="4.0" dy="4.0" in="blurOut2" result="blurOut3"/>
            <feBlend in="SourceGraphic" in2="blurOut3" mode="normal"/>
        </filter>
    </defs>
    <g>
        <!--class Plataforma-->
        <rect fill="#FEFECE" filter="url(#f6m10kzubepy6)" height="52.9551" style="stroke: #A80036; stroke-width: 1.5;" width="114" x="6" y="74"/>
        <ellipse cx="30" cy="90" fill="#ADD1B2" rx="11" ry="11" style="stroke: #A80036; stroke-width: 1.0;"/>
        <path d="M32.4731,96.1431 Q31.8921,96.4419 31.2529,96.5913 Q30.6138,96.7407 29.9082,96.7407 Q27.4014,96.7407 26.0815,95.0889 Q24.7617,93.437 24.7617,90.3159 Q24.7617,87.1865 26.0815,85.5347 Q27.4014,83.8828 29.9082,83.8828 Q30.6138,83.8828 31.2612,84.0322 Q31.9087,84.1816 32.4731,84.4805 L32.4731,87.2031 Q31.8423,86.6221 31.2488,86.3523 Q30.6553,86.0825 30.0244,86.0825 Q28.6797,86.0825 27.9949,87.1492 Q27.3101,88.2158 27.3101,90.3159 Q27.3101,92.4077 27.9949,93.4744 Q28.6797,94.541 30.0244,94.541 Q30.6553,94.541 31.2488,94.2712 Q31.8423,94.0015 32.4731,93.4204 Z "/>
        <text fill="#000000" font-family="sans-serif" font-size="12" lengthAdjust="spacingAndGlyphs" textLength="62" x="46" y="94.5352">Plataforma</text>
        <line style="stroke: #A80036; stroke-width: 1.5;" x1="7" x2="119" y1="106" y2="106"/>
        <text fill="#000000" font-family="sans-serif" font-size="11" lengthAdjust="spacingAndGlyphs" textLength="102" x="12" y="120.6348">-String designacao</text>
        <!--class AlgoritmoExternoGercaoPWD-->
        <rect fill="#FEFECE" filter="url(#f6m10kzubepy6)" height="40" style="stroke: #A80036; stroke-width: 1.5;" width="198" x="422" y="8.5"/>
        <ellipse cx="437" cy="24.5" fill="#ADD1B2" rx="11" ry="11" style="stroke: #A80036; stroke-width: 1.0;"/>
        <path d="M439.4731,30.6431 Q438.8921,30.9419 438.2529,31.0913 Q437.6138,31.2407 436.9082,31.2407 Q434.4014,31.2407 433.0815,29.5889 Q431.7617,27.937 431.7617,24.8159 Q431.7617,21.6865 433.0815,20.0347 Q434.4014,18.3828 436.9082,18.3828 Q437.6138,18.3828 438.2612,18.5322 Q438.9087,18.6816 439.4731,18.9805 L439.4731,21.7031 Q438.8423,21.1221 438.2488,20.8523 Q437.6553,20.5825 437.0244,20.5825 Q435.6797,20.5825 434.9949,21.6492 Q434.3101,22.7158 434.3101,24.8159 Q434.3101,26.9077 434.9949,27.9744 Q435.6797,29.041 437.0244,29.041 Q437.6553,29.041 438.2488,28.7712 Q438.8423,28.5015 439.4731,27.9204 Z "/>
        <text fill="#000000" font-family="sans-serif" font-size="12" lengthAdjust="spacingAndGlyphs" textLength="166" x="451" y="29.0352">AlgoritmoExternoGercaoPWD</text>
        <line style="stroke: #A80036; stroke-width: 1.5;" x1="423" x2="619" y1="40.5" y2="40.5"/>
        <!--class Organizacao-->
        <rect fill="#FEFECE" filter="url(#f6m10kzubepy6)" height="104.7754" style="stroke: #A80036; stroke-width: 1.5;" width="104" x="288" y="111"/>
        <ellipse cx="303" cy="127" fill="#ADD1B2" rx="11" ry="11" style="stroke: #A80036; stroke-width: 1.0;"/>
        <path d="M305.4731,133.1431 Q304.8921,133.4419 304.2529,133.5913 Q303.6138,133.7407 302.9082,133.7407 Q300.4014,133.7407 299.0815,132.0889 Q297.7617,130.437 297.7617,127.3159 Q297.7617,124.1865 299.0815,122.5347 Q300.4014,120.8828 302.9082,120.8828 Q303.6138,120.8828 304.2612,121.0322 Q304.9087,121.1816 305.4731,121.4805 L305.4731,124.2031 Q304.8423,123.6221 304.2488,123.3523 Q303.6553,123.0825 303.0244,123.0825 Q301.6797,123.0825 300.9949,124.1492 Q300.3101,125.2158 300.3101,127.3159 Q300.3101,129.4077 300.9949,130.4744 Q301.6797,131.541 303.0244,131.541 Q303.6553,131.541 304.2488,131.2712 Q304.8423,131.0015 305.4731,130.4204 Z "/>
        <text fill="#000000" font-family="sans-serif" font-size="12" lengthAdjust="spacingAndGlyphs" textLength="72" x="317" y="131.5352">Organizacao</text>
        <line style="stroke: #A80036; stroke-width: 1.5;" x1="289" x2="391" y1="143" y2="143"/>
        <text fill="#000000" font-family="sans-serif" font-size="11" lengthAdjust="spacingAndGlyphs" textLength="71" x="294" y="157.6348">-String nome</text>
        <text fill="#000000" font-family="sans-serif" font-size="11" lengthAdjust="spacingAndGlyphs" textLength="58" x="294" y="170.5898">-String NIF</text>
        <text fill="#000000" font-family="sans-serif" font-size="11" lengthAdjust="spacingAndGlyphs" textLength="81" x="294" y="183.5449">-String website</text>
        <text fill="#000000" font-family="sans-serif" font-size="11" lengthAdjust="spacingAndGlyphs" textLength="84" x="294" y="196.5">-String telefone</text>
        <text fill="#000000" font-family="sans-serif" font-size="11" lengthAdjust="spacingAndGlyphs" textLength="69" x="294" y="209.4551">-String email</text>
        <!--class Colaborador-->
        <rect fill="#FEFECE" filter="url(#f6m10kzubepy6)" height="91.8203" style="stroke: #A80036; stroke-width: 1.5;" width="104" x="658" y="93.5"/>
        <ellipse cx="673" cy="109.5" fill="#ADD1B2" rx="11" ry="11" style="stroke: #A80036; stroke-width: 1.0;"/>
        <path d="M675.4731,115.6431 Q674.8921,115.9419 674.2529,116.0913 Q673.6138,116.2407 672.9082,116.2407 Q670.4014,116.2407 669.0815,114.5889 Q667.7617,112.937 667.7617,109.8159 Q667.7617,106.6865 669.0815,105.0347 Q670.4014,103.3828 672.9082,103.3828 Q673.6138,103.3828 674.2612,103.5322 Q674.9087,103.6816 675.4731,103.9805 L675.4731,106.7031 Q674.8423,106.1221 674.2488,105.8523 Q673.6553,105.5825 673.0244,105.5825 Q671.6797,105.5825 670.9949,106.6492 Q670.3101,107.7158 670.3101,109.8159 Q670.3101,111.9077 670.9949,112.9744 Q671.6797,114.041 673.0244,114.041 Q673.6553,114.041 674.2488,113.7712 Q674.8423,113.5015 675.4731,112.9204 Z "/>
        <text fill="#000000" font-family="sans-serif" font-size="12" lengthAdjust="spacingAndGlyphs" textLength="72" x="687" y="114.0352">Colaborador</text>
        <line style="stroke: #A80036; stroke-width: 1.5;" x1="659" x2="761" y1="125.5" y2="125.5"/>
        <text fill="#000000" font-family="sans-serif" font-size="11" lengthAdjust="spacingAndGlyphs" textLength="71" x="664" y="140.1348">-String nome</text>
        <text fill="#000000" font-family="sans-serif" font-size="11" lengthAdjust="spacingAndGlyphs" textLength="78" x="664" y="153.0898">-String funcao</text>
        <text fill="#000000" font-family="sans-serif" font-size="11" lengthAdjust="spacingAndGlyphs" textLength="84" x="664" y="166.0449">-String telefone</text>
        <text fill="#000000" font-family="sans-serif" font-size="11" lengthAdjust="spacingAndGlyphs" textLength="69" x="664" y="179">-String email</text>
        <!--class EnderecoPostal-->
        <rect fill="#FEFECE" filter="url(#f6m10kzubepy6)" height="78.8652" style="stroke: #A80036; stroke-width: 1.5;" width="120" x="650" y="221"/>
        <ellipse cx="665" cy="237" fill="#ADD1B2" rx="11" ry="11" style="stroke: #A80036; stroke-width: 1.0;"/>
        <path d="M667.4731,243.1431 Q666.8921,243.4419 666.2529,243.5913 Q665.6138,243.7407 664.9082,243.7407 Q662.4014,243.7407 661.0815,242.0889 Q659.7617,240.437 659.7617,237.3159 Q659.7617,234.1865 661.0815,232.5347 Q662.4014,230.8828 664.9082,230.8828 Q665.6138,230.8828 666.2612,231.0322 Q666.9087,231.1816 667.4731,231.4805 L667.4731,234.2031 Q666.8423,233.6221 666.2488,233.3523 Q665.6553,233.0825 665.0244,233.0825 Q663.6797,233.0825 662.9949,234.1492 Q662.3101,235.2158 662.3101,237.3159 Q662.3101,239.4077 662.9949,240.4744 Q663.6797,241.541 665.0244,241.541 Q665.6553,241.541 666.2488,241.2712 Q666.8423,241.0015 667.4731,240.4204 Z "/>
        <text fill="#000000" font-family="sans-serif" font-size="12" lengthAdjust="spacingAndGlyphs" textLength="88" x="679" y="241.5352">EnderecoPostal</text>
        <line style="stroke: #A80036; stroke-width: 1.5;" x1="651" x2="769" y1="253" y2="253"/>
        <text fill="#000000" font-family="sans-serif" font-size="11" lengthAdjust="spacingAndGlyphs" textLength="66" x="656" y="267.6348">-String local</text>
        <text fill="#000000" font-family="sans-serif" font-size="11" lengthAdjust="spacingAndGlyphs" textLength="93" x="656" y="280.5898">-String codPostal</text>
        <text fill="#000000" font-family="sans-serif" font-size="11" lengthAdjust="spacingAndGlyphs" textLength="95" x="656" y="293.5449">-String localidade</text>
        <!--class Utilizador-->
        <rect fill="#FEFECE" filter="url(#f6m10kzubepy6)" height="78.8652" style="stroke: #A80036; stroke-width: 1.5;" width="105" x="911" y="42"/>
        <ellipse cx="934.1" cy="58" fill="#ADD1B2" rx="11" ry="11" style="stroke: #A80036; stroke-width: 1.0;"/>
        <path d="M936.5731,64.1431 Q935.9921,64.4419 935.3529,64.5913 Q934.7138,64.7407 934.0082,64.7407 Q931.5014,64.7407 930.1815,63.0889 Q928.8617,61.437 928.8617,58.3159 Q928.8617,55.1865 930.1815,53.5347 Q931.5014,51.8828 934.0082,51.8828 Q934.7138,51.8828 935.3612,52.0322 Q936.0087,52.1816 936.5731,52.4805 L936.5731,55.2031 Q935.9423,54.6221 935.3488,54.3523 Q934.7553,54.0825 934.1244,54.0825 Q932.7797,54.0825 932.0949,55.1492 Q931.4101,56.2158 931.4101,58.3159 Q931.4101,60.4077 932.0949,61.4744 Q932.7797,62.541 934.1244,62.541 Q934.7553,62.541 935.3488,62.2712 Q935.9423,62.0015 936.5731,61.4204 Z "/>
        <text fill="#000000" font-family="sans-serif" font-size="12" lengthAdjust="spacingAndGlyphs" textLength="55" x="949.9" y="62.5352">Utilizador</text>
        <line style="stroke: #A80036; stroke-width: 1.5;" x1="912" x2="1015" y1="74" y2="74"/>
        <text fill="#000000" font-family="sans-serif" font-size="11" lengthAdjust="spacingAndGlyphs" textLength="71" x="917" y="88.6348">-String nome</text>
        <text fill="#000000" font-family="sans-serif" font-size="11" lengthAdjust="spacingAndGlyphs" textLength="69" x="917" y="101.5898">-String email</text>
        <text fill="#000000" font-family="sans-serif" font-size="11" lengthAdjust="spacingAndGlyphs" textLength="93" x="917" y="114.5449">-String password</text>
        <path d="M120.31,113.4 C169.5,124.67 240.27,140.88 287.86,151.78 " fill="none" style="stroke: #A80036; stroke-width: 1.0;"/>
        <text fill="#000000" font-family="sans-serif" font-size="13" lengthAdjust="spacingAndGlyphs" textLength="93" x="151" y="117.0684">tem registadas</text>
        <polygon fill="#000000" points="247,110.6553,253,113.6553,247,116.6553,247,110.6553" style="stroke: #000000; stroke-width: 1.0;"/>
        <text fill="#000000" font-family="sans-serif" font-size="13" lengthAdjust="spacingAndGlyphs" textLength="8" x="128.1653" y="128.6049">1</text>
        <text fill="#000000" font-family="sans-serif" font-size="13" lengthAdjust="spacingAndGlyphs" textLength="6" x="274.1059" y="163.7926">*</text>
        <path d="M120.37,91.6 C195.55,79.73 329.82,58.53 421.81,44 " fill="none" style="stroke: #A80036; stroke-width: 1.0;"/>
        <text fill="#000000" font-family="sans-serif" font-size="13" lengthAdjust="spacingAndGlyphs" textLength="55" x="170" y="67.0684">recorre a</text>
        <polygon fill="#000000" points="228,60.6553,234,63.6553,228,66.6553,228,60.6553" style="stroke: #000000; stroke-width: 1.0;"/>
        <text fill="#000000" font-family="sans-serif" font-size="13" lengthAdjust="spacingAndGlyphs" textLength="8" x="127.8495" y="104.0194">1</text>
        <text fill="#000000" font-family="sans-serif" font-size="13" lengthAdjust="spacingAndGlyphs" textLength="8" x="405.9095" y="58.3412">1</text>
        <path d="M620.03,40.3 C709.91,51.11 839.5,66.7 910.73,75.27 " fill="none" style="stroke: #A80036; stroke-width: 1.0;"/>
        <text fill="#000000" font-family="sans-serif" font-size="13" lengthAdjust="spacingAndGlyphs" textLength="91" x="658" y="40.0684">gera password</text>
        <polygon fill="#000000" points="752,33.6553,758,36.6553,752,39.6553,752,33.6553" style="stroke: #000000; stroke-width: 1.0;"/>
        <text fill="#000000" font-family="sans-serif" font-size="13" lengthAdjust="spacingAndGlyphs" textLength="8" x="627.9182" y="54.3579">1</text>
        <text fill="#000000" font-family="sans-serif" font-size="13" lengthAdjust="spacingAndGlyphs" textLength="6" x="896.8873" y="88.0483">*</text>
        <path d="M392.17,160.16 C462.38,155.58 587.83,147.4 657.97,142.83 " fill="none" style="stroke: #A80036; stroke-width: 1.0;"/>
        <text fill="#000000" font-family="sans-serif" font-size="13" lengthAdjust="spacingAndGlyphs" textLength="24" x="502.5" y="142.0684">tem</text>
        <polygon fill="#000000" points="529.5,135.6553,535.5,138.6553,529.5,141.6553,529.5,135.6553" style="stroke: #000000; stroke-width: 1.0;"/>
        <text fill="#000000" font-family="sans-serif" font-size="13" lengthAdjust="spacingAndGlyphs" textLength="8" x="400.0689" y="173.351">1</text>
        <text fill="#000000" font-family="sans-serif" font-size="13" lengthAdjust="spacingAndGlyphs" textLength="22" x="627.8943" y="156.8174">1..*</text>
        <path d="M392.1,177.36 C401.95,179.5 412.24,181.37 422,182.5 C509.42,192.62 534.22,202.14 620,182.5 C632.71,179.59 645.72,174.62 657.73,169.06 " fill="none" style="stroke: #A80036; stroke-width: 1.0;"/>
        <text fill="#000000" font-family="sans-serif" font-size="13" lengthAdjust="spacingAndGlyphs" textLength="68" x="480.5" y="179.0684">tem gestor</text>
        <polygon fill="#000000" points="551.5,172.6553,557.5,175.6553,551.5,178.6553,551.5,172.6553" style="stroke: #000000; stroke-width: 1.0;"/>
        <text fill="#000000" font-family="sans-serif" font-size="13" lengthAdjust="spacingAndGlyphs" textLength="8" x="399.9891" y="192.9697">1</text>
        <text fill="#000000" font-family="sans-serif" font-size="13" lengthAdjust="spacingAndGlyphs" textLength="8" x="642.1687" y="186.6412">1</text>
        <path d="M392.23,203.25 C401.73,209.15 411.86,214.56 422,218.5 C497.09,247.7 590.43,256.81 649.87,259.53 " fill="none" style="stroke: #A80036; stroke-width: 1.0;"/>
        <text fill="#000000" font-family="sans-serif" font-size="13" lengthAdjust="spacingAndGlyphs" textLength="86" x="471.5" y="215.0684">localizada em</text>
        <polygon fill="#000000" points="560.5,208.6553,566.5,211.6553,560.5,214.6553,560.5,208.6553" style="stroke: #000000; stroke-width: 1.0;"/>
        <text fill="#000000" font-family="sans-serif" font-size="13" lengthAdjust="spacingAndGlyphs" textLength="8" x="400.1373" y="222.5005">1</text>
        <text fill="#000000" font-family="sans-serif" font-size="13" lengthAdjust="spacingAndGlyphs" textLength="8" x="634.0542" y="272.9213">1</text>
        <path d="M762.2,127.69 C805.57,117.69 867.47,103.42 910.94,93.39 " fill="none" style="stroke: #A80036; stroke-width: 1.0;"/>
        <text fill="#000000" font-family="sans-serif" font-size="13" lengthAdjust="spacingAndGlyphs" textLength="66" x="801" y="98.0684">atua como</text>
        <polygon fill="#000000" points="870,91.6553,876,94.6553,870,97.6553,870,91.6553" style="stroke: #000000; stroke-width: 1.0;"/>
        <text fill="#000000" font-family="sans-serif" font-size="13" lengthAdjust="spacingAndGlyphs" textLength="24" x="770.0244" y="139.763">0..1</text>
        <text fill="#000000" font-family="sans-serif" font-size="13" lengthAdjust="spacingAndGlyphs" textLength="8" x="894.9863" y="108.7164">1</text>
        <!--
@startuml
skinparam classAttributeIconSize 0
hide methods
left to right direction

class Plataforma {
  -String designacao
}

class AlgoritmoExternoGercaoPWD{
}

class Organizacao {
  -String nome
  -String NIF
  -String website
  -String telefone
  -String email
}

class Colaborador {
  -String nome
  -String funcao
  -String telefone
  -String email
}

class EnderecoPostal {
  -String local
  -String codPostal
  -String localidade
}


class Utilizador {
  -String nome
  -String email
  -String password
}


Plataforma "1" - - "*" Organizacao : tem registadas >
Plataforma "1" - - "1" AlgoritmoExternoGercaoPWD : recorre a >
AlgoritmoExternoGercaoPWD "1" - - "*" Utilizador : gera password >
Organizacao "1" - - "1..*" Colaborador: tem >
Organizacao "1" - - "1" Colaborador: tem gestor >
Organizacao "1" - - "1" EnderecoPostal: localizada em >
Colaborador "0..1" - - "1" Utilizador: atua como >
@enduml

PlantUML version 2017.11(Wed Apr 19 17:18:59 WEST 2017)
(GPL source distribution)
Java Runtime: Java(TM) SE Runtime Environment
JVM: Java HotSpot(TM) 64-Bit Server VM
Java Version: 1.8.0_111-b14
Operating System: Mac OS X
OS Version: 10.15
Default Encoding: UTF-8
Language: pt
Country: PT
-->
    </g>
</svg>
