@startuml

autonumber

title SD_ProcessoAjudicaçãoAnuncio

participant ":SeriarAnuncioController" as CTRL
participant "anu:Anuncio" as ANU
participant "cand:Candidatura" as CND
participant "free\n:Freelancer" as FREE
participant ":Plataforma" as PLAT
participant "rorg\n:RegistoOrganizacoes" as RORG
participant "tar\n:Tarefa" as TRF
participant "radjudi\n:RegistoAdjudicacoes" as RADJ
participant "adjudi\n:Adjudicacao" as ADJ

activate CTRL
CTRL -> ANU: tar = getTarefa()
activate ANU
deactivate ANU

CTRL -> PLAT: rorg = getRegistoOrganizacoes()
activate PLAT
deactivate PLAT

CTRL -> RORG: org = getOrganizacaobyTarefa(tar)
activate RORG
deactivate RORG

CTRL -> TRF: descTarefa = getDescricao()
activate TRF
deactivate TRF

CTRL -> ANU: primeiroClass = getPrimeiroClassificado()
activate ANU
deactivate ANU

CTRL -> CND: free = getFreelancer()
activate CND
deactivate CND

CTRL -> CND: periodoReali = getNrDias()
activate CND
deactivate CND

CTRL -> FREE: valorRemu = getValor()
activate FREE
deactivate FREE

CTRL -> ANU: refAnu = getReferenciaAnuncio()
activate ANU
deactivate ANU

CTRL -> PLAT: radjudi = getRegistoAdjudicacoes()
activate PLAT
deactivate PLAT

CTRL -> RADJ:novaAdjudicacao(org,free,descTarefa,periodoReali,valorRemu,refAnu)
activate RADJ
RADJ -> RADJ:numSeq = geraNumPorAno()
RADJ -> RADJ:dataAdjudi = getDataAdjudi()
RADJ --> ADJ**:adjudi = create(numSeq,dataAdjudi,org,free,descTarefa,periodoReali,valorRemu,refAnu)
RADJ -> RADJ: validaAdjudicacao(adjudi)
RADJ -> RADJ: addAdjudicacao(adjudi)
deactivate RADJ
deactivate CTRL


@enduml