@startuml
autonumber
actor "Colaborador de Organização" as CO
activate CO
CO -> ":Sistema": Seriar anuncio.
activate ":Sistema"
":Sistema" --> CO : Apresenta uma lista de anuncios por seriar.
deactivate ":Sistema"
CO -> ":Sistema" : Escolhe um anuncio para seriar.
activate ":Sistema"
":Sistema" --> CO: Apresenta uma lista de candidatos.
deactivate ":Sistema"
CO -> ":Sistema": Começar processo de seriação.
activate ":Sistema"
loop enquanto exisitirem candidatos sem classificação.
":Sistema"--> CO: Apresenta um candidato e solicita uma classificação.
deactivate ":Sistema"
CO -> ":Sistema": Introduz uma classificação.
activate ":Sistema"
end
loop até ser inserido um email em branco
":Sistema"--> CO: Solicita o email dos outros colaboradores envolvidos.
deactivate ":Sistema"
CO -> ":Sistema": Introduz o email.
activate ":Sistema"
end
":Sistema" --> CO: Solicita a data e a hora da realização do processo.
deactivate ":Sistema"
CO -> ":Sistema": Introduz a data e a hora.
activate ":Sistema"
":Sistema" --> CO: Apresenta os dados e solicita confirmação
deactivate ":Sistema"
CO -> ":Sistema": Confirma os dados
activate ":Sistema"
":Sistema" --> CO: Operação bem sucedida.
deactivate ":Sistema"
@enduml