<?xml version="1.0" encoding="UTF-8" standalone="no"?><svg xmlns="http://www.w3.org/2000/svg" xmlns:xlink="http://www.w3.org/1999/xlink" contentScriptType="application/ecmascript" contentStyleType="text/css" height="231px" preserveAspectRatio="none" style="width:435px;height:231px;" version="1.1" viewBox="0 0 435 231" width="435px" zoomAndPan="magnify"><defs><filter height="300%" id="fwnnyjju7791z" width="300%" x="-1" y="-1"><feGaussianBlur result="blurOut" stdDeviation="1.2"/><feColorMatrix in="blurOut" result="blurOut2" type="matrix" values="0 0 0 0 0 0 0 0 0 0 0 0 0 0 0 0 0 0 .4 0"/><feOffset dx="2.4" dy="2.4" in="blurOut2" result="blurOut3"/><feBlend in="SourceGraphic" in2="blurOut3" mode="normal"/></filter></defs><g><rect fill="#FFFFFF" filter="url(#fwnnyjju7791z)" height="109.9043" style="stroke: #A80036; stroke-width: 0.6;" width="6" x="33.6" y="57.893"/><rect fill="#FFFFFF" filter="url(#fwnnyjju7791z)" height="26.7727" style="stroke: #A80036; stroke-width: 0.6;" width="6" x="405.6" y="70.6793"/><rect fill="#FFFFFF" filter="url(#fwnnyjju7791z)" height="17.5863" style="stroke: #A80036; stroke-width: 0.6;" width="6" x="405.6" y="115.0383"/><rect fill="#FFFFFF" filter="url(#fwnnyjju7791z)" height="17.5863" style="stroke: #A80036; stroke-width: 0.6;" width="6" x="405.6" y="150.2109"/><line style="stroke: #A80036; stroke-width: 0.6; stroke-dasharray: 5.0,5.0;" x1="36.6" x2="36.6" y1="51.893" y2="178.5973"/><line style="stroke: #A80036; stroke-width: 0.6; stroke-dasharray: 5.0,5.0;" x1="408.3" x2="408.3" y1="51.893" y2="178.5973"/><text fill="#000000" font-family="sans-serif" font-size="8.4" lengthAdjust="spacingAndGlyphs" textLength="60" x="4.8" y="50.1211">Administrativo</text><ellipse cx="36.6" cy="7.8" fill="#FEFECE" filter="url(#fwnnyjju7791z)" rx="4.8" ry="4.8" style="stroke: #A80036; stroke-width: 1.2;"/><path d="M36.6,12.6 L36.6,28.8 M28.8,17.4 L44.4,17.4 M36.6,28.8 L28.8,37.8 M36.6,28.8 L44.4,37.8 " fill="none" filter="url(#fwnnyjju7791z)" style="stroke: #A80036; stroke-width: 1.2;"/><text fill="#000000" font-family="sans-serif" font-size="8.4" lengthAdjust="spacingAndGlyphs" textLength="60" x="4.8" y="186.1184">Administrativo</text><ellipse cx="36.6" cy="193.8902" fill="#FEFECE" filter="url(#fwnnyjju7791z)" rx="4.8" ry="4.8" style="stroke: #A80036; stroke-width: 1.2;"/><path d="M36.6,198.6902 L36.6,214.8902 M28.8,203.4902 L44.4,203.4902 M36.6,214.8902 L28.8,223.8902 M36.6,214.8902 L44.4,223.8902 " fill="none" filter="url(#fwnnyjju7791z)" style="stroke: #A80036; stroke-width: 1.2;"/><rect fill="#FEFECE" filter="url(#fwnnyjju7791z)" height="18.293" style="stroke: #A80036; stroke-width: 0.8999999999999999;" width="42.6" x="386.1" y="30.6"/><text fill="#000000" font-family="sans-serif" font-size="8.4" lengthAdjust="spacingAndGlyphs" textLength="34.2" x="390.3" y="42.9211">:Sistema</text><rect fill="#FEFECE" filter="url(#fwnnyjju7791z)" height="18.293" style="stroke: #A80036; stroke-width: 0.8999999999999999;" width="42.6" x="386.1" y="177.9973"/><text fill="#000000" font-family="sans-serif" font-size="8.4" lengthAdjust="spacingAndGlyphs" textLength="34.2" x="390.3" y="190.3184">:Sistema</text><rect fill="#FFFFFF" filter="url(#fwnnyjju7791z)" height="109.9043" style="stroke: #A80036; stroke-width: 0.6;" width="6" x="33.6" y="57.893"/><rect fill="#FFFFFF" filter="url(#fwnnyjju7791z)" height="26.7727" style="stroke: #A80036; stroke-width: 0.6;" width="6" x="405.6" y="70.6793"/><rect fill="#FFFFFF" filter="url(#fwnnyjju7791z)" height="17.5863" style="stroke: #A80036; stroke-width: 0.6;" width="6" x="405.6" y="115.0383"/><rect fill="#FFFFFF" filter="url(#fwnnyjju7791z)" height="17.5863" style="stroke: #A80036; stroke-width: 0.6;" width="6" x="405.6" y="150.2109"/><polygon fill="#A80036" points="398.4,68.2793,404.4,70.6793,398.4,73.0793,400.8,70.6793" style="stroke: #A80036; stroke-width: 0.6;"/><line style="stroke: #A80036; stroke-width: 0.6;" x1="39.6" x2="402" y1="70.6793" y2="70.6793"/><text fill="#000000" font-family="sans-serif" font-size="7.8" font-weight="bold" lengthAdjust="spacingAndGlyphs" textLength="5.4" x="43.8" y="67.834">1</text><text fill="#000000" font-family="sans-serif" font-size="7.8" lengthAdjust="spacingAndGlyphs" textLength="162" x="51.6" y="67.834">inicia definição de nova categoria de tarefa</text><polygon fill="#A80036" points="46.2,95.052,40.2,97.452,46.2,99.852,43.8,97.452" style="stroke: #A80036; stroke-width: 0.6;"/><line style="stroke: #A80036; stroke-width: 0.6; stroke-dasharray: 2.0,2.0;" x1="42.6" x2="408" y1="97.452" y2="97.452"/><text fill="#000000" font-family="sans-serif" font-size="7.8" font-weight="bold" lengthAdjust="spacingAndGlyphs" textLength="5.4" x="49.8" y="90.0135">2</text><text fill="#000000" font-family="sans-serif" font-size="7.8" lengthAdjust="spacingAndGlyphs" textLength="52.8" x="57.6" y="85.4203">solicita dados</text><text fill="#000000" font-family="sans-serif" font-size="7.8" lengthAdjust="spacingAndGlyphs" textLength="343.8" x="57.6" y="94.6066">(descrição,área atividade,lista competências técnicas requeridas e respetiva caracterização)</text><polygon fill="#A80036" points="398.4,112.6383,404.4,115.0383,398.4,117.4383,400.8,115.0383" style="stroke: #A80036; stroke-width: 0.6;"/><line style="stroke: #A80036; stroke-width: 0.6;" x1="39.6" x2="402" y1="115.0383" y2="115.0383"/><text fill="#000000" font-family="sans-serif" font-size="7.8" font-weight="bold" lengthAdjust="spacingAndGlyphs" textLength="5.4" x="43.8" y="112.193">3</text><text fill="#000000" font-family="sans-serif" font-size="7.8" lengthAdjust="spacingAndGlyphs" textLength="112.2" x="51.6" y="112.193">introduz os dados solicitados</text><polygon fill="#A80036" points="46.2,130.2246,40.2,132.6246,46.2,135.0246,43.8,132.6246" style="stroke: #A80036; stroke-width: 0.6;"/><line style="stroke: #A80036; stroke-width: 0.6; stroke-dasharray: 2.0,2.0;" x1="42.6" x2="408" y1="132.6246" y2="132.6246"/><text fill="#000000" font-family="sans-serif" font-size="7.8" font-weight="bold" lengthAdjust="spacingAndGlyphs" textLength="5.4" x="49.8" y="129.7793">4</text><text fill="#000000" font-family="sans-serif" font-size="7.8" lengthAdjust="spacingAndGlyphs" textLength="147.6" x="57.6" y="129.7793">apresenta dados e solicita confirmação</text><polygon fill="#A80036" points="398.4,147.8109,404.4,150.2109,398.4,152.6109,400.8,150.2109" style="stroke: #A80036; stroke-width: 0.6;"/><line style="stroke: #A80036; stroke-width: 0.6;" x1="39.6" x2="402" y1="150.2109" y2="150.2109"/><text fill="#000000" font-family="sans-serif" font-size="7.8" font-weight="bold" lengthAdjust="spacingAndGlyphs" textLength="5.4" x="43.8" y="147.3656">5</text><text fill="#000000" font-family="sans-serif" font-size="7.8" lengthAdjust="spacingAndGlyphs" textLength="33.6" x="51.6" y="147.3656">confirma</text><polygon fill="#A80036" points="43.2,165.3973,37.2,167.7973,43.2,170.1973,40.8,167.7973" style="stroke: #A80036; stroke-width: 0.6;"/><line style="stroke: #A80036; stroke-width: 0.6; stroke-dasharray: 2.0,2.0;" x1="39.6" x2="408" y1="167.7973" y2="167.7973"/><text fill="#000000" font-family="sans-serif" font-size="7.8" font-weight="bold" lengthAdjust="spacingAndGlyphs" textLength="5.4" x="46.8" y="164.952">6</text><text fill="#000000" font-family="sans-serif" font-size="7.8" lengthAdjust="spacingAndGlyphs" textLength="120.6" x="54.6" y="164.952">informa operação bem sucedida</text><!--MD5=[a0f9375ec112e20b16645e39f89df38b]
@startuml
autonumber
actor "Administrativo" as ADM

participant ":Sistema" as SIST

activate ADM
ADM -> SIST : inicia definição de nova categoria de tarefa
activate SIST
SIST - -> ADM : solicita dados \n(descrição,área atividade,lista competências técnicas requeridas e respetiva caracterização)
deactivate SIST

ADM -> SIST : introduz os dados solicitados
activate SIST
SIST - -> ADM : apresenta dados e solicita confirmação
deactivate SIST

ADM -> SIST : confirma
activate SIST
SIST - -> ADM : informa operação bem sucedida
deactivate SIST

deactivate ADM

@enduml

PlantUML version 1.2020.03beta6(Unknown compile time)
(GPL source distribution)
Java Runtime: OpenJDK Runtime Environment
JVM: OpenJDK 64-Bit Server VM
Java Version: 11.0.5+10-b520.38
Operating System: Mac OS X
Default Encoding: UTF-8
Language: en
Country: PT
--></g></svg>