<?xml version="1.0" encoding="UTF-8"?><svg xmlns="http://www.w3.org/2000/svg" xmlns:xlink="http://www.w3.org/1999/xlink" contentScriptType="application/ecmascript" contentStyleType="text/css" height="546px" preserveAspectRatio="none" style="width:513px;height:546px;" version="1.1" viewBox="0 0 513 546" width="513px" zoomAndPan="magnify">
    <defs>
        <filter height="300%" id="f14ogi8rmfuwfj" width="300%" x="-1" y="-1">
            <feGaussianBlur result="blurOut" stdDeviation="2.0"/>
            <feColorMatrix in="blurOut" result="blurOut2" type="matrix" values="0 0 0 0 0 0 0 0 0 0 0 0 0 0 0 0 0 0 .4 0"/>
            <feOffset dx="4.0" dy="4.0" in="blurOut2" result="blurOut3"/>
            <feBlend in="SourceGraphic" in2="blurOut3" mode="normal"/>
        </filter>
    </defs>
    <g>
        <rect fill="#FFFFFF" filter="url(#f14ogi8rmfuwfj)" height="346.7266" style="stroke: #A80036; stroke-width: 1.0;" width="10" x="71" y="96.4883"/>
        <rect fill="#FFFFFF" filter="url(#f14ogi8rmfuwfj)" height="29.3105" style="stroke: #A80036; stroke-width: 1.0;" width="10" x="452" y="117.4883"/>
        <rect fill="#FFFFFF" filter="url(#f14ogi8rmfuwfj)" height="29.3105" style="stroke: #A80036; stroke-width: 1.0;" width="10" x="452" y="176.1094"/>
        <rect fill="#FFFFFF" filter="url(#f14ogi8rmfuwfj)" height="68.6211" style="stroke: #A80036; stroke-width: 1.0;" width="10" x="452" y="234.7305"/>
        <rect fill="#FFFFFF" filter="url(#f14ogi8rmfuwfj)" height="36.6211" style="stroke: #A80036; stroke-width: 1.0;" width="10" x="452" y="347.9727"/>
        <rect fill="#FFFFFF" filter="url(#f14ogi8rmfuwfj)" height="29.3105" style="stroke: #A80036; stroke-width: 1.0;" width="10" x="452" y="413.9043"/>
        <rect fill="#FFFFFF" filter="url(#f14ogi8rmfuwfj)" height="106.5527" style="stroke: #000000; stroke-width: 2.0;" width="491.5" x="13" y="250.041"/>
        <line style="stroke: #A80036; stroke-width: 1.0; stroke-dasharray: 5.0,5.0;" x1="76" x2="76" y1="86.4883" y2="461.5254"/>
        <line style="stroke: #A80036; stroke-width: 1.0; stroke-dasharray: 5.0,5.0;" x1="456.5" x2="456.5" y1="86.4883" y2="461.5254"/>
        <text fill="#000000" font-family="sans-serif" font-size="14" lengthAdjust="spacingAndGlyphs" textLength="100" x="23" y="83.5352">Administrativo</text>
        <ellipse cx="76" cy="13" fill="#FEFECE" filter="url(#f14ogi8rmfuwfj)" rx="8" ry="8" style="stroke: #A80036; stroke-width: 2.0;"/>
        <path d="M76,21 L76,48 M63,29 L89,29 M76,48 L63,63 M76,48 L89,63 " fill="#FEFECE" filter="url(#f14ogi8rmfuwfj)" style="stroke: #A80036; stroke-width: 2.0;"/>
        <text fill="#000000" font-family="sans-serif" font-size="14" lengthAdjust="spacingAndGlyphs" textLength="100" x="23" y="474.0605">Administrativo</text>
        <ellipse cx="76" cy="487.0137" fill="#FEFECE" filter="url(#f14ogi8rmfuwfj)" rx="8" ry="8" style="stroke: #A80036; stroke-width: 2.0;"/>
        <path d="M76,495.0137 L76,522.0137 M63,503.0137 L89,503.0137 M76,522.0137 L63,537.0137 M76,522.0137 L89,537.0137 " fill="#FEFECE" filter="url(#f14ogi8rmfuwfj)" style="stroke: #A80036; stroke-width: 2.0;"/>
        <rect fill="#FEFECE" filter="url(#f14ogi8rmfuwfj)" height="30.4883" style="stroke: #A80036; stroke-width: 1.5;" width="71" x="419.5" y="51"/>
        <text fill="#000000" font-family="sans-serif" font-size="14" lengthAdjust="spacingAndGlyphs" textLength="57" x="426.5" y="71.5352">:Sistema</text>
        <rect fill="#FEFECE" filter="url(#f14ogi8rmfuwfj)" height="30.4883" style="stroke: #A80036; stroke-width: 1.5;" width="71" x="419.5" y="460.5254"/>
        <text fill="#000000" font-family="sans-serif" font-size="14" lengthAdjust="spacingAndGlyphs" textLength="57" x="426.5" y="481.0605">:Sistema</text>
        <rect fill="#FFFFFF" filter="url(#f14ogi8rmfuwfj)" height="346.7266" style="stroke: #A80036; stroke-width: 1.0;" width="10" x="71" y="96.4883"/>
        <rect fill="#FFFFFF" filter="url(#f14ogi8rmfuwfj)" height="29.3105" style="stroke: #A80036; stroke-width: 1.0;" width="10" x="452" y="117.4883"/>
        <rect fill="#FFFFFF" filter="url(#f14ogi8rmfuwfj)" height="29.3105" style="stroke: #A80036; stroke-width: 1.0;" width="10" x="452" y="176.1094"/>
        <rect fill="#FFFFFF" filter="url(#f14ogi8rmfuwfj)" height="68.6211" style="stroke: #A80036; stroke-width: 1.0;" width="10" x="452" y="234.7305"/>
        <rect fill="#FFFFFF" filter="url(#f14ogi8rmfuwfj)" height="36.6211" style="stroke: #A80036; stroke-width: 1.0;" width="10" x="452" y="347.9727"/>
        <rect fill="#FFFFFF" filter="url(#f14ogi8rmfuwfj)" height="29.3105" style="stroke: #A80036; stroke-width: 1.0;" width="10" x="452" y="413.9043"/>
        <polygon fill="#A80036" points="440,113.4883,450,117.4883,440,121.4883,444,117.4883" style="stroke: #A80036; stroke-width: 1.0;"/>
        <line style="stroke: #A80036; stroke-width: 1.0;" x1="81" x2="446" y1="117.4883" y2="117.4883"/>
        <text fill="#000000" font-family="sans-serif" font-size="13" font-weight="bold" lengthAdjust="spacingAndGlyphs" textLength="9" x="88" y="113.0566">1</text>
        <text fill="#000000" font-family="sans-serif" font-size="13" lengthAdjust="spacingAndGlyphs" textLength="339" x="101" y="113.0566">Inicia a especificação de uma nova categoria de tarefa</text>
        <polygon fill="#A80036" points="92,142.7988,82,146.7988,92,150.7988,88,146.7988" style="stroke: #A80036; stroke-width: 1.0;"/>
        <line style="stroke: #A80036; stroke-width: 1.0; stroke-dasharray: 2.0,2.0;" x1="86" x2="456" y1="146.7988" y2="146.7988"/>
        <text fill="#000000" font-family="sans-serif" font-size="13" font-weight="bold" lengthAdjust="spacingAndGlyphs" textLength="9" x="98" y="142.3672">2</text>
        <text fill="#000000" font-family="sans-serif" font-size="13" lengthAdjust="spacingAndGlyphs" textLength="322" x="111" y="142.3672">Solicita dados necessários(identificador, descricao)</text>
        <polygon fill="#A80036" points="440,172.1094,450,176.1094,440,180.1094,444,176.1094" style="stroke: #A80036; stroke-width: 1.0;"/>
        <line style="stroke: #A80036; stroke-width: 1.0;" x1="81" x2="446" y1="176.1094" y2="176.1094"/>
        <text fill="#000000" font-family="sans-serif" font-size="13" font-weight="bold" lengthAdjust="spacingAndGlyphs" textLength="9" x="88" y="171.6777">3</text>
        <text fill="#000000" font-family="sans-serif" font-size="13" lengthAdjust="spacingAndGlyphs" textLength="187" x="101" y="171.6777">Introduz os dados solicitados</text>
        <polygon fill="#A80036" points="92,201.4199,82,205.4199,92,209.4199,88,205.4199" style="stroke: #A80036; stroke-width: 1.0;"/>
        <line style="stroke: #A80036; stroke-width: 1.0; stroke-dasharray: 2.0,2.0;" x1="86" x2="456" y1="205.4199" y2="205.4199"/>
        <text fill="#000000" font-family="sans-serif" font-size="13" font-weight="bold" lengthAdjust="spacingAndGlyphs" textLength="9" x="98" y="200.9883">4</text>
        <text fill="#000000" font-family="sans-serif" font-size="13" lengthAdjust="spacingAndGlyphs" textLength="278" x="111" y="200.9883">Apresenta as AA e pede para selecionar uma</text>
        <polygon fill="#A80036" points="440,230.7305,450,234.7305,440,238.7305,444,234.7305" style="stroke: #A80036; stroke-width: 1.0;"/>
        <line style="stroke: #A80036; stroke-width: 1.0;" x1="81" x2="446" y1="234.7305" y2="234.7305"/>
        <text fill="#000000" font-family="sans-serif" font-size="13" font-weight="bold" lengthAdjust="spacingAndGlyphs" textLength="9" x="88" y="230.2988">5</text>
        <text fill="#000000" font-family="sans-serif" font-size="13" lengthAdjust="spacingAndGlyphs" textLength="163" x="101" y="230.2988">Seleciona a AA pretendida</text>
        <rect fill="none" height="106.5527" style="stroke: #000000; stroke-width: 2.0;" width="491.5" x="13" y="250.041"/>
        <polygon fill="#EEEEEE" points="13,250.041,87,250.041,87,257.041,77,267.041,13,267.041,13,250.041" style="stroke: #000000; stroke-width: 2.0;"/>
        <text fill="#000000" font-family="sans-serif" font-size="13" font-weight="bold" lengthAdjust="spacingAndGlyphs" textLength="29" x="28" y="263.6094">loop</text>
        <text fill="#000000" font-family="sans-serif" font-size="11" font-weight="bold" lengthAdjust="spacingAndGlyphs" textLength="180" x="102" y="262.6758">[até não querer selecionar mais]</text>
        <polygon fill="#A80036" points="92,299.3516,82,303.3516,92,307.3516,88,303.3516" style="stroke: #A80036; stroke-width: 1.0;"/>
        <line style="stroke: #A80036; stroke-width: 1.0; stroke-dasharray: 2.0,2.0;" x1="86" x2="456" y1="303.3516" y2="303.3516"/>
        <text fill="#000000" font-family="sans-serif" font-size="13" font-weight="bold" lengthAdjust="spacingAndGlyphs" textLength="9" x="98" y="291.5752">6</text>
        <text fill="#000000" font-family="sans-serif" font-size="13" lengthAdjust="spacingAndGlyphs" textLength="277" x="111" y="283.9199">Apresenta as CT e pede para selecionar uma</text>
        <text fill="#000000" font-family="sans-serif" font-size="13" lengthAdjust="spacingAndGlyphs" textLength="236" x="111" y="299.2305">elegendo se esta é ou não obrigatoria</text>
        <polygon fill="#A80036" points="440,343.9727,450,347.9727,440,351.9727,444,347.9727" style="stroke: #A80036; stroke-width: 1.0;"/>
        <line style="stroke: #A80036; stroke-width: 1.0;" x1="81" x2="446" y1="347.9727" y2="347.9727"/>
        <text fill="#000000" font-family="sans-serif" font-size="13" font-weight="bold" lengthAdjust="spacingAndGlyphs" textLength="9" x="88" y="336.1963">7</text>
        <text fill="#000000" font-family="sans-serif" font-size="13" lengthAdjust="spacingAndGlyphs" textLength="162" x="101" y="328.541">Seleciona a CT pretendida</text>
        <text fill="#000000" font-family="sans-serif" font-size="13" lengthAdjust="spacingAndGlyphs" textLength="236" x="101" y="343.8516">elegendo se esta é ou não obrigatoria</text>
        <polygon fill="#A80036" points="92,380.5938,82,384.5938,92,388.5938,88,384.5938" style="stroke: #A80036; stroke-width: 1.0;"/>
        <line style="stroke: #A80036; stroke-width: 1.0; stroke-dasharray: 2.0,2.0;" x1="86" x2="456" y1="384.5938" y2="384.5938"/>
        <text fill="#000000" font-family="sans-serif" font-size="13" font-weight="bold" lengthAdjust="spacingAndGlyphs" textLength="9" x="98" y="380.1621">8</text>
        <text fill="#000000" font-family="sans-serif" font-size="13" lengthAdjust="spacingAndGlyphs" textLength="307" x="111" y="380.1621">Apresenta todos os dados e solicita confirmação</text>
        <polygon fill="#A80036" points="440,409.9043,450,413.9043,440,417.9043,444,413.9043" style="stroke: #A80036; stroke-width: 1.0;"/>
        <line style="stroke: #A80036; stroke-width: 1.0;" x1="81" x2="446" y1="413.9043" y2="413.9043"/>
        <text fill="#000000" font-family="sans-serif" font-size="13" font-weight="bold" lengthAdjust="spacingAndGlyphs" textLength="9" x="88" y="409.4727">9</text>
        <text fill="#000000" font-family="sans-serif" font-size="13" lengthAdjust="spacingAndGlyphs" textLength="58" x="101" y="409.4727">Confirma</text>
        <polygon fill="#A80036" points="87,439.2148,77,443.2148,87,447.2148,83,443.2148" style="stroke: #A80036; stroke-width: 1.0;"/>
        <line style="stroke: #A80036; stroke-width: 1.0; stroke-dasharray: 2.0,2.0;" x1="81" x2="456" y1="443.2148" y2="443.2148"/>
        <text fill="#000000" font-family="sans-serif" font-size="13" font-weight="bold" lengthAdjust="spacingAndGlyphs" textLength="18" x="93" y="438.7832">10</text>
        <text fill="#000000" font-family="sans-serif" font-size="13" lengthAdjust="spacingAndGlyphs" textLength="150" x="115" y="438.7832">Operação bem sucedida</text>
        <!--
@startuml
autonumber
actor "Administrativo" as ADM

activate ADM
ADM -> ":Sistema" : Inicia a especificação de uma nova categoria de tarefa 
activate ":Sistema"
":Sistema" - -> ADM : Solicita dados necessários(identificador, descricao)
deactivate ":Sistema"

ADM -> ":Sistema" : Introduz os dados solicitados
activate ":Sistema"
":Sistema" - -> ADM : Apresenta as AA e pede para selecionar uma
deactivate ":Sistema"

ADM -> ":Sistema" : Seleciona a AA pretendida
activate ":Sistema"
loop  até não querer selecionar mais
":Sistema" - -> ADM : Apresenta as CT e pede para selecionar uma\nelegendo se esta é ou não obrigatoria
deactivate ":Sistema"

ADM -> ":Sistema" : Seleciona a CT pretendida\nelegendo se esta é ou não obrigatoria
activate ":Sistema"
end
":Sistema" - -> ADM : Apresenta todos os dados e solicita confirmação
deactivate ":Sistema"

ADM -> ":Sistema" : Confirma
activate ":Sistema"
":Sistema" - -> ADM : Operação bem sucedida
deactivate ":Sistema"
deactivate ADM
@enduml

PlantUML version 2017.11(Wed Apr 19 17:18:59 WEST 2017)
(GPL source distribution)
Java Runtime: Java(TM) SE Runtime Environment
JVM: Java HotSpot(TM) 64-Bit Server VM
Java Version: 1.8.0_111-b14
Operating System: Mac OS X
OS Version: 10.15
Default Encoding: UTF-8
Language: pt
Country: PT
-->
    </g>
</svg>
