<?xml version="1.0" encoding="UTF-8"?><svg xmlns="http://www.w3.org/2000/svg" xmlns:xlink="http://www.w3.org/1999/xlink" contentScriptType="application/ecmascript" contentStyleType="text/css" height="327px" preserveAspectRatio="none" style="width:1220px;height:327px;" version="1.1" viewBox="0 0 1220 327" width="1220px" zoomAndPan="magnify">
    <defs>
        <filter height="300%" id="fh0o4k8oc940v" width="300%" x="-1" y="-1">
            <feGaussianBlur result="blurOut" stdDeviation="2.0"/>
            <feColorMatrix in="blurOut" result="blurOut2" type="matrix" values="0 0 0 0 0 0 0 0 0 0 0 0 0 0 0 0 0 0 .4 0"/>
            <feOffset dx="4.0" dy="4.0" in="blurOut2" result="blurOut3"/>
            <feBlend in="SourceGraphic" in2="blurOut3" mode="normal"/>
        </filter>
    </defs>
    <g>
        <!--class Plataforma-->
        <rect fill="#FEFECE" filter="url(#fh0o4k8oc940v)" height="52.9551" style="stroke: #A80036; stroke-width: 1.5;" width="114" x="6" y="121.5"/>
        <ellipse cx="30" cy="137.5" fill="#ADD1B2" rx="11" ry="11" style="stroke: #A80036; stroke-width: 1.0;"/>
        <path d="M32.4731,143.6431 Q31.8921,143.9419 31.2529,144.0913 Q30.6138,144.2407 29.9082,144.2407 Q27.4014,144.2407 26.0815,142.5889 Q24.7617,140.937 24.7617,137.8159 Q24.7617,134.6865 26.0815,133.0347 Q27.4014,131.3828 29.9082,131.3828 Q30.6138,131.3828 31.2612,131.5322 Q31.9087,131.6816 32.4731,131.9805 L32.4731,134.7031 Q31.8423,134.1221 31.2488,133.8523 Q30.6553,133.5825 30.0244,133.5825 Q28.6797,133.5825 27.9949,134.6492 Q27.3101,135.7158 27.3101,137.8159 Q27.3101,139.9077 27.9949,140.9744 Q28.6797,142.041 30.0244,142.041 Q30.6553,142.041 31.2488,141.7712 Q31.8423,141.5015 32.4731,140.9204 Z "/>
        <text fill="#000000" font-family="sans-serif" font-size="12" lengthAdjust="spacingAndGlyphs" textLength="62" x="46" y="142.0352">Plataforma</text>
        <line style="stroke: #A80036; stroke-width: 1.5;" x1="7" x2="119" y1="153.5" y2="153.5"/>
        <text fill="#000000" font-family="sans-serif" font-size="11" lengthAdjust="spacingAndGlyphs" textLength="102" x="12" y="168.1348">-String designacao</text>
        <!--class AreaAtividade-->
        <rect fill="#FEFECE" filter="url(#fh0o4k8oc940v)" height="78.8652" style="stroke: #A80036; stroke-width: 1.5;" width="131" x="1080" y="116.5"/>
        <ellipse cx="1103.1" cy="132.5" fill="#ADD1B2" rx="11" ry="11" style="stroke: #A80036; stroke-width: 1.0;"/>
        <path d="M1105.5731,138.6431 Q1104.9921,138.9419 1104.3529,139.0913 Q1103.7138,139.2407 1103.0082,139.2407 Q1100.5014,139.2407 1099.1815,137.5889 Q1097.8617,135.937 1097.8617,132.8159 Q1097.8617,129.6865 1099.1815,128.0347 Q1100.5014,126.3828 1103.0082,126.3828 Q1103.7138,126.3828 1104.3612,126.5322 Q1105.0087,126.6816 1105.5731,126.9805 L1105.5731,129.7031 Q1104.9423,129.1221 1104.3488,128.8523 Q1103.7553,128.5825 1103.1244,128.5825 Q1101.7797,128.5825 1101.0949,129.6492 Q1100.4101,130.7158 1100.4101,132.8159 Q1100.4101,134.9077 1101.0949,135.9744 Q1101.7797,137.041 1103.1244,137.041 Q1103.7553,137.041 1104.3488,136.7712 Q1104.9423,136.5015 1105.5731,135.9204 Z "/>
        <text fill="#000000" font-family="sans-serif" font-size="12" lengthAdjust="spacingAndGlyphs" textLength="81" x="1118.9" y="137.0352">AreaAtividade</text>
        <line style="stroke: #A80036; stroke-width: 1.5;" x1="1081" x2="1210" y1="148.5" y2="148.5"/>
        <text fill="#000000" font-family="sans-serif" font-size="11" lengthAdjust="spacingAndGlyphs" textLength="78" x="1086" y="163.1348">-String codigo</text>
        <text fill="#000000" font-family="sans-serif" font-size="11" lengthAdjust="spacingAndGlyphs" textLength="95" x="1086" y="176.0898">-String descBreve</text>
        <text fill="#000000" font-family="sans-serif" font-size="11" lengthAdjust="spacingAndGlyphs" textLength="119" x="1086" y="189.0449">-String descDetalhada</text>
        <!--class CompetenciaTecnica-->
        <rect fill="#FEFECE" filter="url(#fh0o4k8oc940v)" height="78.8652" style="stroke: #A80036; stroke-width: 1.5;" width="151" x="787" y="116.5"/>
        <ellipse cx="802" cy="132.5" fill="#ADD1B2" rx="11" ry="11" style="stroke: #A80036; stroke-width: 1.0;"/>
        <path d="M804.4731,138.6431 Q803.8921,138.9419 803.2529,139.0913 Q802.6138,139.2407 801.9082,139.2407 Q799.4014,139.2407 798.0815,137.5889 Q796.7617,135.937 796.7617,132.8159 Q796.7617,129.6865 798.0815,128.0347 Q799.4014,126.3828 801.9082,126.3828 Q802.6138,126.3828 803.2612,126.5322 Q803.9087,126.6816 804.4731,126.9805 L804.4731,129.7031 Q803.8423,129.1221 803.2488,128.8523 Q802.6553,128.5825 802.0244,128.5825 Q800.6797,128.5825 799.9949,129.6492 Q799.3101,130.7158 799.3101,132.8159 Q799.3101,134.9077 799.9949,135.9744 Q800.6797,137.041 802.0244,137.041 Q802.6553,137.041 803.2488,136.7712 Q803.8423,136.5015 804.4731,135.9204 Z "/>
        <text fill="#000000" font-family="sans-serif" font-size="12" lengthAdjust="spacingAndGlyphs" textLength="119" x="816" y="137.0352">CompetenciaTecnica</text>
        <line style="stroke: #A80036; stroke-width: 1.5;" x1="788" x2="937" y1="148.5" y2="148.5"/>
        <text fill="#000000" font-family="sans-serif" font-size="11" lengthAdjust="spacingAndGlyphs" textLength="78" x="793" y="163.1348">-String codigo</text>
        <text fill="#000000" font-family="sans-serif" font-size="11" lengthAdjust="spacingAndGlyphs" textLength="95" x="793" y="176.0898">-String descBreve</text>
        <text fill="#000000" font-family="sans-serif" font-size="11" lengthAdjust="spacingAndGlyphs" textLength="119" x="793" y="189.0449">-String descDetalhada</text>
        <!--class TipoCompetencia-->
        <rect fill="#FEFECE" filter="url(#fh0o4k8oc940v)" height="52.9551" style="stroke: #A80036; stroke-width: 1.5;" width="150" x="495" y="166.5"/>
        <ellipse cx="517.65" cy="182.5" fill="#ADD1B2" rx="11" ry="11" style="stroke: #A80036; stroke-width: 1.0;"/>
        <path d="M520.1231,188.6431 Q519.5421,188.9419 518.9029,189.0913 Q518.2638,189.2407 517.5582,189.2407 Q515.0514,189.2407 513.7315,187.5889 Q512.4117,185.937 512.4117,182.8159 Q512.4117,179.6865 513.7315,178.0347 Q515.0514,176.3828 517.5582,176.3828 Q518.2638,176.3828 518.9112,176.5322 Q519.5587,176.6816 520.1231,176.9805 L520.1231,179.7031 Q519.4923,179.1221 518.8988,178.8523 Q518.3053,178.5825 517.6744,178.5825 Q516.3297,178.5825 515.6449,179.6492 Q514.9601,180.7158 514.9601,182.8159 Q514.9601,184.9077 515.6449,185.9744 Q516.3297,187.041 517.6744,187.041 Q518.3053,187.041 518.8988,186.7712 Q519.4923,186.5015 520.1231,185.9204 Z "/>
        <text fill="#000000" font-family="sans-serif" font-size="12" lengthAdjust="spacingAndGlyphs" textLength="101" x="533.35" y="187.0352">TipoCompetencia</text>
        <line style="stroke: #A80036; stroke-width: 1.5;" x1="496" x2="644" y1="198.5" y2="198.5"/>
        <text fill="#000000" font-family="sans-serif" font-size="11" lengthAdjust="spacingAndGlyphs" textLength="138" x="501" y="213.1348">-boolean obrigatoriedade</text>
        <!--class CategoriaDeTarefa-->
        <rect fill="#FEFECE" filter="url(#fh0o4k8oc940v)" height="65.9102" style="stroke: #A80036; stroke-width: 1.5;" width="141" x="237" y="253"/>
        <ellipse cx="252" cy="269" fill="#ADD1B2" rx="11" ry="11" style="stroke: #A80036; stroke-width: 1.0;"/>
        <path d="M254.4731,275.1431 Q253.8921,275.4419 253.2529,275.5913 Q252.6138,275.7407 251.9082,275.7407 Q249.4014,275.7407 248.0815,274.0889 Q246.7617,272.437 246.7617,269.3159 Q246.7617,266.1865 248.0815,264.5347 Q249.4014,262.8828 251.9082,262.8828 Q252.6138,262.8828 253.2612,263.0322 Q253.9087,263.1816 254.4731,263.4805 L254.4731,266.2031 Q253.8423,265.6221 253.2488,265.3523 Q252.6553,265.0825 252.0244,265.0825 Q250.6797,265.0825 249.9949,266.1492 Q249.3101,267.2158 249.3101,269.3159 Q249.3101,271.4077 249.9949,272.4744 Q250.6797,273.541 252.0244,273.541 Q252.6553,273.541 253.2488,273.2712 Q253.8423,273.0015 254.4731,272.4204 Z "/>
        <text fill="#000000" font-family="sans-serif" font-size="12" lengthAdjust="spacingAndGlyphs" textLength="109" x="266" y="273.5352">CategoriaDeTarefa</text>
        <line style="stroke: #A80036; stroke-width: 1.5;" x1="238" x2="377" y1="285" y2="285"/>
        <text fill="#000000" font-family="sans-serif" font-size="11" lengthAdjust="spacingAndGlyphs" textLength="102" x="243" y="299.6348">-String idenficador</text>
        <text fill="#000000" font-family="sans-serif" font-size="11" lengthAdjust="spacingAndGlyphs" textLength="93" x="243" y="312.5898">-String descricao</text>
        <path d="M93.68,121.31 C137.11,85.14 222,25 306.5,25 C306.5,25 306.5,25 863.5,25 C950.97,25 1040.61,77.78 1094.43,116.34 " fill="none" style="stroke: #A80036; stroke-width: 1.0;"/>
        <text fill="#000000" font-family="sans-serif" font-size="13" lengthAdjust="spacingAndGlyphs" textLength="42" x="542.5" y="21.5684">possui</text>
        <polygon fill="#000000" points="587.5,15.1553,593.5,18.1553,587.5,21.1553,587.5,15.1553" style="stroke: #000000; stroke-width: 1.0;"/>
        <text fill="#000000" font-family="sans-serif" font-size="13" lengthAdjust="spacingAndGlyphs" textLength="8" x="92.1833" y="110.5879">1</text>
        <text fill="#000000" font-family="sans-serif" font-size="13" lengthAdjust="spacingAndGlyphs" textLength="6" x="1079.1367" y="105.841">*</text>
        <path d="M120.3,138.25 C130.17,136.9 140.36,135.72 150,135 C175.26,133.1 181.67,134.75 207,135 C451.48,137.44 512.91,131.9 757,146 C766.64,146.56 776.77,147.31 786.77,148.16 " fill="none" style="stroke: #A80036; stroke-width: 1.0;"/>
        <text fill="#000000" font-family="sans-serif" font-size="13" lengthAdjust="spacingAndGlyphs" textLength="42" x="409" y="132.5684">possui</text>
        <polygon fill="#000000" points="454,126.1553,460,129.1553,454,132.1553,454,126.1553" style="stroke: #000000; stroke-width: 1.0;"/>
        <text fill="#000000" font-family="sans-serif" font-size="13" lengthAdjust="spacingAndGlyphs" textLength="8" x="128.1541" y="133.631">1</text>
        <text fill="#000000" font-family="sans-serif" font-size="13" lengthAdjust="spacingAndGlyphs" textLength="6" x="773.02" y="160.7168">*</text>
        <path d="M88.3,174.62 C104.51,191.14 126.99,211.85 150,226 C176.77,242.46 208.81,255.71 236.9,265.53 " fill="none" style="stroke: #A80036; stroke-width: 1.0;"/>
        <text fill="#000000" font-family="sans-serif" font-size="13" lengthAdjust="spacingAndGlyphs" textLength="42" x="151" y="222.5684">possui</text>
        <polygon fill="#000000" points="196,216.1553,202,219.1553,196,222.1553,196,216.1553" style="stroke: #000000; stroke-width: 1.0;"/>
        <text fill="#000000" font-family="sans-serif" font-size="13" lengthAdjust="spacingAndGlyphs" textLength="8" x="85.2256" y="195.1197">1</text>
        <text fill="#000000" font-family="sans-serif" font-size="13" lengthAdjust="spacingAndGlyphs" textLength="6" x="222.85" y="276.7017">*</text>
        <path d="M938.07,156 C982.13,156 1037.38,156 1079.63,156 " fill="none" style="stroke: #A80036; stroke-width: 1.0;"/>
        <text fill="#000000" font-family="sans-serif" font-size="13" lengthAdjust="spacingAndGlyphs" textLength="67" x="969" y="152.5684">referente a</text>
        <polygon fill="#000000" points="1039,146.1553,1045,149.1553,1039,152.1553,1039,146.1553" style="stroke: #000000; stroke-width: 1.0;"/>
        <text fill="#000000" font-family="sans-serif" font-size="13" lengthAdjust="spacingAndGlyphs" textLength="6" x="946.1725" y="169.3648">*</text>
        <text fill="#000000" font-family="sans-serif" font-size="13" lengthAdjust="spacingAndGlyphs" textLength="8" x="1063.988" y="169.413">1</text>
        <path d="M120.46,153.03 C212.09,161.2 393.15,177.33 494.97,186.4 " fill="none" style="stroke: #A80036; stroke-width: 1.0;"/>
        <text fill="#000000" font-family="sans-serif" font-size="13" lengthAdjust="spacingAndGlyphs" textLength="42" x="280" y="160.5684">possui</text>
        <polygon fill="#000000" points="325,154.1553,331,157.1553,325,160.1553,325,154.1553" style="stroke: #000000; stroke-width: 1.0;"/>
        <text fill="#000000" font-family="sans-serif" font-size="13" lengthAdjust="spacingAndGlyphs" textLength="8" x="127.9504" y="167.1471">1</text>
        <text fill="#000000" font-family="sans-serif" font-size="13" lengthAdjust="spacingAndGlyphs" textLength="6" x="480.9232" y="199.0795">*</text>
        <path d="M378.31,261.08 C414.33,248.22 458.27,232.53 494.89,219.46 " fill="none" style="stroke: #A80036; stroke-width: 1.0;"/>
        <text fill="#000000" font-family="sans-serif" font-size="13" lengthAdjust="spacingAndGlyphs" textLength="24" x="418" y="227.5684">tem</text>
        <polygon fill="#000000" points="445,221.1553,451,224.1553,445,227.1553,445,221.1553" style="stroke: #000000; stroke-width: 1.0;"/>
        <text fill="#000000" font-family="sans-serif" font-size="13" lengthAdjust="spacingAndGlyphs" textLength="8" x="386.0248" y="271.8726">1</text>
        <text fill="#000000" font-family="sans-serif" font-size="13" lengthAdjust="spacingAndGlyphs" textLength="6" x="480.8349" y="235.5488">*</text>
        <path d="M645.06,183.57 C688.51,178.03 743.26,171.06 786.82,165.51 " fill="none" style="stroke: #A80036; stroke-width: 1.0;"/>
        <text fill="#000000" font-family="sans-serif" font-size="13" lengthAdjust="spacingAndGlyphs" textLength="67" x="676" y="167.5684">referente a</text>
        <polygon fill="#000000" points="746,161.1553,752,164.1553,746,167.1553,746,161.1553" style="stroke: #000000; stroke-width: 1.0;"/>
        <text fill="#000000" font-family="sans-serif" font-size="13" lengthAdjust="spacingAndGlyphs" textLength="6" x="653.1099" y="195.9577">*</text>
        <text fill="#000000" font-family="sans-serif" font-size="13" lengthAdjust="spacingAndGlyphs" textLength="8" x="770.9765" y="179.7747">1</text>
        <path d="M378.43,281.42 C495.2,272.99 736.87,252.18 938,213 C986,203.65 1039.18,188.86 1079.55,176.7 " fill="none" style="stroke: #A80036; stroke-width: 1.0;"/>
        <text fill="#000000" font-family="sans-serif" font-size="13" lengthAdjust="spacingAndGlyphs" textLength="42" x="688.5" y="239.5684">possui</text>
        <polygon fill="#000000" points="733.5,233.1553,739.5,236.1553,733.5,239.1553,733.5,233.1553" style="stroke: #000000; stroke-width: 1.0;"/>
        <text fill="#000000" font-family="sans-serif" font-size="13" lengthAdjust="spacingAndGlyphs" textLength="6" x="386.054" y="294.3101">*</text>
        <text fill="#000000" font-family="sans-serif" font-size="13" lengthAdjust="spacingAndGlyphs" textLength="8" x="1063.8992" y="192.3771">1</text>
        <!--
@startuml
hide methods
left to right direction
skinparam classAttributeIconSize 0
class Plataforma {
  -String designacao
}

class AreaAtividade {
  -String codigo
  -String descBreve
  -String descDetalhada
 
}

class CompetenciaTecnica {
  -String codigo
  -String descBreve
  -String descDetalhada
}

class TipoCompetencia{
  -boolean obrigatoriedade
}


class CategoriaDeTarefa {
  -String idenficador
  -String descricao  
}



Plataforma "1" - - "*" AreaAtividade : possui >
Plataforma "1" - - "*" CompetenciaTecnica : possui >

Plataforma "1" - - "*" CategoriaDeTarefa: possui >
CompetenciaTecnica "*" - - "1" AreaAtividade : referente a >

Plataforma "1" - - "*" TipoCompetencia : possui >
CategoriaDeTarefa "1" - - "*" TipoCompetencia:  tem >

TipoCompetencia "*" - - "1" CompetenciaTecnica: referente a >

CategoriaDeTarefa "*" - - "1" AreaAtividade: possui >

@enduml

PlantUML version 2017.11(Wed Apr 19 17:18:59 WEST 2017)
(GPL source distribution)
Java Runtime: Java(TM) SE Runtime Environment
JVM: Java HotSpot(TM) 64-Bit Server VM
Java Version: 1.8.0_111-b14
Operating System: Mac OS X
OS Version: 10.15
Default Encoding: UTF-8
Language: pt
Country: PT
-->
    </g>
</svg>
