@startuml
actor "Gestor de Organização"
activate "Gestor de Organização"
"Gestor de Organização" -> ":Sistema": Especificar colaborador
Activate ":Sistema"
":Sistema"--> "Gestor de Organização": Solicita dados necessários(i.e. nome, função,\ncontacto telefonico, endereco de email)
deactivate ":Sistema"
"Gestor de Organização" -> ":Sistema": Introduz os dados solicitados
Activate ":Sistema"
":Sistema"--> "Gestor de Organização": Apresenta os dados e solicita confirmação
deactivate ":Sistema"
"Gestor de Organização" -> ":Sistema": Confirma
Activate ":Sistema"
":Sistema"--> "Gestor de Organização": Opereção bem sucedida
deactivate ":Sistema"
deactivate "Gestor de Organização"
@enduml