<?xml version="1.0" encoding="UTF-8"?><svg xmlns="http://www.w3.org/2000/svg" xmlns:xlink="http://www.w3.org/1999/xlink" contentScriptType="application/ecmascript" contentStyleType="text/css" height="545px" preserveAspectRatio="none" style="width:478px;height:545px;" version="1.1" viewBox="0 0 478 545" width="478px" zoomAndPan="magnify">
    <defs>
        <filter height="300%" id="fsvssxwt68u2m" width="300%" x="-1" y="-1">
            <feGaussianBlur result="blurOut" stdDeviation="2.0"/>
            <feColorMatrix in="blurOut" result="blurOut2" type="matrix" values="0 0 0 0 0 0 0 0 0 0 0 0 0 0 0 0 0 0 .4 0"/>
            <feOffset dx="4.0" dy="4.0" in="blurOut2" result="blurOut3"/>
            <feBlend in="SourceGraphic" in2="blurOut3" mode="normal"/>
        </filter>
    </defs>
    <g>
        <rect fill="#FFFFFF" filter="url(#fsvssxwt68u2m)" height="343.8672" style="stroke: #A80036; stroke-width: 1.0;" width="10" x="65" y="97.6094"/>
        <rect fill="#FFFFFF" filter="url(#fsvssxwt68u2m)" height="46.3516" style="stroke: #A80036; stroke-width: 1.0;" width="10" x="418" y="119.6094"/>
        <rect fill="#FFFFFF" filter="url(#fsvssxwt68u2m)" height="30.3516" style="stroke: #A80036; stroke-width: 1.0;" width="10" x="418" y="196.6641"/>
        <rect fill="#FFFFFF" filter="url(#fsvssxwt68u2m)" height="55.7031" style="stroke: #A80036; stroke-width: 1.0;" width="10" x="418" y="257.3672"/>
        <rect fill="#FFFFFF" filter="url(#fsvssxwt68u2m)" height="37.3516" style="stroke: #A80036; stroke-width: 1.0;" width="10" x="418" y="343.4219"/>
        <rect fill="#FFFFFF" filter="url(#fsvssxwt68u2m)" height="30.3516" style="stroke: #A80036; stroke-width: 1.0;" width="10" x="418" y="411.125"/>
        <rect fill="#FFFFFF" filter="url(#fsvssxwt68u2m)" height="79.0547" style="stroke: #000000; stroke-width: 2.0;" width="456" x="13" y="272.7188"/>
        <line style="stroke: #A80036; stroke-width: 1.0; stroke-dasharray: 5.0,5.0;" x1="70" x2="70" y1="87.6094" y2="459.8281"/>
        <line style="stroke: #A80036; stroke-width: 1.0; stroke-dasharray: 5.0,5.0;" x1="423" x2="423" y1="87.6094" y2="459.8281"/>
        <text fill="#000000" font-family="sans-serif" font-size="14" lengthAdjust="spacingAndGlyphs" textLength="88" x="23" y="84.5332">Administrativo</text>
        <ellipse cx="70" cy="13" fill="#FEFECE" filter="url(#fsvssxwt68u2m)" rx="8" ry="8" style="stroke: #A80036; stroke-width: 2.0;"/>
        <path d="M70,21 L70,48 M57,29 L83,29 M70,48 L57,63 M70,48 L83,63 " fill="#FEFECE" filter="url(#fsvssxwt68u2m)" style="stroke: #A80036; stroke-width: 2.0;"/>
        <text fill="#000000" font-family="sans-serif" font-size="14" lengthAdjust="spacingAndGlyphs" textLength="88" x="23" y="473.3613">Administrativo</text>
        <ellipse cx="70" cy="486.4375" fill="#FEFECE" filter="url(#fsvssxwt68u2m)" rx="8" ry="8" style="stroke: #A80036; stroke-width: 2.0;"/>
        <path d="M70,494.4375 L70,521.4375 M57,502.4375 L83,502.4375 M70,521.4375 L57,536.4375 M70,521.4375 L83,536.4375 " fill="#FEFECE" filter="url(#fsvssxwt68u2m)" style="stroke: #A80036; stroke-width: 2.0;"/>
        <rect fill="#FEFECE" filter="url(#fsvssxwt68u2m)" height="31.6094" style="stroke: #A80036; stroke-width: 1.5;" width="68" x="387" y="51"/>
        <text fill="#000000" font-family="sans-serif" font-size="14" lengthAdjust="spacingAndGlyphs" textLength="54" x="394" y="72.5332">:Sistema</text>
        <rect fill="#FEFECE" filter="url(#fsvssxwt68u2m)" height="31.6094" style="stroke: #A80036; stroke-width: 1.5;" width="68" x="387" y="458.8281"/>
        <text fill="#000000" font-family="sans-serif" font-size="14" lengthAdjust="spacingAndGlyphs" textLength="54" x="394" y="480.3613">:Sistema</text>
        <rect fill="#FFFFFF" filter="url(#fsvssxwt68u2m)" height="343.8672" style="stroke: #A80036; stroke-width: 1.0;" width="10" x="65" y="97.6094"/>
        <rect fill="#FFFFFF" filter="url(#fsvssxwt68u2m)" height="46.3516" style="stroke: #A80036; stroke-width: 1.0;" width="10" x="418" y="119.6094"/>
        <rect fill="#FFFFFF" filter="url(#fsvssxwt68u2m)" height="30.3516" style="stroke: #A80036; stroke-width: 1.0;" width="10" x="418" y="196.6641"/>
        <rect fill="#FFFFFF" filter="url(#fsvssxwt68u2m)" height="55.7031" style="stroke: #A80036; stroke-width: 1.0;" width="10" x="418" y="257.3672"/>
        <rect fill="#FFFFFF" filter="url(#fsvssxwt68u2m)" height="37.3516" style="stroke: #A80036; stroke-width: 1.0;" width="10" x="418" y="343.4219"/>
        <rect fill="#FFFFFF" filter="url(#fsvssxwt68u2m)" height="30.3516" style="stroke: #A80036; stroke-width: 1.0;" width="10" x="418" y="411.125"/>
        <polygon fill="#A80036" points="406,115.6094,416,119.6094,406,123.6094,410,119.6094" style="stroke: #A80036; stroke-width: 1.0;"/>
        <line style="stroke: #A80036; stroke-width: 1.0;" x1="75" x2="412" y1="119.6094" y2="119.6094"/>
        <text fill="#000000" font-family="sans-serif" font-size="13" lengthAdjust="spacingAndGlyphs" textLength="125" x="82" y="115.1045">1. Especifica nova CT</text>
        <polygon fill="#A80036" points="86,161.9609,76,165.9609,86,169.9609,82,165.9609" style="stroke: #A80036; stroke-width: 1.0;"/>
        <line style="stroke: #A80036; stroke-width: 1.0; stroke-dasharray: 2.0,2.0;" x1="80" x2="422" y1="165.9609" y2="165.9609"/>
        <text fill="#000000" font-family="sans-serif" font-size="13" lengthAdjust="spacingAndGlyphs" textLength="319" x="92" y="145.4561">2. Solicita dados necessários (código, descrição breve,</text>
        <text fill="#000000" font-family="sans-serif" font-size="13" lengthAdjust="spacingAndGlyphs" textLength="120" x="96" y="161.8076">descrição detalhada)</text>
        <polygon fill="#A80036" points="406,192.6641,416,196.6641,406,200.6641,410,196.6641" style="stroke: #A80036; stroke-width: 1.0;"/>
        <line style="stroke: #A80036; stroke-width: 1.0;" x1="75" x2="412" y1="196.6641" y2="196.6641"/>
        <text fill="#000000" font-family="sans-serif" font-size="13" lengthAdjust="spacingAndGlyphs" textLength="166" x="82" y="192.1592">3. Introduz dados solicitados</text>
        <polygon fill="#A80036" points="86,223.0156,76,227.0156,86,231.0156,82,227.0156" style="stroke: #A80036; stroke-width: 1.0;"/>
        <line style="stroke: #A80036; stroke-width: 1.0; stroke-dasharray: 2.0,2.0;" x1="80" x2="422" y1="227.0156" y2="227.0156"/>
        <text fill="#000000" font-family="sans-serif" font-size="13" lengthAdjust="spacingAndGlyphs" textLength="278" x="92" y="222.5107">4. Apresenta as AA e pede para selecionar uma</text>
        <polygon fill="#A80036" points="406,253.3672,416,257.3672,406,261.3672,410,257.3672" style="stroke: #A80036; stroke-width: 1.0;"/>
        <line style="stroke: #A80036; stroke-width: 1.0;" x1="75" x2="412" y1="257.3672" y2="257.3672"/>
        <text fill="#000000" font-family="sans-serif" font-size="13" lengthAdjust="spacingAndGlyphs" textLength="158" x="82" y="252.8623">5. Seleciona AA pretendida</text>
        <rect fill="none" height="79.0547" style="stroke: #000000; stroke-width: 2.0;" width="456" x="13" y="272.7188"/>
        <polygon fill="#EEEEEE" points="13,272.7188,86,272.7188,86,280.7188,76,290.7188,13,290.7188,13,272.7188" style="stroke: #000000; stroke-width: 2.0;"/>
        <text fill="#000000" font-family="sans-serif" font-size="13" font-weight="bold" lengthAdjust="spacingAndGlyphs" textLength="28" x="28" y="287.2139">loop</text>
        <text fill="#000000" font-family="sans-serif" font-size="11" font-weight="bold" lengthAdjust="spacingAndGlyphs" textLength="190" x="101" y="286.1377">[até serem definidos todos os GP]</text>
        <polygon fill="#A80036" points="86,309.0703,76,313.0703,86,317.0703,82,313.0703" style="stroke: #A80036; stroke-width: 1.0;"/>
        <line style="stroke: #A80036; stroke-width: 1.0; stroke-dasharray: 2.0,2.0;" x1="80" x2="422" y1="313.0703" y2="313.0703"/>
        <text fill="#000000" font-family="sans-serif" font-size="13" lengthAdjust="spacingAndGlyphs" textLength="225" x="92" y="308.5654">6. Solicita o valor e designação do GP.</text>
        <polygon fill="#A80036" points="406,339.4219,416,343.4219,406,347.4219,410,343.4219" style="stroke: #A80036; stroke-width: 1.0;"/>
        <line style="stroke: #A80036; stroke-width: 1.0;" x1="75" x2="412" y1="343.4219" y2="343.4219"/>
        <text fill="#000000" font-family="sans-serif" font-size="13" lengthAdjust="spacingAndGlyphs" textLength="239" x="82" y="338.917">7. Introduz o valor e a designação do GP.</text>
        <polygon fill="#A80036" points="86,376.7734,76,380.7734,86,384.7734,82,380.7734" style="stroke: #A80036; stroke-width: 1.0;"/>
        <line style="stroke: #A80036; stroke-width: 1.0; stroke-dasharray: 2.0,2.0;" x1="80" x2="422" y1="380.7734" y2="380.7734"/>
        <text fill="#000000" font-family="sans-serif" font-size="13" lengthAdjust="spacingAndGlyphs" textLength="297" x="92" y="376.2686">8. Apresenta todos os dados e solicita confirmação</text>
        <polygon fill="#A80036" points="406,407.125,416,411.125,406,415.125,410,411.125" style="stroke: #A80036; stroke-width: 1.0;"/>
        <line style="stroke: #A80036; stroke-width: 1.0;" x1="75" x2="412" y1="411.125" y2="411.125"/>
        <text fill="#000000" font-family="sans-serif" font-size="13" lengthAdjust="spacingAndGlyphs" textLength="66" x="82" y="406.6201">9. Confirma</text>
        <polygon fill="#A80036" points="81,437.4766,71,441.4766,81,445.4766,77,441.4766" style="stroke: #A80036; stroke-width: 1.0;"/>
        <line style="stroke: #A80036; stroke-width: 1.0; stroke-dasharray: 2.0,2.0;" x1="75" x2="422" y1="441.4766" y2="441.4766"/>
        <text fill="#000000" font-family="sans-serif" font-size="13" lengthAdjust="spacingAndGlyphs" textLength="163" x="87" y="436.9717">10. Operação bem sucedida</text>
        <!--
@startuml
actor "Administrativo"

activate "Administrativo"
"Administrativo" -> ":Sistema": 1. Especifica nova CT
Activate ":Sistema"
":Sistema"- -> "Administrativo": 2. Solicita dados necessários (código, descrição breve,\n descrição detalhada)
deactivate ":Sistema"

"Administrativo" -> ":Sistema": 3. Introduz dados solicitados
Activate ":Sistema"
":Sistema"- -> "Administrativo": 4. Apresenta as AA e pede para selecionar uma
deactivate ":Sistema"

"Administrativo" -> ":Sistema": 5. Seleciona AA pretendida
Activate ":Sistema"
loop  até serem definidos todos os GP
":Sistema"- -> "Administrativo": 6. Solicita o valor e designação do GP.
deactivate ":Sistema"

"Administrativo" -> ":Sistema": 7. Introduz o valor e a designação do GP.
Activate ":Sistema"
end
":Sistema"- -> "Administrativo": 8. Apresenta todos os dados e solicita confirmação
deactivate ":Sistema"

"Administrativo" -> ":Sistema": 9. Confirma
Activate ":Sistema"
":Sistema"- -> "Administrativo": 10. Operação bem sucedida
deactivate ":Sistema"

deactivate "Administrativo"
@enduml

PlantUML version 2017.11(Wed Apr 19 17:18:59 BST 2017)
(GPL source distribution)
Java Runtime: Java(TM) SE Runtime Environment
JVM: Java HotSpot(TM) 64-Bit Server VM
Java Version: 1.8.0_111-b14
Operating System: Windows 10
OS Version: 10.0
Default Encoding: UTF-8
Language: pt
Country: PT
-->
    </g>
</svg>
