@startuml
title UC8_SD_isRegTAutomatico(regT)
participant "regA\n:RegistoAnuncios" as REGA
participant "anu\n:Anuncio" as ANU
participant "task:SeriaCandidaturasAnuncioTask" as ST
participant "t:Timer" as T

REGA -> REGA : isRegTAutomatico(regT)

activate REGA
deactivate REGA
OPT [ isRegTAutomatico(regT) == true ]


REGA -> ANU : agendaSeriacao()
activate REGA
activate ANU

deactivate REGA
ANU --> ST** : create(anuncio)
ANU -> ANU : periodo = getPeriodo(dtInS,dtFimS)
ANU --> T** : create()
ANU -> T : schedule(task,periodo)
activate T
deactivate T
deactivate ANU
end OPT


@enduml
