<?xml version="1.0" encoding="UTF-8"?><svg xmlns="http://www.w3.org/2000/svg" xmlns:xlink="http://www.w3.org/1999/xlink" contentScriptType="application/ecmascript" contentStyleType="text/css" height="1694px" preserveAspectRatio="none" style="width:2734px;height:1694px;" version="1.1" viewBox="0 0 2734 1694" width="2734px" zoomAndPan="magnify">
    <defs>
        <filter height="300%" id="ftlrpt3gwxn78" width="300%" x="-1" y="-1">
            <feGaussianBlur result="blurOut" stdDeviation="2.0"/>
            <feColorMatrix in="blurOut" result="blurOut2" type="matrix" values="0 0 0 0 0 0 0 0 0 0 0 0 0 0 0 0 0 0 .4 0"/>
            <feOffset dx="4.0" dy="4.0" in="blurOut2" result="blurOut3"/>
            <feBlend in="SourceGraphic" in2="blurOut3" mode="normal"/>
        </filter>
    </defs>
    <g>
        <rect fill="#FFFFFF" filter="url(#ftlrpt3gwxn78)" height="1504.3984" style="stroke: #A80036; stroke-width: 1.0;" width="10" x="42" y="96.4883"/>
        <rect fill="#FFFFFF" filter="url(#ftlrpt3gwxn78)" height="366.7949" style="stroke: #A80036; stroke-width: 1.0;" width="10" x="441" y="172.1094"/>
        <rect fill="#FFFFFF" filter="url(#ftlrpt3gwxn78)" height="251.5527" style="stroke: #A80036; stroke-width: 1.0;" width="10" x="441" y="568.2148"/>
        <rect fill="#FFFFFF" filter="url(#ftlrpt3gwxn78)" height="411.3926" style="stroke: #A80036; stroke-width: 1.0;" width="10" x="441" y="864.3887"/>
        <rect fill="#FFFFFF" filter="url(#ftlrpt3gwxn78)" height="286.4844" style="stroke: #A80036; stroke-width: 1.0;" width="10" x="441" y="1305.0918"/>
        <rect fill="#FFFFFF" filter="url(#ftlrpt3gwxn78)" height="262.5527" style="stroke: #A80036; stroke-width: 1.0;" width="10" x="841" y="201.4199"/>
        <rect fill="#FFFFFF" filter="url(#ftlrpt3gwxn78)" height="177.9316" style="stroke: #A80036; stroke-width: 1.0;" width="10" x="841" y="597.5254"/>
        <rect fill="#FFFFFF" filter="url(#ftlrpt3gwxn78)" height="352.4609" style="stroke: #A80036; stroke-width: 1.0;" width="10" x="841" y="894.0098"/>
        <rect fill="#FFFFFF" filter="url(#ftlrpt3gwxn78)" height="257.1738" style="stroke: #A80036; stroke-width: 1.0;" width="10" x="841" y="1334.4023"/>
        <rect fill="#FFFFFF" filter="url(#ftlrpt3gwxn78)" height="30" style="stroke: #A80036; stroke-width: 1.0;" width="10" x="1076" y="230.7305"/>
        <rect fill="#FFFFFF" filter="url(#ftlrpt3gwxn78)" height="30" style="stroke: #A80036; stroke-width: 1.0;" width="10" x="1076" y="374.6621"/>
        <rect fill="#FFFFFF" filter="url(#ftlrpt3gwxn78)" height="30" style="stroke: #A80036; stroke-width: 1.0;" width="10" x="1204.5" y="302.6963"/>
        <rect fill="#FFFFFF" filter="url(#ftlrpt3gwxn78)" height="30" style="stroke: #A80036; stroke-width: 1.0;" width="10" x="1351.5" y="433.9727"/>
        <rect fill="#FFFFFF" filter="url(#ftlrpt3gwxn78)" height="30" style="stroke: #A80036; stroke-width: 1.0;" width="10" x="1351.5" y="626.8359"/>
        <rect fill="#FFFFFF" filter="url(#ftlrpt3gwxn78)" height="30" style="stroke: #A80036; stroke-width: 1.0;" width="10" x="1623.5" y="686.1465"/>
        <rect fill="#FFFFFF" filter="url(#ftlrpt3gwxn78)" height="323.1504" style="stroke: #A80036; stroke-width: 1.0;" width="10" x="1623.5" y="923.3203"/>
        <rect fill="#FFFFFF" filter="url(#ftlrpt3gwxn78)" height="28" style="stroke: #A80036; stroke-width: 1.0;" width="10" x="1628.5" y="1002.9414"/>
        <rect fill="#FFFFFF" filter="url(#ftlrpt3gwxn78)" height="113.9316" style="stroke: #A80036; stroke-width: 1.0;" width="10" x="1623.5" y="1363.7129"/>
        <rect fill="#FFFFFF" filter="url(#ftlrpt3gwxn78)" height="30" style="stroke: #A80036; stroke-width: 1.0;" width="10" x="2131.5" y="745.457"/>
        <rect fill="#FFFFFF" filter="url(#ftlrpt3gwxn78)" height="133.5977" style="stroke: #A80036; stroke-width: 1.0;" width="10" x="2131.5" y="1112.873"/>
        <rect fill="#FFFFFF" filter="url(#ftlrpt3gwxn78)" height="113.9316" style="stroke: #A80036; stroke-width: 1.0;" width="10" x="2131.5" y="1477.6445"/>
        <rect fill="#FEFECE" filter="url(#ftlrpt3gwxn78)" height="46.9766" style="stroke: #A80036; stroke-width: 1.5;" width="99" x="2626.5" y="1163.4941"/>
        <text fill="#000000" font-family="sans-serif" font-size="14" lengthAdjust="spacingAndGlyphs" textLength="37" x="2657.5" y="1184.0293">cand:</text>
        <text fill="#000000" font-family="sans-serif" font-size="14" lengthAdjust="spacingAndGlyphs" textLength="85" x="2633.5" y="1200.5176">Candidatura</text>
        <line style="stroke: #A80036; stroke-width: 1.0; stroke-dasharray: 5.0,5.0;" x1="47" x2="47" y1="86.4883" y2="1609.8867"/>
        <line style="stroke: #A80036; stroke-width: 1.0; stroke-dasharray: 5.0,5.0;" x1="445.5" x2="445.5" y1="86.4883" y2="1609.8867"/>
        <line style="stroke: #A80036; stroke-width: 1.0; stroke-dasharray: 5.0,5.0;" x1="845.5" x2="845.5" y1="86.4883" y2="1609.8867"/>
        <line style="stroke: #A80036; stroke-width: 1.0; stroke-dasharray: 5.0,5.0;" x1="1081" x2="1081" y1="86.4883" y2="1609.8867"/>
        <line style="stroke: #A80036; stroke-width: 1.0; stroke-dasharray: 5.0,5.0;" x1="1209" x2="1209" y1="86.4883" y2="1609.8867"/>
        <line style="stroke: #A80036; stroke-width: 1.0; stroke-dasharray: 5.0,5.0;" x1="1356" x2="1356" y1="86.4883" y2="1609.8867"/>
        <line style="stroke: #A80036; stroke-width: 1.0; stroke-dasharray: 5.0,5.0;" x1="1515" x2="1515" y1="86.4883" y2="1609.8867"/>
        <line style="stroke: #A80036; stroke-width: 1.0; stroke-dasharray: 5.0,5.0;" x1="1628" x2="1628" y1="86.4883" y2="1609.8867"/>
        <line style="stroke: #A80036; stroke-width: 1.0; stroke-dasharray: 5.0,5.0;" x1="1829.5" x2="1829.5" y1="86.4883" y2="1609.8867"/>
        <line style="stroke: #A80036; stroke-width: 1.0; stroke-dasharray: 5.0,5.0;" x1="2136" x2="2136" y1="86.4883" y2="1609.8867"/>
        <line style="stroke: #A80036; stroke-width: 1.0; stroke-dasharray: 5.0,5.0;" x1="2677.5" x2="2677.5" y1="1204.4824" y2="1609.8867"/>
        <text fill="#000000" font-family="sans-serif" font-size="14" lengthAdjust="spacingAndGlyphs" textLength="72" x="8" y="83.5352">Freelancer</text>
        <ellipse cx="47" cy="13" fill="#FEFECE" filter="url(#ftlrpt3gwxn78)" rx="8" ry="8" style="stroke: #A80036; stroke-width: 2.0;"/>
        <path d="M47,21 L47,48 M34,29 L60,29 M47,48 L34,63 M47,48 L60,63 " fill="#FEFECE" filter="url(#ftlrpt3gwxn78)" style="stroke: #A80036; stroke-width: 2.0;"/>
        <text fill="#000000" font-family="sans-serif" font-size="14" lengthAdjust="spacingAndGlyphs" textLength="72" x="8" y="1622.4219">Freelancer</text>
        <ellipse cx="47" cy="1635.375" fill="#FEFECE" filter="url(#ftlrpt3gwxn78)" rx="8" ry="8" style="stroke: #A80036; stroke-width: 2.0;"/>
        <path d="M47,1643.375 L47,1670.375 M34,1651.375 L60,1651.375 M47,1670.375 L34,1685.375 M47,1670.375 L60,1685.375 " fill="#FEFECE" filter="url(#ftlrpt3gwxn78)" style="stroke: #A80036; stroke-width: 2.0;"/>
        <rect fill="#FEFECE" filter="url(#ftlrpt3gwxn78)" height="30.4883" style="stroke: #A80036; stroke-width: 1.5;" width="173" x="357.5" y="51"/>
        <text fill="#000000" font-family="sans-serif" font-size="14" lengthAdjust="spacingAndGlyphs" textLength="159" x="364.5" y="71.5352">:EfectuarCandidaturaUI</text>
        <rect fill="#FEFECE" filter="url(#ftlrpt3gwxn78)" height="30.4883" style="stroke: #A80036; stroke-width: 1.5;" width="173" x="357.5" y="1608.8867"/>
        <text fill="#000000" font-family="sans-serif" font-size="14" lengthAdjust="spacingAndGlyphs" textLength="159" x="364.5" y="1629.4219">:EfectuarCandidaturaUI</text>
        <rect fill="#FEFECE" filter="url(#ftlrpt3gwxn78)" height="30.4883" style="stroke: #A80036; stroke-width: 1.5;" width="229" x="729.5" y="51"/>
        <text fill="#000000" font-family="sans-serif" font-size="14" lengthAdjust="spacingAndGlyphs" textLength="215" x="736.5" y="71.5352">:EfectuarCandidaturaController</text>
        <rect fill="#FEFECE" filter="url(#ftlrpt3gwxn78)" height="30.4883" style="stroke: #A80036; stroke-width: 1.5;" width="229" x="729.5" y="1608.8867"/>
        <text fill="#000000" font-family="sans-serif" font-size="14" lengthAdjust="spacingAndGlyphs" textLength="215" x="736.5" y="1629.4219">:EfectuarCandidaturaController</text>
        <rect fill="#FEFECE" filter="url(#ftlrpt3gwxn78)" height="30.4883" style="stroke: #A80036; stroke-width: 1.5;" width="92" x="1033" y="51"/>
        <text fill="#000000" font-family="sans-serif" font-size="14" lengthAdjust="spacingAndGlyphs" textLength="78" x="1040" y="71.5352">:Plataforma</text>
        <rect fill="#FEFECE" filter="url(#ftlrpt3gwxn78)" height="30.4883" style="stroke: #A80036; stroke-width: 1.5;" width="92" x="1033" y="1608.8867"/>
        <text fill="#000000" font-family="sans-serif" font-size="14" lengthAdjust="spacingAndGlyphs" textLength="78" x="1040" y="1629.4219">:Plataforma</text>
        <rect fill="#FEFECE" filter="url(#ftlrpt3gwxn78)" height="46.9766" style="stroke: #A80036; stroke-width: 1.5;" width="137" x="1139" y="34.5117"/>
        <text fill="#000000" font-family="sans-serif" font-size="14" lengthAdjust="spacingAndGlyphs" textLength="37" x="1189" y="55.0469">rfree:</text>
        <text fill="#000000" font-family="sans-serif" font-size="14" lengthAdjust="spacingAndGlyphs" textLength="123" x="1146" y="71.5352">RegistoFreelancer</text>
        <rect fill="#FEFECE" filter="url(#ftlrpt3gwxn78)" height="46.9766" style="stroke: #A80036; stroke-width: 1.5;" width="137" x="1139" y="1608.8867"/>
        <text fill="#000000" font-family="sans-serif" font-size="14" lengthAdjust="spacingAndGlyphs" textLength="37" x="1189" y="1629.4219">rfree:</text>
        <text fill="#000000" font-family="sans-serif" font-size="14" lengthAdjust="spacingAndGlyphs" textLength="123" x="1146" y="1645.9102">RegistoFreelancer</text>
        <rect fill="#FEFECE" filter="url(#ftlrpt3gwxn78)" height="46.9766" style="stroke: #A80036; stroke-width: 1.5;" width="129" x="1290" y="34.5117"/>
        <text fill="#000000" font-family="sans-serif" font-size="14" lengthAdjust="spacingAndGlyphs" textLength="36" x="1336.5" y="55.0469">ranu:</text>
        <text fill="#000000" font-family="sans-serif" font-size="14" lengthAdjust="spacingAndGlyphs" textLength="115" x="1297" y="71.5352">RegistoAnuncios</text>
        <rect fill="#FEFECE" filter="url(#ftlrpt3gwxn78)" height="46.9766" style="stroke: #A80036; stroke-width: 1.5;" width="129" x="1290" y="1608.8867"/>
        <text fill="#000000" font-family="sans-serif" font-size="14" lengthAdjust="spacingAndGlyphs" textLength="36" x="1336.5" y="1629.4219">ranu:</text>
        <text fill="#000000" font-family="sans-serif" font-size="14" lengthAdjust="spacingAndGlyphs" textLength="115" x="1297" y="1645.9102">RegistoAnuncios</text>
        <rect fill="#FEFECE" filter="url(#ftlrpt3gwxn78)" height="46.9766" style="stroke: #A80036; stroke-width: 1.5;" width="127" x="1450" y="34.5117"/>
        <text fill="#000000" font-family="sans-serif" font-size="14" lengthAdjust="spacingAndGlyphs" textLength="60" x="1483.5" y="55.0469">listaAnu:</text>
        <text fill="#000000" font-family="sans-serif" font-size="14" lengthAdjust="spacingAndGlyphs" textLength="109" x="1461" y="71.5352">List&lt;Anuncios&gt;</text>
        <rect fill="#FEFECE" filter="url(#ftlrpt3gwxn78)" height="46.9766" style="stroke: #A80036; stroke-width: 1.5;" width="127" x="1450" y="1608.8867"/>
        <text fill="#000000" font-family="sans-serif" font-size="14" lengthAdjust="spacingAndGlyphs" textLength="60" x="1483.5" y="1629.4219">listaAnu:</text>
        <text fill="#000000" font-family="sans-serif" font-size="14" lengthAdjust="spacingAndGlyphs" textLength="109" x="1461" y="1645.9102">List&lt;Anuncios&gt;</text>
        <rect fill="#FEFECE" filter="url(#ftlrpt3gwxn78)" height="46.9766" style="stroke: #A80036; stroke-width: 1.5;" width="71" x="1591" y="34.5117"/>
        <text fill="#000000" font-family="sans-serif" font-size="14" lengthAdjust="spacingAndGlyphs" textLength="30" x="1611.5" y="55.0469">anu:</text>
        <text fill="#000000" font-family="sans-serif" font-size="14" lengthAdjust="spacingAndGlyphs" textLength="57" x="1598" y="71.5352">Anuncio</text>
        <rect fill="#FEFECE" filter="url(#ftlrpt3gwxn78)" height="46.9766" style="stroke: #A80036; stroke-width: 1.5;" width="71" x="1591" y="1608.8867"/>
        <text fill="#000000" font-family="sans-serif" font-size="14" lengthAdjust="spacingAndGlyphs" textLength="30" x="1611.5" y="1629.4219">anu:</text>
        <text fill="#000000" font-family="sans-serif" font-size="14" lengthAdjust="spacingAndGlyphs" textLength="57" x="1598" y="1645.9102">Anuncio</text>
        <rect fill="#FEFECE" filter="url(#ftlrpt3gwxn78)" height="46.9766" style="stroke: #A80036; stroke-width: 1.5;" width="86" x="1784.5" y="34.5117"/>
        <text fill="#000000" font-family="sans-serif" font-size="14" lengthAdjust="spacingAndGlyphs" textLength="35" x="1810" y="55.0469">freel:</text>
        <text fill="#000000" font-family="sans-serif" font-size="14" lengthAdjust="spacingAndGlyphs" textLength="72" x="1791.5" y="71.5352">Freelancer</text>
        <rect fill="#FEFECE" filter="url(#ftlrpt3gwxn78)" height="46.9766" style="stroke: #A80036; stroke-width: 1.5;" width="86" x="1784.5" y="1608.8867"/>
        <text fill="#000000" font-family="sans-serif" font-size="14" lengthAdjust="spacingAndGlyphs" textLength="35" x="1810" y="1629.4219">freel:</text>
        <text fill="#000000" font-family="sans-serif" font-size="14" lengthAdjust="spacingAndGlyphs" textLength="72" x="1791.5" y="1645.9102">Freelancer</text>
        <rect fill="#FEFECE" filter="url(#ftlrpt3gwxn78)" height="30.4883" style="stroke: #A80036; stroke-width: 1.5;" width="141" x="2064" y="51"/>
        <text fill="#000000" font-family="sans-serif" font-size="14" lengthAdjust="spacingAndGlyphs" textLength="127" x="2071" y="71.5352">:ListaCandidaturas</text>
        <rect fill="#FEFECE" filter="url(#ftlrpt3gwxn78)" height="30.4883" style="stroke: #A80036; stroke-width: 1.5;" width="141" x="2064" y="1608.8867"/>
        <text fill="#000000" font-family="sans-serif" font-size="14" lengthAdjust="spacingAndGlyphs" textLength="127" x="2071" y="1629.4219">:ListaCandidaturas</text>
        <rect fill="#FEFECE" filter="url(#ftlrpt3gwxn78)" height="46.9766" style="stroke: #A80036; stroke-width: 1.5;" width="99" x="2626.5" y="1608.8867"/>
        <text fill="#000000" font-family="sans-serif" font-size="14" lengthAdjust="spacingAndGlyphs" textLength="37" x="2657.5" y="1629.4219">cand:</text>
        <text fill="#000000" font-family="sans-serif" font-size="14" lengthAdjust="spacingAndGlyphs" textLength="85" x="2633.5" y="1645.9102">Candidatura</text>
        <rect fill="#FFFFFF" filter="url(#ftlrpt3gwxn78)" height="1504.3984" style="stroke: #A80036; stroke-width: 1.0;" width="10" x="42" y="96.4883"/>
        <rect fill="#FFFFFF" filter="url(#ftlrpt3gwxn78)" height="366.7949" style="stroke: #A80036; stroke-width: 1.0;" width="10" x="441" y="172.1094"/>
        <rect fill="#FFFFFF" filter="url(#ftlrpt3gwxn78)" height="251.5527" style="stroke: #A80036; stroke-width: 1.0;" width="10" x="441" y="568.2148"/>
        <rect fill="#FFFFFF" filter="url(#ftlrpt3gwxn78)" height="411.3926" style="stroke: #A80036; stroke-width: 1.0;" width="10" x="441" y="864.3887"/>
        <rect fill="#FFFFFF" filter="url(#ftlrpt3gwxn78)" height="286.4844" style="stroke: #A80036; stroke-width: 1.0;" width="10" x="441" y="1305.0918"/>
        <rect fill="#FFFFFF" filter="url(#ftlrpt3gwxn78)" height="262.5527" style="stroke: #A80036; stroke-width: 1.0;" width="10" x="841" y="201.4199"/>
        <rect fill="#FFFFFF" filter="url(#ftlrpt3gwxn78)" height="177.9316" style="stroke: #A80036; stroke-width: 1.0;" width="10" x="841" y="597.5254"/>
        <rect fill="#FFFFFF" filter="url(#ftlrpt3gwxn78)" height="352.4609" style="stroke: #A80036; stroke-width: 1.0;" width="10" x="841" y="894.0098"/>
        <rect fill="#FFFFFF" filter="url(#ftlrpt3gwxn78)" height="257.1738" style="stroke: #A80036; stroke-width: 1.0;" width="10" x="841" y="1334.4023"/>
        <rect fill="#FFFFFF" filter="url(#ftlrpt3gwxn78)" height="30" style="stroke: #A80036; stroke-width: 1.0;" width="10" x="1076" y="230.7305"/>
        <rect fill="#FFFFFF" filter="url(#ftlrpt3gwxn78)" height="30" style="stroke: #A80036; stroke-width: 1.0;" width="10" x="1076" y="374.6621"/>
        <rect fill="#FFFFFF" filter="url(#ftlrpt3gwxn78)" height="30" style="stroke: #A80036; stroke-width: 1.0;" width="10" x="1204.5" y="302.6963"/>
        <rect fill="#FFFFFF" filter="url(#ftlrpt3gwxn78)" height="30" style="stroke: #A80036; stroke-width: 1.0;" width="10" x="1351.5" y="433.9727"/>
        <rect fill="#FFFFFF" filter="url(#ftlrpt3gwxn78)" height="30" style="stroke: #A80036; stroke-width: 1.0;" width="10" x="1351.5" y="626.8359"/>
        <rect fill="#FFFFFF" filter="url(#ftlrpt3gwxn78)" height="30" style="stroke: #A80036; stroke-width: 1.0;" width="10" x="1623.5" y="686.1465"/>
        <rect fill="#FFFFFF" filter="url(#ftlrpt3gwxn78)" height="323.1504" style="stroke: #A80036; stroke-width: 1.0;" width="10" x="1623.5" y="923.3203"/>
        <rect fill="#FFFFFF" filter="url(#ftlrpt3gwxn78)" height="28" style="stroke: #A80036; stroke-width: 1.0;" width="10" x="1628.5" y="1002.9414"/>
        <rect fill="#FFFFFF" filter="url(#ftlrpt3gwxn78)" height="113.9316" style="stroke: #A80036; stroke-width: 1.0;" width="10" x="1623.5" y="1363.7129"/>
        <rect fill="#FFFFFF" filter="url(#ftlrpt3gwxn78)" height="30" style="stroke: #A80036; stroke-width: 1.0;" width="10" x="2131.5" y="745.457"/>
        <rect fill="#FFFFFF" filter="url(#ftlrpt3gwxn78)" height="133.5977" style="stroke: #A80036; stroke-width: 1.0;" width="10" x="2131.5" y="1112.873"/>
        <rect fill="#FFFFFF" filter="url(#ftlrpt3gwxn78)" height="113.9316" style="stroke: #A80036; stroke-width: 1.0;" width="10" x="2131.5" y="1477.6445"/>
        <polygon fill="#FBFB77" filter="url(#ftlrpt3gwxn78)" points="2141,101.4883,2141,141.4883,2363,141.4883,2363,111.4883,2353,101.4883,2141,101.4883" style="stroke: #A80036; stroke-width: 1.0;"/>
        <line style="stroke: #A80036; stroke-width: 1.0;" x1="2353" x2="2353" y1="101.4883" y2="111.4883"/>
        <line style="stroke: #A80036; stroke-width: 1.0;" x1="2363" x2="2353" y1="111.4883" y2="111.4883"/>
        <text fill="#000000" font-family="sans-serif" font-size="13" lengthAdjust="spacingAndGlyphs" textLength="201" x="2147" y="119.0566">este objeto pertence ao anúncio</text>
        <text fill="#000000" font-family="sans-serif" font-size="13" lengthAdjust="spacingAndGlyphs" textLength="186" x="2147" y="134.3672">indicado como "anu:Anuncio"</text>
        <polygon fill="#A80036" points="429,168.1094,439,172.1094,429,176.1094,433,172.1094" style="stroke: #A80036; stroke-width: 1.0;"/>
        <line style="stroke: #A80036; stroke-width: 1.0;" x1="52" x2="435" y1="172.1094" y2="172.1094"/>
        <text fill="#000000" font-family="sans-serif" font-size="13" font-weight="bold" lengthAdjust="spacingAndGlyphs" textLength="9" x="59" y="167.6777">1</text>
        <text fill="#000000" font-family="sans-serif" font-size="13" lengthAdjust="spacingAndGlyphs" textLength="167" x="72" y="167.6777">inicia efectuar candidatura</text>
        <polygon fill="#A80036" points="829,197.4199,839,201.4199,829,205.4199,833,201.4199" style="stroke: #A80036; stroke-width: 1.0;"/>
        <line style="stroke: #A80036; stroke-width: 1.0;" x1="451" x2="835" y1="201.4199" y2="201.4199"/>
        <text fill="#000000" font-family="sans-serif" font-size="13" font-weight="bold" lengthAdjust="spacingAndGlyphs" textLength="9" x="458" y="196.9883">2</text>
        <text fill="#000000" font-family="sans-serif" font-size="13" lengthAdjust="spacingAndGlyphs" textLength="294" x="471" y="196.9883">listaAnu = getAnunciosElegiveisDoFreelancer()</text>
        <polygon fill="#A80036" points="1064,226.7305,1074,230.7305,1064,234.7305,1068,230.7305" style="stroke: #A80036; stroke-width: 1.0;"/>
        <line style="stroke: #A80036; stroke-width: 1.0;" x1="851" x2="1070" y1="230.7305" y2="230.7305"/>
        <text fill="#000000" font-family="sans-serif" font-size="13" font-weight="bold" lengthAdjust="spacingAndGlyphs" textLength="9" x="858" y="226.2988">3</text>
        <text fill="#000000" font-family="sans-serif" font-size="13" lengthAdjust="spacingAndGlyphs" textLength="193" x="871" y="226.2988">rfree = getRegistoFreelancers()</text>
        <polygon fill="#A80036" points="1192.5,298.6963,1202.5,302.6963,1192.5,306.6963,1196.5,302.6963" style="stroke: #A80036; stroke-width: 1.0;"/>
        <line style="stroke: #A80036; stroke-width: 1.0;" x1="851" x2="1198.5" y1="302.6963" y2="302.6963"/>
        <text fill="#000000" font-family="sans-serif" font-size="13" font-weight="bold" lengthAdjust="spacingAndGlyphs" textLength="9" x="858" y="298.2646">4</text>
        <text fill="#000000" font-family="sans-serif" font-size="13" lengthAdjust="spacingAndGlyphs" textLength="212" x="871" y="298.2646">freel=getFreelancerByEmail(email)</text>
        <polygon fill="#FBFB77" filter="url(#ftlrpt3gwxn78)" points="1219,274.041,1219,314.041,1596,314.041,1596,284.041,1586,274.041,1219,274.041" style="stroke: #A80036; stroke-width: 1.0;"/>
        <line style="stroke: #A80036; stroke-width: 1.0;" x1="1586" x2="1586" y1="274.041" y2="284.041"/>
        <line style="stroke: #A80036; stroke-width: 1.0;" x1="1596" x2="1586" y1="284.041" y2="284.041"/>
        <text fill="#000000" font-family="sans-serif" font-size="13" lengthAdjust="spacingAndGlyphs" textLength="227" x="1225" y="291.6094">O email foi obtido através do objeto</text>
        <text fill="#000000" font-family="sans-serif" font-size="13" lengthAdjust="spacingAndGlyphs" textLength="356" x="1225" y="306.9199">SessaoUtilizador como demonstrado noutros diagramas.</text>
        <polygon fill="#A80036" points="1064,370.6621,1074,374.6621,1064,378.6621,1068,374.6621" style="stroke: #A80036; stroke-width: 1.0;"/>
        <line style="stroke: #A80036; stroke-width: 1.0;" x1="851" x2="1070" y1="374.6621" y2="374.6621"/>
        <text fill="#000000" font-family="sans-serif" font-size="13" font-weight="bold" lengthAdjust="spacingAndGlyphs" textLength="9" x="858" y="370.2305">5</text>
        <text fill="#000000" font-family="sans-serif" font-size="13" lengthAdjust="spacingAndGlyphs" textLength="180" x="871" y="370.2305">ranu = getRegistoAnuncios()</text>
        <polygon fill="#A80036" points="1339.5,429.9727,1349.5,433.9727,1339.5,437.9727,1343.5,433.9727" style="stroke: #A80036; stroke-width: 1.0;"/>
        <line style="stroke: #A80036; stroke-width: 1.0;" x1="851" x2="1345.5" y1="433.9727" y2="433.9727"/>
        <text fill="#000000" font-family="sans-serif" font-size="13" font-weight="bold" lengthAdjust="spacingAndGlyphs" textLength="9" x="858" y="429.541">6</text>
        <text fill="#000000" font-family="sans-serif" font-size="13" lengthAdjust="spacingAndGlyphs" textLength="314" x="871" y="429.541">listaAnu=getAnunciosElegiveisDoFreelancer(freel)</text>
        <rect fill="#FFFFFF" filter="url(#ftlrpt3gwxn78)" height="40.6211" style="stroke: #000000; stroke-width: 2.0;" width="284" x="1287" y="472.2832"/>
        <polygon fill="#EEEEEE" points="1287,472.2832,1351,472.2832,1351,479.2832,1341,489.2832,1287,489.2832,1287,472.2832" style="stroke: #000000; stroke-width: 2.0;"/>
        <text fill="#000000" font-family="sans-serif" font-size="13" font-weight="bold" lengthAdjust="spacingAndGlyphs" textLength="19" x="1300" y="486.8516">ref</text>
        <text fill="#000000" font-family="sans-serif" font-size="13" lengthAdjust="spacingAndGlyphs" textLength="276" x="1293" y="505.8516">SD_getAnunciosElegiveisDoFreelancer(freel)</text>
        <polygon fill="#A80036" points="63,534.9043,53,538.9043,63,542.9043,59,538.9043" style="stroke: #A80036; stroke-width: 1.0;"/>
        <line style="stroke: #A80036; stroke-width: 1.0; stroke-dasharray: 2.0,2.0;" x1="57" x2="445" y1="538.9043" y2="538.9043"/>
        <text fill="#000000" font-family="sans-serif" font-size="13" font-weight="bold" lengthAdjust="spacingAndGlyphs" textLength="9" x="69" y="534.4727">7</text>
        <text fill="#000000" font-family="sans-serif" font-size="13" lengthAdjust="spacingAndGlyphs" textLength="314" x="82" y="534.4727">seleccionar anuncio da lista de anuncios elegiveis</text>
        <polygon fill="#A80036" points="429,564.2148,439,568.2148,429,572.2148,433,568.2148" style="stroke: #A80036; stroke-width: 1.0;"/>
        <line style="stroke: #A80036; stroke-width: 1.0;" x1="52" x2="435" y1="568.2148" y2="568.2148"/>
        <text fill="#000000" font-family="sans-serif" font-size="13" font-weight="bold" lengthAdjust="spacingAndGlyphs" textLength="9" x="59" y="563.7832">8</text>
        <text fill="#000000" font-family="sans-serif" font-size="13" lengthAdjust="spacingAndGlyphs" textLength="234" x="72" y="563.7832">iniciar candidatura a anuncio elegivel</text>
        <polygon fill="#A80036" points="829,593.5254,839,597.5254,829,601.5254,833,597.5254" style="stroke: #A80036; stroke-width: 1.0;"/>
        <line style="stroke: #A80036; stroke-width: 1.0;" x1="451" x2="835" y1="597.5254" y2="597.5254"/>
        <text fill="#000000" font-family="sans-serif" font-size="13" font-weight="bold" lengthAdjust="spacingAndGlyphs" textLength="9" x="458" y="593.0938">9</text>
        <text fill="#000000" font-family="sans-serif" font-size="13" lengthAdjust="spacingAndGlyphs" textLength="307" x="471" y="593.0938">vCR = verificarSeCandidaturaRepetida(anuncioId)</text>
        <polygon fill="#A80036" points="1339.5,622.8359,1349.5,626.8359,1339.5,630.8359,1343.5,626.8359" style="stroke: #A80036; stroke-width: 1.0;"/>
        <line style="stroke: #A80036; stroke-width: 1.0;" x1="851" x2="1345.5" y1="626.8359" y2="626.8359"/>
        <text fill="#000000" font-family="sans-serif" font-size="13" font-weight="bold" lengthAdjust="spacingAndGlyphs" textLength="18" x="858" y="622.4043">10</text>
        <text fill="#000000" font-family="sans-serif" font-size="13" lengthAdjust="spacingAndGlyphs" textLength="209" x="880" y="622.4043">anu = getAnuncioById(anuncioId)</text>
        <polygon fill="#A80036" points="1611.5,682.1465,1621.5,686.1465,1611.5,690.1465,1615.5,686.1465" style="stroke: #A80036; stroke-width: 1.0;"/>
        <line style="stroke: #A80036; stroke-width: 1.0;" x1="851" x2="1617.5" y1="686.1465" y2="686.1465"/>
        <text fill="#000000" font-family="sans-serif" font-size="13" font-weight="bold" lengthAdjust="spacingAndGlyphs" textLength="18" x="858" y="681.7148">11</text>
        <text fill="#000000" font-family="sans-serif" font-size="13" lengthAdjust="spacingAndGlyphs" textLength="166" x="880" y="681.7148">lC : getListaCandidaturas()</text>
        <polygon fill="#A80036" points="2119.5,741.457,2129.5,745.457,2119.5,749.457,2123.5,745.457" style="stroke: #A80036; stroke-width: 1.0;"/>
        <line style="stroke: #A80036; stroke-width: 1.0;" x1="851" x2="2125.5" y1="745.457" y2="745.457"/>
        <text fill="#000000" font-family="sans-serif" font-size="13" font-weight="bold" lengthAdjust="spacingAndGlyphs" textLength="18" x="858" y="741.0254">12</text>
        <text fill="#000000" font-family="sans-serif" font-size="13" lengthAdjust="spacingAndGlyphs" textLength="246" x="880" y="741.0254">eCR = existeCandidaturaRepetida(freel)</text>
        <polygon fill="#A80036" points="63,815.7676,53,819.7676,63,823.7676,59,819.7676" style="stroke: #A80036; stroke-width: 1.0;"/>
        <line style="stroke: #A80036; stroke-width: 1.0; stroke-dasharray: 2.0,2.0;" x1="57" x2="445" y1="819.7676" y2="819.7676"/>
        <text fill="#000000" font-family="sans-serif" font-size="13" font-weight="bold" lengthAdjust="spacingAndGlyphs" textLength="18" x="69" y="807.9912">13</text>
        <text fill="#000000" font-family="sans-serif" font-size="13" lengthAdjust="spacingAndGlyphs" textLength="185" x="91" y="800.3359">solicita dados da candidatura</text>
        <text fill="#000000" font-family="sans-serif" font-size="13" lengthAdjust="spacingAndGlyphs" textLength="294" x="91" y="815.6465">(valorPrt,nrDias,txtApresentacao,txtMotivacao)</text>
        <polygon fill="#A80036" points="429,860.3887,439,864.3887,429,868.3887,433,864.3887" style="stroke: #A80036; stroke-width: 1.0;"/>
        <line style="stroke: #A80036; stroke-width: 1.0;" x1="52" x2="435" y1="864.3887" y2="864.3887"/>
        <text fill="#000000" font-family="sans-serif" font-size="13" font-weight="bold" lengthAdjust="spacingAndGlyphs" textLength="18" x="59" y="852.6123">14</text>
        <text fill="#000000" font-family="sans-serif" font-size="13" lengthAdjust="spacingAndGlyphs" textLength="187" x="81" y="844.957">introduz os dados solicitados</text>
        <text fill="#000000" font-family="sans-serif" font-size="13" lengthAdjust="spacingAndGlyphs" textLength="216" x="81" y="860.2676">(valorPrt,nrDias,txtApres,txtMotiv)</text>
        <polygon fill="#A80036" points="829,890.0098,839,894.0098,829,898.0098,833,894.0098" style="stroke: #A80036; stroke-width: 1.0;"/>
        <line style="stroke: #A80036; stroke-width: 1.0;" x1="451" x2="835" y1="894.0098" y2="894.0098"/>
        <text fill="#000000" font-family="sans-serif" font-size="13" font-weight="bold" lengthAdjust="spacingAndGlyphs" textLength="18" x="458" y="889.5781">15</text>
        <text fill="#000000" font-family="sans-serif" font-size="13" lengthAdjust="spacingAndGlyphs" textLength="349" x="480" y="889.5781">novaCandidatura(anu,valorPrt,nrDias,txtApres,txtMotiv)</text>
        <polygon fill="#A80036" points="1611.5,919.3203,1621.5,923.3203,1611.5,927.3203,1615.5,923.3203" style="stroke: #A80036; stroke-width: 1.0;"/>
        <line style="stroke: #A80036; stroke-width: 1.0;" x1="851" x2="1617.5" y1="923.3203" y2="923.3203"/>
        <text fill="#000000" font-family="sans-serif" font-size="13" font-weight="bold" lengthAdjust="spacingAndGlyphs" textLength="18" x="858" y="918.8887">16</text>
        <text fill="#000000" font-family="sans-serif" font-size="13" lengthAdjust="spacingAndGlyphs" textLength="457" x="880" y="918.8887">cand=novaCandidatura(freel,dataCand,valorPrt,nrDias,txtApres,txtMotiv)</text>
        <line style="stroke: #A80036; stroke-width: 1.0;" x1="1633.5" x2="1675.5" y1="952.9414" y2="952.9414"/>
        <line style="stroke: #A80036; stroke-width: 1.0;" x1="1675.5" x2="1675.5" y1="952.9414" y2="965.9414"/>
        <line style="stroke: #A80036; stroke-width: 1.0;" x1="1634.5" x2="1675.5" y1="965.9414" y2="965.9414"/>
        <polygon fill="#A80036" points="1644.5,961.9414,1634.5,965.9414,1644.5,969.9414,1640.5,965.9414" style="stroke: #A80036; stroke-width: 1.0;"/>
        <text fill="#000000" font-family="sans-serif" font-size="13" font-weight="bold" lengthAdjust="spacingAndGlyphs" textLength="18" x="1640.5" y="948.1992">17</text>
        <text fill="#000000" font-family="sans-serif" font-size="13" lengthAdjust="spacingAndGlyphs" textLength="128" x="1662.5" y="948.1992">aceitaCandidaturas()</text>
        <line style="stroke: #A80036; stroke-width: 1.0;" x1="1638.5" x2="1680.5" y1="995.252" y2="995.252"/>
        <line style="stroke: #A80036; stroke-width: 1.0;" x1="1680.5" x2="1680.5" y1="995.252" y2="1008.252"/>
        <line style="stroke: #A80036; stroke-width: 1.0;" x1="1639.5" x2="1680.5" y1="1008.252" y2="1008.252"/>
        <polygon fill="#A80036" points="1649.5,1004.252,1639.5,1008.252,1649.5,1012.252,1645.5,1008.252" style="stroke: #A80036; stroke-width: 1.0;"/>
        <text fill="#000000" font-family="sans-serif" font-size="13" font-weight="bold" lengthAdjust="spacingAndGlyphs" textLength="18" x="1645.5" y="990.5098">18</text>
        <text fill="#000000" font-family="sans-serif" font-size="13" lengthAdjust="spacingAndGlyphs" textLength="151" x="1667.5" y="990.5098">éFreelancerElegivel(free)</text>
        <rect fill="#FFFFFF" filter="url(#ftlrpt3gwxn78)" height="40.6211" style="stroke: #000000; stroke-width: 2.0;" width="187" x="1588" y="1046.252"/>
        <polygon fill="#EEEEEE" points="1588,1046.252,1652,1046.252,1652,1053.252,1642,1063.252,1588,1063.252,1588,1046.252" style="stroke: #000000; stroke-width: 2.0;"/>
        <text fill="#000000" font-family="sans-serif" font-size="13" font-weight="bold" lengthAdjust="spacingAndGlyphs" textLength="19" x="1601" y="1060.8203">ref</text>
        <text fill="#000000" font-family="sans-serif" font-size="13" lengthAdjust="spacingAndGlyphs" textLength="179" x="1594" y="1079.8203">SD_éFreelancerElegivel(freel)</text>
        <polygon fill="#A80036" points="2119.5,1108.873,2129.5,1112.873,2119.5,1116.873,2123.5,1112.873" style="stroke: #A80036; stroke-width: 1.0;"/>
        <line style="stroke: #A80036; stroke-width: 1.0;" x1="1633.5" x2="2125.5" y1="1112.873" y2="1112.873"/>
        <text fill="#000000" font-family="sans-serif" font-size="13" font-weight="bold" lengthAdjust="spacingAndGlyphs" textLength="18" x="1640.5" y="1108.4414">19</text>
        <text fill="#000000" font-family="sans-serif" font-size="13" lengthAdjust="spacingAndGlyphs" textLength="457" x="1662.5" y="1108.4414">cand=novaCandidatura(freel,dataCand,valorPrt,nrDias,txtApres,txtMotiv)</text>
        <line style="stroke: #A80036; stroke-width: 1.0;" x1="2141.5" x2="2183.5" y1="1142.4941" y2="1142.4941"/>
        <line style="stroke: #A80036; stroke-width: 1.0;" x1="2183.5" x2="2183.5" y1="1142.4941" y2="1155.4941"/>
        <line style="stroke: #A80036; stroke-width: 1.0;" x1="2142.5" x2="2183.5" y1="1155.4941" y2="1155.4941"/>
        <polygon fill="#A80036" points="2152.5,1151.4941,2142.5,1155.4941,2152.5,1159.4941,2148.5,1155.4941" style="stroke: #A80036; stroke-width: 1.0;"/>
        <text fill="#000000" font-family="sans-serif" font-size="13" font-weight="bold" lengthAdjust="spacingAndGlyphs" textLength="18" x="2148.5" y="1137.752">20</text>
        <text fill="#000000" font-family="sans-serif" font-size="13" lengthAdjust="spacingAndGlyphs" textLength="183" x="2170.5" y="1137.752">candidaturaId = geraCandId()</text>
        <polygon fill="#A80036" points="2614.5,1180.4941,2624.5,1184.4941,2614.5,1188.4941,2618.5,1184.4941" style="stroke: #A80036; stroke-width: 1.0;"/>
        <line style="stroke: #A80036; stroke-width: 1.0; stroke-dasharray: 2.0,2.0;" x1="2141.5" x2="2620.5" y1="1184.4941" y2="1184.4941"/>
        <text fill="#000000" font-family="sans-serif" font-size="13" font-weight="bold" lengthAdjust="spacingAndGlyphs" textLength="18" x="2148.5" y="1180.0625">21</text>
        <text fill="#000000" font-family="sans-serif" font-size="13" lengthAdjust="spacingAndGlyphs" textLength="439" x="2170.5" y="1180.0625">create(candidaturaId,freel,dataCand,valorPrt,nrDias,txtApres,txtMotiv)</text>
        <rect fill="#FEFECE" filter="url(#ftlrpt3gwxn78)" height="46.9766" style="stroke: #A80036; stroke-width: 1.5;" width="99" x="2626.5" y="1163.4941"/>
        <text fill="#000000" font-family="sans-serif" font-size="14" lengthAdjust="spacingAndGlyphs" textLength="37" x="2657.5" y="1184.0293">cand:</text>
        <text fill="#000000" font-family="sans-serif" font-size="14" lengthAdjust="spacingAndGlyphs" textLength="85" x="2633.5" y="1200.5176">Candidatura</text>
        <polygon fill="#A80036" points="2124.5,1242.4707,2134.5,1246.4707,2124.5,1250.4707,2128.5,1246.4707" style="stroke: #A80036; stroke-width: 1.0;"/>
        <line style="stroke: #A80036; stroke-width: 1.0;" x1="1628.5" x2="2130.5" y1="1246.4707" y2="1246.4707"/>
        <text fill="#000000" font-family="sans-serif" font-size="13" font-weight="bold" lengthAdjust="spacingAndGlyphs" textLength="18" x="1635.5" y="1242.0391">22</text>
        <text fill="#000000" font-family="sans-serif" font-size="13" lengthAdjust="spacingAndGlyphs" textLength="151" x="1657.5" y="1242.0391">validaCandidatura(cand)</text>
        <polygon fill="#A80036" points="63,1271.7813,53,1275.7813,63,1279.7813,59,1275.7813" style="stroke: #A80036; stroke-width: 1.0;"/>
        <line style="stroke: #A80036; stroke-width: 1.0; stroke-dasharray: 2.0,2.0;" x1="57" x2="445" y1="1275.7813" y2="1275.7813"/>
        <text fill="#000000" font-family="sans-serif" font-size="13" font-weight="bold" lengthAdjust="spacingAndGlyphs" textLength="18" x="69" y="1271.3496">23</text>
        <text fill="#000000" font-family="sans-serif" font-size="13" lengthAdjust="spacingAndGlyphs" textLength="343" x="91" y="1271.3496">apresenta dados da candidatura e solicita confirmacao</text>
        <polygon fill="#A80036" points="429,1301.0918,439,1305.0918,429,1309.0918,433,1305.0918" style="stroke: #A80036; stroke-width: 1.0;"/>
        <line style="stroke: #A80036; stroke-width: 1.0;" x1="52" x2="435" y1="1305.0918" y2="1305.0918"/>
        <text fill="#000000" font-family="sans-serif" font-size="13" font-weight="bold" lengthAdjust="spacingAndGlyphs" textLength="18" x="59" y="1300.6602">24</text>
        <text fill="#000000" font-family="sans-serif" font-size="13" lengthAdjust="spacingAndGlyphs" textLength="195" x="81" y="1300.6602">confirma dados da candidatura</text>
        <polygon fill="#A80036" points="829,1330.4023,839,1334.4023,829,1338.4023,833,1334.4023" style="stroke: #A80036; stroke-width: 1.0;"/>
        <line style="stroke: #A80036; stroke-width: 1.0;" x1="451" x2="835" y1="1334.4023" y2="1334.4023"/>
        <text fill="#000000" font-family="sans-serif" font-size="13" font-weight="bold" lengthAdjust="spacingAndGlyphs" textLength="18" x="458" y="1329.9707">25</text>
        <text fill="#000000" font-family="sans-serif" font-size="13" lengthAdjust="spacingAndGlyphs" textLength="127" x="480" y="1329.9707">registaCandidatura()</text>
        <polygon fill="#A80036" points="1611.5,1359.7129,1621.5,1363.7129,1611.5,1367.7129,1615.5,1363.7129" style="stroke: #A80036; stroke-width: 1.0;"/>
        <line style="stroke: #A80036; stroke-width: 1.0;" x1="851" x2="1617.5" y1="1363.7129" y2="1363.7129"/>
        <text fill="#000000" font-family="sans-serif" font-size="13" font-weight="bold" lengthAdjust="spacingAndGlyphs" textLength="18" x="858" y="1359.2813">26</text>
        <text fill="#000000" font-family="sans-serif" font-size="13" lengthAdjust="spacingAndGlyphs" textLength="157" x="880" y="1359.2813">registaCandidatura(cand)</text>
        <line style="stroke: #A80036; stroke-width: 1.0;" x1="1633.5" x2="1675.5" y1="1393.334" y2="1393.334"/>
        <line style="stroke: #A80036; stroke-width: 1.0;" x1="1675.5" x2="1675.5" y1="1393.334" y2="1406.334"/>
        <line style="stroke: #A80036; stroke-width: 1.0;" x1="1634.5" x2="1675.5" y1="1406.334" y2="1406.334"/>
        <polygon fill="#A80036" points="1644.5,1402.334,1634.5,1406.334,1644.5,1410.334,1640.5,1406.334" style="stroke: #A80036; stroke-width: 1.0;"/>
        <text fill="#000000" font-family="sans-serif" font-size="13" font-weight="bold" lengthAdjust="spacingAndGlyphs" textLength="18" x="1640.5" y="1388.5918">27</text>
        <text fill="#000000" font-family="sans-serif" font-size="13" lengthAdjust="spacingAndGlyphs" textLength="128" x="1662.5" y="1388.5918">aceitaCandidaturas()</text>
        <line style="stroke: #A80036; stroke-width: 1.0;" x1="1633.5" x2="1675.5" y1="1435.6445" y2="1435.6445"/>
        <line style="stroke: #A80036; stroke-width: 1.0;" x1="1675.5" x2="1675.5" y1="1435.6445" y2="1448.6445"/>
        <line style="stroke: #A80036; stroke-width: 1.0;" x1="1634.5" x2="1675.5" y1="1448.6445" y2="1448.6445"/>
        <polygon fill="#A80036" points="1644.5,1444.6445,1634.5,1448.6445,1644.5,1452.6445,1640.5,1448.6445" style="stroke: #A80036; stroke-width: 1.0;"/>
        <text fill="#000000" font-family="sans-serif" font-size="13" font-weight="bold" lengthAdjust="spacingAndGlyphs" textLength="18" x="1640.5" y="1430.9023">28</text>
        <text fill="#000000" font-family="sans-serif" font-size="13" lengthAdjust="spacingAndGlyphs" textLength="155" x="1662.5" y="1430.9023">éFreelancerElegivel(freel)</text>
        <polygon fill="#A80036" points="2119.5,1473.6445,2129.5,1477.6445,2119.5,1481.6445,2123.5,1477.6445" style="stroke: #A80036; stroke-width: 1.0;"/>
        <line style="stroke: #A80036; stroke-width: 1.0;" x1="1628.5" x2="2125.5" y1="1477.6445" y2="1477.6445"/>
        <text fill="#000000" font-family="sans-serif" font-size="13" font-weight="bold" lengthAdjust="spacingAndGlyphs" textLength="18" x="1635.5" y="1473.2129">29</text>
        <text fill="#000000" font-family="sans-serif" font-size="13" lengthAdjust="spacingAndGlyphs" textLength="157" x="1657.5" y="1473.2129">registaCandidatura(cand)</text>
        <line style="stroke: #A80036; stroke-width: 1.0;" x1="2141.5" x2="2183.5" y1="1507.2656" y2="1507.2656"/>
        <line style="stroke: #A80036; stroke-width: 1.0;" x1="2183.5" x2="2183.5" y1="1507.2656" y2="1520.2656"/>
        <line style="stroke: #A80036; stroke-width: 1.0;" x1="2142.5" x2="2183.5" y1="1520.2656" y2="1520.2656"/>
        <polygon fill="#A80036" points="2152.5,1516.2656,2142.5,1520.2656,2152.5,1524.2656,2148.5,1520.2656" style="stroke: #A80036; stroke-width: 1.0;"/>
        <text fill="#000000" font-family="sans-serif" font-size="13" font-weight="bold" lengthAdjust="spacingAndGlyphs" textLength="18" x="2148.5" y="1502.5234">30</text>
        <text fill="#000000" font-family="sans-serif" font-size="13" lengthAdjust="spacingAndGlyphs" textLength="149" x="2170.5" y="1502.5234">validacandidatura(cand)</text>
        <line style="stroke: #A80036; stroke-width: 1.0;" x1="2141.5" x2="2183.5" y1="1549.5762" y2="1549.5762"/>
        <line style="stroke: #A80036; stroke-width: 1.0;" x1="2183.5" x2="2183.5" y1="1549.5762" y2="1562.5762"/>
        <line style="stroke: #A80036; stroke-width: 1.0;" x1="2142.5" x2="2183.5" y1="1562.5762" y2="1562.5762"/>
        <polygon fill="#A80036" points="2152.5,1558.5762,2142.5,1562.5762,2152.5,1566.5762,2148.5,1562.5762" style="stroke: #A80036; stroke-width: 1.0;"/>
        <text fill="#000000" font-family="sans-serif" font-size="13" font-weight="bold" lengthAdjust="spacingAndGlyphs" textLength="18" x="2148.5" y="1544.834">31</text>
        <text fill="#000000" font-family="sans-serif" font-size="13" lengthAdjust="spacingAndGlyphs" textLength="137" x="2170.5" y="1544.834">addCandidatura(cand)</text>
        <polygon fill="#A80036" points="63,1587.5762,53,1591.5762,63,1595.5762,59,1591.5762" style="stroke: #A80036; stroke-width: 1.0;"/>
        <line style="stroke: #A80036; stroke-width: 1.0; stroke-dasharray: 2.0,2.0;" x1="57" x2="445" y1="1591.5762" y2="1591.5762"/>
        <text fill="#000000" font-family="sans-serif" font-size="13" font-weight="bold" lengthAdjust="spacingAndGlyphs" textLength="18" x="69" y="1587.1445">32</text>
        <text fill="#000000" font-family="sans-serif" font-size="13" lengthAdjust="spacingAndGlyphs" textLength="204" x="91" y="1587.1445">informa do sucesso da operacao</text>
        <!--
@startuml
autonumber

actor "Freelancer" as FRL
participant ":EfectuarCandidaturaUI" as UI
participant ":EfectuarCandidaturaController" as CTRL
participant ":Plataforma" as PLAT
participant "rfree:\nRegistoFreelancer" as RFREEL
participant "ranu:\nRegistoAnuncios" as RANU
participant "listaAnu:\n List<Anuncios>" as LSTAE
participant "anu:\nAnuncio" as ANUN
participant "freel:\nFreelancer" as FREEL
participant ":ListaCandidaturas" as LCAND
participant "cand:\nCandidatura" as CAND


note right of LCAND
este objeto pertence ao anúncio
indicado como "anu:Anuncio"
end note

activate FRL
FRL -> UI : inicia efectuar candidatura
activate UI

UI -> CTRL : listaAnu = getAnunciosElegiveisDoFreelancer()
activate CTRL

CTRL -> PLAT: rfree = getRegistoFreelancers()
activate PLAT
deactivate PLAT

CTRL -> RFREEL : freel=getFreelancerByEmail(email)
note right
O email foi obtido através do objeto
SessaoUtilizador como demonstrado noutros diagramas.
end note
activate RFREEL
deactivate RFREEL

CTRL -> PLAT: ranu = getRegistoAnuncios()
activate PLAT
deactivate PLAT

CTRL -> RANU : listaAnu=getAnunciosElegiveisDoFreelancer(freel)
activate RANU
ref over RANU : SD_getAnunciosElegiveisDoFreelancer(freel)
deactivate RANU
deactivate CTRL

UI - -> FRL : seleccionar anuncio da lista de anuncios elegiveis
deactivate UI
FRL -> UI : iniciar candidatura a anuncio elegivel
activate UI

UI -> CTRL : vCR = verificarSeCandidaturaRepetida(anuncioId)
activate CTRL
CTRL -> RANU: anu = getAnuncioById(anuncioId)
activate RANU
deactivate RANU

CTRL -> ANUN : lC : getListaCandidaturas()
activate ANUN
deactivate ANUN

CTRL -> LCAND : eCR = existeCandidaturaRepetida(freel)
activate LCAND
deactivate LCAND


deactivate CTRL

UI - -> FRL : solicita dados da candidatura \n(valorPrt,nrDias,txtApresentacao,txtMotivacao)
deactivate UI

FRL -> UI : introduz os dados solicitados \n(valorPrt,nrDias,txtApres,txtMotiv)
activate UI
UI -> CTRL : novaCandidatura(anu,valorPrt,nrDias,txtApres,txtMotiv)
activate CTRL



CTRL -> ANUN: cand=novaCandidatura(freel,dataCand,valorPrt,nrDias,txtApres,txtMotiv)
activate ANUN
ANUN -> ANUN: aceitaCandidaturas()
ANUN -> ANUN: éFreelancerElegivel(free)
activate ANUN
ref over ANUN : SD_éFreelancerElegivel(freel)
deactivate ANUN
ANUN -> LCAND: cand=novaCandidatura(freel,dataCand,valorPrt,nrDias,txtApres,txtMotiv)
activate LCAND
LCAND -> LCAND : candidaturaId = geraCandId()
LCAND - -> CAND**: create(candidaturaId,freel,dataCand,valorPrt,nrDias,txtApres,txtMotiv)
ANUN -> LCAND: validaCandidatura(cand)
deactivate LCAND
deactivate ANUN
deactivate CTRL
UI - -> FRL : apresenta dados da candidatura e solicita confirmacao
deactivate UI

FRL -> UI : confirma dados da candidatura
activate UI
UI -> CTRL: registaCandidatura()
activate CTRL
CTRL -> ANUN: registaCandidatura(cand)
activate ANUN
ANUN -> ANUN: aceitaCandidaturas()
ANUN -> ANUN: éFreelancerElegivel(freel)
ANUN -> LCAND: registaCandidatura(cand)
deactivate ANUN
activate LCAND
LCAND -> LCAND: validacandidatura(cand)
LCAND -> LCAND: addCandidatura(cand)
UI - -> FRL: informa do sucesso da operacao
deactivate LCAND
deactivate CTRL
deactivate UI

@enduml

PlantUML version 2017.11(Wed Apr 19 17:18:59 WEST 2017)
(GPL source distribution)
Java Runtime: Java(TM) SE Runtime Environment
JVM: Java HotSpot(TM) 64-Bit Server VM
Java Version: 1.8.0_191-b12
Operating System: Mac OS X
OS Version: 10.15.4
Default Encoding: UTF-8
Language: pt
Country: PT
-->
    </g>
</svg>
