@startuml
skinparam classAttributeIconSize 0

class CategoriaDeTarefa {
    -String identificador
    -String descricao
    +CategoriaTarefa(String identificador, String descricao, AreaAtividade areaAtividade)
    +addCompetenciaPorTipo(CompetenciaTecnica competencia, boolean obrigatoriedade)
}

class Plataforma {
    -String designacao
    +getAreasAtividade()
    +getAreaAtividadeById(AreaAtividade areaAtividadeId)
    +novaCategoriaTarefa(String identificador, String descricao, AreaAtividade areaAtividade)
    +getCompetenciasTecnicas()
    +novoTipoCompetencia(CompetenciaTecnica competencia ,boolean obrigatoriedade)
    +especificaCategoriaTarefa(CategoriaDeTarefa categoria)
    +validaCategoriaTarefa(CategoriaDeTarefa categoria)
    +addCategoriaTarefa(categoria)
}

class EspecificarCategoriaDeTarefaController { 
    +getAreasAtividade()
    +novaCategoriaTarefa(String identificador,String descricao,String areaAtividadeId)
    +getCompetenciasTecnicas()
    +addTipoCompetencia(CompetenciaTecnica competenciaTecnica, boolean obrigatoriedade)
    +especificaCategoriaTarefa()
}

class EspecificarCategoriaDeTarefaUI {
  
}


class TipoCompetencia {
    -boolean obrigatoriedade
}

EspecificarCategoriaDeTarefaUI ..> EspecificarCategoriaDeTarefaController
EspecificarCategoriaDeTarefaController ..> Plataforma
EspecificarCategoriaDeTarefaController ..> CategoriaDeTarefa
Plataforma "1" --> "*" TipoCompetencia : possui
Plataforma "1" --> "*" CategoriaDeTarefa : possui
CategoriaDeTarefa "1" --> "*" TipoCompetencia : tem

@enduml
