@startuml
@startuml
autonumber
actor "Administrativo" as ADM

participant ":EspecificarCategoriaDeTarefaUI" as UI
participant ":EspecificarCategoriaDeTarefaController" as CTRL
participant ":Plataforma" as PLAT
participant ":TipoCompetencia" as TC
participant ":categoria:CategoriaDeTarefa" as CTT

activate ADM
ADM -> UI : Inicia a especificação de uma nova categoria de tarefa 

activate UI
UI --> ADM :    Solicita dados necessários \n(identificador, descricao)
deactivate UI

ADM -> UI : Introduz os dados solicitados

activate UI
UI -> CTRL :    listaAreasAtividade = getAreasAtividade()

activate CTRL
CTRL -> PLAT :   listaAreasAtividade = getAreasAtividade()
activate PLAT
UI --> ADM :    Apresenta as áreas atividade e pede para selecionar uma
deactivate UI
deactivate PLAT
ADM -> UI : Seleciona a área atividade pretendida
activate UI

UI -> CTRL :    novaCategoriaTarefa(identificador, descricao, areaAtividadeId)

CTRL -> PLAT :   areaAtividade = getAreaAtividadeById(areaAtividadeId)
activate PLAT
deactivate PLAT
CTRL -> PLAT :   categoria = novaCategoriaTarefa(identificador, descricao, areaAtividade)
activate PLAT
deactivate CTRL 
PLAT --> CTT ** :   create(identificador, descricao, areaAtividade)
deactivate PLAT

loop  até não querer selecionar mais
UI -> CTRL :    listaCompetenciasTecnicas = getCompetenciasTecnicas()

activate CTRL

CTRL -> PLAT :   listaCompetenciasTecnicas = getCompetenciasTecnicas()
activate PLAT
deactivate PLAT

UI --> ADM : Apresenta as competências tecnicas, pede para selecionar uma\n e eleger se esta é obrigatoria ou desejável
deactivate UI

ADM -> UI : Seleciona a competência técnica \nelegendo se esta é obrigatoria ou desejável
activate UI
UI -> CTRL :    addTipoCompetencia(competenciaTecnica , obrigatoriedade)

CTRL -> PLAT:   tipoCompetencia = novoTipoCompetencia(competenciaTecnica , obrigatoriedade)
activate PLAT
PLAT --> TC ** :   create(competencia, obrigatoriedade)
deactivate PLAT

CTRL -> CTT : addCompetenciaPorTipo(CompetenciaTecnica competencia, boolean obrigatoriedade)
activate CTT
deactivate CTT
deactivate CTRL
end

UI --> ADM :    Apresenta todos os dados e solicita confirmação
deactivate UI

ADM -> UI : Confirma
activate UI

UI -> CTRL :    especificaCategoriaTarefa()
activate CTRL
CTRL ->PLAT :   especificaCategoriaTarefa(categoria)
activate PLAT
PLAT -> PLAT :  validaCategoriaTarefa(categoria)
PLAT -> PLAT :   addCategoriaTarefa(categoria)

deactivate PLAT
deactivate CTRL

UI --> ADM :    Operação bem sucedida
deactivate UI
deactivate ADM

@enduml
@enduml
