@startuml
actor Administrativo
activate Administrativo
Administrativo -> ":Sistema": 1. Especifica nova CT
Activate ":Sistema"
":Sistema"- -> Administrativo: 2. Solicita dados necessários (código, descrição breve,\n descrição detalhada)
deactivate ":Sistema"
Administrativo -> ":Sistema": 3. Introduz dados solicitados
Activate ":Sistema"
":Sistema"- -> Administrativo: 4. Apresenta as AA e pede para selecionar uma
deactivate ":Sistema"
Administrativo -> ":Sistema": 5. Seleciona AA pretendida
Activate ":Sistema"
":Sistema"- -> Administrativo: 6. Apresenta todos os dados e solicita confirmação
deactivate ":Sistema"
Administrativo -> ":Sistema": 7. Confirma
Activate ":Sistema"
":Sistema"- -> Administrativo: 8. Operação bem sucedida
deactivate ":Sistema"
deactivate Administrativo
@enduml