<?xml version="1.0" encoding="UTF-8"?><svg xmlns="http://www.w3.org/2000/svg" xmlns:xlink="http://www.w3.org/1999/xlink" contentScriptType="application/ecmascript" contentStyleType="text/css" height="1569px" preserveAspectRatio="none" style="width:637px;height:1569px;" version="1.1" viewBox="0 0 637 1569" width="637px" zoomAndPan="magnify">
    <defs>
        <filter height="300%" id="fnldk1i7oo3pa" width="300%" x="-1" y="-1">
            <feGaussianBlur result="blurOut" stdDeviation="2.0"/>
            <feColorMatrix in="blurOut" result="blurOut2" type="matrix" values="0 0 0 0 0 0 0 0 0 0 0 0 0 0 0 0 0 0 .4 0"/>
            <feOffset dx="4.0" dy="4.0" in="blurOut2" result="blurOut3"/>
            <feBlend in="SourceGraphic" in2="blurOut3" mode="normal"/>
        </filter>
    </defs>
    <g>
        <!--cluster UI-->
        <polygon fill="#FFFFFF" filter="url(#fnldk1i7oo3pa)" points="270.24,24,291.24,24,298.24,46.4883,456.24,46.4883,456.24,123,270.24,123,270.24,24" style="stroke: #000000; stroke-width: 2.0;"/>
        <line style="stroke: #000000; stroke-width: 2.0;" x1="270.24" x2="298.24" y1="46.4883" y2="46.4883"/>
        <text fill="#000000" font-family="sans-serif" font-size="14" font-weight="bold" lengthAdjust="spacingAndGlyphs" textLength="15" x="274.24" y="39.5352">UI</text>
        <!--cluster Controladores-->
        <polygon fill="#FFFFFF" filter="url(#fnldk1i7oo3pa)" points="237.24,156,345.24,156,352.24,178.4883,489.24,178.4883,489.24,294,237.24,294,237.24,156" style="stroke: #000000; stroke-width: 2.0;"/>
        <line style="stroke: #000000; stroke-width: 2.0;" x1="237.24" x2="352.24" y1="178.4883" y2="178.4883"/>
        <text fill="#000000" font-family="sans-serif" font-size="14" font-weight="bold" lengthAdjust="spacingAndGlyphs" textLength="102" x="241.24" y="171.5352">Controladores</text>
        <!--cluster Domínio-->
        <polygon fill="#FFFFFF" filter="url(#fnldk1i7oo3pa)" points="35.24,327,103.24,327,110.24,349.4883,523.24,349.4883,523.24,1562,35.24,1562,35.24,327" style="stroke: #000000; stroke-width: 2.0;"/>
        <line style="stroke: #000000; stroke-width: 2.0;" x1="35.24" x2="110.24" y1="349.4883" y2="349.4883"/>
        <text fill="#000000" font-family="sans-serif" font-size="14" font-weight="bold" lengthAdjust="spacingAndGlyphs" textLength="62" x="39.24" y="342.5352">Domínio</text>
        <!--class RetirarCandidaturaUI-->
        <rect fill="#FEFECE" filter="url(#fnldk1i7oo3pa)" height="48" style="stroke: #A80036; stroke-width: 1.5;" width="153" x="286.74" y="59"/>
        <ellipse cx="301.74" cy="75" fill="#ADD1B2" rx="11" ry="11" style="stroke: #A80036; stroke-width: 1.0;"/>
        <path d="M304.2131,81.1431 Q303.6321,81.4419 302.9929,81.5913 Q302.3538,81.7407 301.6482,81.7407 Q299.1414,81.7407 297.8215,80.0889 Q296.5017,78.437 296.5017,75.3159 Q296.5017,72.1865 297.8215,70.5347 Q299.1414,68.8828 301.6482,68.8828 Q302.3538,68.8828 303.0012,69.0322 Q303.6487,69.1816 304.2131,69.4805 L304.2131,72.2031 Q303.5823,71.6221 302.9888,71.3523 Q302.3953,71.0825 301.7644,71.0825 Q300.4197,71.0825 299.7349,72.1492 Q299.0501,73.2158 299.0501,75.3159 Q299.0501,77.4077 299.7349,78.4744 Q300.4197,79.541 301.7644,79.541 Q302.3953,79.541 302.9888,79.2712 Q303.5823,79.0015 304.2131,78.4204 Z "/>
        <text fill="#000000" font-family="sans-serif" font-size="12" lengthAdjust="spacingAndGlyphs" textLength="121" x="315.74" y="79.5352">RetirarCandidaturaUI</text>
        <line style="stroke: #A80036; stroke-width: 1.5;" x1="287.74" x2="438.74" y1="91" y2="91"/>
        <line style="stroke: #A80036; stroke-width: 1.5;" x1="287.74" x2="438.74" y1="99" y2="99"/>
        <!--class RetirarCandidaturaController-->
        <rect fill="#FEFECE" filter="url(#fnldk1i7oo3pa)" height="86.8652" style="stroke: #A80036; stroke-width: 1.5;" width="219" x="253.74" y="191"/>
        <ellipse cx="278.19" cy="207" fill="#ADD1B2" rx="11" ry="11" style="stroke: #A80036; stroke-width: 1.0;"/>
        <path d="M280.6631,213.1431 Q280.0821,213.4419 279.4429,213.5913 Q278.8038,213.7407 278.0982,213.7407 Q275.5914,213.7407 274.2715,212.0889 Q272.9517,210.437 272.9517,207.3159 Q272.9517,204.1865 274.2715,202.5347 Q275.5914,200.8828 278.0982,200.8828 Q278.8038,200.8828 279.4512,201.0322 Q280.0987,201.1816 280.6631,201.4805 L280.6631,204.2031 Q280.0323,203.6221 279.4388,203.3523 Q278.8453,203.0825 278.2144,203.0825 Q276.8697,203.0825 276.1849,204.1492 Q275.5001,205.2158 275.5001,207.3159 Q275.5001,209.4077 276.1849,210.4744 Q276.8697,211.541 278.2144,211.541 Q278.8453,211.541 279.4388,211.2712 Q280.0323,211.0015 280.6631,210.4204 Z "/>
        <text fill="#000000" font-family="sans-serif" font-size="12" lengthAdjust="spacingAndGlyphs" textLength="166" x="294.29" y="211.5352">RetirarCandidaturaController</text>
        <line style="stroke: #A80036; stroke-width: 1.5;" x1="254.74" x2="471.74" y1="223" y2="223"/>
        <line style="stroke: #A80036; stroke-width: 1.5;" x1="254.74" x2="471.74" y1="231" y2="231"/>
        <text fill="#000000" font-family="sans-serif" font-size="11" lengthAdjust="spacingAndGlyphs" textLength="95" x="259.74" y="245.6348">+getCandidFree()</text>
        <text fill="#000000" font-family="sans-serif" font-size="11" lengthAdjust="spacingAndGlyphs" textLength="207" x="259.74" y="258.5898">+selecionaCandidatura(candidaturaId)</text>
        <text fill="#000000" font-family="sans-serif" font-size="11" lengthAdjust="spacingAndGlyphs" textLength="128" x="259.74" y="271.5449">+removerCandidatura()</text>
        <!--class Plataforma-->
        <rect fill="#FEFECE" filter="url(#fnldk1i7oo3pa)" height="86.8652" style="stroke: #A80036; stroke-width: 1.5;" width="148" x="51.24" y="362"/>
        <ellipse cx="90.54" cy="378" fill="#ADD1B2" rx="11" ry="11" style="stroke: #A80036; stroke-width: 1.0;"/>
        <path d="M93.0131,384.1431 Q92.4321,384.4419 91.7929,384.5913 Q91.1538,384.7407 90.4482,384.7407 Q87.9414,384.7407 86.6215,383.0889 Q85.3017,381.437 85.3017,378.3159 Q85.3017,375.1865 86.6215,373.5347 Q87.9414,371.8828 90.4482,371.8828 Q91.1538,371.8828 91.8012,372.0322 Q92.4487,372.1816 93.0131,372.4805 L93.0131,375.2031 Q92.3823,374.6221 91.7888,374.3523 Q91.1953,374.0825 90.5644,374.0825 Q89.2197,374.0825 88.5349,375.1492 Q87.8501,376.2158 87.8501,378.3159 Q87.8501,380.4077 88.5349,381.4744 Q89.2197,382.541 90.5644,382.541 Q91.1953,382.541 91.7888,382.2712 Q92.3823,382.0015 93.0131,381.4204 Z "/>
        <text fill="#000000" font-family="sans-serif" font-size="12" lengthAdjust="spacingAndGlyphs" textLength="62" x="109.94" y="382.5352">Plataforma</text>
        <line style="stroke: #A80036; stroke-width: 1.5;" x1="52.24" x2="198.24" y1="394" y2="394"/>
        <text fill="#000000" font-family="sans-serif" font-size="11" lengthAdjust="spacingAndGlyphs" textLength="102" x="57.24" y="408.6348">-String designacao</text>
        <line style="stroke: #A80036; stroke-width: 1.5;" x1="52.24" x2="198.24" y1="414.9551" y2="414.9551"/>
        <text fill="#000000" font-family="sans-serif" font-size="11" lengthAdjust="spacingAndGlyphs" textLength="136" x="57.24" y="429.5898">+getRegistoFreelancers()</text>
        <text fill="#000000" font-family="sans-serif" font-size="11" lengthAdjust="spacingAndGlyphs" textLength="125" x="57.24" y="442.5449">+getRegistoAnuncios()</text>
        <!--class AplicacaoPOT-->
        <rect fill="#FEFECE" filter="url(#fnldk1i7oo3pa)" height="73.9102" style="stroke: #A80036; stroke-width: 1.5;" width="111" x="234.74" y="368.5"/>
        <ellipse cx="249.74" cy="384.5" fill="#ADD1B2" rx="11" ry="11" style="stroke: #A80036; stroke-width: 1.0;"/>
        <path d="M252.2131,390.6431 Q251.6321,390.9419 250.9929,391.0913 Q250.3538,391.2407 249.6482,391.2407 Q247.1414,391.2407 245.8215,389.5889 Q244.5017,387.937 244.5017,384.8159 Q244.5017,381.6865 245.8215,380.0347 Q247.1414,378.3828 249.6482,378.3828 Q250.3538,378.3828 251.0012,378.5322 Q251.6487,378.6816 252.2131,378.9805 L252.2131,381.7031 Q251.5823,381.1221 250.9888,380.8523 Q250.3953,380.5825 249.7644,380.5825 Q248.4197,380.5825 247.7349,381.6492 Q247.0501,382.7158 247.0501,384.8159 Q247.0501,386.9077 247.7349,387.9744 Q248.4197,389.041 249.7644,389.041 Q250.3953,389.041 250.9888,388.7712 Q251.5823,388.5015 252.2131,387.9204 Z "/>
        <text fill="#000000" font-family="sans-serif" font-size="12" lengthAdjust="spacingAndGlyphs" textLength="79" x="263.74" y="389.0352">AplicacaoPOT</text>
        <line style="stroke: #A80036; stroke-width: 1.5;" x1="235.74" x2="344.74" y1="400.5" y2="400.5"/>
        <line style="stroke: #A80036; stroke-width: 1.5;" x1="235.74" x2="344.74" y1="408.5" y2="408.5"/>
        <text fill="#000000" font-family="sans-serif" font-size="11" lengthAdjust="spacingAndGlyphs" textLength="79" x="240.74" y="423.1348">+getInstance()</text>
        <text fill="#000000" font-family="sans-serif" font-size="11" lengthAdjust="spacingAndGlyphs" textLength="99" x="240.74" y="436.0898">+getSessaoAtual()</text>
        <!--class SessaoUtilizador-->
        <rect fill="#FEFECE" filter="url(#fnldk1i7oo3pa)" height="60.9551" style="stroke: #A80036; stroke-width: 1.5;" width="126" x="381.24" y="375"/>
        <ellipse cx="396.24" cy="391" fill="#ADD1B2" rx="11" ry="11" style="stroke: #A80036; stroke-width: 1.0;"/>
        <path d="M398.7131,397.1431 Q398.1321,397.4419 397.4929,397.5913 Q396.8538,397.7407 396.1482,397.7407 Q393.6414,397.7407 392.3215,396.0889 Q391.0017,394.437 391.0017,391.3159 Q391.0017,388.1865 392.3215,386.5347 Q393.6414,384.8828 396.1482,384.8828 Q396.8538,384.8828 397.5012,385.0322 Q398.1487,385.1816 398.7131,385.4805 L398.7131,388.2031 Q398.0823,387.6221 397.4888,387.3523 Q396.8953,387.0825 396.2644,387.0825 Q394.9197,387.0825 394.2349,388.1492 Q393.5501,389.2158 393.5501,391.3159 Q393.5501,393.4077 394.2349,394.4744 Q394.9197,395.541 396.2644,395.541 Q396.8953,395.541 397.4888,395.2712 Q398.0823,395.0015 398.7131,394.4204 Z "/>
        <text fill="#000000" font-family="sans-serif" font-size="12" lengthAdjust="spacingAndGlyphs" textLength="94" x="410.24" y="395.5352">SessaoUtilizador</text>
        <line style="stroke: #A80036; stroke-width: 1.5;" x1="382.24" x2="506.24" y1="407" y2="407"/>
        <line style="stroke: #A80036; stroke-width: 1.5;" x1="382.24" x2="506.24" y1="415" y2="415"/>
        <text fill="#000000" font-family="sans-serif" font-size="11" lengthAdjust="spacingAndGlyphs" textLength="114" x="387.24" y="429.6348">+getEmailUtilizador()</text>
        <!--class RegistoFreelancer-->
        <rect fill="#FEFECE" filter="url(#fnldk1i7oo3pa)" height="60.9551" style="stroke: #A80036; stroke-width: 1.5;" width="170" x="51.24" y="643"/>
        <ellipse cx="82.44" cy="659" fill="#ADD1B2" rx="11" ry="11" style="stroke: #A80036; stroke-width: 1.0;"/>
        <path d="M84.9131,665.1431 Q84.3321,665.4419 83.6929,665.5913 Q83.0538,665.7407 82.3482,665.7407 Q79.8414,665.7407 78.5215,664.0889 Q77.2017,662.437 77.2017,659.3159 Q77.2017,656.1865 78.5215,654.5347 Q79.8414,652.8828 82.3482,652.8828 Q83.0538,652.8828 83.7012,653.0322 Q84.3487,653.1816 84.9131,653.4805 L84.9131,656.2031 Q84.2823,655.6221 83.6888,655.3523 Q83.0953,655.0825 82.4644,655.0825 Q81.1197,655.0825 80.4349,656.1492 Q79.7501,657.2158 79.7501,659.3159 Q79.7501,661.4077 80.4349,662.4744 Q81.1197,663.541 82.4644,663.541 Q83.0953,663.541 83.6888,663.2712 Q84.2823,663.0015 84.9131,662.4204 Z "/>
        <text fill="#000000" font-family="sans-serif" font-size="12" lengthAdjust="spacingAndGlyphs" textLength="102" x="100.04" y="663.5352">RegistoFreelancer</text>
        <line style="stroke: #A80036; stroke-width: 1.5;" x1="52.24" x2="220.24" y1="675" y2="675"/>
        <line style="stroke: #A80036; stroke-width: 1.5;" x1="52.24" x2="220.24" y1="683" y2="683"/>
        <text fill="#000000" font-family="sans-serif" font-size="11" lengthAdjust="spacingAndGlyphs" textLength="158" x="57.24" y="697.6348">+getFreelancerByEmail(email)</text>
        <!--class RegistoAnuncios-->
        <rect fill="#FEFECE" filter="url(#fnldk1i7oo3pa)" height="86.8652" style="stroke: #A80036; stroke-width: 1.5;" width="204" x="298.24" y="526"/>
        <ellipse cx="349.49" cy="542" fill="#ADD1B2" rx="11" ry="11" style="stroke: #A80036; stroke-width: 1.0;"/>
        <path d="M351.9631,548.1431 Q351.3821,548.4419 350.7429,548.5913 Q350.1038,548.7407 349.3982,548.7407 Q346.8914,548.7407 345.5715,547.0889 Q344.2517,545.437 344.2517,542.3159 Q344.2517,539.1865 345.5715,537.5347 Q346.8914,535.8828 349.3982,535.8828 Q350.1038,535.8828 350.7512,536.0322 Q351.3987,536.1816 351.9631,536.4805 L351.9631,539.2031 Q351.3323,538.6221 350.7388,538.3523 Q350.1453,538.0825 349.5144,538.0825 Q348.1697,538.0825 347.4849,539.1492 Q346.8001,540.2158 346.8001,542.3159 Q346.8001,544.4077 347.4849,545.4744 Q348.1697,546.541 349.5144,546.541 Q350.1453,546.541 350.7388,546.2712 Q351.3323,546.0015 351.9631,545.4204 Z "/>
        <text fill="#000000" font-family="sans-serif" font-size="12" lengthAdjust="spacingAndGlyphs" textLength="93" x="369.99" y="546.5352">RegistoAnuncios</text>
        <line style="stroke: #A80036; stroke-width: 1.5;" x1="299.24" x2="501.24" y1="558" y2="558"/>
        <line style="stroke: #A80036; stroke-width: 1.5;" x1="299.24" x2="501.24" y1="566" y2="566"/>
        <text fill="#000000" font-family="sans-serif" font-size="11" lengthAdjust="spacingAndGlyphs" textLength="183" x="304.24" y="580.6348">+getCandidaturasFreelancer(free)</text>
        <text fill="#000000" font-family="sans-serif" font-size="11" lengthAdjust="spacingAndGlyphs" textLength="192" x="304.24" y="593.5898">+getCanSelecionada(candidaturaId)</text>
        <text fill="#000000" font-family="sans-serif" font-size="11" lengthAdjust="spacingAndGlyphs" textLength="133" x="304.24" y="606.5449">+getAnuncioCand(cand)</text>
        <!--class Freelancer-->
        <rect fill="#FEFECE" filter="url(#fnldk1i7oo3pa)" height="99.8203" style="stroke: #A80036; stroke-width: 1.5;" width="96" x="148.24" y="1446"/>
        <ellipse cx="165.04" cy="1462" fill="#ADD1B2" rx="11" ry="11" style="stroke: #A80036; stroke-width: 1.0;"/>
        <path d="M167.5131,1468.1431 Q166.9321,1468.4419 166.2929,1468.5913 Q165.6538,1468.7407 164.9482,1468.7407 Q162.4414,1468.7407 161.1215,1467.0889 Q159.8017,1465.437 159.8017,1462.3159 Q159.8017,1459.1865 161.1215,1457.5347 Q162.4414,1455.8828 164.9482,1455.8828 Q165.6538,1455.8828 166.3012,1456.0322 Q166.9487,1456.1816 167.5131,1456.4805 L167.5131,1459.2031 Q166.8823,1458.6221 166.2888,1458.3523 Q165.6953,1458.0825 165.0644,1458.0825 Q163.7197,1458.0825 163.0349,1459.1492 Q162.3501,1460.2158 162.3501,1462.3159 Q162.3501,1464.4077 163.0349,1465.4744 Q163.7197,1466.541 165.0644,1466.541 Q165.6953,1466.541 166.2888,1466.2712 Q166.8823,1466.0015 167.5131,1465.4204 Z "/>
        <text fill="#000000" font-family="sans-serif" font-size="12" lengthAdjust="spacingAndGlyphs" textLength="60" x="179.44" y="1466.5352">Freelancer</text>
        <line style="stroke: #A80036; stroke-width: 1.5;" x1="149.24" x2="243.24" y1="1478" y2="1478"/>
        <text fill="#000000" font-family="sans-serif" font-size="11" lengthAdjust="spacingAndGlyphs" textLength="71" x="154.24" y="1492.6348">-String nome</text>
        <text fill="#000000" font-family="sans-serif" font-size="11" lengthAdjust="spacingAndGlyphs" textLength="58" x="154.24" y="1505.5898">-String NIF</text>
        <text fill="#000000" font-family="sans-serif" font-size="11" lengthAdjust="spacingAndGlyphs" textLength="84" x="154.24" y="1518.5449">-String telefone</text>
        <text fill="#000000" font-family="sans-serif" font-size="11" lengthAdjust="spacingAndGlyphs" textLength="69" x="154.24" y="1531.5">-String email</text>
        <line style="stroke: #A80036; stroke-width: 1.5;" x1="149.24" x2="243.24" y1="1537.8203" y2="1537.8203"/>
        <!--class Anuncio-->
        <rect fill="#FEFECE" filter="url(#fnldk1i7oo3pa)" height="203.4609" style="stroke: #A80036; stroke-width: 1.5;" width="174" x="313.24" y="734"/>
        <ellipse cx="373.49" cy="750" fill="#ADD1B2" rx="11" ry="11" style="stroke: #A80036; stroke-width: 1.0;"/>
        <path d="M375.9631,756.1431 Q375.3821,756.4419 374.7429,756.5913 Q374.1038,756.7407 373.3982,756.7407 Q370.8914,756.7407 369.5715,755.0889 Q368.2517,753.437 368.2517,750.3159 Q368.2517,747.1865 369.5715,745.5347 Q370.8914,743.8828 373.3982,743.8828 Q374.1038,743.8828 374.7512,744.0322 Q375.3987,744.1816 375.9631,744.4805 L375.9631,747.2031 Q375.3323,746.6221 374.7388,746.3523 Q374.1453,746.0825 373.5144,746.0825 Q372.1697,746.0825 371.4849,747.1492 Q370.8001,748.2158 370.8001,750.3159 Q370.8001,752.4077 371.4849,753.4744 Q372.1697,754.541 373.5144,754.541 Q374.1453,754.541 374.7388,754.2712 Q375.3323,754.0015 375.9631,753.4204 Z "/>
        <text fill="#000000" font-family="sans-serif" font-size="12" lengthAdjust="spacingAndGlyphs" textLength="45" x="393.99" y="754.5352">Anuncio</text>
        <line style="stroke: #A80036; stroke-width: 1.5;" x1="314.24" x2="486.24" y1="766" y2="766"/>
        <text fill="#000000" font-family="sans-serif" font-size="11" lengthAdjust="spacingAndGlyphs" textLength="94" x="319.24" y="780.6348">-String anuncioId</text>
        <text fill="#000000" font-family="sans-serif" font-size="11" lengthAdjust="spacingAndGlyphs" textLength="137" x="319.24" y="793.5898">-Date dtInicioPublicitacao</text>
        <text fill="#000000" font-family="sans-serif" font-size="11" lengthAdjust="spacingAndGlyphs" textLength="127" x="319.24" y="806.5449">-Date dtFimPublicitacao</text>
        <text fill="#000000" font-family="sans-serif" font-size="11" lengthAdjust="spacingAndGlyphs" textLength="139" x="319.24" y="819.5">-Date dtInicioCandidatura</text>
        <text fill="#000000" font-family="sans-serif" font-size="11" lengthAdjust="spacingAndGlyphs" textLength="129" x="319.24" y="832.4551">-Date dtFimCandidatura</text>
        <text fill="#000000" font-family="sans-serif" font-size="11" lengthAdjust="spacingAndGlyphs" textLength="118" x="319.24" y="845.4102">-Date dtInicioSeriacao</text>
        <text fill="#000000" font-family="sans-serif" font-size="11" lengthAdjust="spacingAndGlyphs" textLength="108" x="319.24" y="858.3652">-Date dtFimSeriacao</text>
        <line style="stroke: #A80036; stroke-width: 1.5;" x1="314.24" x2="486.24" y1="864.6855" y2="864.6855"/>
        <text fill="#000000" font-family="sans-serif" font-size="11" lengthAdjust="spacingAndGlyphs" textLength="117" x="319.24" y="879.3203">+getDataInicialCand()</text>
        <text fill="#000000" font-family="sans-serif" font-size="11" lengthAdjust="spacingAndGlyphs" textLength="111" x="319.24" y="892.2754">+getDataFinalCand()</text>
        <text fill="#000000" font-family="sans-serif" font-size="11" lengthAdjust="spacingAndGlyphs" textLength="162" x="319.24" y="905.2305">+isCandidatoAoAnuncio(free)</text>
        <text fill="#000000" font-family="sans-serif" font-size="11" lengthAdjust="spacingAndGlyphs" textLength="131" x="319.24" y="918.1855">+getListaCandidaturas()</text>
        <text fill="#000000" font-family="sans-serif" font-size="11" lengthAdjust="spacingAndGlyphs" textLength="154" x="319.24" y="931.1406">+removerCandidatura(cand)</text>
        <!--class ListaCandidaturas-->
        <rect fill="#FEFECE" filter="url(#fnldk1i7oo3pa)" height="138.6855" style="stroke: #A80036; stroke-width: 1.5;" width="208" x="259.24" y="1014"/>
        <ellipse cx="307.49" cy="1030" fill="#ADD1B2" rx="11" ry="11" style="stroke: #A80036; stroke-width: 1.0;"/>
        <path d="M309.9631,1036.1431 Q309.3821,1036.4419 308.7429,1036.5913 Q308.1038,1036.7407 307.3982,1036.7407 Q304.8914,1036.7407 303.5715,1035.0889 Q302.2517,1033.437 302.2517,1030.3159 Q302.2517,1027.1865 303.5715,1025.5347 Q304.8914,1023.8828 307.3982,1023.8828 Q308.1038,1023.8828 308.7512,1024.0322 Q309.3987,1024.1816 309.9631,1024.4805 L309.9631,1027.2031 Q309.3323,1026.6221 308.7388,1026.3523 Q308.1453,1026.0825 307.5144,1026.0825 Q306.1697,1026.0825 305.4849,1027.1492 Q304.8001,1028.2158 304.8001,1030.3159 Q304.8001,1032.4077 305.4849,1033.4744 Q306.1697,1034.541 307.5144,1034.541 Q308.1453,1034.541 308.7388,1034.2712 Q309.3323,1034.0015 309.9631,1033.4204 Z "/>
        <text fill="#000000" font-family="sans-serif" font-size="12" lengthAdjust="spacingAndGlyphs" textLength="103" x="327.99" y="1034.5352">ListaCandidaturas</text>
        <line style="stroke: #A80036; stroke-width: 1.5;" x1="260.24" x2="466.24" y1="1046" y2="1046"/>
        <line style="stroke: #A80036; stroke-width: 1.5;" x1="260.24" x2="466.24" y1="1054" y2="1054"/>
        <text fill="#000000" font-family="sans-serif" font-size="11" lengthAdjust="spacingAndGlyphs" textLength="162" x="265.24" y="1068.6348">+isCandidatoAoAnuncio(free)</text>
        <text fill="#000000" font-family="sans-serif" font-size="11" lengthAdjust="spacingAndGlyphs" textLength="156" x="265.24" y="1081.5898">+getCandidaturaByFree(free)</text>
        <text fill="#000000" font-family="sans-serif" font-size="11" lengthAdjust="spacingAndGlyphs" textLength="187" x="265.24" y="1094.5449">+temIdCandidatura(candidaturaId)</text>
        <text fill="#000000" font-family="sans-serif" font-size="11" lengthAdjust="spacingAndGlyphs" textLength="196" x="265.24" y="1107.5">+getCandidaturaById(candidaturaId)</text>
        <text fill="#000000" font-family="sans-serif" font-size="11" lengthAdjust="spacingAndGlyphs" textLength="167" x="265.24" y="1120.4551">+temCandidatura(candidatura)</text>
        <text fill="#000000" font-family="sans-serif" font-size="11" lengthAdjust="spacingAndGlyphs" textLength="154" x="265.24" y="1133.4102">+removerCandidatura(cand)</text>
        <text fill="#000000" font-family="sans-serif" font-size="11" lengthAdjust="spacingAndGlyphs" textLength="123" x="265.24" y="1146.3652">+validaRemocao(cand)</text>
        <!--class Candidatura-->
        <rect fill="#FEFECE" filter="url(#fnldk1i7oo3pa)" height="138.6855" style="stroke: #A80036; stroke-width: 1.5;" width="336" x="171.24" y="1230"/>
        <ellipse cx="299.49" cy="1246" fill="#ADD1B2" rx="11" ry="11" style="stroke: #A80036; stroke-width: 1.0;"/>
        <path d="M301.9631,1252.1431 Q301.3821,1252.4419 300.7429,1252.5913 Q300.1038,1252.7407 299.3982,1252.7407 Q296.8914,1252.7407 295.5715,1251.0889 Q294.2517,1249.437 294.2517,1246.3159 Q294.2517,1243.1865 295.5715,1241.5347 Q296.8914,1239.8828 299.3982,1239.8828 Q300.1038,1239.8828 300.7512,1240.0322 Q301.3987,1240.1816 301.9631,1240.4805 L301.9631,1243.2031 Q301.3323,1242.6221 300.7388,1242.3523 Q300.1453,1242.0825 299.5144,1242.0825 Q298.1697,1242.0825 297.4849,1243.1492 Q296.8001,1244.2158 296.8001,1246.3159 Q296.8001,1248.4077 297.4849,1249.4744 Q298.1697,1250.541 299.5144,1250.541 Q300.1453,1250.541 300.7388,1250.2712 Q301.3323,1250.0015 301.9631,1249.4204 Z "/>
        <text fill="#000000" font-family="sans-serif" font-size="12" lengthAdjust="spacingAndGlyphs" textLength="71" x="319.99" y="1250.5352">Candidatura</text>
        <line style="stroke: #A80036; stroke-width: 1.5;" x1="172.24" x2="506.24" y1="1262" y2="1262"/>
        <text fill="#000000" font-family="sans-serif" font-size="11" lengthAdjust="spacingAndGlyphs" textLength="115" x="177.24" y="1276.6348">-String candidaturaId</text>
        <text fill="#000000" font-family="sans-serif" font-size="11" lengthAdjust="spacingAndGlyphs" textLength="122" x="177.24" y="1289.5898">-Date dataCandidatura</text>
        <text fill="#000000" font-family="sans-serif" font-size="11" lengthAdjust="spacingAndGlyphs" textLength="132" x="177.24" y="1302.5449">-Double valorPretendido</text>
        <text fill="#000000" font-family="sans-serif" font-size="11" lengthAdjust="spacingAndGlyphs" textLength="82" x="177.24" y="1315.5">-Integer nrDias</text>
        <text fill="#000000" font-family="sans-serif" font-size="11" lengthAdjust="spacingAndGlyphs" textLength="130" x="177.24" y="1328.4551">-String txtApresentacao</text>
        <text fill="#000000" font-family="sans-serif" font-size="11" lengthAdjust="spacingAndGlyphs" textLength="110" x="177.24" y="1341.4102">-String txtMotivacao</text>
        <line style="stroke: #A80036; stroke-width: 1.5;" x1="172.24" x2="506.24" y1="1347.7305" y2="1347.7305"/>
        <text fill="#000000" font-family="sans-serif" font-size="11" lengthAdjust="spacingAndGlyphs" textLength="324" x="177.24" y="1362.3652">+verificaPeriodoCandidatura(dataInicialCand,dataFinalCand)</text>
        <path d="M363.24,107.03 C363.24,127.92 363.24,159.37 363.24,185.68 " fill="none" style="stroke: #A80036; stroke-width: 1.0; stroke-dasharray: 7.0,7.0;"/>
        <polygon fill="#A80036" points="363.24,190.87,367.24,181.87,363.24,185.87,359.24,181.87,363.24,190.87" style="stroke: #A80036; stroke-width: 1.0;"/>
        <path d="M281.22,278.03 C259.77,290.32 237.11,304.38 217.24,319 C201.34,330.69 185.19,344.8 170.94,358.16 " fill="none" style="stroke: #A80036; stroke-width: 1.0; stroke-dasharray: 7.0,7.0;"/>
        <polygon fill="#A80036" points="166.98,361.9,176.262,358.607,170.6071,358.4585,170.7556,352.8036,166.98,361.9" style="stroke: #A80036; stroke-width: 1.0;"/>
        <path d="M253.41,248.84 C168.58,261.67 61.24,284.29 34.24,319 C-42.13,417.17 56.69,570.52 108.38,638.31 " fill="none" style="stroke: #A80036; stroke-width: 1.0; stroke-dasharray: 7.0,7.0;"/>
        <polygon fill="#A80036" points="111.71,642.65,109.3948,633.0771,108.6621,638.6863,103.0529,637.9537,111.71,642.65" style="stroke: #A80036; stroke-width: 1.0;"/>
        <path d="M473.15,271.31 C493.86,283.18 512.88,298.74 525.24,319 C555.31,368.33 547.95,395.87 525.24,449 C512.97,477.71 490.04,502.81 467.14,522.5 " fill="none" style="stroke: #A80036; stroke-width: 1.0; stroke-dasharray: 7.0,7.0;"/>
        <polygon fill="#A80036" points="463.17,525.86,472.6289,523.1159,466.9923,522.6367,467.4716,517.0002,463.17,525.86" style="stroke: #A80036; stroke-width: 1.0;"/>
        <path d="M344.82,278.15 C333.48,304.38 319.04,337.82 307.86,363.7 " fill="none" style="stroke: #A80036; stroke-width: 1.0; stroke-dasharray: 7.0,7.0;"/>
        <polygon fill="#A80036" points="305.81,368.45,313.0569,361.7805,307.7968,363.8617,305.7157,358.6016,305.81,368.45" style="stroke: #A80036; stroke-width: 1.0;"/>
        <path d="M383.68,278.15 C397.31,306.59 415,343.5 427.74,370.07 " fill="none" style="stroke: #A80036; stroke-width: 1.0; stroke-dasharray: 7.0,7.0;"/>
        <polygon fill="#A80036" points="430.05,374.91,429.7666,365.0652,427.8887,370.4013,422.5526,368.5233,430.05,374.91" style="stroke: #A80036; stroke-width: 1.0;"/>
        <path d="M472.91,255.1 C507.49,267.28 541.53,287.01 560.24,319 C636.64,449.65 552.95,620.63 480.76,729.05 " fill="none" style="stroke: #A80036; stroke-width: 1.0; stroke-dasharray: 7.0,7.0;"/>
        <polygon fill="#A80036" points="477.77,733.53,486.0905,728.2603,480.5435,729.3697,479.4341,723.8227,477.77,733.53" style="stroke: #A80036; stroke-width: 1.0;"/>
        <path d="M197.49,449.06 C236.18,471.85 283.84,499.93 323.23,523.13 " fill="none" style="stroke: #A80036; stroke-width: 1.0;"/>
        <polygon fill="#A80036" points="327.99,525.94,322.2676,517.9241,323.6825,523.4012,318.2055,524.8161,327.99,525.94" style="stroke: #A80036; stroke-width: 1.0;"/>
        <text fill="#000000" font-family="sans-serif" font-size="13" lengthAdjust="spacingAndGlyphs" textLength="42" x="271.24" y="492.5684">possui</text>
        <text fill="#000000" font-family="sans-serif" font-size="13" lengthAdjust="spacingAndGlyphs" textLength="8" x="199.9408" y="469.481">1</text>
        <text fill="#000000" font-family="sans-serif" font-size="13" lengthAdjust="spacingAndGlyphs" textLength="8" x="307.8377" y="515.4062">1</text>
        <path d="M127,449.24 C129.17,501.52 132.79,589.05 134.79,637.52 " fill="none" style="stroke: #A80036; stroke-width: 1.0;"/>
        <polygon fill="#A80036" points="135,642.66,138.6098,633.4965,134.7853,637.6646,130.6172,633.8401,135,642.66" style="stroke: #A80036; stroke-width: 1.0;"/>
        <text fill="#000000" font-family="sans-serif" font-size="13" lengthAdjust="spacingAndGlyphs" textLength="42" x="129.24" y="492.5684">possui</text>
        <text fill="#000000" font-family="sans-serif" font-size="13" lengthAdjust="spacingAndGlyphs" textLength="8" x="118.671" y="469.3669">1</text>
        <text fill="#000000" font-family="sans-serif" font-size="13" lengthAdjust="spacingAndGlyphs" textLength="8" x="125.9193" y="632.3574">1</text>
        <path d="M400.24,613.21 C400.24,644.42 400.24,688.18 400.24,728.55 " fill="none" style="stroke: #A80036; stroke-width: 1.0;"/>
        <polygon fill="#A80036" points="400.24,733.97,404.24,724.97,400.24,728.97,396.24,724.97,400.24,733.97" style="stroke: #A80036; stroke-width: 1.0;"/>
        <text fill="#000000" font-family="sans-serif" font-size="13" lengthAdjust="spacingAndGlyphs" textLength="42" x="401.24" y="678.5684">agrega</text>
        <text fill="#000000" font-family="sans-serif" font-size="13" lengthAdjust="spacingAndGlyphs" textLength="8" x="391.6525" y="633.3325">1</text>
        <text fill="#000000" font-family="sans-serif" font-size="13" lengthAdjust="spacingAndGlyphs" textLength="6" x="394.0103" y="723.185">*</text>
        <path d="M385.08,937.27 C381.48,961.2 377.71,986.29 374.33,1008.76 " fill="none" style="stroke: #A80036; stroke-width: 1.0;"/>
        <polygon fill="#A80036" points="373.57,1013.81,378.8866,1005.5194,374.3271,1008.8676,370.9788,1004.3081,373.57,1013.81" style="stroke: #A80036; stroke-width: 1.0;"/>
        <text fill="#000000" font-family="sans-serif" font-size="13" lengthAdjust="spacingAndGlyphs" textLength="42" x="380.24" y="980.5684">possui</text>
        <text fill="#000000" font-family="sans-serif" font-size="13" lengthAdjust="spacingAndGlyphs" textLength="8" x="375.6131" y="958.1986">1</text>
        <text fill="#000000" font-family="sans-serif" font-size="13" lengthAdjust="spacingAndGlyphs" textLength="8" x="366.2228" y="1003.4504">1</text>
        <path d="M355.54,1153.09 C352.98,1175.94 350.12,1201.48 347.51,1224.7 " fill="none" style="stroke: #A80036; stroke-width: 1.0;"/>
        <polygon fill="#A80036" points="346.93,1229.93,351.9075,1221.4315,347.4869,1224.9611,343.9572,1220.5405,346.93,1229.93" style="stroke: #A80036; stroke-width: 1.0;"/>
        <text fill="#000000" font-family="sans-serif" font-size="13" lengthAdjust="spacingAndGlyphs" textLength="42" x="352.24" y="1196.5684">agrega</text>
        <text fill="#000000" font-family="sans-serif" font-size="13" lengthAdjust="spacingAndGlyphs" textLength="8" x="346.3883" y="1173.2777">1</text>
        <text fill="#000000" font-family="sans-serif" font-size="13" lengthAdjust="spacingAndGlyphs" textLength="6" x="341.443" y="1219.103">*</text>
        <path d="M288.82,1369.07 C271.26,1392.96 251.83,1419.38 235.33,1441.83 " fill="none" style="stroke: #A80036; stroke-width: 1.0;"/>
        <polygon fill="#A80036" points="232.28,1445.97,240.8301,1441.0818,235.2387,1441.9393,234.3811,1436.3479,232.28,1445.97" style="stroke: #A80036; stroke-width: 1.0;"/>
        <text fill="#000000" font-family="sans-serif" font-size="13" lengthAdjust="spacingAndGlyphs" textLength="73" x="264.24" y="1412.5684">retirada por</text>
        <polygon fill="#000000" points="296.24,1421.3105,299.24,1427.3105,302.24,1421.3105,296.24,1421.3105" style="stroke: #000000; stroke-width: 1.0;"/>
        <text fill="#000000" font-family="sans-serif" font-size="13" lengthAdjust="spacingAndGlyphs" textLength="6" x="277.5615" y="1389.2557">*</text>
        <text fill="#000000" font-family="sans-serif" font-size="13" lengthAdjust="spacingAndGlyphs" textLength="8" x="228.9859" y="1435.1246">1</text>
        <path d="M136.07,704.31 C135.79,758.22 135.24,875.54 135.24,974.5 C135.24,974.5 135.24,974.5 135.24,1300.5 C135.24,1349.81 153.31,1403.06 169.78,1441.36 " fill="none" style="stroke: #A80036; stroke-width: 1.0;"/>
        <polygon fill="#A80036" points="171.78,1445.95,171.8485,1436.1014,169.7812,1441.3669,164.5156,1439.2995,171.78,1445.95" style="stroke: #A80036; stroke-width: 1.0;"/>
        <text fill="#000000" font-family="sans-serif" font-size="13" lengthAdjust="spacingAndGlyphs" textLength="42" x="136.24" y="1088.5684">agrega</text>
        <text fill="#000000" font-family="sans-serif" font-size="13" lengthAdjust="spacingAndGlyphs" textLength="8" x="127.249" y="724.4556">1</text>
        <text fill="#000000" font-family="sans-serif" font-size="13" lengthAdjust="spacingAndGlyphs" textLength="6" x="161.7468" y="1435.1017">*</text>
        <!--
@startuml
skinparam classAttributeIconSize 0

package UI <<Folder>> {

class RetirarCandidaturaUI {
}

}

package Controladores <<Folder>> {

class RetirarCandidaturaController {
  +getCandidFree()
  +selecionaCandidatura(candidaturaId)
  +removerCandidatura()
}

}

package Domínio <<Folder>> {

class Plataforma {
    -String designacao
    +getRegistoFreelancers()
    +getRegistoAnuncios()
}

class AplicacaoPOT {
    +getInstance()
    +getSessaoAtual()
}

class SessaoUtilizador {
    +getEmailUtilizador()
}

class RegistoFreelancer{
    +getFreelancerByEmail(email)
}

class RegistoAnuncios{
  +getCandidaturasFreelancer(free)
  +getCanSelecionada(candidaturaId)
  +getAnuncioCand(cand)
}

class Freelancer {
    -String nome
    -String NIF
    -String telefone
    -String email
}

class Anuncio{
    -String anuncioId
    -Date dtInicioPublicitacao
    -Date dtFimPublicitacao
    -Date dtInicioCandidatura
    -Date dtFimCandidatura
    -Date dtInicioSeriacao
    -Date dtFimSeriacao
    +getDataInicialCand()
    +getDataFinalCand()
    +isCandidatoAoAnuncio(free)
    +getListaCandidaturas()
    +removerCandidatura(cand)
}

class ListaCandidaturas{
    +isCandidatoAoAnuncio(free)
    +getCandidaturaByFree(free)
    +temIdCandidatura(candidaturaId)
    +getCandidaturaById(candidaturaId)
    +temCandidatura(candidatura)
    +removerCandidatura(cand)
    +validaRemocao(cand) 
}

class Candidatura{
    -String candidaturaId
    -Date dataCandidatura
    -Double valorPretendido
    -Integer nrDias
    -String txtApresentacao
    -String txtMotivacao
    +verificaPeriodoCandidatura(dataInicialCand,dataFinalCand)
}

}

RetirarCandidaturaUI ..> RetirarCandidaturaController


RetirarCandidaturaController ..> Plataforma
RetirarCandidaturaController ..> RegistoFreelancer
RetirarCandidaturaController ..> RegistoAnuncios
RetirarCandidaturaController ..> AplicacaoPOT
RetirarCandidaturaController ..> SessaoUtilizador
RetirarCandidaturaController ..> Anuncio

Plataforma "1" - -> "1" RegistoAnuncios : possui
Plataforma "1" - -> "1" RegistoFreelancer : possui

RegistoAnuncios "1" - -> "*" Anuncio : agrega
Anuncio "1" - -> "1" ListaCandidaturas : possui
ListaCandidaturas "1" - -> "*" Candidatura : agrega

Candidatura "*" - -> "1"  Freelancer: retirada por >

RegistoFreelancer "1" - -> "*" Freelancer: agrega


@enduml

PlantUML version 2017.11(Wed Apr 19 17:18:59 WEST 2017)
(GPL source distribution)
Java Runtime: Java(TM) SE Runtime Environment
JVM: Java HotSpot(TM) 64-Bit Server VM
Java Version: 1.8.0_191-b12
Operating System: Mac OS X
OS Version: 10.15.4
Default Encoding: UTF-8
Language: pt
Country: PT
-->
    </g>
</svg>
