<?xml version="1.0" encoding="UTF-8"?><svg xmlns="http://www.w3.org/2000/svg" xmlns:xlink="http://www.w3.org/1999/xlink" contentScriptType="application/ecmascript" contentStyleType="text/css" height="533px" preserveAspectRatio="none" style="width:1995px;height:533px;" version="1.1" viewBox="0 0 1995 533" width="1995px" zoomAndPan="magnify">
    <defs>
        <filter height="300%" id="f1h4m6x47ez243" width="300%" x="-1" y="-1">
            <feGaussianBlur result="blurOut" stdDeviation="2.0"/>
            <feColorMatrix in="blurOut" result="blurOut2" type="matrix" values="0 0 0 0 0 0 0 0 0 0 0 0 0 0 0 0 0 0 .4 0"/>
            <feOffset dx="4.0" dy="4.0" in="blurOut2" result="blurOut3"/>
            <feBlend in="SourceGraphic" in2="blurOut3" mode="normal"/>
        </filter>
    </defs>
    <g>
        <!--class Plataforma-->
        <rect fill="#FEFECE" filter="url(#f1h4m6x47ez243)" height="52.9551" style="stroke: #A80036; stroke-width: 1.5;" width="114" x="6" y="237"/>
        <ellipse cx="30" cy="253" fill="#ADD1B2" rx="11" ry="11" style="stroke: #A80036; stroke-width: 1.0;"/>
        <path d="M32.4731,259.1431 Q31.8921,259.4419 31.2529,259.5913 Q30.6138,259.7407 29.9082,259.7407 Q27.4014,259.7407 26.0815,258.0889 Q24.7617,256.437 24.7617,253.3159 Q24.7617,250.1865 26.0815,248.5347 Q27.4014,246.8828 29.9082,246.8828 Q30.6138,246.8828 31.2612,247.0322 Q31.9087,247.1816 32.4731,247.4805 L32.4731,250.2031 Q31.8423,249.6221 31.2488,249.3523 Q30.6553,249.0825 30.0244,249.0825 Q28.6797,249.0825 27.9949,250.1492 Q27.3101,251.2158 27.3101,253.3159 Q27.3101,255.4077 27.9949,256.4744 Q28.6797,257.541 30.0244,257.541 Q30.6553,257.541 31.2488,257.2712 Q31.8423,257.0015 32.4731,256.4204 Z "/>
        <text fill="#000000" font-family="sans-serif" font-size="12" lengthAdjust="spacingAndGlyphs" textLength="62" x="46" y="257.5352">Plataforma</text>
        <line style="stroke: #A80036; stroke-width: 1.5;" x1="7" x2="119" y1="269" y2="269"/>
        <text fill="#000000" font-family="sans-serif" font-size="11" lengthAdjust="spacingAndGlyphs" textLength="102" x="12" y="283.6348">-String designacao</text>
        <!--class CompetenciaTecnica-->
        <rect fill="#FEFECE" filter="url(#f1h4m6x47ez243)" height="78.8652" style="stroke: #A80036; stroke-width: 1.5;" width="151" x="1389" y="316"/>
        <ellipse cx="1404" cy="332" fill="#ADD1B2" rx="11" ry="11" style="stroke: #A80036; stroke-width: 1.0;"/>
        <path d="M1406.4731,338.1431 Q1405.8921,338.4419 1405.2529,338.5913 Q1404.6138,338.7407 1403.9082,338.7407 Q1401.4014,338.7407 1400.0815,337.0889 Q1398.7617,335.437 1398.7617,332.3159 Q1398.7617,329.1865 1400.0815,327.5347 Q1401.4014,325.8828 1403.9082,325.8828 Q1404.6138,325.8828 1405.2612,326.0322 Q1405.9087,326.1816 1406.4731,326.4805 L1406.4731,329.2031 Q1405.8423,328.6221 1405.2488,328.3523 Q1404.6553,328.0825 1404.0244,328.0825 Q1402.6797,328.0825 1401.9949,329.1492 Q1401.3101,330.2158 1401.3101,332.3159 Q1401.3101,334.4077 1401.9949,335.4744 Q1402.6797,336.541 1404.0244,336.541 Q1404.6553,336.541 1405.2488,336.2712 Q1405.8423,336.0015 1406.4731,335.4204 Z "/>
        <text fill="#000000" font-family="sans-serif" font-size="12" lengthAdjust="spacingAndGlyphs" textLength="119" x="1418" y="336.5352">CompetenciaTecnica</text>
        <line style="stroke: #A80036; stroke-width: 1.5;" x1="1390" x2="1539" y1="348" y2="348"/>
        <text fill="#000000" font-family="sans-serif" font-size="11" lengthAdjust="spacingAndGlyphs" textLength="78" x="1395" y="362.6348">-String codigo</text>
        <text fill="#000000" font-family="sans-serif" font-size="11" lengthAdjust="spacingAndGlyphs" textLength="95" x="1395" y="375.5898">-String descBreve</text>
        <text fill="#000000" font-family="sans-serif" font-size="11" lengthAdjust="spacingAndGlyphs" textLength="119" x="1395" y="388.5449">-String descDetalhada</text>
        <!--class GrauProficiencia-->
        <rect fill="#FEFECE" filter="url(#f1h4m6x47ez243)" height="65.9102" style="stroke: #A80036; stroke-width: 1.5;" width="125" x="1861" y="322.5"/>
        <ellipse cx="1876" cy="338.5" fill="#ADD1B2" rx="11" ry="11" style="stroke: #A80036; stroke-width: 1.0;"/>
        <path d="M1878.4731,344.6431 Q1877.8921,344.9419 1877.2529,345.0913 Q1876.6138,345.2407 1875.9082,345.2407 Q1873.4014,345.2407 1872.0815,343.5889 Q1870.7617,341.937 1870.7617,338.8159 Q1870.7617,335.6865 1872.0815,334.0347 Q1873.4014,332.3828 1875.9082,332.3828 Q1876.6138,332.3828 1877.2612,332.5322 Q1877.9087,332.6816 1878.4731,332.9805 L1878.4731,335.7031 Q1877.8423,335.1221 1877.2488,334.8523 Q1876.6553,334.5825 1876.0244,334.5825 Q1874.6797,334.5825 1873.9949,335.6492 Q1873.3101,336.7158 1873.3101,338.8159 Q1873.3101,340.9077 1873.9949,341.9744 Q1874.6797,343.041 1876.0244,343.041 Q1876.6553,343.041 1877.2488,342.7712 Q1877.8423,342.5015 1878.4731,341.9204 Z "/>
        <text fill="#000000" font-family="sans-serif" font-size="12" lengthAdjust="spacingAndGlyphs" textLength="93" x="1890" y="343.0352">GrauProficiencia</text>
        <line style="stroke: #A80036; stroke-width: 1.5;" x1="1862" x2="1985" y1="354.5" y2="354.5"/>
        <text fill="#000000" font-family="sans-serif" font-size="11" lengthAdjust="spacingAndGlyphs" textLength="74" x="1867" y="369.1348">-Integer valor</text>
        <text fill="#000000" font-family="sans-serif" font-size="11" lengthAdjust="spacingAndGlyphs" textLength="102" x="1867" y="382.0898">-String designacao</text>
        <!--class Categoria-->
        <rect fill="#FEFECE" filter="url(#f1h4m6x47ez243)" height="65.9102" style="stroke: #A80036; stroke-width: 1.5;" width="105" x="861" y="299.5"/>
        <ellipse cx="884.1" cy="315.5" fill="#ADD1B2" rx="11" ry="11" style="stroke: #A80036; stroke-width: 1.0;"/>
        <path d="M886.5731,321.6431 Q885.9921,321.9419 885.3529,322.0913 Q884.7138,322.2407 884.0082,322.2407 Q881.5014,322.2407 880.1815,320.5889 Q878.8617,318.937 878.8617,315.8159 Q878.8617,312.6865 880.1815,311.0347 Q881.5014,309.3828 884.0082,309.3828 Q884.7138,309.3828 885.3612,309.5322 Q886.0087,309.6816 886.5731,309.9805 L886.5731,312.7031 Q885.9423,312.1221 885.3488,311.8523 Q884.7553,311.5825 884.1244,311.5825 Q882.7797,311.5825 882.0949,312.6492 Q881.4101,313.7158 881.4101,315.8159 Q881.4101,317.9077 882.0949,318.9744 Q882.7797,320.041 884.1244,320.041 Q884.7553,320.041 885.3488,319.7712 Q885.9423,319.5015 886.5731,318.9204 Z "/>
        <text fill="#000000" font-family="sans-serif" font-size="12" lengthAdjust="spacingAndGlyphs" textLength="55" x="899.9" y="320.0352">Categoria</text>
        <line style="stroke: #A80036; stroke-width: 1.5;" x1="862" x2="965" y1="331.5" y2="331.5"/>
        <text fill="#000000" font-family="sans-serif" font-size="11" lengthAdjust="spacingAndGlyphs" textLength="51" x="867" y="346.1348">-String id</text>
        <text fill="#000000" font-family="sans-serif" font-size="11" lengthAdjust="spacingAndGlyphs" textLength="93" x="867" y="359.0898">-String descricao</text>
        <!--class CaraterCT-->
        <rect fill="#FEFECE" filter="url(#f1h4m6x47ez243)" height="52.9551" style="stroke: #A80036; stroke-width: 1.5;" width="123" x="1116" y="472"/>
        <ellipse cx="1145.4" cy="488" fill="#ADD1B2" rx="11" ry="11" style="stroke: #A80036; stroke-width: 1.0;"/>
        <path d="M1147.8731,494.1431 Q1147.2921,494.4419 1146.6529,494.5913 Q1146.0138,494.7407 1145.3082,494.7407 Q1142.8014,494.7407 1141.4815,493.0889 Q1140.1617,491.437 1140.1617,488.3159 Q1140.1617,485.1865 1141.4815,483.5347 Q1142.8014,481.8828 1145.3082,481.8828 Q1146.0138,481.8828 1146.6612,482.0322 Q1147.3087,482.1816 1147.8731,482.4805 L1147.8731,485.2031 Q1147.2423,484.6221 1146.6488,484.3523 Q1146.0553,484.0825 1145.4244,484.0825 Q1144.0797,484.0825 1143.3949,485.1492 Q1142.7101,486.2158 1142.7101,488.3159 Q1142.7101,490.4077 1143.3949,491.4744 Q1144.0797,492.541 1145.4244,492.541 Q1146.0553,492.541 1146.6488,492.2712 Q1147.2423,492.0015 1147.8731,491.4204 Z "/>
        <text fill="#000000" font-family="sans-serif" font-size="12" lengthAdjust="spacingAndGlyphs" textLength="59" x="1162.6" y="492.5352">CaraterCT</text>
        <line style="stroke: #A80036; stroke-width: 1.5;" x1="1117" x2="1238" y1="504" y2="504"/>
        <text fill="#000000" font-family="sans-serif" font-size="11" lengthAdjust="spacingAndGlyphs" textLength="111" x="1122" y="518.6348">-Boolean obrigatoria</text>
        <!--class Tarefa-->
        <rect fill="#FEFECE" filter="url(#f1h4m6x47ez243)" height="117.7305" style="stroke: #A80036; stroke-width: 1.5;" width="123" x="549.5" y="176.5"/>
        <ellipse cx="588.35" cy="192.5" fill="#ADD1B2" rx="11" ry="11" style="stroke: #A80036; stroke-width: 1.0;"/>
        <path d="M590.8231,198.6431 Q590.2421,198.9419 589.6029,199.0913 Q588.9638,199.2407 588.2582,199.2407 Q585.7514,199.2407 584.4315,197.5889 Q583.1117,195.937 583.1117,192.8159 Q583.1117,189.6865 584.4315,188.0347 Q585.7514,186.3828 588.2582,186.3828 Q588.9638,186.3828 589.6112,186.5322 Q590.2587,186.6816 590.8231,186.9805 L590.8231,189.7031 Q590.1923,189.1221 589.5988,188.8523 Q589.0053,188.5825 588.3744,188.5825 Q587.0297,188.5825 586.3449,189.6492 Q585.6601,190.7158 585.6601,192.8159 Q585.6601,194.9077 586.3449,195.9744 Q587.0297,197.041 588.3744,197.041 Q589.0053,197.041 589.5988,196.7712 Q590.1923,196.5015 590.8231,195.9204 Z "/>
        <text fill="#000000" font-family="sans-serif" font-size="12" lengthAdjust="spacingAndGlyphs" textLength="38" x="607.65" y="197.0352">Tarefa</text>
        <line style="stroke: #A80036; stroke-width: 1.5;" x1="550.5" x2="671.5" y1="208.5" y2="208.5"/>
        <text fill="#000000" font-family="sans-serif" font-size="11" lengthAdjust="spacingAndGlyphs" textLength="95" x="555.5" y="223.1348">-String referencia</text>
        <text fill="#000000" font-family="sans-serif" font-size="11" lengthAdjust="spacingAndGlyphs" textLength="102" x="555.5" y="236.0898">-String designacao</text>
        <text fill="#000000" font-family="sans-serif" font-size="11" lengthAdjust="spacingAndGlyphs" textLength="111" x="555.5" y="249.0449">-String descInformal</text>
        <text fill="#000000" font-family="sans-serif" font-size="11" lengthAdjust="spacingAndGlyphs" textLength="107" x="555.5" y="262">-String descTecnica</text>
        <text fill="#000000" font-family="sans-serif" font-size="11" lengthAdjust="spacingAndGlyphs" textLength="107" x="555.5" y="274.9551">-Integer duracaoEst</text>
        <text fill="#000000" font-family="sans-serif" font-size="11" lengthAdjust="spacingAndGlyphs" textLength="93" x="555.5" y="287.9102">-Double custoEst</text>
        <!--class Freelancer-->
        <rect fill="#FEFECE" filter="url(#f1h4m6x47ez243)" height="91.8203" style="stroke: #A80036; stroke-width: 1.5;" width="96" x="865.5" y="99.5"/>
        <ellipse cx="882.3" cy="115.5" fill="#ADD1B2" rx="11" ry="11" style="stroke: #A80036; stroke-width: 1.0;"/>
        <path d="M884.7731,121.6431 Q884.1921,121.9419 883.5529,122.0913 Q882.9138,122.2407 882.2082,122.2407 Q879.7014,122.2407 878.3815,120.5889 Q877.0617,118.937 877.0617,115.8159 Q877.0617,112.6865 878.3815,111.0347 Q879.7014,109.3828 882.2082,109.3828 Q882.9138,109.3828 883.5612,109.5322 Q884.2087,109.6816 884.7731,109.9805 L884.7731,112.7031 Q884.1423,112.1221 883.5488,111.8523 Q882.9553,111.5825 882.3244,111.5825 Q880.9797,111.5825 880.2949,112.6492 Q879.6101,113.7158 879.6101,115.8159 Q879.6101,117.9077 880.2949,118.9744 Q880.9797,120.041 882.3244,120.041 Q882.9553,120.041 883.5488,119.7712 Q884.1423,119.5015 884.7731,118.9204 Z "/>
        <text fill="#000000" font-family="sans-serif" font-size="12" lengthAdjust="spacingAndGlyphs" textLength="60" x="896.7" y="120.0352">Freelancer</text>
        <line style="stroke: #A80036; stroke-width: 1.5;" x1="866.5" x2="960.5" y1="131.5" y2="131.5"/>
        <text fill="#000000" font-family="sans-serif" font-size="11" lengthAdjust="spacingAndGlyphs" textLength="71" x="871.5" y="146.1348">-String nome</text>
        <text fill="#000000" font-family="sans-serif" font-size="11" lengthAdjust="spacingAndGlyphs" textLength="58" x="871.5" y="159.0898">-String NIF</text>
        <text fill="#000000" font-family="sans-serif" font-size="11" lengthAdjust="spacingAndGlyphs" textLength="84" x="871.5" y="172.0449">-String telefone</text>
        <text fill="#000000" font-family="sans-serif" font-size="11" lengthAdjust="spacingAndGlyphs" textLength="69" x="871.5" y="185">-String email</text>
        <!--class ReconhecimentoCT-->
        <rect fill="#FEFECE" filter="url(#f1h4m6x47ez243)" height="52.9551" style="stroke: #A80036; stroke-width: 1.5;" width="157" x="1099" y="134"/>
        <ellipse cx="1120.75" cy="150" fill="#ADD1B2" rx="11" ry="11" style="stroke: #A80036; stroke-width: 1.0;"/>
        <path d="M1123.2231,156.1431 Q1122.6421,156.4419 1122.0029,156.5913 Q1121.3638,156.7407 1120.6582,156.7407 Q1118.1514,156.7407 1116.8315,155.0889 Q1115.5117,153.437 1115.5117,150.3159 Q1115.5117,147.1865 1116.8315,145.5347 Q1118.1514,143.8828 1120.6582,143.8828 Q1121.3638,143.8828 1122.0112,144.0322 Q1122.6587,144.1816 1123.2231,144.4805 L1123.2231,147.2031 Q1122.5923,146.6221 1121.9988,146.3523 Q1121.4053,146.0825 1120.7744,146.0825 Q1119.4297,146.0825 1118.7449,147.1492 Q1118.0601,148.2158 1118.0601,150.3159 Q1118.0601,152.4077 1118.7449,153.4744 Q1119.4297,154.541 1120.7744,154.541 Q1121.4053,154.541 1121.9988,154.2712 Q1122.5923,154.0015 1123.2231,153.4204 Z "/>
        <text fill="#000000" font-family="sans-serif" font-size="12" lengthAdjust="spacingAndGlyphs" textLength="110" x="1136.25" y="154.5352">ReconhecimentoCT</text>
        <line style="stroke: #A80036; stroke-width: 1.5;" x1="1100" x2="1255" y1="166" y2="166"/>
        <text fill="#000000" font-family="sans-serif" font-size="11" lengthAdjust="spacingAndGlyphs" textLength="145" x="1105" y="180.6348">-Date dataReconhecimento</text>
        <!--class HabilitacaoAcademica-->
        <rect fill="#FEFECE" filter="url(#f1h4m6x47ez243)" height="91.8203" style="stroke: #A80036; stroke-width: 1.5;" width="159" x="1098" y="222.5"/>
        <ellipse cx="1113" cy="238.5" fill="#ADD1B2" rx="11" ry="11" style="stroke: #A80036; stroke-width: 1.0;"/>
        <path d="M1115.4731,244.6431 Q1114.8921,244.9419 1114.2529,245.0913 Q1113.6138,245.2407 1112.9082,245.2407 Q1110.4014,245.2407 1109.0815,243.5889 Q1107.7617,241.937 1107.7617,238.8159 Q1107.7617,235.6865 1109.0815,234.0347 Q1110.4014,232.3828 1112.9082,232.3828 Q1113.6138,232.3828 1114.2612,232.5322 Q1114.9087,232.6816 1115.4731,232.9805 L1115.4731,235.7031 Q1114.8423,235.1221 1114.2488,234.8523 Q1113.6553,234.5825 1113.0244,234.5825 Q1111.6797,234.5825 1110.9949,235.6492 Q1110.3101,236.7158 1110.3101,238.8159 Q1110.3101,240.9077 1110.9949,241.9744 Q1111.6797,243.041 1113.0244,243.041 Q1113.6553,243.041 1114.2488,242.7712 Q1114.8423,242.5015 1115.4731,241.9204 Z "/>
        <text fill="#000000" font-family="sans-serif" font-size="12" lengthAdjust="spacingAndGlyphs" textLength="127" x="1127" y="243.0352">HabilitacaoAcademica</text>
        <line style="stroke: #A80036; stroke-width: 1.5;" x1="1099" x2="1256" y1="254.5" y2="254.5"/>
        <text fill="#000000" font-family="sans-serif" font-size="11" lengthAdjust="spacingAndGlyphs" textLength="66" x="1104" y="269.1348">-String grau</text>
        <text fill="#000000" font-family="sans-serif" font-size="11" lengthAdjust="spacingAndGlyphs" textLength="135" x="1104" y="282.0898">-String designacaoCurso</text>
        <text fill="#000000" font-family="sans-serif" font-size="11" lengthAdjust="spacingAndGlyphs" textLength="127" x="1104" y="295.0449">-String nomeInstituicao</text>
        <text fill="#000000" font-family="sans-serif" font-size="11" lengthAdjust="spacingAndGlyphs" textLength="112" x="1104" y="308">-Double mediaCurso</text>
        <!--class Anuncio-->
        <rect fill="#FEFECE" filter="url(#f1h4m6x47ez243)" height="117.7305" style="stroke: #A80036; stroke-width: 1.5;" width="151" x="250" y="151.5"/>
        <ellipse cx="298.75" cy="167.5" fill="#ADD1B2" rx="11" ry="11" style="stroke: #A80036; stroke-width: 1.0;"/>
        <path d="M301.2231,173.6431 Q300.6421,173.9419 300.0029,174.0913 Q299.3638,174.2407 298.6582,174.2407 Q296.1514,174.2407 294.8315,172.5889 Q293.5117,170.937 293.5117,167.8159 Q293.5117,164.6865 294.8315,163.0347 Q296.1514,161.3828 298.6582,161.3828 Q299.3638,161.3828 300.0112,161.5322 Q300.6587,161.6816 301.2231,161.9805 L301.2231,164.7031 Q300.5923,164.1221 299.9988,163.8523 Q299.4053,163.5825 298.7744,163.5825 Q297.4297,163.5825 296.7449,164.6492 Q296.0601,165.7158 296.0601,167.8159 Q296.0601,169.9077 296.7449,170.9744 Q297.4297,172.041 298.7744,172.041 Q299.4053,172.041 299.9988,171.7712 Q300.5923,171.5015 301.2231,170.9204 Z "/>
        <text fill="#000000" font-family="sans-serif" font-size="12" lengthAdjust="spacingAndGlyphs" textLength="45" x="319.25" y="172.0352">Anuncio</text>
        <line style="stroke: #A80036; stroke-width: 1.5;" x1="251" x2="400" y1="183.5" y2="183.5"/>
        <text fill="#000000" font-family="sans-serif" font-size="11" lengthAdjust="spacingAndGlyphs" textLength="137" x="256" y="198.1348">-Date dtInicioPublicitacao</text>
        <text fill="#000000" font-family="sans-serif" font-size="11" lengthAdjust="spacingAndGlyphs" textLength="127" x="256" y="211.0898">-Date dtFimPublicitacao</text>
        <text fill="#000000" font-family="sans-serif" font-size="11" lengthAdjust="spacingAndGlyphs" textLength="139" x="256" y="224.0449">-Date dtInicioCandidatura</text>
        <text fill="#000000" font-family="sans-serif" font-size="11" lengthAdjust="spacingAndGlyphs" textLength="129" x="256" y="237">-Date dtFimCandidatura</text>
        <text fill="#000000" font-family="sans-serif" font-size="11" lengthAdjust="spacingAndGlyphs" textLength="118" x="256" y="249.9551">-Date dtInicioSeriacao</text>
        <text fill="#000000" font-family="sans-serif" font-size="11" lengthAdjust="spacingAndGlyphs" textLength="108" x="256" y="262.9102">-Date dtFimSeriacao</text>
        <!--class Candidatura-->
        <rect fill="#FEFECE" filter="url(#f1h4m6x47ez243)" height="104.7754" style="stroke: #A80036; stroke-width: 1.5;" width="144" x="539" y="36"/>
        <ellipse cx="572.45" cy="52" fill="#ADD1B2" rx="11" ry="11" style="stroke: #A80036; stroke-width: 1.0;"/>
        <path d="M574.9231,58.1431 Q574.3421,58.4419 573.7029,58.5913 Q573.0638,58.7407 572.3582,58.7407 Q569.8514,58.7407 568.5315,57.0889 Q567.2117,55.437 567.2117,52.3159 Q567.2117,49.1865 568.5315,47.5347 Q569.8514,45.8828 572.3582,45.8828 Q573.0638,45.8828 573.7112,46.0322 Q574.3587,46.1816 574.9231,46.4805 L574.9231,49.2031 Q574.2923,48.6221 573.6988,48.3523 Q573.1053,48.0825 572.4744,48.0825 Q571.1297,48.0825 570.4449,49.1492 Q569.7601,50.2158 569.7601,52.3159 Q569.7601,54.4077 570.4449,55.4744 Q571.1297,56.541 572.4744,56.541 Q573.1053,56.541 573.6988,56.2712 Q574.2923,56.0015 574.9231,55.4204 Z "/>
        <text fill="#000000" font-family="sans-serif" font-size="12" lengthAdjust="spacingAndGlyphs" textLength="71" x="590.55" y="56.5352">Candidatura</text>
        <line style="stroke: #A80036; stroke-width: 1.5;" x1="540" x2="682" y1="68" y2="68"/>
        <text fill="#000000" font-family="sans-serif" font-size="11" lengthAdjust="spacingAndGlyphs" textLength="122" x="545" y="82.6348">-Date dataCandidatura</text>
        <text fill="#000000" font-family="sans-serif" font-size="11" lengthAdjust="spacingAndGlyphs" textLength="132" x="545" y="95.5898">-Double valorPretendido</text>
        <text fill="#000000" font-family="sans-serif" font-size="11" lengthAdjust="spacingAndGlyphs" textLength="82" x="545" y="108.5449">-Integer nrDias</text>
        <text fill="#000000" font-family="sans-serif" font-size="11" lengthAdjust="spacingAndGlyphs" textLength="130" x="545" y="121.5">-String txtApresentacao</text>
        <text fill="#000000" font-family="sans-serif" font-size="11" lengthAdjust="spacingAndGlyphs" textLength="110" x="545" y="134.4551">-String txtMotivacao</text>
        <ellipse cx="1177.5" cy="355.5" fill="#000000" rx="2" ry="2" style="stroke: none; stroke-width: 1.0;"/>
        <path d="M88.09,290.15 C130.95,334.46 225.3,418.5 324.5,418.5 C324.5,418.5 324.5,418.5 1178.5,418.5 C1251.22,418.5 1331.96,398.7 1388.89,381.31 " fill="none" style="stroke: #A80036; stroke-width: 1.0;"/>
        <text fill="#000000" font-family="sans-serif" font-size="13" lengthAdjust="spacingAndGlyphs" textLength="42" x="744.5" y="415.0684">possui</text>
        <polygon fill="#000000" points="789.5,408.6553,795.5,411.6553,789.5,414.6553,789.5,408.6553" style="stroke: #000000; stroke-width: 1.0;"/>
        <text fill="#000000" font-family="sans-serif" font-size="13" lengthAdjust="spacingAndGlyphs" textLength="8" x="84.9671" y="310.6566">1</text>
        <text fill="#000000" font-family="sans-serif" font-size="13" lengthAdjust="spacingAndGlyphs" textLength="6" x="1374.7833" y="397.3364">*</text>
        <path d="M120.09,271.36 C156.96,276.38 206.3,282.79 250,287.5 C378.18,301.31 410.39,303.5 539,312.5 C653.82,320.54 788.69,327.03 860.81,330.27 " fill="none" style="stroke: #A80036; stroke-width: 1.0;"/>
        <text fill="#000000" font-family="sans-serif" font-size="13" lengthAdjust="spacingAndGlyphs" textLength="42" x="442.5" y="301.0684">possui</text>
        <polygon fill="#000000" points="487.5,294.6553,493.5,297.6553,487.5,300.6553,487.5,294.6553" style="stroke: #000000; stroke-width: 1.0;"/>
        <text fill="#000000" font-family="sans-serif" font-size="13" lengthAdjust="spacingAndGlyphs" textLength="8" x="127.9172" y="285.9191">1</text>
        <text fill="#000000" font-family="sans-serif" font-size="13" lengthAdjust="spacingAndGlyphs" textLength="6" x="846.9786" y="343.6076">*</text>
        <path d="M120.2,252.07 C158.05,244.37 208.37,234.13 249.61,225.74 " fill="none" style="stroke: #A80036; stroke-width: 1.0;"/>
        <text fill="#000000" font-family="sans-serif" font-size="13" lengthAdjust="spacingAndGlyphs" textLength="55" x="151" y="228.0684">publicita</text>
        <polygon fill="#000000" points="209,221.6553,215,224.6553,209,227.6553,209,221.6553" style="stroke: #000000; stroke-width: 1.0;"/>
        <text fill="#000000" font-family="sans-serif" font-size="13" lengthAdjust="spacingAndGlyphs" textLength="8" x="128.0413" y="264.1576">1</text>
        <text fill="#000000" font-family="sans-serif" font-size="13" lengthAdjust="spacingAndGlyphs" textLength="6" x="236.0908" y="240.5034">*</text>
        <path d="M97.09,236.82 C133.15,208.61 193.3,164.06 250,133.5 C371.69,67.91 403.23,44.52 539,18.5 C669.39,-6.49 716.72,13.92 831,81.5 C842.61,88.37 854.42,96.71 865.3,105.06 " fill="none" style="stroke: #A80036; stroke-width: 1.0;"/>
        <text fill="#000000" font-family="sans-serif" font-size="13" lengthAdjust="spacingAndGlyphs" textLength="53" x="437" y="22.0684">tem/usa</text>
        <polygon fill="#000000" points="493,15.6553,499,18.6553,493,21.6553,493,15.6553" style="stroke: #000000; stroke-width: 1.0;"/>
        <text fill="#000000" font-family="sans-serif" font-size="13" lengthAdjust="spacingAndGlyphs" textLength="8" x="96.4244" y="226.1003">1</text>
        <text fill="#000000" font-family="sans-serif" font-size="13" lengthAdjust="spacingAndGlyphs" textLength="6" x="851.46" y="112.622">*</text>
        <path d="M1540.2,355.5 C1629.66,355.5 1777.83,355.5 1860.99,355.5 " fill="none" style="stroke: #A80036; stroke-width: 1.0;"/>
        <text fill="#000000" font-family="sans-serif" font-size="13" lengthAdjust="spacingAndGlyphs" textLength="37" x="1749" y="352.0684">aplica</text>
        <polygon fill="#000000" points="1789,345.6553,1795,348.6553,1789,351.6553,1789,345.6553" style="stroke: #000000; stroke-width: 1.0;"/>
        <text fill="#000000" font-family="sans-serif" font-size="13" lengthAdjust="spacingAndGlyphs" textLength="8" x="1548.0455" y="368.8286">1</text>
        <text fill="#000000" font-family="sans-serif" font-size="13" lengthAdjust="spacingAndGlyphs" textLength="6" x="1847.006" y="352.1787">*</text>
        <path d="M966.26,337.04 C1037.85,343.33 1159.99,354.05 1174.98,355.37 " fill="none" style="stroke: #A80036; stroke-width: 1.0;"/>
        <text fill="#000000" font-family="sans-serif" font-size="13" lengthAdjust="spacingAndGlyphs" textLength="40" x="1005.5" y="336.0684">requer</text>
        <polygon fill="#000000" points="1048.5,329.6553,1054.5,332.6553,1048.5,335.6553,1048.5,329.6553" style="stroke: #000000; stroke-width: 1.0;"/>
        <text fill="#000000" font-family="sans-serif" font-size="13" lengthAdjust="spacingAndGlyphs" textLength="6" x="974.1012" y="351.3296">*</text>
        <path d="M1179.53,355.5 C1191.7,355.5 1308.84,355.5 1388.81,355.5 " fill="none" style="stroke: #A80036; stroke-width: 1.0;"/>
        <text fill="#000000" font-family="sans-serif" font-size="13" lengthAdjust="spacingAndGlyphs" textLength="6" x="1375.064" y="368.8286">*</text>
        <path d="M1177.5,357.77 C1177.5,395.84 1177.5,433.9 1177.5,471.97 " fill="none" style="stroke: #A80036; stroke-width: 1.0; stroke-dasharray: 7.0,7.0;"/>
        <path d="M1239.07,486.86 C1378.45,460.07 1720.66,394.29 1860.97,367.33 " fill="none" style="stroke: #A80036; stroke-width: 1.0;"/>
        <text fill="#000000" font-family="sans-serif" font-size="13" lengthAdjust="spacingAndGlyphs" textLength="133" x="1571" y="391.0684">exige (como minimo)</text>
        <polygon fill="#000000" points="1707,384.6553,1713,387.6553,1707,390.6553,1707,384.6553" style="stroke: #000000; stroke-width: 1.0;"/>
        <text fill="#000000" font-family="sans-serif" font-size="13" lengthAdjust="spacingAndGlyphs" textLength="6" x="1246.9395" y="498.9455">*</text>
        <text fill="#000000" font-family="sans-serif" font-size="13" lengthAdjust="spacingAndGlyphs" textLength="8" x="1844.8617" y="382.2786">1</text>
        <path d="M401.36,217.1 C447.45,221.17 505.8,226.31 549.06,230.13 " fill="none" style="stroke: #A80036; stroke-width: 1.0;"/>
        <text fill="#000000" font-family="sans-serif" font-size="13" lengthAdjust="spacingAndGlyphs" textLength="55" x="436" y="216.0684">publicita</text>
        <polygon fill="#000000" points="494,209.6553,500,212.6553,494,215.6553,494,209.6553" style="stroke: #000000; stroke-width: 1.0;"/>
        <text fill="#000000" font-family="sans-serif" font-size="13" lengthAdjust="spacingAndGlyphs" textLength="24" x="408.9105" y="230.905">0..1</text>
        <text fill="#000000" font-family="sans-serif" font-size="13" lengthAdjust="spacingAndGlyphs" textLength="8" x="533.4357" y="242.9782">1</text>
        <path d="M401.18,242.81 C411.05,245.98 421.16,248.68 431,250.5 C469.95,257.7 514.3,254.06 549.12,248.57 " fill="none" style="stroke: #A80036; stroke-width: 1.0;"/>
        <polygon fill="#000000" points="439,240.6553,433,243.6553,439,246.6553,439,240.6553" style="stroke: #000000; stroke-width: 1.0;"/>
        <text fill="#000000" font-family="sans-serif" font-size="13" lengthAdjust="spacingAndGlyphs" textLength="63" x="445" y="247.0684">da origem</text>
        <text fill="#000000" font-family="sans-serif" font-size="13" lengthAdjust="spacingAndGlyphs" textLength="24" x="408.989" y="258.9498">0..1</text>
        <text fill="#000000" font-family="sans-serif" font-size="13" lengthAdjust="spacingAndGlyphs" textLength="8" x="533.5026" y="263.5503">1</text>
        <path d="M401.36,178.29 C443.85,160 496.74,137.24 538.64,119.21 " fill="none" style="stroke: #A80036; stroke-width: 1.0;"/>
        <text fill="#000000" font-family="sans-serif" font-size="13" lengthAdjust="spacingAndGlyphs" textLength="41" x="443" y="132.0684">recebe</text>
        <polygon fill="#000000" points="487,125.6553,493,128.6553,487,131.6553,487,125.6553" style="stroke: #000000; stroke-width: 1.0;"/>
        <text fill="#000000" font-family="sans-serif" font-size="13" lengthAdjust="spacingAndGlyphs" textLength="8" x="408.9717" y="188.5308">1</text>
        <text fill="#000000" font-family="sans-serif" font-size="13" lengthAdjust="spacingAndGlyphs" textLength="6" x="524.8685" y="135.7464">*</text>
        <path d="M672.81,255.13 C728.03,272.95 808.6,298.96 860.79,315.81 " fill="none" style="stroke: #A80036; stroke-width: 1.0;"/>
        <text fill="#000000" font-family="sans-serif" font-size="13" lengthAdjust="spacingAndGlyphs" textLength="103" x="714" y="266.0684">enquadra-se em</text>
        <polygon fill="#000000" points="820,259.6553,826,262.6553,820,265.6553,820,259.6553" style="stroke: #000000; stroke-width: 1.0;"/>
        <text fill="#000000" font-family="sans-serif" font-size="13" lengthAdjust="spacingAndGlyphs" textLength="6" x="680.3037" y="270.8688">*</text>
        <text fill="#000000" font-family="sans-serif" font-size="13" lengthAdjust="spacingAndGlyphs" textLength="8" x="845.1696" y="310.1547">1</text>
        <path d="M683.28,137.01 C692.93,141.71 702.97,145.75 713,148.5 C763.6,162.4 824.18,158.8 865.21,153.54 " fill="none" style="stroke: #A80036; stroke-width: 1.0;"/>
        <text fill="#000000" font-family="sans-serif" font-size="13" lengthAdjust="spacingAndGlyphs" textLength="81" x="725" y="145.0684">realizada por</text>
        <polygon fill="#000000" points="809,138.6553,815,141.6553,809,144.6553,809,138.6553" style="stroke: #000000; stroke-width: 1.0;"/>
        <text fill="#000000" font-family="sans-serif" font-size="13" lengthAdjust="spacingAndGlyphs" textLength="6" x="691.0433" y="155.382">*</text>
        <text fill="#000000" font-family="sans-serif" font-size="13" lengthAdjust="spacingAndGlyphs" textLength="8" x="849.5299" y="168.4268">1</text>
        <path d="M683.15,100.41 C726.06,107.78 781.76,117.68 831,127.5 C842.08,129.71 853.98,132.24 865.16,134.7 " fill="none" style="stroke: #A80036; stroke-width: 1.0;"/>
        <polygon fill="#000000" points="748,96.6553,742,99.6553,748,102.6553,748,96.6553" style="stroke: #000000; stroke-width: 1.0;"/>
        <text fill="#000000" font-family="sans-serif" font-size="13" lengthAdjust="spacingAndGlyphs" textLength="49" x="754" y="103.0684">atualiza</text>
        <text fill="#000000" font-family="sans-serif" font-size="13" lengthAdjust="spacingAndGlyphs" textLength="22" x="691.0752" y="114.8539">1..*</text>
        <text fill="#000000" font-family="sans-serif" font-size="13" lengthAdjust="spacingAndGlyphs" textLength="8" x="849.4726" y="146.8197">1</text>
        <path d="M961.64,167.63 C999.51,185.41 1053.49,210.75 1097.88,231.59 " fill="none" style="stroke: #A80036; stroke-width: 1.0;"/>
        <text fill="#000000" font-family="sans-serif" font-size="13" lengthAdjust="spacingAndGlyphs" textLength="24" x="1013.5" y="181.0684">tem</text>
        <polygon fill="#000000" points="1040.5,174.6553,1046.5,177.6553,1040.5,180.6553,1040.5,174.6553" style="stroke: #000000; stroke-width: 1.0;"/>
        <text fill="#000000" font-family="sans-serif" font-size="13" lengthAdjust="spacingAndGlyphs" textLength="8" x="969.6239" y="184.773">1</text>
        <text fill="#000000" font-family="sans-serif" font-size="13" lengthAdjust="spacingAndGlyphs" textLength="6" x="1084.0053" y="241.3786">*</text>
        <path d="M961.64,148.2 C999.8,150.38 1054.33,153.51 1098.91,156.06 " fill="none" style="stroke: #A80036; stroke-width: 1.0;"/>
        <text fill="#000000" font-family="sans-serif" font-size="13" lengthAdjust="spacingAndGlyphs" textLength="57" x="997" y="147.0684">recebe(u)</text>
        <polygon fill="#000000" points="1057,140.6553,1063,143.6553,1057,146.6553,1057,140.6553" style="stroke: #000000; stroke-width: 1.0;"/>
        <text fill="#000000" font-family="sans-serif" font-size="13" lengthAdjust="spacingAndGlyphs" textLength="8" x="969.6239" y="162.3678">1</text>
        <text fill="#000000" font-family="sans-serif" font-size="13" lengthAdjust="spacingAndGlyphs" textLength="6" x="1084.8785" y="168.9471">*</text>
        <path d="M1227.27,187.11 C1237.26,192.93 1247.58,199.23 1257,205.5 C1270.99,214.81 1273.51,218.48 1287,228.5 C1327,258.21 1372.68,291.05 1407.54,315.89 " fill="none" style="stroke: #A80036; stroke-width: 1.0;"/>
        <text fill="#000000" font-family="sans-serif" font-size="13" lengthAdjust="spacingAndGlyphs" textLength="57" x="1288" y="225.0684">relativa a</text>
        <polygon fill="#000000" points="1348,218.6553,1354,221.6553,1348,224.6553,1348,218.6553" style="stroke: #000000; stroke-width: 1.0;"/>
        <text fill="#000000" font-family="sans-serif" font-size="13" lengthAdjust="spacingAndGlyphs" textLength="6" x="1232.0856" y="207.6074">*</text>
        <text fill="#000000" font-family="sans-serif" font-size="13" lengthAdjust="spacingAndGlyphs" textLength="8" x="1389.0625" y="305.3996">1</text>
        <path d="M1256.25,180.01 C1378.71,210.88 1623.91,273.27 1831,329.5 C1840.56,332.1 1850.67,334.9 1860.54,337.68 " fill="none" style="stroke: #A80036; stroke-width: 1.0;"/>
        <text fill="#000000" font-family="sans-serif" font-size="13" lengthAdjust="spacingAndGlyphs" textLength="50" x="1612.5" y="258.0684">reconhe</text>
        <polygon fill="#000000" points="1665.5,251.6553,1671.5,254.6553,1665.5,257.6553,1665.5,251.6553" style="stroke: #000000; stroke-width: 1.0;"/>
        <text fill="#000000" font-family="sans-serif" font-size="13" lengthAdjust="spacingAndGlyphs" textLength="6" x="1264.0418" y="195.1697">*</text>
        <text fill="#000000" font-family="sans-serif" font-size="13" lengthAdjust="spacingAndGlyphs" textLength="8" x="1844.7978" y="332.3439">1</text>
        <!--
@startuml
skinparam classAttributeIconSize 0
hide methods
left to right direction

class Plataforma {
  -String designacao
}

class CompetenciaTecnica {
  -String codigo
  -String descBreve
  -String descDetalhada
}

class GrauProficiencia {
  -Integer valor
  -String designacao
}

class Categoria {
  -String id
  -String descricao
}

class CaraterCT {
  -Boolean obrigatoria
}

class Tarefa {
  -String referencia
  -String designacao
  -String descInformal
  -String descTecnica
  -Integer duracaoEst
  -Double custoEst
}

class Freelancer {
    -String nome
    -String NIF
    -String telefone
    -String email
}

class ReconhecimentoCT {
    -Date dataReconhecimento
}

class HabilitacaoAcademica {
    -String grau
    -String designacaoCurso
    -String nomeInstituicao
    -Double mediaCurso
}

class Anuncio{
    -Date dtInicioPublicitacao
    -Date dtFimPublicitacao
    -Date dtInicioCandidatura
    -Date dtFimCandidatura
    -Date dtInicioSeriacao
    -Date dtFimSeriacao
}

class Candidatura{
    -Date dataCandidatura
    -Double valorPretendido
    -Integer nrDias
    -String txtApresentacao
    -String txtMotivacao
}

Plataforma "1" - - "*" CompetenciaTecnica : possui >
Plataforma "1" - - "*" Categoria : possui >
Plataforma "1" - - "*" Anuncio : publicita >
Plataforma "1" - - "*" Freelancer : tem/usa  >

CompetenciaTecnica "1" - - - "*" GrauProficiencia : aplica  >

Categoria "*" - - "*" CompetenciaTecnica: requer >
(Categoria, CompetenciaTecnica) .. CaraterCT
CaraterCT "*" - - "1" GrauProficiencia: exige (como minimo)  >

Anuncio "0..1" - - "1" Tarefa: publicita >
Anuncio "0..1" - - "1" Tarefa: da origem <
Anuncio "1" - - "*" Candidatura: recebe >

Tarefa "*" - - "1"  Categoria: enquadra-se em >

Candidatura "*" - - "1"  Freelancer: realizada por >
Candidatura "1..*" - - "1" Freelancer: atualiza <

Freelancer "1" - - "*" HabilitacaoAcademica: tem >
Freelancer "1" - - "*" ReconhecimentoCT : recebe(u) >

ReconhecimentoCT "*" - - "1" CompetenciaTecnica: relativa a >
ReconhecimentoCT "*" - - "1" GrauProficiencia: reconhe >


@enduml

PlantUML version 2017.11(Wed Apr 19 17:18:59 WEST 2017)
(GPL source distribution)
Java Runtime: Java(TM) SE Runtime Environment
JVM: Java HotSpot(TM) 64-Bit Server VM
Java Version: 1.8.0_191-b12
Operating System: Mac OS X
OS Version: 10.15.4
Default Encoding: UTF-8
Language: pt
Country: PT
-->
    </g>
</svg>
