<?xml version="1.0" encoding="UTF-8"?><svg xmlns="http://www.w3.org/2000/svg" xmlns:xlink="http://www.w3.org/1999/xlink" contentScriptType="application/ecmascript" contentStyleType="text/css" height="620px" preserveAspectRatio="none" style="width:1218px;height:620px;" version="1.1" viewBox="0 0 1218 620" width="1218px" zoomAndPan="magnify">
    <defs>
        <filter height="300%" id="f1n28451qe4s8e" width="300%" x="-1" y="-1">
            <feGaussianBlur result="blurOut" stdDeviation="2.0"/>
            <feColorMatrix in="blurOut" result="blurOut2" type="matrix" values="0 0 0 0 0 0 0 0 0 0 0 0 0 0 0 0 0 0 .4 0"/>
            <feOffset dx="4.0" dy="4.0" in="blurOut2" result="blurOut3"/>
            <feBlend in="SourceGraphic" in2="blurOut3" mode="normal"/>
        </filter>
    </defs>
    <g>
        <!--class Plataforma-->
        <rect fill="#FEFECE" filter="url(#f1n28451qe4s8e)" height="53.8359" style="stroke: #A80036; stroke-width: 1.5;" width="103" x="6" y="333"/>
        <ellipse cx="25.95" cy="349" fill="#ADD1B2" rx="11" ry="11" style="stroke: #A80036; stroke-width: 1.0;"/>
        <path d="M28.7156,344.875 Q28.8719,344.6563 29.0594,344.5469 Q29.2469,344.4375 29.4656,344.4375 Q29.8406,344.4375 30.075,344.6953 Q30.3094,344.9531 30.3094,345.5625 L30.3094,347.0156 Q30.3094,347.625 30.075,347.8906 Q29.8406,348.1563 29.4656,348.1563 Q29.1219,348.1563 28.9188,347.9531 Q28.7156,347.7656 28.6063,347.25 Q28.5594,346.8906 28.3719,346.7031 Q28.0438,346.3281 27.4344,346.1094 Q26.825,345.8906 26.2,345.8906 Q25.4344,345.8906 24.8016,346.2188 Q24.1688,346.5469 23.6766,347.2969 Q23.1844,348.0469 23.1844,349.0781 L23.1844,350.1719 Q23.1844,351.4063 24.075,352.2266 Q24.9656,353.0469 26.5594,353.0469 Q27.4969,353.0469 28.1531,352.7969 Q28.5438,352.6406 28.9656,352.2031 Q29.2313,351.9375 29.3797,351.8594 Q29.5281,351.7813 29.7313,351.7813 Q30.0594,351.7813 30.3172,352.0391 Q30.575,352.2969 30.575,352.6406 Q30.575,352.9844 30.2313,353.3906 Q29.7313,353.9688 28.9344,354.2969 Q27.8563,354.75 26.5594,354.75 Q25.0438,354.75 23.8406,354.125 Q22.8563,353.625 22.1688,352.5547 Q21.4813,351.4844 21.4813,350.2031 L21.4813,349.0469 Q21.4813,347.7188 22.0984,346.5703 Q22.7156,345.4219 23.8094,344.8047 Q24.9031,344.1875 26.1375,344.1875 Q26.8719,344.1875 27.5203,344.3516 Q28.1688,344.5156 28.7156,344.875 Z "/>
        <text fill="#000000" font-family="sans-serif" font-size="12" lengthAdjust="spacingAndGlyphs" textLength="60" x="41.05" y="353.9102">Plataforma</text>
        <line style="stroke: #A80036; stroke-width: 1.5;" x1="7" x2="108" y1="365" y2="365"/>
        <text fill="#000000" font-family="sans-serif" font-size="11" lengthAdjust="spacingAndGlyphs" textLength="91" x="12" y="380.4189">-String designacao</text>
        <!--class Candidatura-->
        <rect fill="#FEFECE" filter="url(#f1n28451qe4s8e)" height="95.3438" style="stroke: #A80036; stroke-width: 1.5;" width="137" x="1072" y="254.5"/>
        <ellipse cx="1103.65" cy="270.5" fill="#ADD1B2" rx="11" ry="11" style="stroke: #A80036; stroke-width: 1.0;"/>
        <path d="M1106.4156,266.375 Q1106.5719,266.1563 1106.7594,266.0469 Q1106.9469,265.9375 1107.1656,265.9375 Q1107.5406,265.9375 1107.775,266.1953 Q1108.0094,266.4531 1108.0094,267.0625 L1108.0094,268.5156 Q1108.0094,269.125 1107.775,269.3906 Q1107.5406,269.6563 1107.1656,269.6563 Q1106.8219,269.6563 1106.6188,269.4531 Q1106.4156,269.2656 1106.3063,268.75 Q1106.2594,268.3906 1106.0719,268.2031 Q1105.7438,267.8281 1105.1344,267.6094 Q1104.525,267.3906 1103.9,267.3906 Q1103.1344,267.3906 1102.5016,267.7188 Q1101.8688,268.0469 1101.3766,268.7969 Q1100.8844,269.5469 1100.8844,270.5781 L1100.8844,271.6719 Q1100.8844,272.9063 1101.775,273.7266 Q1102.6656,274.5469 1104.2594,274.5469 Q1105.1969,274.5469 1105.8531,274.2969 Q1106.2438,274.1406 1106.6656,273.7031 Q1106.9313,273.4375 1107.0797,273.3594 Q1107.2281,273.2813 1107.4313,273.2813 Q1107.7594,273.2813 1108.0172,273.5391 Q1108.275,273.7969 1108.275,274.1406 Q1108.275,274.4844 1107.9313,274.8906 Q1107.4313,275.4688 1106.6344,275.7969 Q1105.5563,276.25 1104.2594,276.25 Q1102.7438,276.25 1101.5406,275.625 Q1100.5563,275.125 1099.8688,274.0547 Q1099.1813,272.9844 1099.1813,271.7031 L1099.1813,270.5469 Q1099.1813,269.2188 1099.7984,268.0703 Q1100.4156,266.9219 1101.5094,266.3047 Q1102.6031,265.6875 1103.8375,265.6875 Q1104.5719,265.6875 1105.2203,265.8516 Q1105.8688,266.0156 1106.4156,266.375 Z "/>
        <text fill="#000000" font-family="sans-serif" font-size="12" lengthAdjust="spacingAndGlyphs" textLength="68" x="1121.35" y="275.4102">Candidatura</text>
        <line style="stroke: #A80036; stroke-width: 1.5;" x1="1073" x2="1208" y1="286.5" y2="286.5"/>
        <text fill="#000000" font-family="sans-serif" font-size="11" lengthAdjust="spacingAndGlyphs" textLength="105" x="1078" y="301.9189">-Integer valorReceber</text>
        <text fill="#000000" font-family="sans-serif" font-size="11" lengthAdjust="spacingAndGlyphs" textLength="125" x="1078" y="315.7549">-DataHora diasRealizacao</text>
        <text fill="#000000" font-family="sans-serif" font-size="11" lengthAdjust="spacingAndGlyphs" textLength="106" x="1078" y="329.5908">-Freelancer candidato</text>
        <text fill="#000000" font-family="sans-serif" font-size="11" lengthAdjust="spacingAndGlyphs" textLength="59" x="1078" y="343.4268">-String texto</text>
        <!--class Anuncio-->
        <rect fill="#FEFECE" filter="url(#f1n28451qe4s8e)" height="123.0156" style="stroke: #A80036; stroke-width: 1.5;" width="131" x="819" y="442.5"/>
        <ellipse cx="858.75" cy="458.5" fill="#ADD1B2" rx="11" ry="11" style="stroke: #A80036; stroke-width: 1.0;"/>
        <path d="M861.5156,454.375 Q861.6719,454.1563 861.8594,454.0469 Q862.0469,453.9375 862.2656,453.9375 Q862.6406,453.9375 862.875,454.1953 Q863.1094,454.4531 863.1094,455.0625 L863.1094,456.5156 Q863.1094,457.125 862.875,457.3906 Q862.6406,457.6563 862.2656,457.6563 Q861.9219,457.6563 861.7188,457.4531 Q861.5156,457.2656 861.4063,456.75 Q861.3594,456.3906 861.1719,456.2031 Q860.8438,455.8281 860.2344,455.6094 Q859.625,455.3906 859,455.3906 Q858.2344,455.3906 857.6016,455.7188 Q856.9688,456.0469 856.4766,456.7969 Q855.9844,457.5469 855.9844,458.5781 L855.9844,459.6719 Q855.9844,460.9063 856.875,461.7266 Q857.7656,462.5469 859.3594,462.5469 Q860.2969,462.5469 860.9531,462.2969 Q861.3438,462.1406 861.7656,461.7031 Q862.0313,461.4375 862.1797,461.3594 Q862.3281,461.2813 862.5313,461.2813 Q862.8594,461.2813 863.1172,461.5391 Q863.375,461.7969 863.375,462.1406 Q863.375,462.4844 863.0313,462.8906 Q862.5313,463.4688 861.7344,463.7969 Q860.6563,464.25 859.3594,464.25 Q857.8438,464.25 856.6406,463.625 Q855.6563,463.125 854.9688,462.0547 Q854.2813,460.9844 854.2813,459.7031 L854.2813,458.5469 Q854.2813,457.2188 854.8984,456.0703 Q855.5156,454.9219 856.6094,454.3047 Q857.7031,453.6875 858.9375,453.6875 Q859.6719,453.6875 860.3203,453.8516 Q860.9688,454.0156 861.5156,454.375 Z "/>
        <text fill="#000000" font-family="sans-serif" font-size="12" lengthAdjust="spacingAndGlyphs" textLength="44" x="878.25" y="463.4102">Anuncio</text>
        <line style="stroke: #A80036; stroke-width: 1.5;" x1="820" x2="949" y1="474.5" y2="474.5"/>
        <text fill="#000000" font-family="sans-serif" font-size="11" lengthAdjust="spacingAndGlyphs" textLength="111" x="825" y="489.9189">-DateTime pPublicInicial</text>
        <text fill="#000000" font-family="sans-serif" font-size="11" lengthAdjust="spacingAndGlyphs" textLength="107" x="825" y="503.7549">-DateTime pPublicFinal</text>
        <text fill="#000000" font-family="sans-serif" font-size="11" lengthAdjust="spacingAndGlyphs" textLength="119" x="825" y="517.5908">-DateTime pApreseInicial</text>
        <text fill="#000000" font-family="sans-serif" font-size="11" lengthAdjust="spacingAndGlyphs" textLength="115" x="825" y="531.4268">-DateTime pApreseFinal</text>
        <text fill="#000000" font-family="sans-serif" font-size="11" lengthAdjust="spacingAndGlyphs" textLength="108" x="825" y="545.2627">-DateTime pSeriaInicial</text>
        <text fill="#000000" font-family="sans-serif" font-size="11" lengthAdjust="spacingAndGlyphs" textLength="104" x="825" y="559.0986">-DateTime pSeriaFinal</text>
        <!--class Freelancer-->
        <rect fill="#FEFECE" filter="url(#f1n28451qe4s8e)" height="95.3438" style="stroke: #A80036; stroke-width: 1.5;" width="91" x="279" y="168.5"/>
        <ellipse cx="294" cy="184.5" fill="#ADD1B2" rx="11" ry="11" style="stroke: #A80036; stroke-width: 1.0;"/>
        <path d="M296.7656,180.375 Q296.9219,180.1563 297.1094,180.0469 Q297.2969,179.9375 297.5156,179.9375 Q297.8906,179.9375 298.125,180.1953 Q298.3594,180.4531 298.3594,181.0625 L298.3594,182.5156 Q298.3594,183.125 298.125,183.3906 Q297.8906,183.6563 297.5156,183.6563 Q297.1719,183.6563 296.9688,183.4531 Q296.7656,183.2656 296.6563,182.75 Q296.6094,182.3906 296.4219,182.2031 Q296.0938,181.8281 295.4844,181.6094 Q294.875,181.3906 294.25,181.3906 Q293.4844,181.3906 292.8516,181.7188 Q292.2188,182.0469 291.7266,182.7969 Q291.2344,183.5469 291.2344,184.5781 L291.2344,185.6719 Q291.2344,186.9063 292.125,187.7266 Q293.0156,188.5469 294.6094,188.5469 Q295.5469,188.5469 296.2031,188.2969 Q296.5938,188.1406 297.0156,187.7031 Q297.2813,187.4375 297.4297,187.3594 Q297.5781,187.2813 297.7813,187.2813 Q298.1094,187.2813 298.3672,187.5391 Q298.625,187.7969 298.625,188.1406 Q298.625,188.4844 298.2813,188.8906 Q297.7813,189.4688 296.9844,189.7969 Q295.9063,190.25 294.6094,190.25 Q293.0938,190.25 291.8906,189.625 Q290.9063,189.125 290.2188,188.0547 Q289.5313,186.9844 289.5313,185.7031 L289.5313,184.5469 Q289.5313,183.2188 290.1484,182.0703 Q290.7656,180.9219 291.8594,180.3047 Q292.9531,179.6875 294.1875,179.6875 Q294.9219,179.6875 295.5703,179.8516 Q296.2188,180.0156 296.7656,180.375 Z "/>
        <text fill="#000000" font-family="sans-serif" font-size="12" lengthAdjust="spacingAndGlyphs" textLength="59" x="308" y="189.4102">Freelancer</text>
        <line style="stroke: #A80036; stroke-width: 1.5;" x1="280" x2="369" y1="200.5" y2="200.5"/>
        <text fill="#000000" font-family="sans-serif" font-size="11" lengthAdjust="spacingAndGlyphs" textLength="61" x="285" y="215.9189">-String nome</text>
        <text fill="#000000" font-family="sans-serif" font-size="11" lengthAdjust="spacingAndGlyphs" textLength="50" x="285" y="229.7549">-String NIF</text>
        <text fill="#000000" font-family="sans-serif" font-size="11" lengthAdjust="spacingAndGlyphs" textLength="77" x="285" y="243.5908">-String contacto</text>
        <text fill="#000000" font-family="sans-serif" font-size="11" lengthAdjust="spacingAndGlyphs" textLength="59" x="285" y="257.4268">-String email</text>
        <!--class Colaborador-->
        <rect fill="#FEFECE" filter="url(#f1n28451qe4s8e)" height="95.3438" style="stroke: #A80036; stroke-width: 1.5;" width="101" x="560.5" y="372.5"/>
        <ellipse cx="575.5" cy="388.5" fill="#ADD1B2" rx="11" ry="11" style="stroke: #A80036; stroke-width: 1.0;"/>
        <path d="M578.2656,384.375 Q578.4219,384.1563 578.6094,384.0469 Q578.7969,383.9375 579.0156,383.9375 Q579.3906,383.9375 579.625,384.1953 Q579.8594,384.4531 579.8594,385.0625 L579.8594,386.5156 Q579.8594,387.125 579.625,387.3906 Q579.3906,387.6563 579.0156,387.6563 Q578.6719,387.6563 578.4688,387.4531 Q578.2656,387.2656 578.1563,386.75 Q578.1094,386.3906 577.9219,386.2031 Q577.5938,385.8281 576.9844,385.6094 Q576.375,385.3906 575.75,385.3906 Q574.9844,385.3906 574.3516,385.7188 Q573.7188,386.0469 573.2266,386.7969 Q572.7344,387.5469 572.7344,388.5781 L572.7344,389.6719 Q572.7344,390.9063 573.625,391.7266 Q574.5156,392.5469 576.1094,392.5469 Q577.0469,392.5469 577.7031,392.2969 Q578.0938,392.1406 578.5156,391.7031 Q578.7813,391.4375 578.9297,391.3594 Q579.0781,391.2813 579.2813,391.2813 Q579.6094,391.2813 579.8672,391.5391 Q580.125,391.7969 580.125,392.1406 Q580.125,392.4844 579.7813,392.8906 Q579.2813,393.4688 578.4844,393.7969 Q577.4063,394.25 576.1094,394.25 Q574.5938,394.25 573.3906,393.625 Q572.4063,393.125 571.7188,392.0547 Q571.0313,390.9844 571.0313,389.7031 L571.0313,388.5469 Q571.0313,387.2188 571.6484,386.0703 Q572.2656,384.9219 573.3594,384.3047 Q574.4531,383.6875 575.6875,383.6875 Q576.4219,383.6875 577.0703,383.8516 Q577.7188,384.0156 578.2656,384.375 Z "/>
        <text fill="#000000" font-family="sans-serif" font-size="12" lengthAdjust="spacingAndGlyphs" textLength="69" x="589.5" y="393.4102">Colaborador</text>
        <line style="stroke: #A80036; stroke-width: 1.5;" x1="561.5" x2="660.5" y1="404.5" y2="404.5"/>
        <text fill="#000000" font-family="sans-serif" font-size="11" lengthAdjust="spacingAndGlyphs" textLength="61" x="566.5" y="419.9189">-String nome</text>
        <text fill="#000000" font-family="sans-serif" font-size="11" lengthAdjust="spacingAndGlyphs" textLength="69" x="566.5" y="433.7549">-String funcao</text>
        <text fill="#000000" font-family="sans-serif" font-size="11" lengthAdjust="spacingAndGlyphs" textLength="74" x="566.5" y="447.5908">-String telefone</text>
        <text fill="#000000" font-family="sans-serif" font-size="11" lengthAdjust="spacingAndGlyphs" textLength="59" x="566.5" y="461.4268">-String email</text>
        <!--class TipoRegimento-->
        <rect fill="#FEFECE" filter="url(#f1n28451qe4s8e)" height="40" style="stroke: #A80036; stroke-width: 1.5;" width="117" x="1082" y="555"/>
        <ellipse cx="1097" cy="571" fill="#ADD1B2" rx="11" ry="11" style="stroke: #A80036; stroke-width: 1.0;"/>
        <path d="M1099.7656,566.875 Q1099.9219,566.6563 1100.1094,566.5469 Q1100.2969,566.4375 1100.5156,566.4375 Q1100.8906,566.4375 1101.125,566.6953 Q1101.3594,566.9531 1101.3594,567.5625 L1101.3594,569.0156 Q1101.3594,569.625 1101.125,569.8906 Q1100.8906,570.1563 1100.5156,570.1563 Q1100.1719,570.1563 1099.9688,569.9531 Q1099.7656,569.7656 1099.6563,569.25 Q1099.6094,568.8906 1099.4219,568.7031 Q1099.0938,568.3281 1098.4844,568.1094 Q1097.875,567.8906 1097.25,567.8906 Q1096.4844,567.8906 1095.8516,568.2188 Q1095.2188,568.5469 1094.7266,569.2969 Q1094.2344,570.0469 1094.2344,571.0781 L1094.2344,572.1719 Q1094.2344,573.4063 1095.125,574.2266 Q1096.0156,575.0469 1097.6094,575.0469 Q1098.5469,575.0469 1099.2031,574.7969 Q1099.5938,574.6406 1100.0156,574.2031 Q1100.2813,573.9375 1100.4297,573.8594 Q1100.5781,573.7813 1100.7813,573.7813 Q1101.1094,573.7813 1101.3672,574.0391 Q1101.625,574.2969 1101.625,574.6406 Q1101.625,574.9844 1101.2813,575.3906 Q1100.7813,575.9688 1099.9844,576.2969 Q1098.9063,576.75 1097.6094,576.75 Q1096.0938,576.75 1094.8906,576.125 Q1093.9063,575.625 1093.2188,574.5547 Q1092.5313,573.4844 1092.5313,572.2031 L1092.5313,571.0469 Q1092.5313,569.7188 1093.1484,568.5703 Q1093.7656,567.4219 1094.8594,566.8047 Q1095.9531,566.1875 1097.1875,566.1875 Q1097.9219,566.1875 1098.5703,566.3516 Q1099.2188,566.5156 1099.7656,566.875 Z "/>
        <text fill="#000000" font-family="sans-serif" font-size="12" lengthAdjust="spacingAndGlyphs" textLength="85" x="1111" y="575.9102">TipoRegimento</text>
        <line style="stroke: #A80036; stroke-width: 1.5;" x1="1083" x2="1198" y1="587" y2="587"/>
        <!--class Organizacao-->
        <rect fill="#FEFECE" filter="url(#f1n28451qe4s8e)" height="109.1797" style="stroke: #A80036; stroke-width: 1.5;" width="101" x="274" y="456.5"/>
        <ellipse cx="289" cy="472.5" fill="#ADD1B2" rx="11" ry="11" style="stroke: #A80036; stroke-width: 1.0;"/>
        <path d="M291.7656,468.375 Q291.9219,468.1563 292.1094,468.0469 Q292.2969,467.9375 292.5156,467.9375 Q292.8906,467.9375 293.125,468.1953 Q293.3594,468.4531 293.3594,469.0625 L293.3594,470.5156 Q293.3594,471.125 293.125,471.3906 Q292.8906,471.6563 292.5156,471.6563 Q292.1719,471.6563 291.9688,471.4531 Q291.7656,471.2656 291.6563,470.75 Q291.6094,470.3906 291.4219,470.2031 Q291.0938,469.8281 290.4844,469.6094 Q289.875,469.3906 289.25,469.3906 Q288.4844,469.3906 287.8516,469.7188 Q287.2188,470.0469 286.7266,470.7969 Q286.2344,471.5469 286.2344,472.5781 L286.2344,473.6719 Q286.2344,474.9063 287.125,475.7266 Q288.0156,476.5469 289.6094,476.5469 Q290.5469,476.5469 291.2031,476.2969 Q291.5938,476.1406 292.0156,475.7031 Q292.2813,475.4375 292.4297,475.3594 Q292.5781,475.2813 292.7813,475.2813 Q293.1094,475.2813 293.3672,475.5391 Q293.625,475.7969 293.625,476.1406 Q293.625,476.4844 293.2813,476.8906 Q292.7813,477.4688 291.9844,477.7969 Q290.9063,478.25 289.6094,478.25 Q288.0938,478.25 286.8906,477.625 Q285.9063,477.125 285.2188,476.0547 Q284.5313,474.9844 284.5313,473.7031 L284.5313,472.5469 Q284.5313,471.2188 285.1484,470.0703 Q285.7656,468.9219 286.8594,468.3047 Q287.9531,467.6875 289.1875,467.6875 Q289.9219,467.6875 290.5703,467.8516 Q291.2188,468.0156 291.7656,468.375 Z "/>
        <text fill="#000000" font-family="sans-serif" font-size="12" lengthAdjust="spacingAndGlyphs" textLength="69" x="303" y="477.4102">Organizacao</text>
        <line style="stroke: #A80036; stroke-width: 1.5;" x1="275" x2="374" y1="488.5" y2="488.5"/>
        <text fill="#000000" font-family="sans-serif" font-size="11" lengthAdjust="spacingAndGlyphs" textLength="61" x="280" y="503.9189">-String nome</text>
        <text fill="#000000" font-family="sans-serif" font-size="11" lengthAdjust="spacingAndGlyphs" textLength="50" x="280" y="517.7549">-String NIF</text>
        <text fill="#000000" font-family="sans-serif" font-size="11" lengthAdjust="spacingAndGlyphs" textLength="74" x="280" y="531.5908">-String website</text>
        <text fill="#000000" font-family="sans-serif" font-size="11" lengthAdjust="spacingAndGlyphs" textLength="74" x="280" y="545.4268">-String telefone</text>
        <text fill="#000000" font-family="sans-serif" font-size="11" lengthAdjust="spacingAndGlyphs" textLength="59" x="280" y="559.2627">-String email</text>
        <!--class Utilizador-->
        <rect fill="#FEFECE" filter="url(#f1n28451qe4s8e)" height="123.0156" style="stroke: #A80036; stroke-width: 1.5;" width="97" x="836" y="284.5"/>
        <ellipse cx="857.3" cy="300.5" fill="#ADD1B2" rx="11" ry="11" style="stroke: #A80036; stroke-width: 1.0;"/>
        <path d="M860.0656,296.375 Q860.2219,296.1563 860.4094,296.0469 Q860.5969,295.9375 860.8156,295.9375 Q861.1906,295.9375 861.425,296.1953 Q861.6594,296.4531 861.6594,297.0625 L861.6594,298.5156 Q861.6594,299.125 861.425,299.3906 Q861.1906,299.6563 860.8156,299.6563 Q860.4719,299.6563 860.2688,299.4531 Q860.0656,299.2656 859.9563,298.75 Q859.9094,298.3906 859.7219,298.2031 Q859.3938,297.8281 858.7844,297.6094 Q858.175,297.3906 857.55,297.3906 Q856.7844,297.3906 856.1516,297.7188 Q855.5188,298.0469 855.0266,298.7969 Q854.5344,299.5469 854.5344,300.5781 L854.5344,301.6719 Q854.5344,302.9063 855.425,303.7266 Q856.3156,304.5469 857.9094,304.5469 Q858.8469,304.5469 859.5031,304.2969 Q859.8938,304.1406 860.3156,303.7031 Q860.5813,303.4375 860.7297,303.3594 Q860.8781,303.2813 861.0813,303.2813 Q861.4094,303.2813 861.6672,303.5391 Q861.925,303.7969 861.925,304.1406 Q861.925,304.4844 861.5813,304.8906 Q861.0813,305.4688 860.2844,305.7969 Q859.2063,306.25 857.9094,306.25 Q856.3938,306.25 855.1906,305.625 Q854.2063,305.125 853.5188,304.0547 Q852.8313,302.9844 852.8313,301.7031 L852.8313,300.5469 Q852.8313,299.2188 853.4484,298.0703 Q854.0656,296.9219 855.1594,296.3047 Q856.2531,295.6875 857.4875,295.6875 Q858.2219,295.6875 858.8703,295.8516 Q859.5188,296.0156 860.0656,296.375 Z "/>
        <text fill="#000000" font-family="sans-serif" font-size="12" lengthAdjust="spacingAndGlyphs" textLength="51" x="872.7" y="305.4102">Utilizador</text>
        <line style="stroke: #A80036; stroke-width: 1.5;" x1="837" x2="932" y1="316.5" y2="316.5"/>
        <text fill="#000000" font-family="sans-serif" font-size="11" lengthAdjust="spacingAndGlyphs" textLength="61" x="842" y="331.9189">-String nome</text>
        <text fill="#000000" font-family="sans-serif" font-size="11" lengthAdjust="spacingAndGlyphs" textLength="59" x="842" y="345.7549">-String email</text>
        <text fill="#000000" font-family="sans-serif" font-size="11" lengthAdjust="spacingAndGlyphs" textLength="85" x="842" y="359.5908">-String password</text>
        <text fill="#000000" font-family="sans-serif" font-size="11" lengthAdjust="spacingAndGlyphs" textLength="61" x="842" y="373.4268">-String nome</text>
        <text fill="#000000" font-family="sans-serif" font-size="11" lengthAdjust="spacingAndGlyphs" textLength="59" x="842" y="387.2627">-String email</text>
        <text fill="#000000" font-family="sans-serif" font-size="11" lengthAdjust="spacingAndGlyphs" textLength="85" x="842" y="401.0986">-String password</text>
        <!--class Tarefa-->
        <rect fill="#FEFECE" filter="url(#f1n28451qe4s8e)" height="123.0156" style="stroke: #A80036; stroke-width: 1.5;" width="109" x="270" y="298.5"/>
        <ellipse cx="303.9" cy="314.5" fill="#ADD1B2" rx="11" ry="11" style="stroke: #A80036; stroke-width: 1.0;"/>
        <path d="M306.6656,310.375 Q306.8219,310.1563 307.0094,310.0469 Q307.1969,309.9375 307.4156,309.9375 Q307.7906,309.9375 308.025,310.1953 Q308.2594,310.4531 308.2594,311.0625 L308.2594,312.5156 Q308.2594,313.125 308.025,313.3906 Q307.7906,313.6563 307.4156,313.6563 Q307.0719,313.6563 306.8688,313.4531 Q306.6656,313.2656 306.5563,312.75 Q306.5094,312.3906 306.3219,312.2031 Q305.9938,311.8281 305.3844,311.6094 Q304.775,311.3906 304.15,311.3906 Q303.3844,311.3906 302.7516,311.7188 Q302.1188,312.0469 301.6266,312.7969 Q301.1344,313.5469 301.1344,314.5781 L301.1344,315.6719 Q301.1344,316.9063 302.025,317.7266 Q302.9156,318.5469 304.5094,318.5469 Q305.4469,318.5469 306.1031,318.2969 Q306.4938,318.1406 306.9156,317.7031 Q307.1813,317.4375 307.3297,317.3594 Q307.4781,317.2813 307.6813,317.2813 Q308.0094,317.2813 308.2672,317.5391 Q308.525,317.7969 308.525,318.1406 Q308.525,318.4844 308.1813,318.8906 Q307.6813,319.4688 306.8844,319.7969 Q305.8063,320.25 304.5094,320.25 Q302.9938,320.25 301.7906,319.625 Q300.8063,319.125 300.1188,318.0547 Q299.4313,316.9844 299.4313,315.7031 L299.4313,314.5469 Q299.4313,313.2188 300.0484,312.0703 Q300.6656,310.9219 301.7594,310.3047 Q302.8531,309.6875 304.0875,309.6875 Q304.8219,309.6875 305.4703,309.8516 Q306.1188,310.0156 306.6656,310.375 Z "/>
        <text fill="#000000" font-family="sans-serif" font-size="12" lengthAdjust="spacingAndGlyphs" textLength="35" x="322.1" y="319.4102">Tarefa</text>
        <line style="stroke: #A80036; stroke-width: 1.5;" x1="271" x2="378" y1="330.5" y2="330.5"/>
        <text fill="#000000" font-family="sans-serif" font-size="11" lengthAdjust="spacingAndGlyphs" textLength="85" x="276" y="345.9189">-String referencia</text>
        <text fill="#000000" font-family="sans-serif" font-size="11" lengthAdjust="spacingAndGlyphs" textLength="91" x="276" y="359.7549">-String designacao</text>
        <text fill="#000000" font-family="sans-serif" font-size="11" lengthAdjust="spacingAndGlyphs" textLength="97" x="276" y="373.5908">-String descInformal</text>
        <text fill="#000000" font-family="sans-serif" font-size="11" lengthAdjust="spacingAndGlyphs" textLength="97" x="276" y="387.4268">-String descTecnica</text>
        <text fill="#000000" font-family="sans-serif" font-size="11" lengthAdjust="spacingAndGlyphs" textLength="95" x="276" y="401.2627">-Integer duracaoEst</text>
        <text fill="#000000" font-family="sans-serif" font-size="11" lengthAdjust="spacingAndGlyphs" textLength="82" x="276" y="415.0986">-Double custoEst</text>
        <!--class CompetenciaTecnica-->
        <rect fill="#FEFECE" filter="url(#f1n28451qe4s8e)" height="81.5078" style="stroke: #A80036; stroke-width: 1.5;" width="149" x="810" y="8"/>
        <ellipse cx="825" cy="24" fill="#ADD1B2" rx="11" ry="11" style="stroke: #A80036; stroke-width: 1.0;"/>
        <path d="M827.7656,19.875 Q827.9219,19.6563 828.1094,19.5469 Q828.2969,19.4375 828.5156,19.4375 Q828.8906,19.4375 829.125,19.6953 Q829.3594,19.9531 829.3594,20.5625 L829.3594,22.0156 Q829.3594,22.625 829.125,22.8906 Q828.8906,23.1563 828.5156,23.1563 Q828.1719,23.1563 827.9688,22.9531 Q827.7656,22.7656 827.6563,22.25 Q827.6094,21.8906 827.4219,21.7031 Q827.0938,21.3281 826.4844,21.1094 Q825.875,20.8906 825.25,20.8906 Q824.4844,20.8906 823.8516,21.2188 Q823.2188,21.5469 822.7266,22.2969 Q822.2344,23.0469 822.2344,24.0781 L822.2344,25.1719 Q822.2344,26.4063 823.125,27.2266 Q824.0156,28.0469 825.6094,28.0469 Q826.5469,28.0469 827.2031,27.7969 Q827.5938,27.6406 828.0156,27.2031 Q828.2813,26.9375 828.4297,26.8594 Q828.5781,26.7813 828.7813,26.7813 Q829.1094,26.7813 829.3672,27.0391 Q829.625,27.2969 829.625,27.6406 Q829.625,27.9844 829.2813,28.3906 Q828.7813,28.9688 827.9844,29.2969 Q826.9063,29.75 825.6094,29.75 Q824.0938,29.75 822.8906,29.125 Q821.9063,28.625 821.2188,27.5547 Q820.5313,26.4844 820.5313,25.2031 L820.5313,24.0469 Q820.5313,22.7188 821.1484,21.5703 Q821.7656,20.4219 822.8594,19.8047 Q823.9531,19.1875 825.1875,19.1875 Q825.9219,19.1875 826.5703,19.3516 Q827.2188,19.5156 827.7656,19.875 Z "/>
        <text fill="#000000" font-family="sans-serif" font-size="12" lengthAdjust="spacingAndGlyphs" textLength="117" x="839" y="28.9102">CompetenciaTecnica</text>
        <line style="stroke: #A80036; stroke-width: 1.5;" x1="811" x2="958" y1="40" y2="40"/>
        <text fill="#000000" font-family="sans-serif" font-size="11" lengthAdjust="spacingAndGlyphs" textLength="67" x="816" y="55.4189">-String codigo</text>
        <text fill="#000000" font-family="sans-serif" font-size="11" lengthAdjust="spacingAndGlyphs" textLength="88" x="816" y="69.2549">-String descBreve</text>
        <text fill="#000000" font-family="sans-serif" font-size="11" lengthAdjust="spacingAndGlyphs" textLength="107" x="816" y="83.0908">-String descDetalhada</text>
        <!--class GrauProficiencia-->
        <rect fill="#FEFECE" filter="url(#f1n28451qe4s8e)" height="67.6719" style="stroke: #A80036; stroke-width: 1.5;" width="123" x="1079" y="80"/>
        <ellipse cx="1094" cy="96" fill="#ADD1B2" rx="11" ry="11" style="stroke: #A80036; stroke-width: 1.0;"/>
        <path d="M1096.7656,91.875 Q1096.9219,91.6563 1097.1094,91.5469 Q1097.2969,91.4375 1097.5156,91.4375 Q1097.8906,91.4375 1098.125,91.6953 Q1098.3594,91.9531 1098.3594,92.5625 L1098.3594,94.0156 Q1098.3594,94.625 1098.125,94.8906 Q1097.8906,95.1563 1097.5156,95.1563 Q1097.1719,95.1563 1096.9688,94.9531 Q1096.7656,94.7656 1096.6563,94.25 Q1096.6094,93.8906 1096.4219,93.7031 Q1096.0938,93.3281 1095.4844,93.1094 Q1094.875,92.8906 1094.25,92.8906 Q1093.4844,92.8906 1092.8516,93.2188 Q1092.2188,93.5469 1091.7266,94.2969 Q1091.2344,95.0469 1091.2344,96.0781 L1091.2344,97.1719 Q1091.2344,98.4063 1092.125,99.2266 Q1093.0156,100.0469 1094.6094,100.0469 Q1095.5469,100.0469 1096.2031,99.7969 Q1096.5938,99.6406 1097.0156,99.2031 Q1097.2813,98.9375 1097.4297,98.8594 Q1097.5781,98.7813 1097.7813,98.7813 Q1098.1094,98.7813 1098.3672,99.0391 Q1098.625,99.2969 1098.625,99.6406 Q1098.625,99.9844 1098.2813,100.3906 Q1097.7813,100.9688 1096.9844,101.2969 Q1095.9063,101.75 1094.6094,101.75 Q1093.0938,101.75 1091.8906,101.125 Q1090.9063,100.625 1090.2188,99.5547 Q1089.5313,98.4844 1089.5313,97.2031 L1089.5313,96.0469 Q1089.5313,94.7188 1090.1484,93.5703 Q1090.7656,92.4219 1091.8594,91.8047 Q1092.9531,91.1875 1094.1875,91.1875 Q1094.9219,91.1875 1095.5703,91.3516 Q1096.2188,91.5156 1096.7656,91.875 Z "/>
        <text fill="#000000" font-family="sans-serif" font-size="12" lengthAdjust="spacingAndGlyphs" textLength="91" x="1108" y="100.9102">GrauProficiencia</text>
        <line style="stroke: #A80036; stroke-width: 1.5;" x1="1080" x2="1201" y1="112" y2="112"/>
        <text fill="#000000" font-family="sans-serif" font-size="11" lengthAdjust="spacingAndGlyphs" textLength="64" x="1085" y="127.4189">-Integer valor</text>
        <text fill="#000000" font-family="sans-serif" font-size="11" lengthAdjust="spacingAndGlyphs" textLength="91" x="1085" y="141.2549">-String designacao</text>
        <!--class Reconhecimento-->
        <rect fill="#FEFECE" filter="url(#f1n28451qe4s8e)" height="53.8359" style="stroke: #A80036; stroke-width: 1.5;" width="126" x="548" y="116"/>
        <ellipse cx="563" cy="132" fill="#ADD1B2" rx="11" ry="11" style="stroke: #A80036; stroke-width: 1.0;"/>
        <path d="M565.7656,127.875 Q565.9219,127.6563 566.1094,127.5469 Q566.2969,127.4375 566.5156,127.4375 Q566.8906,127.4375 567.125,127.6953 Q567.3594,127.9531 567.3594,128.5625 L567.3594,130.0156 Q567.3594,130.625 567.125,130.8906 Q566.8906,131.1563 566.5156,131.1563 Q566.1719,131.1563 565.9688,130.9531 Q565.7656,130.7656 565.6563,130.25 Q565.6094,129.8906 565.4219,129.7031 Q565.0938,129.3281 564.4844,129.1094 Q563.875,128.8906 563.25,128.8906 Q562.4844,128.8906 561.8516,129.2188 Q561.2188,129.5469 560.7266,130.2969 Q560.2344,131.0469 560.2344,132.0781 L560.2344,133.1719 Q560.2344,134.4063 561.125,135.2266 Q562.0156,136.0469 563.6094,136.0469 Q564.5469,136.0469 565.2031,135.7969 Q565.5938,135.6406 566.0156,135.2031 Q566.2813,134.9375 566.4297,134.8594 Q566.5781,134.7813 566.7813,134.7813 Q567.1094,134.7813 567.3672,135.0391 Q567.625,135.2969 567.625,135.6406 Q567.625,135.9844 567.2813,136.3906 Q566.7813,136.9688 565.9844,137.2969 Q564.9063,137.75 563.6094,137.75 Q562.0938,137.75 560.8906,137.125 Q559.9063,136.625 559.2188,135.5547 Q558.5313,134.4844 558.5313,133.2031 L558.5313,132.0469 Q558.5313,130.7188 559.1484,129.5703 Q559.7656,128.4219 560.8594,127.8047 Q561.9531,127.1875 563.1875,127.1875 Q563.9219,127.1875 564.5703,127.3516 Q565.2188,127.5156 565.7656,127.875 Z "/>
        <text fill="#000000" font-family="sans-serif" font-size="12" lengthAdjust="spacingAndGlyphs" textLength="94" x="577" y="136.9102">Reconhecimento</text>
        <line style="stroke: #A80036; stroke-width: 1.5;" x1="549" x2="673" y1="148" y2="148"/>
        <text fill="#000000" font-family="sans-serif" font-size="11" lengthAdjust="spacingAndGlyphs" textLength="50" x="554" y="163.4189">-Data data</text>
        <path d="M108.344,332.915 C157.372,306.274 231.536,265.973 278.731,240.327 " fill="none" style="stroke: #A80036; stroke-width: 1.0;"/>
        <text fill="#000000" font-family="sans-serif" font-size="13" lengthAdjust="spacingAndGlyphs" textLength="38" x="164" y="258.4951">possui</text>
        <polygon fill="#000000" points="205,251.6758,211,254.6758,205,257.6758,205,251.6758" style="stroke: #000000; stroke-width: 1.0;"/>
        <text fill="#000000" font-family="sans-serif" font-size="13" lengthAdjust="spacingAndGlyphs" textLength="7" x="117.0051" y="343.4095">1</text>
        <text fill="#000000" font-family="sans-serif" font-size="13" lengthAdjust="spacingAndGlyphs" textLength="5" x="266.0381" y="258.9749">*</text>
        <path d="M71.8508,332.763 C85.9246,305.956 110.049,264.944 139,236 C188.082,186.929 205.663,177.033 270,151 C454.665,76.28 691.813,56.282 809.877,50.939 " fill="none" style="stroke: #A80036; stroke-width: 1.0;"/>
        <text fill="#000000" font-family="sans-serif" font-size="13" lengthAdjust="spacingAndGlyphs" textLength="38" x="438" y="79.4951">possui</text>
        <polygon fill="#000000" points="479,72.6758,485,75.6758,479,78.6758,479,72.6758" style="stroke: #000000; stroke-width: 1.0;"/>
        <text fill="#000000" font-family="sans-serif" font-size="13" lengthAdjust="spacingAndGlyphs" textLength="7" x="67.36" y="322.1692">1</text>
        <text fill="#000000" font-family="sans-serif" font-size="13" lengthAdjust="spacingAndGlyphs" textLength="5" x="796.9237" y="65.5026">*</text>
        <path d="M106.183,387.17 C153.569,414.172 225.925,455.4 273.953,482.768 " fill="none" style="stroke: #A80036; stroke-width: 1.0;"/>
        <text fill="#000000" font-family="sans-serif" font-size="13" lengthAdjust="spacingAndGlyphs" textLength="86" x="140" y="404.4951">tem registadas</text>
        <polygon fill="#000000" points="229,397.6758,235,400.6758,229,403.6758,229,397.6758" style="stroke: #000000; stroke-width: 1.0;"/>
        <text fill="#000000" font-family="sans-serif" font-size="13" lengthAdjust="spacingAndGlyphs" textLength="7" x="109.0664" y="408.415">1</text>
        <text fill="#000000" font-family="sans-serif" font-size="13" lengthAdjust="spacingAndGlyphs" textLength="5" x="261.1617" y="493.3042">*</text>
        <path d="M70.3863,387.228 C101.4652,453.725 191.943,619 323.5,619 C323.5,619 323.5,619 885.5,619 C953.75,619 1030.82,603.3861 1081.99,590.7607 " fill="none" style="stroke: #A80036; stroke-width: 1.0;"/>
        <text fill="#000000" font-family="sans-serif" font-size="13" lengthAdjust="spacingAndGlyphs" textLength="38" x="585.5" y="615.4951">possui</text>
        <polygon fill="#000000" points="626.5,608.6758,632.5,611.6758,626.5,614.6758,626.5,608.6758" style="stroke: #000000; stroke-width: 1.0;"/>
        <text fill="#000000" font-family="sans-serif" font-size="13" lengthAdjust="spacingAndGlyphs" textLength="7" x="65.4396" y="408.4856">1</text>
        <text fill="#000000" font-family="sans-serif" font-size="13" lengthAdjust="spacingAndGlyphs" textLength="5" x="1069.1731" y="607.3227">*</text>
        <path d="M109.281,360 C155.269,360 222.805,360 269.705,360 " fill="none" style="stroke: #A80036; stroke-width: 1.0;"/>
        <text fill="#000000" font-family="sans-serif" font-size="13" lengthAdjust="spacingAndGlyphs" textLength="38" x="164" y="356.4951">possui</text>
        <polygon fill="#000000" points="205,349.6758,211,352.6758,205,355.6758,205,349.6758" style="stroke: #000000; stroke-width: 1.0;"/>
        <text fill="#000000" font-family="sans-serif" font-size="13" lengthAdjust="spacingAndGlyphs" textLength="7" x="117.0549" y="374.6564">1</text>
        <text fill="#000000" font-family="sans-serif" font-size="13" lengthAdjust="spacingAndGlyphs" textLength="5" x="257.006" y="374.5927">*</text>
        <path d="M661.797,406.427 C711.397,392.908 787.003,372.301 835.839,358.99 " fill="none" style="stroke: #A80036; stroke-width: 1.0;"/>
        <text fill="#000000" font-family="sans-serif" font-size="13" lengthAdjust="spacingAndGlyphs" textLength="61" x="705" y="372.4951">atua como</text>
        <polygon fill="#000000" points="769,365.6758,775,368.6758,769,371.6758,769,365.6758" style="stroke: #000000; stroke-width: 1.0;"/>
        <text fill="#000000" font-family="sans-serif" font-size="13" lengthAdjust="spacingAndGlyphs" textLength="22" x="669.3285" y="419.2434">0..1</text>
        <text fill="#000000" font-family="sans-serif" font-size="13" lengthAdjust="spacingAndGlyphs" textLength="7" x="820.8518" y="375.7249">1</text>
        <path d="M661.797,435.407 C705.886,449.048 770.523,469.046 818.642,483.933 " fill="none" style="stroke: #A80036; stroke-width: 1.0;"/>
        <text fill="#000000" font-family="sans-serif" font-size="13" lengthAdjust="spacingAndGlyphs" textLength="58" x="706.5" y="445.4951">especifica</text>
        <polygon fill="#000000" points="767.5,438.6758,773.5,441.6758,767.5,444.6758,767.5,438.6758" style="stroke: #000000; stroke-width: 1.0;"/>
        <text fill="#000000" font-family="sans-serif" font-size="13" lengthAdjust="spacingAndGlyphs" textLength="7" x="669.4325" y="452.1943">1</text>
        <text fill="#000000" font-family="sans-serif" font-size="13" lengthAdjust="spacingAndGlyphs" textLength="5" x="806.1653" y="496.1267">*</text>
        <path d="M370.06,240.645 C382.392,246.695 395.974,252.67 409,257 C560.516,307.366 749.286,332.057 835.964,341.394 " fill="none" style="stroke: #A80036; stroke-width: 1.0;"/>
        <text fill="#000000" font-family="sans-serif" font-size="13" lengthAdjust="spacingAndGlyphs" textLength="61" x="574" y="291.4951">atua como</text>
        <polygon fill="#000000" points="638,284.6758,644,287.6758,638,290.6758,638,284.6758" style="stroke: #000000; stroke-width: 1.0;"/>
        <text fill="#000000" font-family="sans-serif" font-size="13" lengthAdjust="spacingAndGlyphs" textLength="22" x="378.0138" y="258.7314">0..1</text>
        <text fill="#000000" font-family="sans-serif" font-size="13" lengthAdjust="spacingAndGlyphs" textLength="7" x="820.996" y="355.4345">1</text>
        <path d="M370.231,217.889 C474.049,222.646 739.265,236.946 959,267 C996.477,272.126 1037.93,280.006 1071.66,286.992 " fill="none" style="stroke: #A80036; stroke-width: 1.0;"/>
        <text fill="#000000" font-family="sans-serif" font-size="13" lengthAdjust="spacingAndGlyphs" textLength="35" x="718" y="235.4951">efetua</text>
        <polygon fill="#000000" points="756,228.6758,762,231.6758,756,234.6758,756,228.6758" style="stroke: #000000; stroke-width: 1.0;"/>
        <text fill="#000000" font-family="sans-serif" font-size="13" lengthAdjust="spacingAndGlyphs" textLength="7" x="378.0772" y="232.9608">1</text>
        <text fill="#000000" font-family="sans-serif" font-size="13" lengthAdjust="spacingAndGlyphs" textLength="5" x="1058.8572" y="299.721">*</text>
        <path d="M370.266,204.513 C418.072,192.247 494.18,172.718 547.795,158.961 " fill="none" style="stroke: #A80036; stroke-width: 1.0;"/>
        <text fill="#000000" font-family="sans-serif" font-size="13" lengthAdjust="spacingAndGlyphs" textLength="22" x="446" y="162.4951">tem</text>
        <polygon fill="#000000" points="471,155.6758,477,158.6758,471,161.6758,471,155.6758" style="stroke: #000000; stroke-width: 1.0;"/>
        <text fill="#000000" font-family="sans-serif" font-size="13" lengthAdjust="spacingAndGlyphs" textLength="7" x="378.1178" y="198.903">1</text>
        <text fill="#000000" font-family="sans-serif" font-size="13" lengthAdjust="spacingAndGlyphs" textLength="20" x="519.7882" y="175.105">0..*</text>
        <path d="M379.159,399.756 C388.689,405.12 398.831,409.852 409,413 C458.867,428.436 519.039,428.23 560.474,425.388 " fill="none" style="stroke: #A80036; stroke-width: 1.0;"/>
        <text fill="#000000" font-family="sans-serif" font-size="13" lengthAdjust="spacingAndGlyphs" textLength="77" x="418.5" y="409.4951">publicada por</text>
        <polygon fill="#000000" points="498.5,402.6758,504.5,405.6758,498.5,408.6758,498.5,402.6758" style="stroke: #000000; stroke-width: 1.0;"/>
        <text fill="#000000" font-family="sans-serif" font-size="13" lengthAdjust="spacingAndGlyphs" textLength="5" x="386.8397" y="419.6909">*</text>
        <text fill="#000000" font-family="sans-serif" font-size="13" lengthAdjust="spacingAndGlyphs" textLength="7" x="545.5389" y="422.5001">1</text>
        <path d="M379.02,366.489 C417.875,371.715 471.555,380.002 518,391 C531.852,394.28 546.648,398.579 560.234,402.859 " fill="none" style="stroke: #A80036; stroke-width: 1.0;"/>
        <text fill="#000000" font-family="sans-serif" font-size="13" lengthAdjust="spacingAndGlyphs" textLength="94" x="410" y="367.4951">especificada por</text>
        <polygon fill="#000000" points="507,360.6758,513,363.6758,507,366.6758,507,360.6758" style="stroke: #000000; stroke-width: 1.0;"/>
        <text fill="#000000" font-family="sans-serif" font-size="13" lengthAdjust="spacingAndGlyphs" textLength="5" x="387.0384" y="382.0453">*</text>
        <text fill="#000000" font-family="sans-serif" font-size="13" lengthAdjust="spacingAndGlyphs" textLength="7" x="545.6028" y="396.8192">1</text>
        <path d="M368.031,421.791 C371.8,427.57 375.508,433.369 379,439 C393.267,462.002 386.173,477.454 409,492 C535.306,572.4864 721.437,544.7369 818.782,521.8693 " fill="none" style="stroke: #A80036; stroke-width: 1.0;"/>
        <text fill="#000000" font-family="sans-serif" font-size="13" lengthAdjust="spacingAndGlyphs" textLength="39" x="585" y="537.4951">resulta</text>
        <polygon fill="#000000" points="627,530.6758,633,533.6758,627,536.6758,627,530.6758" style="stroke: #000000; stroke-width: 1.0;"/>
        <text fill="#000000" font-family="sans-serif" font-size="13" lengthAdjust="spacingAndGlyphs" textLength="7" x="365.4094" y="442.9379">1</text>
        <text fill="#000000" font-family="sans-serif" font-size="13" lengthAdjust="spacingAndGlyphs" textLength="20" x="790.9736" y="538.0495">0..*</text>
        <path d="M959.309,67.888 C997.245,77.596 1042.91,89.282 1078.78,98.461 " fill="none" style="stroke: #A80036; stroke-width: 1.0;"/>
        <text fill="#000000" font-family="sans-serif" font-size="13" lengthAdjust="spacingAndGlyphs" textLength="34" x="992" y="71.4951">aplica</text>
        <polygon fill="#000000" points="1029,64.6758,1035,67.6758,1029,70.6758,1029,64.6758" style="stroke: #000000; stroke-width: 1.0;"/>
        <text fill="#000000" font-family="sans-serif" font-size="13" lengthAdjust="spacingAndGlyphs" textLength="7" x="967.0175" y="84.0714">1</text>
        <text fill="#000000" font-family="sans-serif" font-size="13" lengthAdjust="spacingAndGlyphs" textLength="20" x="1050.9356" y="111.1687">0..*</text>
        <path d="M375.115,496.348 C414.086,484.706 469.66,467.809 518,452 C531.823,447.479 546.741,442.385 560.459,437.612 " fill="none" style="stroke: #A80036; stroke-width: 1.0;"/>
        <text fill="#000000" font-family="sans-serif" font-size="13" lengthAdjust="spacingAndGlyphs" textLength="22" x="446" y="448.4951">tem</text>
        <polygon fill="#000000" points="471,441.6758,477,444.6758,471,447.6758,471,441.6758" style="stroke: #000000; stroke-width: 1.0;"/>
        <text fill="#000000" font-family="sans-serif" font-size="13" lengthAdjust="spacingAndGlyphs" textLength="7" x="383.0631" y="508.8787">1</text>
        <text fill="#000000" font-family="sans-serif" font-size="13" lengthAdjust="spacingAndGlyphs" textLength="20" x="532.3238" y="454.5493">1..*</text>
        <path d="M950.252,452.504 C990.084,420.827 1040.77,380.519 1079.66,349.59 " fill="none" style="stroke: #A80036; stroke-width: 1.0;"/>
        <text fill="#000000" font-family="sans-serif" font-size="13" lengthAdjust="spacingAndGlyphs" textLength="22" x="998" y="380.4951">tem</text>
        <polygon fill="#000000" points="1023,373.6758,1029,376.6758,1023,379.6758,1023,373.6758" style="stroke: #000000; stroke-width: 1.0;"/>
        <text fill="#000000" font-family="sans-serif" font-size="13" lengthAdjust="spacingAndGlyphs" textLength="7" x="957.8264" y="461.2601">1</text>
        <text fill="#000000" font-family="sans-serif" font-size="13" lengthAdjust="spacingAndGlyphs" textLength="20" x="1049.2554" y="371.2505">0..*</text>
        <path d="M950.252,522.1 C990.819,533.4395 1042.64,547.9257 1081.8,558.871 " fill="none" style="stroke: #A80036; stroke-width: 1.0;"/>
        <text fill="#000000" font-family="sans-serif" font-size="13" lengthAdjust="spacingAndGlyphs" textLength="38" x="990" y="529.4951">possui</text>
        <polygon fill="#000000" points="1031,522.6758,1037,525.6758,1031,528.6758,1031,522.6758" style="stroke: #000000; stroke-width: 1.0;"/>
        <text fill="#000000" font-family="sans-serif" font-size="13" lengthAdjust="spacingAndGlyphs" textLength="20" x="958.0639" y="538.304">0..*</text>
        <text fill="#000000" font-family="sans-serif" font-size="13" lengthAdjust="spacingAndGlyphs" textLength="7" x="1066.8306" y="571.3471">1</text>
        <path d="M674.055,123.403 C705.849,113.181 745.116,100.276 780,88 C789.691,84.59 799.851,80.902 809.862,77.201 " fill="none" style="stroke: #A80036; stroke-width: 1.0;"/>
        <text fill="#000000" font-family="sans-serif" font-size="13" lengthAdjust="spacingAndGlyphs" textLength="22" x="724.5" y="84.4951">tem</text>
        <polygon fill="#000000" points="749.5,77.6758,755.5,80.6758,749.5,83.6758,749.5,77.6758" style="stroke: #000000; stroke-width: 1.0;"/>
        <text fill="#000000" font-family="sans-serif" font-size="13" lengthAdjust="spacingAndGlyphs" textLength="7" x="682.1664" y="135.5162">1</text>
        <text fill="#000000" font-family="sans-serif" font-size="13" lengthAdjust="spacingAndGlyphs" textLength="7" x="794.804" y="94.4729">1</text>
        <path d="M674.073,140.286 C743.514,137.173 859.344,131.753 959,126 C998.976,123.692 1043.91,120.706 1078.94,118.291 " fill="none" style="stroke: #A80036; stroke-width: 1.0;"/>
        <text fill="#000000" font-family="sans-serif" font-size="13" lengthAdjust="spacingAndGlyphs" textLength="22" x="867" y="122.4951">tem</text>
        <polygon fill="#000000" points="892,115.6758,898,118.6758,892,121.6758,892,115.6758" style="stroke: #000000; stroke-width: 1.0;"/>
        <text fill="#000000" font-family="sans-serif" font-size="13" lengthAdjust="spacingAndGlyphs" textLength="7" x="682.1866" y="154.4568">1</text>
        <text fill="#000000" font-family="sans-serif" font-size="13" lengthAdjust="spacingAndGlyphs" textLength="7" x="1064.0108" y="133.3255">1</text>
        <!--
@startuml
skinparam classAttributeIconSize 0
hide methods
left to right direction

class Plataforma {
  -String designacao
}

class Candidatura {
  -Integer valorReceber
  -DataHora diasRealizacao
  -Freelancer candidato
  -String texto
}

class Anuncio{
  -DateTime pPublicInicial
  -DateTime pPublicFinal
  -DateTime pApreseInicial
  -DateTime pApreseFinal
  -DateTime pSeriaInicial
  -DateTime pSeriaFinal 
}

class Freelancer {
  -String nome
  -String NIF
  -String contacto
  -String email
}

class Colaborador{
  -String nome
  -String funcao
  -String telefone
  -String email
}

class TipoRegimento{
}

class Organizacao{
  -String nome
  -String NIF
  -String website
  -String telefone
  -String email
}

class Utilizador {
  -String nome
  -String email
  -String password
}

class Tarefa {
  -String referencia
  -String designacao
  -String descInformal
  -String descTecnica
  -Integer duracaoEst
  -Double custoEst
}

class CompetenciaTecnica {
  -String codigo
  -String descBreve
  -String descDetalhada
}

class GrauProficiencia {
  -Integer valor
  -String designacao
}

class Utilizador {
  -String nome
  -String email
  -String password
}

class Reconhecimento {
   -Data data
}

Plataforma "1" - - "*" Freelancer : possui >
Plataforma "1" - - "*" CompetenciaTecnica : possui >
Plataforma "1" - - "*" Organizacao : tem registadas >
Plataforma "1" - - "*" TipoRegimento : possui >
Plataforma "1" - - "*" Tarefa : possui >

Colaborador "0..1" - - "1" Utilizador : atua como >
Colaborador "1" - - "*" Anuncio : especifica >

Freelancer "0..1" - - "1" Utilizador: atua como >
Freelancer "1" - - "*" Candidatura: efetua >
Freelancer "1" - - "0..*" Reconhecimento: tem >

Tarefa "*" - - "1" Colaborador : publicada por >
Tarefa "*" - - "1" Colaborador : especificada por >
Tarefa "1" - - "0..*" Anuncio : resulta >

CompetenciaTecnica "1" - - "0..*" GrauProficiencia : aplica >

Organizacao "1" - - "1..*" Colaborador : tem >


Anuncio "1" - - "0..*" Candidatura : tem >
Anuncio "0..*" - - "1" TipoRegimento : possui >

Reconhecimento "1" - - "1" CompetenciaTecnica: tem >
Reconhecimento "1" - - "1" GrauProficiencia: tem >
@enduml

PlantUML version 2017.11(Wed Apr 19 17:18:59 BST 2017)
(GPL source distribution)
Java Runtime: Java(TM) SE Runtime Environment
JVM: Java HotSpot(TM) 64-Bit Server VM
Java Version: 1.8.0_111-b14
Operating System: Windows 10
OS Version: 10.0
Default Encoding: UTF-8
Language: en
Country: US
-->
    </g>
</svg>
