@startuml
hide methods
left to right direction
skinparam classAttributeIconSize 0

class Plataforma {
  -String designacao
}

class AreaAtividade {
  -String codigo
  -String descBreve
  -String descDetalhada
 
}

class CompetenciaTecnica {
  -String codigo
  -String descBreve
  -String descDetalhada
}

class Organização {
  -String nome
  -String NIF
  -String website
  -String telefone
  -String email
}

class Colaborador {
  -String nome
  -String funcao
  -String telefone
  -String email
}

class EnderecoPostal {
  -String local
  -String codPostal
  -String localidade
}

class Freelancer {
  
}

class Administrativo {
  
}

class Utilizador {
  -String nome
  -String email
  -String password
}

class Tarefa {
  -String refUnica
    -String designacao
    -String dInformal
    -String dTecnica
    -Double duracao
    -Double custo
}

class CategoriaDeTarefa {
  -String idenficadorInterno
  -String descrição
}

class Gestor{
}

class TipoCompetencia {
  -boolean obrigatoriedade
}

Plataforma "1" -- "*" AreaAtividade : possui >
Plataforma "1" -- "*" CompetenciaTecnica : possui >
Plataforma "1" -- "*" CategoriaDeTarefa: possui >
Plataforma "1" -- "*" Tarefa: possui >
Plataforma "1" -- "*" Organização : tem registadas >
Plataforma "1" -- "*" Freelancer : tem/usa  >
Plataforma "1" -- "*" Administrativo : tem  >
Plataforma "1" -- "*" TipoCompetencia : "possui >"

Gestor "0..1" -- "1" Colaborador: é >
Gestor "1" -- "*" Colaborador: especifica >

Organização "1" -- "1..*" Colaborador: tem >
Organização "1" -- "1" EnderecoPostal: localizada em >
Organização "1" -- "1" Gestor: tem >

Freelancer "0..1" -- "1" Utilizador: atua como >

Administrativo "0..1" -- "1" Utilizador: atua como >
Administrativo "1" -- "*" AreaAtividade: define >
Administrativo "1" -- "*" CompetenciaTecnica: define >

Colaborador "0..1" -- "1" Utilizador: atua como >
Colaborador "*" -- "*" Tarefa: especifica >


CategoriaDeTarefa "*" -- "1" AreaAtividade: possui >

CategoriaDeTarefa "1" -- "*" TipoCompetencia: tem >
TipoCompetencia "*" -- "1" CompetenciaTecnica: referente a >

Tarefa "*" -- "1" CategoriaDeTarefa: possui >

CompetenciaTecnica "*" -- "1" AreaAtividade : referente a >
@enduml