<?xml version="1.0" encoding="UTF-8"?><svg xmlns="http://www.w3.org/2000/svg" xmlns:xlink="http://www.w3.org/1999/xlink" contentScriptType="application/ecmascript" contentStyleType="text/css" height="452px" preserveAspectRatio="none" style="width:449px;height:452px;" version="1.1" viewBox="0 0 449 452" width="449px" zoomAndPan="magnify">
    <defs>
        <filter height="300%" id="fezguhu7g4vm2" width="300%" x="-1" y="-1">
            <feGaussianBlur result="blurOut" stdDeviation="2.0"/>
            <feColorMatrix in="blurOut" result="blurOut2" type="matrix" values="0 0 0 0 0 0 0 0 0 0 0 0 0 0 0 0 0 0 .4 0"/>
            <feOffset dx="4.0" dy="4.0" in="blurOut2" result="blurOut3"/>
            <feBlend in="SourceGraphic" in2="blurOut3" mode="normal"/>
        </filter>
    </defs>
    <g>
        <rect fill="#FFFFFF" filter="url(#fezguhu7g4vm2)" height="250.8125" style="stroke: #A80036; stroke-width: 1.0;" width="10" x="50" y="97.6094"/>
        <rect fill="#FFFFFF" filter="url(#fezguhu7g4vm2)" height="46.3516" style="stroke: #A80036; stroke-width: 1.0;" width="10" x="403" y="119.6094"/>
        <rect fill="#FFFFFF" filter="url(#fezguhu7g4vm2)" height="30.3516" style="stroke: #A80036; stroke-width: 1.0;" width="10" x="403" y="196.6641"/>
        <rect fill="#FFFFFF" filter="url(#fezguhu7g4vm2)" height="30.3516" style="stroke: #A80036; stroke-width: 1.0;" width="10" x="403" y="257.3672"/>
        <rect fill="#FFFFFF" filter="url(#fezguhu7g4vm2)" height="30.3516" style="stroke: #A80036; stroke-width: 1.0;" width="10" x="403" y="318.0703"/>
        <line style="stroke: #A80036; stroke-width: 1.0; stroke-dasharray: 5.0,5.0;" x1="55" x2="55" y1="87.6094" y2="366.7734"/>
        <line style="stroke: #A80036; stroke-width: 1.0; stroke-dasharray: 5.0,5.0;" x1="408" x2="408" y1="87.6094" y2="366.7734"/>
        <text fill="#000000" font-family="sans-serif" font-size="14" lengthAdjust="spacingAndGlyphs" textLength="88" x="8" y="84.5332">Administrativo</text>
        <ellipse cx="55" cy="13" fill="#FEFECE" filter="url(#fezguhu7g4vm2)" rx="8" ry="8" style="stroke: #A80036; stroke-width: 2.0;"/>
        <path d="M55,21 L55,48 M42,29 L68,29 M55,48 L42,63 M55,48 L68,63 " fill="#FEFECE" filter="url(#fezguhu7g4vm2)" style="stroke: #A80036; stroke-width: 2.0;"/>
        <text fill="#000000" font-family="sans-serif" font-size="14" lengthAdjust="spacingAndGlyphs" textLength="88" x="8" y="380.3066">Administrativo</text>
        <ellipse cx="55" cy="393.3828" fill="#FEFECE" filter="url(#fezguhu7g4vm2)" rx="8" ry="8" style="stroke: #A80036; stroke-width: 2.0;"/>
        <path d="M55,401.3828 L55,428.3828 M42,409.3828 L68,409.3828 M55,428.3828 L42,443.3828 M55,428.3828 L68,443.3828 " fill="#FEFECE" filter="url(#fezguhu7g4vm2)" style="stroke: #A80036; stroke-width: 2.0;"/>
        <rect fill="#FEFECE" filter="url(#fezguhu7g4vm2)" height="31.6094" style="stroke: #A80036; stroke-width: 1.5;" width="68" x="372" y="51"/>
        <text fill="#000000" font-family="sans-serif" font-size="14" lengthAdjust="spacingAndGlyphs" textLength="54" x="379" y="72.5332">:Sistema</text>
        <rect fill="#FEFECE" filter="url(#fezguhu7g4vm2)" height="31.6094" style="stroke: #A80036; stroke-width: 1.5;" width="68" x="372" y="365.7734"/>
        <text fill="#000000" font-family="sans-serif" font-size="14" lengthAdjust="spacingAndGlyphs" textLength="54" x="379" y="387.3066">:Sistema</text>
        <rect fill="#FFFFFF" filter="url(#fezguhu7g4vm2)" height="250.8125" style="stroke: #A80036; stroke-width: 1.0;" width="10" x="50" y="97.6094"/>
        <rect fill="#FFFFFF" filter="url(#fezguhu7g4vm2)" height="46.3516" style="stroke: #A80036; stroke-width: 1.0;" width="10" x="403" y="119.6094"/>
        <rect fill="#FFFFFF" filter="url(#fezguhu7g4vm2)" height="30.3516" style="stroke: #A80036; stroke-width: 1.0;" width="10" x="403" y="196.6641"/>
        <rect fill="#FFFFFF" filter="url(#fezguhu7g4vm2)" height="30.3516" style="stroke: #A80036; stroke-width: 1.0;" width="10" x="403" y="257.3672"/>
        <rect fill="#FFFFFF" filter="url(#fezguhu7g4vm2)" height="30.3516" style="stroke: #A80036; stroke-width: 1.0;" width="10" x="403" y="318.0703"/>
        <polygon fill="#A80036" points="391,115.6094,401,119.6094,391,123.6094,395,119.6094" style="stroke: #A80036; stroke-width: 1.0;"/>
        <line style="stroke: #A80036; stroke-width: 1.0;" x1="60" x2="397" y1="119.6094" y2="119.6094"/>
        <text fill="#000000" font-family="sans-serif" font-size="13" lengthAdjust="spacingAndGlyphs" textLength="125" x="67" y="115.1045">1. Especifica nova CT</text>
        <polygon fill="#A80036" points="71,161.9609,61,165.9609,71,169.9609,67,165.9609" style="stroke: #A80036; stroke-width: 1.0;"/>
        <line style="stroke: #A80036; stroke-width: 1.0; stroke-dasharray: 2.0,2.0;" x1="65" x2="407" y1="165.9609" y2="165.9609"/>
        <text fill="#000000" font-family="sans-serif" font-size="13" lengthAdjust="spacingAndGlyphs" textLength="319" x="77" y="145.4561">2. Solicita dados necessários (código, descrição breve,</text>
        <text fill="#000000" font-family="sans-serif" font-size="13" lengthAdjust="spacingAndGlyphs" textLength="120" x="81" y="161.8076">descrição detalhada)</text>
        <polygon fill="#A80036" points="391,192.6641,401,196.6641,391,200.6641,395,196.6641" style="stroke: #A80036; stroke-width: 1.0;"/>
        <line style="stroke: #A80036; stroke-width: 1.0;" x1="60" x2="397" y1="196.6641" y2="196.6641"/>
        <text fill="#000000" font-family="sans-serif" font-size="13" lengthAdjust="spacingAndGlyphs" textLength="166" x="67" y="192.1592">3. Introduz dados solicitados</text>
        <polygon fill="#A80036" points="71,223.0156,61,227.0156,71,231.0156,67,227.0156" style="stroke: #A80036; stroke-width: 1.0;"/>
        <line style="stroke: #A80036; stroke-width: 1.0; stroke-dasharray: 2.0,2.0;" x1="65" x2="407" y1="227.0156" y2="227.0156"/>
        <text fill="#000000" font-family="sans-serif" font-size="13" lengthAdjust="spacingAndGlyphs" textLength="278" x="77" y="222.5107">4. Apresenta as AA e pede para selecionar uma</text>
        <polygon fill="#A80036" points="391,253.3672,401,257.3672,391,261.3672,395,257.3672" style="stroke: #A80036; stroke-width: 1.0;"/>
        <line style="stroke: #A80036; stroke-width: 1.0;" x1="60" x2="397" y1="257.3672" y2="257.3672"/>
        <text fill="#000000" font-family="sans-serif" font-size="13" lengthAdjust="spacingAndGlyphs" textLength="158" x="67" y="252.8623">5. Seleciona AA pretendida</text>
        <polygon fill="#A80036" points="71,283.7188,61,287.7188,71,291.7188,67,287.7188" style="stroke: #A80036; stroke-width: 1.0;"/>
        <line style="stroke: #A80036; stroke-width: 1.0; stroke-dasharray: 2.0,2.0;" x1="65" x2="407" y1="287.7188" y2="287.7188"/>
        <text fill="#000000" font-family="sans-serif" font-size="13" lengthAdjust="spacingAndGlyphs" textLength="297" x="77" y="283.2139">6. Apresenta todos os dados e solicita confirmação</text>
        <polygon fill="#A80036" points="391,314.0703,401,318.0703,391,322.0703,395,318.0703" style="stroke: #A80036; stroke-width: 1.0;"/>
        <line style="stroke: #A80036; stroke-width: 1.0;" x1="60" x2="397" y1="318.0703" y2="318.0703"/>
        <text fill="#000000" font-family="sans-serif" font-size="13" lengthAdjust="spacingAndGlyphs" textLength="66" x="67" y="313.5654">7. Confirma</text>
        <polygon fill="#A80036" points="66,344.4219,56,348.4219,66,352.4219,62,348.4219" style="stroke: #A80036; stroke-width: 1.0;"/>
        <line style="stroke: #A80036; stroke-width: 1.0; stroke-dasharray: 2.0,2.0;" x1="60" x2="407" y1="348.4219" y2="348.4219"/>
        <text fill="#000000" font-family="sans-serif" font-size="13" lengthAdjust="spacingAndGlyphs" textLength="156" x="72" y="343.917">8. Operação bem sucedida</text>
        <!--
@startuml
actor Administrativo
activate Administrativo
Administrativo -> ":Sistema": 1. Especifica nova CT
Activate ":Sistema"
":Sistema"- -> Administrativo: 2. Solicita dados necessários (código, descrição breve,\n descrição detalhada)
deactivate ":Sistema"
Administrativo -> ":Sistema": 3. Introduz dados solicitados
Activate ":Sistema"
":Sistema"- -> Administrativo: 4. Apresenta as AA e pede para selecionar uma
deactivate ":Sistema"
Administrativo -> ":Sistema": 5. Seleciona AA pretendida
Activate ":Sistema"
":Sistema"- -> Administrativo: 6. Apresenta todos os dados e solicita confirmação
deactivate ":Sistema"
Administrativo -> ":Sistema": 7. Confirma
Activate ":Sistema"
":Sistema"- -> Administrativo: 8. Operação bem sucedida
deactivate ":Sistema"
deactivate Administrativo
@enduml

PlantUML version 2017.11(Wed Apr 19 17:18:59 BST 2017)
(GPL source distribution)
Java Runtime: Java(TM) SE Runtime Environment
JVM: Java HotSpot(TM) 64-Bit Server VM
Java Version: 1.8.0_111-b14
Operating System: Windows 10
OS Version: 10.0
Default Encoding: UTF-8
Language: pt
Country: PT
-->
    </g>
</svg>
