<?xml version="1.0" encoding="UTF-8"?><svg xmlns="http://www.w3.org/2000/svg" xmlns:xlink="http://www.w3.org/1999/xlink" contentScriptType="application/ecmascript" contentStyleType="text/css" height="1979px" preserveAspectRatio="none" style="width:2916px;height:1979px;" version="1.1" viewBox="0 0 2916 1979" width="2916px" zoomAndPan="magnify">
    <defs>
        <filter height="300%" id="f1vnn2aoja5set" width="300%" x="-1" y="-1">
            <feGaussianBlur result="blurOut" stdDeviation="2.0"/>
            <feColorMatrix in="blurOut" result="blurOut2" type="matrix" values="0 0 0 0 0 0 0 0 0 0 0 0 0 0 0 0 0 0 .4 0"/>
            <feOffset dx="4.0" dy="4.0" in="blurOut2" result="blurOut3"/>
            <feBlend in="SourceGraphic" in2="blurOut3" mode="normal"/>
        </filter>
    </defs>
    <g>
        <rect fill="#FFFFFF" filter="url(#f1vnn2aoja5set)" height="1789.6641" style="stroke: #A80036; stroke-width: 1.0;" width="10" x="42" y="96.4883"/>
        <rect fill="#FFFFFF" filter="url(#f1vnn2aoja5set)" height="534.7266" style="stroke: #A80036; stroke-width: 1.0;" width="10" x="447" y="132.4883"/>
        <rect fill="#FFFFFF" filter="url(#f1vnn2aoja5set)" height="387.7949" style="stroke: #A80036; stroke-width: 1.0;" width="10" x="447" y="696.8359"/>
        <rect fill="#FFFFFF" filter="url(#f1vnn2aoja5set)" height="172.5527" style="stroke: #A80036; stroke-width: 1.0;" width="10" x="447" y="1113.9414"/>
        <rect fill="#FFFFFF" filter="url(#f1vnn2aoja5set)" height="561.0371" style="stroke: #A80036; stroke-width: 1.0;" width="10" x="447" y="1315.8047"/>
        <rect fill="#FFFFFF" filter="url(#f1vnn2aoja5set)" height="505.1055" style="stroke: #A80036; stroke-width: 1.0;" width="10" x="803" y="162.1094"/>
        <rect fill="#FFFFFF" filter="url(#f1vnn2aoja5set)" height="358.4844" style="stroke: #A80036; stroke-width: 1.0;" width="10" x="803" y="726.1465"/>
        <rect fill="#FFFFFF" filter="url(#f1vnn2aoja5set)" height="143.2422" style="stroke: #A80036; stroke-width: 1.0;" width="10" x="803" y="1143.252"/>
        <rect fill="#FFFFFF" filter="url(#f1vnn2aoja5set)" height="495.416" style="stroke: #A80036; stroke-width: 1.0;" width="10" x="803" y="1345.1152"/>
        <rect fill="#FFFFFF" filter="url(#f1vnn2aoja5set)" height="30" style="stroke: #A80036; stroke-width: 1.0;" width="10" x="988.5" y="191.4199"/>
        <rect fill="#FFFFFF" filter="url(#f1vnn2aoja5set)" height="30" style="stroke: #A80036; stroke-width: 1.0;" width="10" x="1112.5" y="250.7305"/>
        <rect fill="#FFFFFF" filter="url(#f1vnn2aoja5set)" height="30" style="stroke: #A80036; stroke-width: 1.0;" width="10" x="1248.5" y="310.041"/>
        <rect fill="#FFFFFF" filter="url(#f1vnn2aoja5set)" height="30" style="stroke: #A80036; stroke-width: 1.0;" width="10" x="1374.5" y="369.3516"/>
        <rect fill="#FFFFFF" filter="url(#f1vnn2aoja5set)" height="30" style="stroke: #A80036; stroke-width: 1.0;" width="10" x="1374.5" y="487.9727"/>
        <rect fill="#FFFFFF" filter="url(#f1vnn2aoja5set)" height="30" style="stroke: #A80036; stroke-width: 1.0;" width="10" x="1505" y="428.6621"/>
        <rect fill="#FFFFFF" filter="url(#f1vnn2aoja5set)" height="30" style="stroke: #A80036; stroke-width: 1.0;" width="10" x="1656" y="547.2832"/>
        <rect fill="#FFFFFF" filter="url(#f1vnn2aoja5set)" height="301.1738" style="stroke: #A80036; stroke-width: 1.0;" width="10" x="1656" y="755.457"/>
        <rect fill="#FFFFFF" filter="url(#f1vnn2aoja5set)" height="30" style="stroke: #A80036; stroke-width: 1.0;" width="10" x="1656" y="1374.4258"/>
        <rect fill="#FFFFFF" filter="url(#f1vnn2aoja5set)" height="30" style="stroke: #A80036; stroke-width: 1.0;" width="10" x="1914" y="868.3887"/>
        <rect fill="#FFFFFF" filter="url(#f1vnn2aoja5set)" height="30" style="stroke: #A80036; stroke-width: 1.0;" width="10" x="1914" y="1517.3574"/>
        <rect fill="#FFFFFF" filter="url(#f1vnn2aoja5set)" height="77.6211" style="stroke: #A80036; stroke-width: 1.0;" width="10" x="2017" y="1172.5625"/>
        <rect fill="#FFFFFF" filter="url(#f1vnn2aoja5set)" height="29.3105" style="stroke: #A80036; stroke-width: 1.0;" width="10" x="2389" y="1733.5996"/>
        <rect fill="#FFFFFF" filter="url(#f1vnn2aoja5set)" height="30" style="stroke: #A80036; stroke-width: 1.0;" width="10" x="2515.5" y="809.0781"/>
        <rect fill="#FFFFFF" filter="url(#f1vnn2aoja5set)" height="30" style="stroke: #A80036; stroke-width: 1.0;" width="10" x="2515.5" y="1458.0469"/>
        <rect fill="#FFFFFF" filter="url(#f1vnn2aoja5set)" height="30" style="stroke: #A80036; stroke-width: 1.0;" width="10" x="2515.5" y="1660.2891"/>
        <rect fill="#FFFFFF" filter="url(#f1vnn2aoja5set)" height="30" style="stroke: #A80036; stroke-width: 1.0;" width="10" x="2684" y="927.6992"/>
        <rect fill="#FFFFFF" filter="url(#f1vnn2aoja5set)" height="30" style="stroke: #A80036; stroke-width: 1.0;" width="10" x="2684" y="1011.3203"/>
        <rect fill="#FFFFFF" filter="url(#f1vnn2aoja5set)" height="30" style="stroke: #A80036; stroke-width: 1.0;" width="10" x="2684" y="1576.668"/>
        <rect fill="#FFFFFF" filter="url(#f1vnn2aoja5set)" height="77.6211" style="stroke: #A80036; stroke-width: 1.0;" width="10" x="2684" y="1762.9102"/>
        <rect fill="#FFFFFF" filter="url(#f1vnn2aoja5set)" height="285.8633" style="stroke: #000000; stroke-width: 2.0;" width="1211" x="1572.5" y="770.7676"/>
        <rect fill="#FFFFFF" filter="url(#f1vnn2aoja5set)" height="76.6211" style="stroke: #000000; stroke-width: 2.0;" width="1191" x="1582.5" y="973.0098"/>
        <rect fill="#FFFFFF" filter="url(#f1vnn2aoja5set)" height="285.8633" style="stroke: #000000; stroke-width: 2.0;" width="1201" x="1572.5" y="1419.7363"/>
        <rect fill="#FFFFFF" filter="url(#f1vnn2aoja5set)" height="76.6211" style="stroke: #000000; stroke-width: 2.0;" width="1010" x="1582.5" y="1621.9785"/>
        <line style="stroke: #A80036; stroke-width: 1.0; stroke-dasharray: 5.0,5.0;" x1="47" x2="47" y1="86.4883" y2="1895.1523"/>
        <line style="stroke: #A80036; stroke-width: 1.0; stroke-dasharray: 5.0,5.0;" x1="451.5" x2="451.5" y1="86.4883" y2="1895.1523"/>
        <line style="stroke: #A80036; stroke-width: 1.0; stroke-dasharray: 5.0,5.0;" x1="807.5" x2="807.5" y1="86.4883" y2="1895.1523"/>
        <line style="stroke: #A80036; stroke-width: 1.0; stroke-dasharray: 5.0,5.0;" x1="993.5" x2="993.5" y1="86.4883" y2="1895.1523"/>
        <line style="stroke: #A80036; stroke-width: 1.0; stroke-dasharray: 5.0,5.0;" x1="1117.5" x2="1117.5" y1="86.4883" y2="1895.1523"/>
        <line style="stroke: #A80036; stroke-width: 1.0; stroke-dasharray: 5.0,5.0;" x1="1253.5" x2="1253.5" y1="86.4883" y2="1895.1523"/>
        <line style="stroke: #A80036; stroke-width: 1.0; stroke-dasharray: 5.0,5.0;" x1="1379.5" x2="1379.5" y1="86.4883" y2="1895.1523"/>
        <line style="stroke: #A80036; stroke-width: 1.0; stroke-dasharray: 5.0,5.0;" x1="1509.5" x2="1509.5" y1="86.4883" y2="1895.1523"/>
        <line style="stroke: #A80036; stroke-width: 1.0; stroke-dasharray: 5.0,5.0;" x1="1660.5" x2="1660.5" y1="86.4883" y2="1895.1523"/>
        <line style="stroke: #A80036; stroke-width: 1.0; stroke-dasharray: 5.0,5.0;" x1="1918.5" x2="1918.5" y1="86.4883" y2="1895.1523"/>
        <line style="stroke: #A80036; stroke-width: 1.0; stroke-dasharray: 5.0,5.0;" x1="2021.5" x2="2021.5" y1="86.4883" y2="1895.1523"/>
        <line style="stroke: #A80036; stroke-width: 1.0; stroke-dasharray: 5.0,5.0;" x1="2393.5" x2="2393.5" y1="86.4883" y2="1895.1523"/>
        <line style="stroke: #A80036; stroke-width: 1.0; stroke-dasharray: 5.0,5.0;" x1="2520.5" x2="2520.5" y1="86.4883" y2="1895.1523"/>
        <line style="stroke: #A80036; stroke-width: 1.0; stroke-dasharray: 5.0,5.0;" x1="2688.5" x2="2688.5" y1="86.4883" y2="1895.1523"/>
        <text fill="#000000" font-family="sans-serif" font-size="14" lengthAdjust="spacingAndGlyphs" textLength="72" x="8" y="83.5352">Freelancer</text>
        <ellipse cx="47" cy="13" fill="#FEFECE" filter="url(#f1vnn2aoja5set)" rx="8" ry="8" style="stroke: #A80036; stroke-width: 2.0;"/>
        <path d="M47,21 L47,48 M34,29 L60,29 M47,48 L34,63 M47,48 L60,63 " fill="#FEFECE" filter="url(#f1vnn2aoja5set)" style="stroke: #A80036; stroke-width: 2.0;"/>
        <text fill="#000000" font-family="sans-serif" font-size="14" lengthAdjust="spacingAndGlyphs" textLength="72" x="8" y="1907.6875">Freelancer</text>
        <ellipse cx="47" cy="1920.6406" fill="#FEFECE" filter="url(#f1vnn2aoja5set)" rx="8" ry="8" style="stroke: #A80036; stroke-width: 2.0;"/>
        <path d="M47,1928.6406 L47,1955.6406 M34,1936.6406 L60,1936.6406 M47,1955.6406 L34,1970.6406 M47,1955.6406 L60,1970.6406 " fill="#FEFECE" filter="url(#f1vnn2aoja5set)" style="stroke: #A80036; stroke-width: 2.0;"/>
        <rect fill="#FEFECE" filter="url(#f1vnn2aoja5set)" height="30.4883" style="stroke: #A80036; stroke-width: 1.5;" width="179" x="360.5" y="51"/>
        <text fill="#000000" font-family="sans-serif" font-size="14" lengthAdjust="spacingAndGlyphs" textLength="165" x="367.5" y="71.5352">:AtualizarCandidaturaUI</text>
        <rect fill="#FEFECE" filter="url(#f1vnn2aoja5set)" height="30.4883" style="stroke: #A80036; stroke-width: 1.5;" width="179" x="360.5" y="1894.1523"/>
        <text fill="#000000" font-family="sans-serif" font-size="14" lengthAdjust="spacingAndGlyphs" textLength="165" x="367.5" y="1914.6875">:AtualizarCandidaturaUI</text>
        <rect fill="#FEFECE" filter="url(#f1vnn2aoja5set)" height="30.4883" style="stroke: #A80036; stroke-width: 1.5;" width="235" x="688.5" y="51"/>
        <text fill="#000000" font-family="sans-serif" font-size="14" lengthAdjust="spacingAndGlyphs" textLength="221" x="695.5" y="71.5352">:AtualizarCandidaturaController</text>
        <rect fill="#FEFECE" filter="url(#f1vnn2aoja5set)" height="30.4883" style="stroke: #A80036; stroke-width: 1.5;" width="235" x="688.5" y="1894.1523"/>
        <text fill="#000000" font-family="sans-serif" font-size="14" lengthAdjust="spacingAndGlyphs" textLength="221" x="695.5" y="1914.6875">:AtualizarCandidaturaController</text>
        <rect fill="#FEFECE" filter="url(#f1vnn2aoja5set)" height="30.4883" style="stroke: #A80036; stroke-width: 1.5;" width="108" x="937.5" y="51"/>
        <text fill="#000000" font-family="sans-serif" font-size="14" lengthAdjust="spacingAndGlyphs" textLength="94" x="944.5" y="71.5352">AplicacaoPOT</text>
        <rect fill="#FEFECE" filter="url(#f1vnn2aoja5set)" height="30.4883" style="stroke: #A80036; stroke-width: 1.5;" width="108" x="937.5" y="1894.1523"/>
        <text fill="#000000" font-family="sans-serif" font-size="14" lengthAdjust="spacingAndGlyphs" textLength="94" x="944.5" y="1914.6875">AplicacaoPOT</text>
        <rect fill="#FEFECE" filter="url(#f1vnn2aoja5set)" height="46.9766" style="stroke: #A80036; stroke-width: 1.5;" width="112" x="1059.5" y="34.5117"/>
        <text fill="#000000" font-family="sans-serif" font-size="14" lengthAdjust="spacingAndGlyphs" textLength="26" x="1102.5" y="55.0469">app</text>
        <text fill="#000000" font-family="sans-serif" font-size="14" lengthAdjust="spacingAndGlyphs" textLength="98" x="1066.5" y="71.5352">:AplicacaoPOT</text>
        <rect fill="#FEFECE" filter="url(#f1vnn2aoja5set)" height="46.9766" style="stroke: #A80036; stroke-width: 1.5;" width="112" x="1059.5" y="1894.1523"/>
        <text fill="#000000" font-family="sans-serif" font-size="14" lengthAdjust="spacingAndGlyphs" textLength="26" x="1102.5" y="1914.6875">app</text>
        <text fill="#000000" font-family="sans-serif" font-size="14" lengthAdjust="spacingAndGlyphs" textLength="98" x="1066.5" y="1931.1758">:AplicacaoPOT</text>
        <rect fill="#FEFECE" filter="url(#f1vnn2aoja5set)" height="46.9766" style="stroke: #A80036; stroke-width: 1.5;" width="132" x="1185.5" y="34.5117"/>
        <text fill="#000000" font-family="sans-serif" font-size="14" lengthAdjust="spacingAndGlyphs" textLength="46" x="1228.5" y="55.0469">sessao</text>
        <text fill="#000000" font-family="sans-serif" font-size="14" lengthAdjust="spacingAndGlyphs" textLength="118" x="1192.5" y="71.5352">:SessaoUtilizador</text>
        <rect fill="#FEFECE" filter="url(#f1vnn2aoja5set)" height="46.9766" style="stroke: #A80036; stroke-width: 1.5;" width="132" x="1185.5" y="1894.1523"/>
        <text fill="#000000" font-family="sans-serif" font-size="14" lengthAdjust="spacingAndGlyphs" textLength="46" x="1228.5" y="1914.6875">sessao</text>
        <text fill="#000000" font-family="sans-serif" font-size="14" lengthAdjust="spacingAndGlyphs" textLength="118" x="1192.5" y="1931.1758">:SessaoUtilizador</text>
        <rect fill="#FEFECE" filter="url(#f1vnn2aoja5set)" height="30.4883" style="stroke: #A80036; stroke-width: 1.5;" width="92" x="1331.5" y="51"/>
        <text fill="#000000" font-family="sans-serif" font-size="14" lengthAdjust="spacingAndGlyphs" textLength="78" x="1338.5" y="71.5352">:Plataforma</text>
        <rect fill="#FEFECE" filter="url(#f1vnn2aoja5set)" height="30.4883" style="stroke: #A80036; stroke-width: 1.5;" width="92" x="1331.5" y="1894.1523"/>
        <text fill="#000000" font-family="sans-serif" font-size="14" lengthAdjust="spacingAndGlyphs" textLength="78" x="1338.5" y="1914.6875">:Plataforma</text>
        <rect fill="#FEFECE" filter="url(#f1vnn2aoja5set)" height="46.9766" style="stroke: #A80036; stroke-width: 1.5;" width="141" x="1437.5" y="34.5117"/>
        <text fill="#000000" font-family="sans-serif" font-size="14" lengthAdjust="spacingAndGlyphs" textLength="17" x="1499.5" y="55.0469">rfr</text>
        <text fill="#000000" font-family="sans-serif" font-size="14" lengthAdjust="spacingAndGlyphs" textLength="127" x="1444.5" y="71.5352">:RegistoFreelancer</text>
        <rect fill="#FEFECE" filter="url(#f1vnn2aoja5set)" height="46.9766" style="stroke: #A80036; stroke-width: 1.5;" width="141" x="1437.5" y="1894.1523"/>
        <text fill="#000000" font-family="sans-serif" font-size="14" lengthAdjust="spacingAndGlyphs" textLength="17" x="1499.5" y="1914.6875">rfr</text>
        <text fill="#000000" font-family="sans-serif" font-size="14" lengthAdjust="spacingAndGlyphs" textLength="127" x="1444.5" y="1931.1758">:RegistoFreelancer</text>
        <rect fill="#FEFECE" filter="url(#f1vnn2aoja5set)" height="46.9766" style="stroke: #A80036; stroke-width: 1.5;" width="133" x="1592.5" y="34.5117"/>
        <text fill="#000000" font-family="sans-serif" font-size="14" lengthAdjust="spacingAndGlyphs" textLength="33" x="1642.5" y="55.0469">regA</text>
        <text fill="#000000" font-family="sans-serif" font-size="14" lengthAdjust="spacingAndGlyphs" textLength="119" x="1599.5" y="71.5352">:RegistoAnuncios</text>
        <rect fill="#FEFECE" filter="url(#f1vnn2aoja5set)" height="46.9766" style="stroke: #A80036; stroke-width: 1.5;" width="133" x="1592.5" y="1894.1523"/>
        <text fill="#000000" font-family="sans-serif" font-size="14" lengthAdjust="spacingAndGlyphs" textLength="33" x="1642.5" y="1914.6875">regA</text>
        <text fill="#000000" font-family="sans-serif" font-size="14" lengthAdjust="spacingAndGlyphs" textLength="119" x="1599.5" y="1931.1758">:RegistoAnuncios</text>
        <rect fill="#FEFECE" filter="url(#f1vnn2aoja5set)" height="46.9766" style="stroke: #A80036; stroke-width: 1.5;" width="75" x="1879.5" y="34.5117"/>
        <text fill="#000000" font-family="sans-serif" font-size="14" lengthAdjust="spacingAndGlyphs" textLength="26" x="1904" y="55.0469">anu</text>
        <text fill="#000000" font-family="sans-serif" font-size="14" lengthAdjust="spacingAndGlyphs" textLength="61" x="1886.5" y="71.5352">:Anuncio</text>
        <rect fill="#FEFECE" filter="url(#f1vnn2aoja5set)" height="46.9766" style="stroke: #A80036; stroke-width: 1.5;" width="75" x="1879.5" y="1894.1523"/>
        <text fill="#000000" font-family="sans-serif" font-size="14" lengthAdjust="spacingAndGlyphs" textLength="26" x="1904" y="1914.6875">anu</text>
        <text fill="#000000" font-family="sans-serif" font-size="14" lengthAdjust="spacingAndGlyphs" textLength="61" x="1886.5" y="1931.1758">:Anuncio</text>
        <rect fill="#FEFECE" filter="url(#f1vnn2aoja5set)" height="46.9766" style="stroke: #A80036; stroke-width: 1.5;" width="103" x="1968.5" y="34.5117"/>
        <text fill="#000000" font-family="sans-serif" font-size="14" lengthAdjust="spacingAndGlyphs" textLength="33" x="2003.5" y="55.0469">cand</text>
        <text fill="#000000" font-family="sans-serif" font-size="14" lengthAdjust="spacingAndGlyphs" textLength="89" x="1975.5" y="71.5352">:Candidatura</text>
        <rect fill="#FEFECE" filter="url(#f1vnn2aoja5set)" height="46.9766" style="stroke: #A80036; stroke-width: 1.5;" width="103" x="1968.5" y="1894.1523"/>
        <text fill="#000000" font-family="sans-serif" font-size="14" lengthAdjust="spacingAndGlyphs" textLength="33" x="2003.5" y="1914.6875">cand</text>
        <text fill="#000000" font-family="sans-serif" font-size="14" lengthAdjust="spacingAndGlyphs" textLength="89" x="1975.5" y="1931.1758">:Candidatura</text>
        <rect fill="#FEFECE" filter="url(#f1vnn2aoja5set)" height="46.9766" style="stroke: #A80036; stroke-width: 1.5;" width="105" x="2339.5" y="34.5117"/>
        <text fill="#000000" font-family="sans-serif" font-size="14" lengthAdjust="spacingAndGlyphs" textLength="91" x="2346.5" y="55.0469">anuncioCand</text>
        <text fill="#000000" font-family="sans-serif" font-size="14" lengthAdjust="spacingAndGlyphs" textLength="61" x="2361.5" y="71.5352">:Anuncio</text>
        <rect fill="#FEFECE" filter="url(#f1vnn2aoja5set)" height="46.9766" style="stroke: #A80036; stroke-width: 1.5;" width="105" x="2339.5" y="1894.1523"/>
        <text fill="#000000" font-family="sans-serif" font-size="14" lengthAdjust="spacingAndGlyphs" textLength="91" x="2346.5" y="1914.6875">anuncioCand</text>
        <text fill="#000000" font-family="sans-serif" font-size="14" lengthAdjust="spacingAndGlyphs" textLength="61" x="2361.5" y="1931.1758">:Anuncio</text>
        <rect fill="#FEFECE" filter="url(#f1vnn2aoja5set)" height="46.9766" style="stroke: #A80036; stroke-width: 1.5;" width="120" x="2458.5" y="34.5117"/>
        <text fill="#000000" font-family="sans-serif" font-size="14" lengthAdjust="spacingAndGlyphs" textLength="44" x="2496.5" y="55.0469">lstAnu</text>
        <text fill="#000000" font-family="sans-serif" font-size="14" lengthAdjust="spacingAndGlyphs" textLength="106" x="2465.5" y="71.5352">:List&lt;Anuncio&gt;</text>
        <rect fill="#FEFECE" filter="url(#f1vnn2aoja5set)" height="46.9766" style="stroke: #A80036; stroke-width: 1.5;" width="120" x="2458.5" y="1894.1523"/>
        <text fill="#000000" font-family="sans-serif" font-size="14" lengthAdjust="spacingAndGlyphs" textLength="44" x="2496.5" y="1914.6875">lstAnu</text>
        <text fill="#000000" font-family="sans-serif" font-size="14" lengthAdjust="spacingAndGlyphs" textLength="106" x="2465.5" y="1931.1758">:List&lt;Anuncio&gt;</text>
        <rect fill="#FEFECE" filter="url(#f1vnn2aoja5set)" height="30.4883" style="stroke: #A80036; stroke-width: 1.5;" width="145" x="2614.5" y="51"/>
        <text fill="#000000" font-family="sans-serif" font-size="14" lengthAdjust="spacingAndGlyphs" textLength="131" x="2621.5" y="71.5352">:ListaCandidaturas:</text>
        <rect fill="#FEFECE" filter="url(#f1vnn2aoja5set)" height="30.4883" style="stroke: #A80036; stroke-width: 1.5;" width="145" x="2614.5" y="1894.1523"/>
        <text fill="#000000" font-family="sans-serif" font-size="14" lengthAdjust="spacingAndGlyphs" textLength="131" x="2621.5" y="1914.6875">:ListaCandidaturas:</text>
        <rect fill="#FFFFFF" filter="url(#f1vnn2aoja5set)" height="1789.6641" style="stroke: #A80036; stroke-width: 1.0;" width="10" x="42" y="96.4883"/>
        <rect fill="#FFFFFF" filter="url(#f1vnn2aoja5set)" height="534.7266" style="stroke: #A80036; stroke-width: 1.0;" width="10" x="447" y="132.4883"/>
        <rect fill="#FFFFFF" filter="url(#f1vnn2aoja5set)" height="387.7949" style="stroke: #A80036; stroke-width: 1.0;" width="10" x="447" y="696.8359"/>
        <rect fill="#FFFFFF" filter="url(#f1vnn2aoja5set)" height="172.5527" style="stroke: #A80036; stroke-width: 1.0;" width="10" x="447" y="1113.9414"/>
        <rect fill="#FFFFFF" filter="url(#f1vnn2aoja5set)" height="561.0371" style="stroke: #A80036; stroke-width: 1.0;" width="10" x="447" y="1315.8047"/>
        <rect fill="#FFFFFF" filter="url(#f1vnn2aoja5set)" height="505.1055" style="stroke: #A80036; stroke-width: 1.0;" width="10" x="803" y="162.1094"/>
        <rect fill="#FFFFFF" filter="url(#f1vnn2aoja5set)" height="358.4844" style="stroke: #A80036; stroke-width: 1.0;" width="10" x="803" y="726.1465"/>
        <rect fill="#FFFFFF" filter="url(#f1vnn2aoja5set)" height="143.2422" style="stroke: #A80036; stroke-width: 1.0;" width="10" x="803" y="1143.252"/>
        <rect fill="#FFFFFF" filter="url(#f1vnn2aoja5set)" height="495.416" style="stroke: #A80036; stroke-width: 1.0;" width="10" x="803" y="1345.1152"/>
        <rect fill="#FFFFFF" filter="url(#f1vnn2aoja5set)" height="30" style="stroke: #A80036; stroke-width: 1.0;" width="10" x="988.5" y="191.4199"/>
        <rect fill="#FFFFFF" filter="url(#f1vnn2aoja5set)" height="30" style="stroke: #A80036; stroke-width: 1.0;" width="10" x="1112.5" y="250.7305"/>
        <rect fill="#FFFFFF" filter="url(#f1vnn2aoja5set)" height="30" style="stroke: #A80036; stroke-width: 1.0;" width="10" x="1248.5" y="310.041"/>
        <rect fill="#FFFFFF" filter="url(#f1vnn2aoja5set)" height="30" style="stroke: #A80036; stroke-width: 1.0;" width="10" x="1374.5" y="369.3516"/>
        <rect fill="#FFFFFF" filter="url(#f1vnn2aoja5set)" height="30" style="stroke: #A80036; stroke-width: 1.0;" width="10" x="1374.5" y="487.9727"/>
        <rect fill="#FFFFFF" filter="url(#f1vnn2aoja5set)" height="30" style="stroke: #A80036; stroke-width: 1.0;" width="10" x="1505" y="428.6621"/>
        <rect fill="#FFFFFF" filter="url(#f1vnn2aoja5set)" height="30" style="stroke: #A80036; stroke-width: 1.0;" width="10" x="1656" y="547.2832"/>
        <rect fill="#FFFFFF" filter="url(#f1vnn2aoja5set)" height="301.1738" style="stroke: #A80036; stroke-width: 1.0;" width="10" x="1656" y="755.457"/>
        <rect fill="#FFFFFF" filter="url(#f1vnn2aoja5set)" height="30" style="stroke: #A80036; stroke-width: 1.0;" width="10" x="1656" y="1374.4258"/>
        <rect fill="#FFFFFF" filter="url(#f1vnn2aoja5set)" height="30" style="stroke: #A80036; stroke-width: 1.0;" width="10" x="1914" y="868.3887"/>
        <rect fill="#FFFFFF" filter="url(#f1vnn2aoja5set)" height="30" style="stroke: #A80036; stroke-width: 1.0;" width="10" x="1914" y="1517.3574"/>
        <rect fill="#FFFFFF" filter="url(#f1vnn2aoja5set)" height="77.6211" style="stroke: #A80036; stroke-width: 1.0;" width="10" x="2017" y="1172.5625"/>
        <rect fill="#FFFFFF" filter="url(#f1vnn2aoja5set)" height="29.3105" style="stroke: #A80036; stroke-width: 1.0;" width="10" x="2389" y="1733.5996"/>
        <rect fill="#FFFFFF" filter="url(#f1vnn2aoja5set)" height="30" style="stroke: #A80036; stroke-width: 1.0;" width="10" x="2515.5" y="809.0781"/>
        <rect fill="#FFFFFF" filter="url(#f1vnn2aoja5set)" height="30" style="stroke: #A80036; stroke-width: 1.0;" width="10" x="2515.5" y="1458.0469"/>
        <rect fill="#FFFFFF" filter="url(#f1vnn2aoja5set)" height="30" style="stroke: #A80036; stroke-width: 1.0;" width="10" x="2515.5" y="1660.2891"/>
        <rect fill="#FFFFFF" filter="url(#f1vnn2aoja5set)" height="30" style="stroke: #A80036; stroke-width: 1.0;" width="10" x="2684" y="927.6992"/>
        <rect fill="#FFFFFF" filter="url(#f1vnn2aoja5set)" height="30" style="stroke: #A80036; stroke-width: 1.0;" width="10" x="2684" y="1011.3203"/>
        <rect fill="#FFFFFF" filter="url(#f1vnn2aoja5set)" height="30" style="stroke: #A80036; stroke-width: 1.0;" width="10" x="2684" y="1576.668"/>
        <rect fill="#FFFFFF" filter="url(#f1vnn2aoja5set)" height="77.6211" style="stroke: #A80036; stroke-width: 1.0;" width="10" x="2684" y="1762.9102"/>
        <polygon fill="#A80036" points="435,128.4883,445,132.4883,435,136.4883,439,132.4883" style="stroke: #A80036; stroke-width: 1.0;"/>
        <line style="stroke: #A80036; stroke-width: 1.0;" x1="52" x2="441" y1="132.4883" y2="132.4883"/>
        <text fill="#000000" font-family="sans-serif" font-size="13" font-weight="bold" lengthAdjust="spacingAndGlyphs" textLength="9" x="59" y="120.7119">1</text>
        <text fill="#000000" font-family="sans-serif" font-size="13" lengthAdjust="spacingAndGlyphs" textLength="306" x="72" y="113.0566">inicia a atualização de uma candidatura efetuada</text>
        <text fill="#000000" font-family="sans-serif" font-size="13" lengthAdjust="spacingAndGlyphs" textLength="36" x="76" y="128.3672">por si</text>
        <polygon fill="#A80036" points="791,158.1094,801,162.1094,791,166.1094,795,162.1094" style="stroke: #A80036; stroke-width: 1.0;"/>
        <line style="stroke: #A80036; stroke-width: 1.0;" x1="457" x2="797" y1="162.1094" y2="162.1094"/>
        <text fill="#000000" font-family="sans-serif" font-size="13" font-weight="bold" lengthAdjust="spacingAndGlyphs" textLength="9" x="464" y="157.6777">2</text>
        <text fill="#000000" font-family="sans-serif" font-size="13" lengthAdjust="spacingAndGlyphs" textLength="148" x="477" y="157.6777">lstCF = getCandidFree()</text>
        <polygon fill="#A80036" points="976.5,187.4199,986.5,191.4199,976.5,195.4199,980.5,191.4199" style="stroke: #A80036; stroke-width: 1.0;"/>
        <line style="stroke: #A80036; stroke-width: 1.0;" x1="813" x2="982.5" y1="191.4199" y2="191.4199"/>
        <text fill="#000000" font-family="sans-serif" font-size="13" font-weight="bold" lengthAdjust="spacingAndGlyphs" textLength="9" x="820" y="186.9883">3</text>
        <text fill="#000000" font-family="sans-serif" font-size="13" lengthAdjust="spacingAndGlyphs" textLength="122" x="833" y="186.9883">app = getInstance()</text>
        <polygon fill="#A80036" points="1100.5,246.7305,1110.5,250.7305,1100.5,254.7305,1104.5,250.7305" style="stroke: #A80036; stroke-width: 1.0;"/>
        <line style="stroke: #A80036; stroke-width: 1.0;" x1="813" x2="1106.5" y1="250.7305" y2="250.7305"/>
        <text fill="#000000" font-family="sans-serif" font-size="13" font-weight="bold" lengthAdjust="spacingAndGlyphs" textLength="9" x="820" y="246.2988">4</text>
        <text fill="#000000" font-family="sans-serif" font-size="13" lengthAdjust="spacingAndGlyphs" textLength="165" x="833" y="246.2988">sessao = getSessaoAtual()</text>
        <polygon fill="#A80036" points="1236.5,306.041,1246.5,310.041,1236.5,314.041,1240.5,310.041" style="stroke: #A80036; stroke-width: 1.0;"/>
        <line style="stroke: #A80036; stroke-width: 1.0;" x1="813" x2="1242.5" y1="310.041" y2="310.041"/>
        <text fill="#000000" font-family="sans-serif" font-size="13" font-weight="bold" lengthAdjust="spacingAndGlyphs" textLength="9" x="820" y="305.6094">5</text>
        <text fill="#000000" font-family="sans-serif" font-size="13" lengthAdjust="spacingAndGlyphs" textLength="175" x="833" y="305.6094">email = getEmailUtilizador()</text>
        <polygon fill="#A80036" points="1362.5,365.3516,1372.5,369.3516,1362.5,373.3516,1366.5,369.3516" style="stroke: #A80036; stroke-width: 1.0;"/>
        <line style="stroke: #A80036; stroke-width: 1.0;" x1="813" x2="1368.5" y1="369.3516" y2="369.3516"/>
        <text fill="#000000" font-family="sans-serif" font-size="13" font-weight="bold" lengthAdjust="spacingAndGlyphs" textLength="9" x="820" y="364.9199">6</text>
        <text fill="#000000" font-family="sans-serif" font-size="13" lengthAdjust="spacingAndGlyphs" textLength="172" x="833" y="364.9199">rfr = getRegistoFreelancer()</text>
        <polygon fill="#A80036" points="1493,424.6621,1503,428.6621,1493,432.6621,1497,428.6621" style="stroke: #A80036; stroke-width: 1.0;"/>
        <line style="stroke: #A80036; stroke-width: 1.0;" x1="813" x2="1499" y1="428.6621" y2="428.6621"/>
        <text fill="#000000" font-family="sans-serif" font-size="13" font-weight="bold" lengthAdjust="spacingAndGlyphs" textLength="9" x="820" y="424.2305">7</text>
        <text fill="#000000" font-family="sans-serif" font-size="13" lengthAdjust="spacingAndGlyphs" textLength="216" x="833" y="424.2305">free = getFreelancerByEmail(email)</text>
        <polygon fill="#A80036" points="1362.5,483.9727,1372.5,487.9727,1362.5,491.9727,1366.5,487.9727" style="stroke: #A80036; stroke-width: 1.0;"/>
        <line style="stroke: #A80036; stroke-width: 1.0;" x1="813" x2="1368.5" y1="487.9727" y2="487.9727"/>
        <text fill="#000000" font-family="sans-serif" font-size="13" font-weight="bold" lengthAdjust="spacingAndGlyphs" textLength="9" x="820" y="483.541">8</text>
        <text fill="#000000" font-family="sans-serif" font-size="13" lengthAdjust="spacingAndGlyphs" textLength="181" x="833" y="483.541">regA = getRegistoAnuncios()</text>
        <polygon fill="#A80036" points="1644,543.2832,1654,547.2832,1644,551.2832,1648,547.2832" style="stroke: #A80036; stroke-width: 1.0;"/>
        <line style="stroke: #A80036; stroke-width: 1.0;" x1="813" x2="1650" y1="547.2832" y2="547.2832"/>
        <text fill="#000000" font-family="sans-serif" font-size="13" font-weight="bold" lengthAdjust="spacingAndGlyphs" textLength="9" x="820" y="542.8516">9</text>
        <text fill="#000000" font-family="sans-serif" font-size="13" lengthAdjust="spacingAndGlyphs" textLength="329" x="833" y="542.8516">lstCandFreelancer = getCandidaturasFreelancer(free)</text>
        <rect fill="#FFFFFF" filter="url(#f1vnn2aoja5set)" height="40.6211" style="stroke: #000000; stroke-width: 2.0;" width="1173" x="1589.5" y="585.5938"/>
        <polygon fill="#EEEEEE" points="1589.5,585.5938,1653.5,585.5938,1653.5,592.5938,1643.5,602.5938,1589.5,602.5938,1589.5,585.5938" style="stroke: #000000; stroke-width: 2.0;"/>
        <text fill="#000000" font-family="sans-serif" font-size="13" font-weight="bold" lengthAdjust="spacingAndGlyphs" textLength="19" x="1602.5" y="600.1621">ref</text>
        <text fill="#000000" font-family="sans-serif" font-size="13" lengthAdjust="spacingAndGlyphs" textLength="271" x="2042.5" y="619.1621">UC_11_SD_getCandidaturasFreelancer(free)</text>
        <polygon fill="#A80036" points="63,663.2148,53,667.2148,63,671.2148,59,667.2148" style="stroke: #A80036; stroke-width: 1.0;"/>
        <line style="stroke: #A80036; stroke-width: 1.0; stroke-dasharray: 2.0,2.0;" x1="57" x2="451" y1="667.2148" y2="667.2148"/>
        <text fill="#000000" font-family="sans-serif" font-size="13" font-weight="bold" lengthAdjust="spacingAndGlyphs" textLength="18" x="69" y="655.4385">10</text>
        <text fill="#000000" font-family="sans-serif" font-size="13" lengthAdjust="spacingAndGlyphs" textLength="295" x="91" y="647.7832">mostra a lista de candidaturas efetuadas por si</text>
        <text fill="#000000" font-family="sans-serif" font-size="13" lengthAdjust="spacingAndGlyphs" textLength="171" x="95" y="663.0938">e pede para selecionar uma</text>
        <polygon fill="#A80036" points="435,692.8359,445,696.8359,435,700.8359,439,696.8359" style="stroke: #A80036; stroke-width: 1.0;"/>
        <line style="stroke: #A80036; stroke-width: 1.0;" x1="52" x2="441" y1="696.8359" y2="696.8359"/>
        <text fill="#000000" font-family="sans-serif" font-size="13" font-weight="bold" lengthAdjust="spacingAndGlyphs" textLength="18" x="59" y="692.4043">11</text>
        <text fill="#000000" font-family="sans-serif" font-size="13" lengthAdjust="spacingAndGlyphs" textLength="292" x="81" y="692.4043">seleciona a candidatura que pretende atualizar</text>
        <polygon fill="#A80036" points="791,722.1465,801,726.1465,791,730.1465,795,726.1465" style="stroke: #A80036; stroke-width: 1.0;"/>
        <line style="stroke: #A80036; stroke-width: 1.0;" x1="457" x2="797" y1="726.1465" y2="726.1465"/>
        <text fill="#000000" font-family="sans-serif" font-size="13" font-weight="bold" lengthAdjust="spacingAndGlyphs" textLength="18" x="464" y="721.7148">12</text>
        <text fill="#000000" font-family="sans-serif" font-size="13" lengthAdjust="spacingAndGlyphs" textLength="229" x="486" y="721.7148">selecionaCandidatura(candidaturaId)</text>
        <polygon fill="#A80036" points="1644,751.457,1654,755.457,1644,759.457,1648,755.457" style="stroke: #A80036; stroke-width: 1.0;"/>
        <line style="stroke: #A80036; stroke-width: 1.0;" x1="813" x2="1650" y1="755.457" y2="755.457"/>
        <text fill="#000000" font-family="sans-serif" font-size="13" font-weight="bold" lengthAdjust="spacingAndGlyphs" textLength="18" x="820" y="751.0254">13</text>
        <text fill="#000000" font-family="sans-serif" font-size="13" lengthAdjust="spacingAndGlyphs" textLength="268" x="842" y="751.0254">cand = getCandSelecionada(candidaturaId)</text>
        <rect fill="none" height="285.8633" style="stroke: #000000; stroke-width: 2.0;" width="1211" x="1572.5" y="770.7676"/>
        <polygon fill="#EEEEEE" points="1572.5,770.7676,1646.5,770.7676,1646.5,777.7676,1636.5,787.7676,1572.5,787.7676,1572.5,770.7676" style="stroke: #000000; stroke-width: 2.0;"/>
        <text fill="#000000" font-family="sans-serif" font-size="13" font-weight="bold" lengthAdjust="spacingAndGlyphs" textLength="29" x="1587.5" y="784.3359">loop</text>
        <a target="_top" xlink:actuate="onRequest" xlink:href="" xlink:show="new" xlink:title="" xlink:type="simple">
            <text fill="#0000FF" font-family="sans-serif" font-size="11" font-weight="bold" lengthAdjust="spacingAndGlyphs" text-decoration="underline" textLength="157" x="1661.5" y="783.4023">Para cada anúncio registado</text>
            <line style="stroke: #0000FF; stroke-width: 1.0;" x1="1661.5" x2="1818.5" y1="785.4023" y2="785.4023"/>
        </a>
        <polygon fill="#A80036" points="2503.5,805.0781,2513.5,809.0781,2503.5,813.0781,2507.5,809.0781" style="stroke: #A80036; stroke-width: 1.0;"/>
        <line style="stroke: #A80036; stroke-width: 1.0;" x1="1666" x2="2509.5" y1="809.0781" y2="809.0781"/>
        <text fill="#000000" font-family="sans-serif" font-size="13" font-weight="bold" lengthAdjust="spacingAndGlyphs" textLength="18" x="1673" y="804.6465">14</text>
        <text fill="#000000" font-family="sans-serif" font-size="13" lengthAdjust="spacingAndGlyphs" textLength="73" x="1695" y="804.6465">anu = get(i)</text>
        <polygon fill="#A80036" points="1902,864.3887,1912,868.3887,1902,872.3887,1906,868.3887" style="stroke: #A80036; stroke-width: 1.0;"/>
        <line style="stroke: #A80036; stroke-width: 1.0;" x1="1666" x2="1908" y1="868.3887" y2="868.3887"/>
        <text fill="#000000" font-family="sans-serif" font-size="13" font-weight="bold" lengthAdjust="spacingAndGlyphs" textLength="18" x="1673" y="863.957">15</text>
        <text fill="#000000" font-family="sans-serif" font-size="13" lengthAdjust="spacingAndGlyphs" textLength="207" x="1695" y="863.957">lstCand = getListaCandidaturas()</text>
        <polygon fill="#A80036" points="2672,923.6992,2682,927.6992,2672,931.6992,2676,927.6992" style="stroke: #A80036; stroke-width: 1.0;"/>
        <line style="stroke: #A80036; stroke-width: 1.0;" x1="1666" x2="2678" y1="927.6992" y2="927.6992"/>
        <text fill="#000000" font-family="sans-serif" font-size="13" font-weight="bold" lengthAdjust="spacingAndGlyphs" textLength="18" x="1673" y="923.2676">16</text>
        <text fill="#000000" font-family="sans-serif" font-size="13" lengthAdjust="spacingAndGlyphs" textLength="292" x="1695" y="923.2676">temIdCand = temIdCandidatura(candidaturaId)</text>
        <rect fill="none" height="76.6211" style="stroke: #000000; stroke-width: 2.0;" width="1191" x="1582.5" y="973.0098"/>
        <polygon fill="#EEEEEE" points="1582.5,973.0098,1649.5,973.0098,1649.5,980.0098,1639.5,990.0098,1582.5,990.0098,1582.5,973.0098" style="stroke: #000000; stroke-width: 2.0;"/>
        <text fill="#000000" font-family="sans-serif" font-size="13" font-weight="bold" lengthAdjust="spacingAndGlyphs" textLength="22" x="1597.5" y="986.5781">opt</text>
        <a target="_top" xlink:actuate="onRequest" xlink:href="" xlink:show="new" xlink:title="" xlink:type="simple">
            <text fill="#0000FF" font-family="sans-serif" font-size="11" font-weight="bold" lengthAdjust="spacingAndGlyphs" text-decoration="underline" textLength="108" x="1664.5" y="985.6445">temIdCand == true</text>
            <line style="stroke: #0000FF; stroke-width: 1.0;" x1="1664.5" x2="1772.5" y1="987.6445" y2="987.6445"/>
        </a>
        <polygon fill="#A80036" points="2672,1007.3203,2682,1011.3203,2672,1015.3203,2676,1011.3203" style="stroke: #A80036; stroke-width: 1.0;"/>
        <line style="stroke: #A80036; stroke-width: 1.0;" x1="1666" x2="2678" y1="1011.3203" y2="1011.3203"/>
        <text fill="#000000" font-family="sans-serif" font-size="13" font-weight="bold" lengthAdjust="spacingAndGlyphs" textLength="18" x="1673" y="1006.8887">17</text>
        <text fill="#000000" font-family="sans-serif" font-size="13" lengthAdjust="spacingAndGlyphs" textLength="264" x="1695" y="1006.8887">cand = getCandidaturaById(candidaturaId)</text>
        <polygon fill="#A80036" points="63,1080.6309,53,1084.6309,63,1088.6309,59,1084.6309" style="stroke: #A80036; stroke-width: 1.0;"/>
        <line style="stroke: #A80036; stroke-width: 1.0; stroke-dasharray: 2.0,2.0;" x1="57" x2="451" y1="1084.6309" y2="1084.6309"/>
        <text fill="#000000" font-family="sans-serif" font-size="13" font-weight="bold" lengthAdjust="spacingAndGlyphs" textLength="18" x="69" y="1080.1992">18</text>
        <text fill="#000000" font-family="sans-serif" font-size="13" lengthAdjust="spacingAndGlyphs" textLength="349" x="91" y="1080.1992">mostra a candidatura e solicita a atualização dos dados</text>
        <polygon fill="#A80036" points="435,1109.9414,445,1113.9414,435,1117.9414,439,1113.9414" style="stroke: #A80036; stroke-width: 1.0;"/>
        <line style="stroke: #A80036; stroke-width: 1.0;" x1="52" x2="441" y1="1113.9414" y2="1113.9414"/>
        <text fill="#000000" font-family="sans-serif" font-size="13" font-weight="bold" lengthAdjust="spacingAndGlyphs" textLength="18" x="59" y="1109.5098">19</text>
        <text fill="#000000" font-family="sans-serif" font-size="13" lengthAdjust="spacingAndGlyphs" textLength="110" x="81" y="1109.5098">atualiza os dados</text>
        <polygon fill="#A80036" points="791,1139.252,801,1143.252,791,1147.252,795,1143.252" style="stroke: #A80036; stroke-width: 1.0;"/>
        <line style="stroke: #A80036; stroke-width: 1.0;" x1="457" x2="797" y1="1143.252" y2="1143.252"/>
        <text fill="#000000" font-family="sans-serif" font-size="13" font-weight="bold" lengthAdjust="spacingAndGlyphs" textLength="18" x="464" y="1138.8203">20</text>
        <text fill="#000000" font-family="sans-serif" font-size="13" lengthAdjust="spacingAndGlyphs" textLength="305" x="486" y="1138.8203">atualizaDados(valorPrt,nrDias,txtApres,txtMotiv)</text>
        <polygon fill="#A80036" points="2005,1168.5625,2015,1172.5625,2005,1176.5625,2009,1172.5625" style="stroke: #A80036; stroke-width: 1.0;"/>
        <line style="stroke: #A80036; stroke-width: 1.0;" x1="813" x2="2011" y1="1172.5625" y2="1172.5625"/>
        <text fill="#000000" font-family="sans-serif" font-size="13" font-weight="bold" lengthAdjust="spacingAndGlyphs" textLength="18" x="820" y="1168.1309">21</text>
        <text fill="#000000" font-family="sans-serif" font-size="13" lengthAdjust="spacingAndGlyphs" textLength="337" x="842" y="1168.1309">atualizaDadosCand(valorPrt,nrDias,txtApres,txtMotiv)</text>
        <line style="stroke: #A80036; stroke-width: 1.0;" x1="2027" x2="2069" y1="1202.1836" y2="1202.1836"/>
        <line style="stroke: #A80036; stroke-width: 1.0;" x1="2069" x2="2069" y1="1202.1836" y2="1215.1836"/>
        <line style="stroke: #A80036; stroke-width: 1.0;" x1="2028" x2="2069" y1="1215.1836" y2="1215.1836"/>
        <polygon fill="#A80036" points="2038,1211.1836,2028,1215.1836,2038,1219.1836,2034,1215.1836" style="stroke: #A80036; stroke-width: 1.0;"/>
        <text fill="#000000" font-family="sans-serif" font-size="13" font-weight="bold" lengthAdjust="spacingAndGlyphs" textLength="18" x="2034" y="1197.4414">22</text>
        <text fill="#000000" font-family="sans-serif" font-size="13" lengthAdjust="spacingAndGlyphs" textLength="326" x="2056" y="1197.4414">validaAtualizacao(valorPrt,nrDias,txtApres,txtMotiv)</text>
        <line style="stroke: #A80036; stroke-width: 1.0;" x1="2027" x2="2069" y1="1249.4941" y2="1249.4941"/>
        <line style="stroke: #A80036; stroke-width: 1.0;" x1="2069" x2="2069" y1="1249.4941" y2="1262.4941"/>
        <line style="stroke: #A80036; stroke-width: 1.0;" x1="2022" x2="2069" y1="1262.4941" y2="1262.4941"/>
        <polygon fill="#A80036" points="2032,1258.4941,2022,1262.4941,2032,1266.4941,2028,1262.4941" style="stroke: #A80036; stroke-width: 1.0;"/>
        <text fill="#000000" font-family="sans-serif" font-size="13" font-weight="bold" lengthAdjust="spacingAndGlyphs" textLength="18" x="2034" y="1244.752">23</text>
        <text fill="#000000" font-family="sans-serif" font-size="13" lengthAdjust="spacingAndGlyphs" textLength="305" x="2056" y="1244.752">atualizaDados(valorPrt,nrDias,txtApres,txtMotiv)</text>
        <polygon fill="#A80036" points="63,1282.4941,53,1286.4941,63,1290.4941,59,1286.4941" style="stroke: #A80036; stroke-width: 1.0;"/>
        <line style="stroke: #A80036; stroke-width: 1.0; stroke-dasharray: 2.0,2.0;" x1="57" x2="451" y1="1286.4941" y2="1286.4941"/>
        <text fill="#000000" font-family="sans-serif" font-size="13" font-weight="bold" lengthAdjust="spacingAndGlyphs" textLength="18" x="69" y="1282.0625">24</text>
        <text fill="#000000" font-family="sans-serif" font-size="13" lengthAdjust="spacingAndGlyphs" textLength="322" x="91" y="1282.0625">apresenta dados atualizados e solicita confirmação</text>
        <polygon fill="#A80036" points="435,1311.8047,445,1315.8047,435,1319.8047,439,1315.8047" style="stroke: #A80036; stroke-width: 1.0;"/>
        <line style="stroke: #A80036; stroke-width: 1.0;" x1="52" x2="441" y1="1315.8047" y2="1315.8047"/>
        <text fill="#000000" font-family="sans-serif" font-size="13" font-weight="bold" lengthAdjust="spacingAndGlyphs" textLength="18" x="59" y="1311.373">25</text>
        <text fill="#000000" font-family="sans-serif" font-size="13" lengthAdjust="spacingAndGlyphs" textLength="167" x="81" y="1311.373">confirma dados a atualizar</text>
        <polygon fill="#A80036" points="791,1341.1152,801,1345.1152,791,1349.1152,795,1345.1152" style="stroke: #A80036; stroke-width: 1.0;"/>
        <line style="stroke: #A80036; stroke-width: 1.0;" x1="457" x2="797" y1="1345.1152" y2="1345.1152"/>
        <text fill="#000000" font-family="sans-serif" font-size="13" font-weight="bold" lengthAdjust="spacingAndGlyphs" textLength="18" x="464" y="1340.6836">26</text>
        <text fill="#000000" font-family="sans-serif" font-size="13" lengthAdjust="spacingAndGlyphs" textLength="133" x="486" y="1340.6836">atualizaCandidatura()</text>
        <polygon fill="#A80036" points="1644,1370.4258,1654,1374.4258,1644,1378.4258,1648,1374.4258" style="stroke: #A80036; stroke-width: 1.0;"/>
        <line style="stroke: #A80036; stroke-width: 1.0;" x1="813" x2="1650" y1="1374.4258" y2="1374.4258"/>
        <text fill="#000000" font-family="sans-serif" font-size="13" font-weight="bold" lengthAdjust="spacingAndGlyphs" textLength="18" x="820" y="1369.9941">27</text>
        <text fill="#000000" font-family="sans-serif" font-size="13" lengthAdjust="spacingAndGlyphs" textLength="242" x="842" y="1369.9941">anuncioCand = getAnuncioCand(cand)</text>
        <rect fill="none" height="285.8633" style="stroke: #000000; stroke-width: 2.0;" width="1201" x="1572.5" y="1419.7363"/>
        <polygon fill="#EEEEEE" points="1572.5,1419.7363,1646.5,1419.7363,1646.5,1426.7363,1636.5,1436.7363,1572.5,1436.7363,1572.5,1419.7363" style="stroke: #000000; stroke-width: 2.0;"/>
        <text fill="#000000" font-family="sans-serif" font-size="13" font-weight="bold" lengthAdjust="spacingAndGlyphs" textLength="29" x="1587.5" y="1433.3047">loop</text>
        <a target="_top" xlink:actuate="onRequest" xlink:href="" xlink:show="new" xlink:title="" xlink:type="simple">
            <text fill="#0000FF" font-family="sans-serif" font-size="11" font-weight="bold" lengthAdjust="spacingAndGlyphs" text-decoration="underline" textLength="157" x="1661.5" y="1432.3711">Para cada anúncio registado</text>
            <line style="stroke: #0000FF; stroke-width: 1.0;" x1="1661.5" x2="1818.5" y1="1434.3711" y2="1434.3711"/>
        </a>
        <polygon fill="#A80036" points="2503.5,1454.0469,2513.5,1458.0469,2503.5,1462.0469,2507.5,1458.0469" style="stroke: #A80036; stroke-width: 1.0;"/>
        <line style="stroke: #A80036; stroke-width: 1.0;" x1="1661" x2="2509.5" y1="1458.0469" y2="1458.0469"/>
        <text fill="#000000" font-family="sans-serif" font-size="13" font-weight="bold" lengthAdjust="spacingAndGlyphs" textLength="18" x="1668" y="1453.6152">28</text>
        <text fill="#000000" font-family="sans-serif" font-size="13" lengthAdjust="spacingAndGlyphs" textLength="73" x="1690" y="1453.6152">anu = get(i)</text>
        <polygon fill="#A80036" points="1902,1513.3574,1912,1517.3574,1902,1521.3574,1906,1517.3574" style="stroke: #A80036; stroke-width: 1.0;"/>
        <line style="stroke: #A80036; stroke-width: 1.0;" x1="1661" x2="1908" y1="1517.3574" y2="1517.3574"/>
        <text fill="#000000" font-family="sans-serif" font-size="13" font-weight="bold" lengthAdjust="spacingAndGlyphs" textLength="18" x="1668" y="1512.9258">29</text>
        <text fill="#000000" font-family="sans-serif" font-size="13" lengthAdjust="spacingAndGlyphs" textLength="207" x="1690" y="1512.9258">lstCand = getListaCandidaturas()</text>
        <polygon fill="#A80036" points="2672,1572.668,2682,1576.668,2672,1580.668,2676,1576.668" style="stroke: #A80036; stroke-width: 1.0;"/>
        <line style="stroke: #A80036; stroke-width: 1.0;" x1="1661" x2="2678" y1="1576.668" y2="1576.668"/>
        <text fill="#000000" font-family="sans-serif" font-size="13" font-weight="bold" lengthAdjust="spacingAndGlyphs" textLength="18" x="1668" y="1572.2363">30</text>
        <text fill="#000000" font-family="sans-serif" font-size="13" lengthAdjust="spacingAndGlyphs" textLength="212" x="1690" y="1572.2363">temCand = temCandidatura(cand)</text>
        <rect fill="none" height="76.6211" style="stroke: #000000; stroke-width: 2.0;" width="1010" x="1582.5" y="1621.9785"/>
        <polygon fill="#EEEEEE" points="1582.5,1621.9785,1649.5,1621.9785,1649.5,1628.9785,1639.5,1638.9785,1582.5,1638.9785,1582.5,1621.9785" style="stroke: #000000; stroke-width: 2.0;"/>
        <text fill="#000000" font-family="sans-serif" font-size="13" font-weight="bold" lengthAdjust="spacingAndGlyphs" textLength="22" x="1597.5" y="1635.5469">opt</text>
        <a target="_top" xlink:actuate="onRequest" xlink:href="" xlink:show="new" xlink:title="" xlink:type="simple">
            <text fill="#0000FF" font-family="sans-serif" font-size="11" font-weight="bold" lengthAdjust="spacingAndGlyphs" text-decoration="underline" textLength="97" x="1664.5" y="1634.6133">temCand == true</text>
            <line style="stroke: #0000FF; stroke-width: 1.0;" x1="1664.5" x2="1761.5" y1="1636.6133" y2="1636.6133"/>
        </a>
        <polygon fill="#A80036" points="2503.5,1656.2891,2513.5,1660.2891,2503.5,1664.2891,2507.5,1660.2891" style="stroke: #A80036; stroke-width: 1.0;"/>
        <line style="stroke: #A80036; stroke-width: 1.0;" x1="1661" x2="2509.5" y1="1660.2891" y2="1660.2891"/>
        <text fill="#000000" font-family="sans-serif" font-size="13" font-weight="bold" lengthAdjust="spacingAndGlyphs" textLength="18" x="1668" y="1655.8574">31</text>
        <text fill="#000000" font-family="sans-serif" font-size="13" lengthAdjust="spacingAndGlyphs" textLength="123" x="1690" y="1655.8574">anuncioCand = anu</text>
        <polygon fill="#A80036" points="2377,1729.5996,2387,1733.5996,2377,1737.5996,2381,1733.5996" style="stroke: #A80036; stroke-width: 1.0;"/>
        <line style="stroke: #A80036; stroke-width: 1.0;" x1="813" x2="2383" y1="1733.5996" y2="1733.5996"/>
        <text fill="#000000" font-family="sans-serif" font-size="13" font-weight="bold" lengthAdjust="spacingAndGlyphs" textLength="18" x="820" y="1729.168">32</text>
        <text fill="#000000" font-family="sans-serif" font-size="13" lengthAdjust="spacingAndGlyphs" textLength="163" x="842" y="1729.168">atualizaCandidatura(cand)</text>
        <polygon fill="#A80036" points="2672,1758.9102,2682,1762.9102,2672,1766.9102,2676,1762.9102" style="stroke: #A80036; stroke-width: 1.0;"/>
        <line style="stroke: #A80036; stroke-width: 1.0;" x1="2394" x2="2678" y1="1762.9102" y2="1762.9102"/>
        <text fill="#000000" font-family="sans-serif" font-size="13" font-weight="bold" lengthAdjust="spacingAndGlyphs" textLength="18" x="2401" y="1758.4785">33</text>
        <text fill="#000000" font-family="sans-serif" font-size="13" lengthAdjust="spacingAndGlyphs" textLength="244" x="2423" y="1758.4785">candAtual = atualizaCandidatura(cand)</text>
        <line style="stroke: #A80036; stroke-width: 1.0;" x1="2694" x2="2736" y1="1792.5313" y2="1792.5313"/>
        <line style="stroke: #A80036; stroke-width: 1.0;" x1="2736" x2="2736" y1="1792.5313" y2="1805.5313"/>
        <line style="stroke: #A80036; stroke-width: 1.0;" x1="2695" x2="2736" y1="1805.5313" y2="1805.5313"/>
        <polygon fill="#A80036" points="2705,1801.5313,2695,1805.5313,2705,1809.5313,2701,1805.5313" style="stroke: #A80036; stroke-width: 1.0;"/>
        <text fill="#000000" font-family="sans-serif" font-size="13" font-weight="bold" lengthAdjust="spacingAndGlyphs" textLength="18" x="2701" y="1787.7891">34</text>
        <text fill="#000000" font-family="sans-serif" font-size="13" lengthAdjust="spacingAndGlyphs" textLength="173" x="2723" y="1787.7891">validaCandAtual(candAtual)</text>
        <line style="stroke: #A80036; stroke-width: 1.0;" x1="2694" x2="2736" y1="1839.8418" y2="1839.8418"/>
        <line style="stroke: #A80036; stroke-width: 1.0;" x1="2736" x2="2736" y1="1839.8418" y2="1852.8418"/>
        <line style="stroke: #A80036; stroke-width: 1.0;" x1="2689" x2="2736" y1="1852.8418" y2="1852.8418"/>
        <polygon fill="#A80036" points="2699,1848.8418,2689,1852.8418,2699,1856.8418,2695,1852.8418" style="stroke: #A80036; stroke-width: 1.0;"/>
        <text fill="#000000" font-family="sans-serif" font-size="13" font-weight="bold" lengthAdjust="spacingAndGlyphs" textLength="18" x="2701" y="1835.0996">35</text>
        <text fill="#000000" font-family="sans-serif" font-size="13" lengthAdjust="spacingAndGlyphs" textLength="192" x="2723" y="1835.0996">atualizaDadosCand(candAtual)</text>
        <polygon fill="#A80036" points="63,1872.8418,53,1876.8418,63,1880.8418,59,1876.8418" style="stroke: #A80036; stroke-width: 1.0;"/>
        <line style="stroke: #A80036; stroke-width: 1.0; stroke-dasharray: 2.0,2.0;" x1="57" x2="451" y1="1876.8418" y2="1876.8418"/>
        <text fill="#000000" font-family="sans-serif" font-size="13" font-weight="bold" lengthAdjust="spacingAndGlyphs" textLength="18" x="69" y="1872.4102">36</text>
        <text fill="#000000" font-family="sans-serif" font-size="13" lengthAdjust="spacingAndGlyphs" textLength="196" x="91" y="1872.4102">informa o sucesso da operação</text>
        <!--
@startuml
autonumber
actor "Freelancer" as FREE

participant ":AtualizarCandidaturaUI" as UI
participant ":AtualizarCandidaturaController" as CTRL
participant "AplicacaoPOT" as POT
participant "app\n:AplicacaoPOT" as app
participant "sessao\n:SessaoUtilizador" as SESSAO
participant ":Plataforma" as PLAT
participant "rfr\n:RegistoFreelancer" as RFR
participant "regA\n:RegistoAnuncios" as RA
participant "anu\n:Anuncio" as AN
participant "cand\n:Candidatura" as C
participant "anuncioCand\n:Anuncio" as AC
participant "lstAnu\n:List<Anuncio>" as LA
participant ":ListaCandidaturas:" as LC

activate FREE
FREE -> UI : inicia a atualização de uma candidatura efetuada\n por si
activate UI

UI -> CTRL : lstCF = getCandidFree()
activate CTRL

CTRL -> POT : app = getInstance()
activate POT
deactivate POT

CTRL -> app : sessao = getSessaoAtual()
activate app
deactivate app

CTRL -> SESSAO : email = getEmailUtilizador()
activate SESSAO
deactivate SESSAO

CTRL -> PLAT : rfr = getRegistoFreelancer()
activate PLAT
deactivate PLAT

CTRL -> RFR : free = getFreelancerByEmail(email)
activate RFR
deactivate RFR

CTRL -> PLAT : regA = getRegistoAnuncios()
activate PLAT
deactivate PLAT

CTRL -> RA : lstCandFreelancer = getCandidaturasFreelancer(free)
activate RA

ref over RA, LC : UC_11_SD_getCandidaturasFreelancer(free)
deactivate RA

UI - -> FREE : mostra a lista de candidaturas efetuadas por si\n e pede para selecionar uma
deactivate UI
deactivate CTRL

FREE -> UI : seleciona a candidatura que pretende atualizar
activate UI

UI -> CTRL : selecionaCandidatura(candidaturaId)
activate CTRL

CTRL -> RA : cand = getCandSelecionada(candidaturaId)
activate RA

loop [ Para cada anúncio registado ]

RA -> LA : anu = get(i)
activate LA
deactivate LA

RA -> AN : lstCand = getListaCandidaturas()
activate AN
deactivate AN

RA -> LC : temIdCand = temIdCandidatura(candidaturaId)
activate LC
deactivate LC

OPT [ temIdCand == true ]

RA -> LC : cand = getCandidaturaById(candidaturaId)
activate LC
deactivate LC

end OPT

deactivate RA
end


UI - -> FREE : mostra a candidatura e solicita a atualização dos dados

deactivate UI
deactivate CTRL

FREE -> UI : atualiza os dados
activate UI

UI -> CTRL : atualizaDados(valorPrt,nrDias,txtApres,txtMotiv)
activate CTRL




CTRL -> C : atualizaDadosCand(valorPrt,nrDias,txtApres,txtMotiv)
activate C
C -> C : validaAtualizacao(valorPrt,nrDias,txtApres,txtMotiv)
C -> C : atualizaDados(valorPrt,nrDias,txtApres,txtMotiv)
deactivate C

deactivate LC

UI - -> FREE : apresenta dados atualizados e solicita confirmação
deactivate UI
deactivate CTRL

FREE -> UI : confirma dados a atualizar
activate UI

UI -> CTRL : atualizaCandidatura()
activate CTRL

CTRL -> RA : anuncioCand = getAnuncioCand(cand)
activate RA
deactivate RA 

loop [ Para cada anúncio registado ]
RA -> LA : anu = get(i)
activate LA
deactivate LA

RA -> AN : lstCand = getListaCandidaturas()
activate AN
deactivate AN

RA -> LC : temCand = temCandidatura(cand)
activate LC
deactivate LC

OPT [ temCand == true ]

RA -> LA : anuncioCand = anu
activate LA
deactivate LA

end OPT

deactivate RA
end

CTRL -> AC : atualizaCandidatura(cand)
activate AC


AC -> LC : candAtual = atualizaCandidatura(cand)
deactivate AC
activate LC 

LC -> LC : validaCandAtual(candAtual)
LC -> LC : atualizaDadosCand(candAtual)

deactivate CTRL
deactivate LC

UI - -> FREE : informa o sucesso da operação
deactivate UI


@enduml

PlantUML version 2017.11(Wed Apr 19 17:18:59 WEST 2017)
(GPL source distribution)
Java Runtime: Java(TM) SE Runtime Environment
JVM: Java HotSpot(TM) 64-Bit Server VM
Java Version: 1.8.0_191-b12
Operating System: Mac OS X
OS Version: 10.15.4
Default Encoding: UTF-8
Language: pt
Country: PT
-->
    </g>
</svg>
