@startuml
skinparam classAttributeIconSize 0

package UI <<Folder>> {

class AtualizarCandidaturaUI {
}

}

package Controladores <<Folder>> {

class AtualizarCandidaturaController {
  +getCandidFree()
  +selecionaCandidatura(candidaturaId)
  +atualizadaDados(dataCand,valorPrt,nrDias,txtApres,txtMotiv)
  +atualizaCandidatura()
}

}

package Domínio <<Folder>> {

class Plataforma {
    -String designacao
    +getRegistoFreelancers()
    +getRegistoAnuncios()
}

class AplicacaoPOT {
    +getInstance()
    +getSessaoAtual()
}

class SessaoUtilizador {
    +getEmailUtilizador()
}

class RegistoFreelancer{
    +getFreelancerByEmail(email)
}

class RegistoAnuncios{
  +getCandidaturasFreelancer(free)
  +getCanSelecionada(candidaturaId)
  +getAnuncioCand(cand)
}

class Freelancer {
    -String nome
    -String NIF
    -String telefone
    -String email
}

class Anuncio{
    -String anuncioId
    -Date dtInicioPublicitacao
    -Date dtFimPublicitacao
    -Date dtInicioCandidatura
    -Date dtFimCandidatura
    -Date dtInicioSeriacao
    -Date dtFimSeriacao
    +getDataInicialCand()
    +getDataFinalCand()
    +isCandidatoAoAnuncio(free)
    +getListaCandidaturas()
    +atualizaCandidatura(cand)
}

class ListaCandidaturas{
    +isCandidatoAoAnuncio(free)
    +getCandidaturaByFree(free)
    +temIdCandidatura(candidaturaId)
    +getCandidaturaById(candidaturaId)
    +temCandidatura(candidatura)
    -validaCandAtual(candAtual)
    -atualizadaDadosCand(candAtual)
}

class Candidatura{
    -String candidaturaId
    -Date dataCandidatura
    -Double valorPretendido
    -Integer nrDias
    -String txtApresentacao
    -String txtMotivacao
    +verificaPeriodoCandidatura(dataInicialCand,dataFinalCand)    
    +atualizaDadosCand(valorPrt,nrDias,txtApres,txtMotiv)
    +validaAtualizacao(valorPrt,nrDias,txtApres,txtMotiv)
    +atualizaDados(valorPrt,nrDias,txtApres,txtMotiv)
}

}

AtualizarCandidaturaUI ..> AtualizarCandidaturaController
AtualizarCandidaturaController ..> Plataforma
AtualizarCandidaturaController ..> RegistoFreelancer
AtualizarCandidaturaController ..> RegistoAnuncios
AtualizarCandidaturaController ..> AplicacaoPOT
AtualizarCandidaturaController ..> SessaoUtilizador
AtualizarCandidaturaController ..> Anuncio
AtualizarCandidaturaController ..> Candidatura

Plataforma "1" --> "1" RegistoAnuncios : possui
Plataforma "1" --> "1" RegistoFreelancer : possui

RegistoAnuncios "1" --> "*" Anuncio : agrega
Anuncio "1" --> "1" ListaCandidaturas : possui
ListaCandidaturas "1" --> "*" Candidatura : agrega

Candidatura "*" --> "1"  Freelancer: atualizada por >

RegistoFreelancer "1" --> "*" Freelancer: agrega


@enduml
