<?xml version="1.0" encoding="UTF-8"?><svg xmlns="http://www.w3.org/2000/svg" xmlns:xlink="http://www.w3.org/1999/xlink" contentScriptType="application/ecmascript" contentStyleType="text/css" height="1419px" preserveAspectRatio="none" style="width:2249px;height:1419px;" version="1.1" viewBox="0 0 2249 1419" width="2249px" zoomAndPan="magnify">
    <defs>
        <filter height="300%" id="f6jqa71i1v61x" width="300%" x="-1" y="-1">
            <feGaussianBlur result="blurOut" stdDeviation="2.0"/>
            <feColorMatrix in="blurOut" result="blurOut2" type="matrix" values="0 0 0 0 0 0 0 0 0 0 0 0 0 0 0 0 0 0 .4 0"/>
            <feOffset dx="4.0" dy="4.0" in="blurOut2" result="blurOut3"/>
            <feBlend in="SourceGraphic" in2="blurOut3" mode="normal"/>
        </filter>
    </defs>
    <g>
        <rect fill="#FFFFFF" filter="url(#f6jqa71i1v61x)" height="1313.248" style="stroke: #A80036; stroke-width: 1.0;" width="10" x="42" y="96.4883"/>
        <rect fill="#FFFFFF" filter="url(#f6jqa71i1v61x)" height="534.7266" style="stroke: #A80036; stroke-width: 1.0;" width="10" x="420" y="132.4883"/>
        <rect fill="#FFFFFF" filter="url(#f6jqa71i1v61x)" height="236.5527" style="stroke: #A80036; stroke-width: 1.0;" width="10" x="420" y="696.8359"/>
        <rect fill="#FFFFFF" filter="url(#f6jqa71i1v61x)" height="147.2422" style="stroke: #A80036; stroke-width: 1.0;" width="10" x="420" y="962.6992"/>
        <rect fill="#FFFFFF" filter="url(#f6jqa71i1v61x)" height="261.1738" style="stroke: #A80036; stroke-width: 1.0;" width="10" x="420" y="1139.252"/>
        <rect fill="#FFFFFF" filter="url(#f6jqa71i1v61x)" height="505.1055" style="stroke: #A80036; stroke-width: 1.0;" width="10" x="776" y="162.1094"/>
        <rect fill="#FFFFFF" filter="url(#f6jqa71i1v61x)" height="207.2422" style="stroke: #A80036; stroke-width: 1.0;" width="10" x="776" y="726.1465"/>
        <rect fill="#FFFFFF" filter="url(#f6jqa71i1v61x)" height="117.9316" style="stroke: #A80036; stroke-width: 1.0;" width="10" x="776" y="992.0098"/>
        <rect fill="#FFFFFF" filter="url(#f6jqa71i1v61x)" height="195.5527" style="stroke: #A80036; stroke-width: 1.0;" width="10" x="776" y="1168.5625"/>
        <rect fill="#FFFFFF" filter="url(#f6jqa71i1v61x)" height="30" style="stroke: #A80036; stroke-width: 1.0;" width="10" x="961.5" y="191.4199"/>
        <rect fill="#FFFFFF" filter="url(#f6jqa71i1v61x)" height="30" style="stroke: #A80036; stroke-width: 1.0;" width="10" x="1085.5" y="250.7305"/>
        <rect fill="#FFFFFF" filter="url(#f6jqa71i1v61x)" height="30" style="stroke: #A80036; stroke-width: 1.0;" width="10" x="1221.5" y="310.041"/>
        <rect fill="#FFFFFF" filter="url(#f6jqa71i1v61x)" height="30" style="stroke: #A80036; stroke-width: 1.0;" width="10" x="1347.5" y="369.3516"/>
        <rect fill="#FFFFFF" filter="url(#f6jqa71i1v61x)" height="30" style="stroke: #A80036; stroke-width: 1.0;" width="10" x="1347.5" y="487.9727"/>
        <rect fill="#FFFFFF" filter="url(#f6jqa71i1v61x)" height="30" style="stroke: #A80036; stroke-width: 1.0;" width="10" x="1478" y="428.6621"/>
        <rect fill="#FFFFFF" filter="url(#f6jqa71i1v61x)" height="30" style="stroke: #A80036; stroke-width: 1.0;" width="10" x="1600" y="814.7676"/>
        <rect fill="#FFFFFF" filter="url(#f6jqa71i1v61x)" height="59.3105" style="stroke: #A80036; stroke-width: 1.0;" width="10" x="1600" y="1021.3203"/>
        <rect fill="#FFFFFF" filter="url(#f6jqa71i1v61x)" height="29.3105" style="stroke: #A80036; stroke-width: 1.0;" width="10" x="1600" y="1257.1836"/>
        <rect fill="#FFFFFF" filter="url(#f6jqa71i1v61x)" height="30" style="stroke: #A80036; stroke-width: 1.0;" width="10" x="1835" y="547.2832"/>
        <rect fill="#FFFFFF" filter="url(#f6jqa71i1v61x)" height="30" style="stroke: #A80036; stroke-width: 1.0;" width="10" x="1835" y="755.457"/>
        <rect fill="#FFFFFF" filter="url(#f6jqa71i1v61x)" height="30" style="stroke: #A80036; stroke-width: 1.0;" width="10" x="1835" y="1050.6309"/>
        <rect fill="#FFFFFF" filter="url(#f6jqa71i1v61x)" height="30" style="stroke: #A80036; stroke-width: 1.0;" width="10" x="1988" y="874.0781"/>
        <rect fill="#FFFFFF" filter="url(#f6jqa71i1v61x)" height="30" style="stroke: #A80036; stroke-width: 1.0;" width="10" x="1988" y="1197.873"/>
        <rect fill="#FFFFFF" filter="url(#f6jqa71i1v61x)" height="77.6211" style="stroke: #A80036; stroke-width: 1.0;" width="10" x="1988" y="1286.4941"/>
        <line style="stroke: #A80036; stroke-width: 1.0; stroke-dasharray: 5.0,5.0;" x1="47" x2="47" y1="86.4883" y2="1418.7363"/>
        <line style="stroke: #A80036; stroke-width: 1.0; stroke-dasharray: 5.0,5.0;" x1="424.5" x2="424.5" y1="86.4883" y2="1418.7363"/>
        <line style="stroke: #A80036; stroke-width: 1.0; stroke-dasharray: 5.0,5.0;" x1="780.5" x2="780.5" y1="86.4883" y2="1418.7363"/>
        <line style="stroke: #A80036; stroke-width: 1.0; stroke-dasharray: 5.0,5.0;" x1="966.5" x2="966.5" y1="86.4883" y2="1418.7363"/>
        <line style="stroke: #A80036; stroke-width: 1.0; stroke-dasharray: 5.0,5.0;" x1="1090.5" x2="1090.5" y1="86.4883" y2="1418.7363"/>
        <line style="stroke: #A80036; stroke-width: 1.0; stroke-dasharray: 5.0,5.0;" x1="1226.5" x2="1226.5" y1="86.4883" y2="1418.7363"/>
        <line style="stroke: #A80036; stroke-width: 1.0; stroke-dasharray: 5.0,5.0;" x1="1352.5" x2="1352.5" y1="86.4883" y2="1418.7363"/>
        <line style="stroke: #A80036; stroke-width: 1.0; stroke-dasharray: 5.0,5.0;" x1="1482.5" x2="1482.5" y1="86.4883" y2="1418.7363"/>
        <line style="stroke: #A80036; stroke-width: 1.0; stroke-dasharray: 5.0,5.0;" x1="1604.5" x2="1604.5" y1="86.4883" y2="1418.7363"/>
        <line style="stroke: #A80036; stroke-width: 1.0; stroke-dasharray: 5.0,5.0;" x1="1839.5" x2="1839.5" y1="86.4883" y2="1418.7363"/>
        <line style="stroke: #A80036; stroke-width: 1.0; stroke-dasharray: 5.0,5.0;" x1="1992.5" x2="1992.5" y1="86.4883" y2="1418.7363"/>
        <line style="stroke: #A80036; stroke-width: 1.0; stroke-dasharray: 5.0,5.0;" x1="2190" x2="2190" y1="86.4883" y2="1418.7363"/>
        <text fill="#000000" font-family="sans-serif" font-size="14" lengthAdjust="spacingAndGlyphs" textLength="72" x="8" y="83.5352">Freelancer</text>
        <ellipse cx="47" cy="13" fill="#FEFECE" filter="url(#f6jqa71i1v61x)" rx="8" ry="8" style="stroke: #A80036; stroke-width: 2.0;"/>
        <path d="M47,21 L47,48 M34,29 L60,29 M47,48 L34,63 M47,48 L60,63 " fill="#FEFECE" filter="url(#f6jqa71i1v61x)" style="stroke: #A80036; stroke-width: 2.0;"/>
        <rect fill="#FEFECE" filter="url(#f6jqa71i1v61x)" height="30.4883" style="stroke: #A80036; stroke-width: 1.5;" width="179" x="333.5" y="51"/>
        <text fill="#000000" font-family="sans-serif" font-size="14" lengthAdjust="spacingAndGlyphs" textLength="165" x="340.5" y="71.5352">:AtualizarCandidaturaUI</text>
        <rect fill="#FEFECE" filter="url(#f6jqa71i1v61x)" height="30.4883" style="stroke: #A80036; stroke-width: 1.5;" width="235" x="661.5" y="51"/>
        <text fill="#000000" font-family="sans-serif" font-size="14" lengthAdjust="spacingAndGlyphs" textLength="221" x="668.5" y="71.5352">:AtualizarCandidaturaController</text>
        <rect fill="#FEFECE" filter="url(#f6jqa71i1v61x)" height="30.4883" style="stroke: #A80036; stroke-width: 1.5;" width="108" x="910.5" y="51"/>
        <text fill="#000000" font-family="sans-serif" font-size="14" lengthAdjust="spacingAndGlyphs" textLength="94" x="917.5" y="71.5352">AplicacaoPOT</text>
        <rect fill="#FEFECE" filter="url(#f6jqa71i1v61x)" height="46.9766" style="stroke: #A80036; stroke-width: 1.5;" width="112" x="1032.5" y="34.5117"/>
        <text fill="#000000" font-family="sans-serif" font-size="14" lengthAdjust="spacingAndGlyphs" textLength="26" x="1075.5" y="55.0469">app</text>
        <text fill="#000000" font-family="sans-serif" font-size="14" lengthAdjust="spacingAndGlyphs" textLength="98" x="1039.5" y="71.5352">:AplicacaoPOT</text>
        <rect fill="#FEFECE" filter="url(#f6jqa71i1v61x)" height="46.9766" style="stroke: #A80036; stroke-width: 1.5;" width="132" x="1158.5" y="34.5117"/>
        <text fill="#000000" font-family="sans-serif" font-size="14" lengthAdjust="spacingAndGlyphs" textLength="46" x="1201.5" y="55.0469">sessao</text>
        <text fill="#000000" font-family="sans-serif" font-size="14" lengthAdjust="spacingAndGlyphs" textLength="118" x="1165.5" y="71.5352">:SessaoUtilizador</text>
        <rect fill="#FEFECE" filter="url(#f6jqa71i1v61x)" height="30.4883" style="stroke: #A80036; stroke-width: 1.5;" width="92" x="1304.5" y="51"/>
        <text fill="#000000" font-family="sans-serif" font-size="14" lengthAdjust="spacingAndGlyphs" textLength="78" x="1311.5" y="71.5352">:Plataforma</text>
        <rect fill="#FEFECE" filter="url(#f6jqa71i1v61x)" height="46.9766" style="stroke: #A80036; stroke-width: 1.5;" width="141" x="1410.5" y="34.5117"/>
        <text fill="#000000" font-family="sans-serif" font-size="14" lengthAdjust="spacingAndGlyphs" textLength="17" x="1472.5" y="55.0469">rfr</text>
        <text fill="#000000" font-family="sans-serif" font-size="14" lengthAdjust="spacingAndGlyphs" textLength="127" x="1417.5" y="71.5352">:RegistoFreelancer</text>
        <rect fill="#FEFECE" filter="url(#f6jqa71i1v61x)" height="46.9766" style="stroke: #A80036; stroke-width: 1.5;" width="75" x="1565.5" y="34.5117"/>
        <text fill="#000000" font-family="sans-serif" font-size="14" lengthAdjust="spacingAndGlyphs" textLength="26" x="1590" y="55.0469">anu</text>
        <text fill="#000000" font-family="sans-serif" font-size="14" lengthAdjust="spacingAndGlyphs" textLength="61" x="1572.5" y="71.5352">:Anuncio</text>
        <rect fill="#FEFECE" filter="url(#f6jqa71i1v61x)" height="46.9766" style="stroke: #A80036; stroke-width: 1.5;" width="133" x="1771.5" y="34.5117"/>
        <text fill="#000000" font-family="sans-serif" font-size="14" lengthAdjust="spacingAndGlyphs" textLength="33" x="1821.5" y="55.0469">regA</text>
        <text fill="#000000" font-family="sans-serif" font-size="14" lengthAdjust="spacingAndGlyphs" textLength="119" x="1778.5" y="71.5352">:RegistoAnuncios</text>
        <rect fill="#FEFECE" filter="url(#f6jqa71i1v61x)" height="30.4883" style="stroke: #A80036; stroke-width: 1.5;" width="145" x="1918.5" y="51"/>
        <text fill="#000000" font-family="sans-serif" font-size="14" lengthAdjust="spacingAndGlyphs" textLength="131" x="1925.5" y="71.5352">:ListaCandidaturas:</text>
        <rect fill="#FEFECE" filter="url(#f6jqa71i1v61x)" height="46.9766" style="stroke: #A80036; stroke-width: 1.5;" width="104" x="2136" y="34.5117"/>
        <text fill="#000000" font-family="sans-serif" font-size="14" lengthAdjust="spacingAndGlyphs" textLength="73" x="2151.5" y="55.0469">candAtual:</text>
        <text fill="#000000" font-family="sans-serif" font-size="14" lengthAdjust="spacingAndGlyphs" textLength="90" x="2143" y="71.5352">Candidatura)</text>
        <rect fill="#FFFFFF" filter="url(#f6jqa71i1v61x)" height="1313.248" style="stroke: #A80036; stroke-width: 1.0;" width="10" x="42" y="96.4883"/>
        <rect fill="#FFFFFF" filter="url(#f6jqa71i1v61x)" height="534.7266" style="stroke: #A80036; stroke-width: 1.0;" width="10" x="420" y="132.4883"/>
        <rect fill="#FFFFFF" filter="url(#f6jqa71i1v61x)" height="236.5527" style="stroke: #A80036; stroke-width: 1.0;" width="10" x="420" y="696.8359"/>
        <rect fill="#FFFFFF" filter="url(#f6jqa71i1v61x)" height="147.2422" style="stroke: #A80036; stroke-width: 1.0;" width="10" x="420" y="962.6992"/>
        <rect fill="#FFFFFF" filter="url(#f6jqa71i1v61x)" height="261.1738" style="stroke: #A80036; stroke-width: 1.0;" width="10" x="420" y="1139.252"/>
        <rect fill="#FFFFFF" filter="url(#f6jqa71i1v61x)" height="505.1055" style="stroke: #A80036; stroke-width: 1.0;" width="10" x="776" y="162.1094"/>
        <rect fill="#FFFFFF" filter="url(#f6jqa71i1v61x)" height="207.2422" style="stroke: #A80036; stroke-width: 1.0;" width="10" x="776" y="726.1465"/>
        <rect fill="#FFFFFF" filter="url(#f6jqa71i1v61x)" height="117.9316" style="stroke: #A80036; stroke-width: 1.0;" width="10" x="776" y="992.0098"/>
        <rect fill="#FFFFFF" filter="url(#f6jqa71i1v61x)" height="195.5527" style="stroke: #A80036; stroke-width: 1.0;" width="10" x="776" y="1168.5625"/>
        <rect fill="#FFFFFF" filter="url(#f6jqa71i1v61x)" height="30" style="stroke: #A80036; stroke-width: 1.0;" width="10" x="961.5" y="191.4199"/>
        <rect fill="#FFFFFF" filter="url(#f6jqa71i1v61x)" height="30" style="stroke: #A80036; stroke-width: 1.0;" width="10" x="1085.5" y="250.7305"/>
        <rect fill="#FFFFFF" filter="url(#f6jqa71i1v61x)" height="30" style="stroke: #A80036; stroke-width: 1.0;" width="10" x="1221.5" y="310.041"/>
        <rect fill="#FFFFFF" filter="url(#f6jqa71i1v61x)" height="30" style="stroke: #A80036; stroke-width: 1.0;" width="10" x="1347.5" y="369.3516"/>
        <rect fill="#FFFFFF" filter="url(#f6jqa71i1v61x)" height="30" style="stroke: #A80036; stroke-width: 1.0;" width="10" x="1347.5" y="487.9727"/>
        <rect fill="#FFFFFF" filter="url(#f6jqa71i1v61x)" height="30" style="stroke: #A80036; stroke-width: 1.0;" width="10" x="1478" y="428.6621"/>
        <rect fill="#FFFFFF" filter="url(#f6jqa71i1v61x)" height="30" style="stroke: #A80036; stroke-width: 1.0;" width="10" x="1600" y="814.7676"/>
        <rect fill="#FFFFFF" filter="url(#f6jqa71i1v61x)" height="59.3105" style="stroke: #A80036; stroke-width: 1.0;" width="10" x="1600" y="1021.3203"/>
        <rect fill="#FFFFFF" filter="url(#f6jqa71i1v61x)" height="29.3105" style="stroke: #A80036; stroke-width: 1.0;" width="10" x="1600" y="1257.1836"/>
        <rect fill="#FFFFFF" filter="url(#f6jqa71i1v61x)" height="30" style="stroke: #A80036; stroke-width: 1.0;" width="10" x="1835" y="547.2832"/>
        <rect fill="#FFFFFF" filter="url(#f6jqa71i1v61x)" height="30" style="stroke: #A80036; stroke-width: 1.0;" width="10" x="1835" y="755.457"/>
        <rect fill="#FFFFFF" filter="url(#f6jqa71i1v61x)" height="30" style="stroke: #A80036; stroke-width: 1.0;" width="10" x="1835" y="1050.6309"/>
        <rect fill="#FFFFFF" filter="url(#f6jqa71i1v61x)" height="30" style="stroke: #A80036; stroke-width: 1.0;" width="10" x="1988" y="874.0781"/>
        <rect fill="#FFFFFF" filter="url(#f6jqa71i1v61x)" height="30" style="stroke: #A80036; stroke-width: 1.0;" width="10" x="1988" y="1197.873"/>
        <rect fill="#FFFFFF" filter="url(#f6jqa71i1v61x)" height="77.6211" style="stroke: #A80036; stroke-width: 1.0;" width="10" x="1988" y="1286.4941"/>
        <polygon fill="#A80036" points="408,128.4883,418,132.4883,408,136.4883,412,132.4883" style="stroke: #A80036; stroke-width: 1.0;"/>
        <line style="stroke: #A80036; stroke-width: 1.0;" x1="52" x2="414" y1="132.4883" y2="132.4883"/>
        <text fill="#000000" font-family="sans-serif" font-size="13" font-weight="bold" lengthAdjust="spacingAndGlyphs" textLength="9" x="59" y="120.7119">1</text>
        <text fill="#000000" font-family="sans-serif" font-size="13" lengthAdjust="spacingAndGlyphs" textLength="306" x="72" y="113.0566">inicia a atualização de uma candidatura efetuada</text>
        <text fill="#000000" font-family="sans-serif" font-size="13" lengthAdjust="spacingAndGlyphs" textLength="36" x="76" y="128.3672">por si</text>
        <polygon fill="#A80036" points="764,158.1094,774,162.1094,764,166.1094,768,162.1094" style="stroke: #A80036; stroke-width: 1.0;"/>
        <line style="stroke: #A80036; stroke-width: 1.0;" x1="430" x2="770" y1="162.1094" y2="162.1094"/>
        <text fill="#000000" font-family="sans-serif" font-size="13" font-weight="bold" lengthAdjust="spacingAndGlyphs" textLength="9" x="437" y="157.6777">2</text>
        <text fill="#000000" font-family="sans-serif" font-size="13" lengthAdjust="spacingAndGlyphs" textLength="148" x="450" y="157.6777">lstCF = getCandidFree()</text>
        <polygon fill="#A80036" points="949.5,187.4199,959.5,191.4199,949.5,195.4199,953.5,191.4199" style="stroke: #A80036; stroke-width: 1.0;"/>
        <line style="stroke: #A80036; stroke-width: 1.0;" x1="786" x2="955.5" y1="191.4199" y2="191.4199"/>
        <text fill="#000000" font-family="sans-serif" font-size="13" font-weight="bold" lengthAdjust="spacingAndGlyphs" textLength="9" x="793" y="186.9883">3</text>
        <text fill="#000000" font-family="sans-serif" font-size="13" lengthAdjust="spacingAndGlyphs" textLength="122" x="806" y="186.9883">app = getInstance()</text>
        <polygon fill="#A80036" points="1073.5,246.7305,1083.5,250.7305,1073.5,254.7305,1077.5,250.7305" style="stroke: #A80036; stroke-width: 1.0;"/>
        <line style="stroke: #A80036; stroke-width: 1.0;" x1="786" x2="1079.5" y1="250.7305" y2="250.7305"/>
        <text fill="#000000" font-family="sans-serif" font-size="13" font-weight="bold" lengthAdjust="spacingAndGlyphs" textLength="9" x="793" y="246.2988">4</text>
        <text fill="#000000" font-family="sans-serif" font-size="13" lengthAdjust="spacingAndGlyphs" textLength="165" x="806" y="246.2988">sessao = getSessaoAtual()</text>
        <polygon fill="#A80036" points="1209.5,306.041,1219.5,310.041,1209.5,314.041,1213.5,310.041" style="stroke: #A80036; stroke-width: 1.0;"/>
        <line style="stroke: #A80036; stroke-width: 1.0;" x1="786" x2="1215.5" y1="310.041" y2="310.041"/>
        <text fill="#000000" font-family="sans-serif" font-size="13" font-weight="bold" lengthAdjust="spacingAndGlyphs" textLength="9" x="793" y="305.6094">5</text>
        <text fill="#000000" font-family="sans-serif" font-size="13" lengthAdjust="spacingAndGlyphs" textLength="175" x="806" y="305.6094">email = getEmailUtilizador()</text>
        <polygon fill="#A80036" points="1335.5,365.3516,1345.5,369.3516,1335.5,373.3516,1339.5,369.3516" style="stroke: #A80036; stroke-width: 1.0;"/>
        <line style="stroke: #A80036; stroke-width: 1.0;" x1="786" x2="1341.5" y1="369.3516" y2="369.3516"/>
        <text fill="#000000" font-family="sans-serif" font-size="13" font-weight="bold" lengthAdjust="spacingAndGlyphs" textLength="9" x="793" y="364.9199">6</text>
        <text fill="#000000" font-family="sans-serif" font-size="13" lengthAdjust="spacingAndGlyphs" textLength="172" x="806" y="364.9199">rfr = getRegistoFreelancer()</text>
        <polygon fill="#A80036" points="1466,424.6621,1476,428.6621,1466,432.6621,1470,428.6621" style="stroke: #A80036; stroke-width: 1.0;"/>
        <line style="stroke: #A80036; stroke-width: 1.0;" x1="786" x2="1472" y1="428.6621" y2="428.6621"/>
        <text fill="#000000" font-family="sans-serif" font-size="13" font-weight="bold" lengthAdjust="spacingAndGlyphs" textLength="9" x="793" y="424.2305">7</text>
        <text fill="#000000" font-family="sans-serif" font-size="13" lengthAdjust="spacingAndGlyphs" textLength="216" x="806" y="424.2305">free = getFreelancerByEmail(email)</text>
        <polygon fill="#A80036" points="1335.5,483.9727,1345.5,487.9727,1335.5,491.9727,1339.5,487.9727" style="stroke: #A80036; stroke-width: 1.0;"/>
        <line style="stroke: #A80036; stroke-width: 1.0;" x1="786" x2="1341.5" y1="487.9727" y2="487.9727"/>
        <text fill="#000000" font-family="sans-serif" font-size="13" font-weight="bold" lengthAdjust="spacingAndGlyphs" textLength="9" x="793" y="483.541">8</text>
        <text fill="#000000" font-family="sans-serif" font-size="13" lengthAdjust="spacingAndGlyphs" textLength="181" x="806" y="483.541">regA = getRegistoAnuncios()</text>
        <polygon fill="#A80036" points="1823,543.2832,1833,547.2832,1823,551.2832,1827,547.2832" style="stroke: #A80036; stroke-width: 1.0;"/>
        <line style="stroke: #A80036; stroke-width: 1.0;" x1="786" x2="1829" y1="547.2832" y2="547.2832"/>
        <text fill="#000000" font-family="sans-serif" font-size="13" font-weight="bold" lengthAdjust="spacingAndGlyphs" textLength="9" x="793" y="542.8516">9</text>
        <text fill="#000000" font-family="sans-serif" font-size="13" lengthAdjust="spacingAndGlyphs" textLength="329" x="806" y="542.8516">lstCandFreelancer = getCandidaturasFreelancer(free)</text>
        <rect fill="#FFFFFF" filter="url(#f6jqa71i1v61x)" height="40.6211" style="stroke: #000000; stroke-width: 2.0;" width="298" x="1768.5" y="585.5938"/>
        <polygon fill="#EEEEEE" points="1768.5,585.5938,1832.5,585.5938,1832.5,592.5938,1822.5,602.5938,1768.5,602.5938,1768.5,585.5938" style="stroke: #000000; stroke-width: 2.0;"/>
        <text fill="#000000" font-family="sans-serif" font-size="13" font-weight="bold" lengthAdjust="spacingAndGlyphs" textLength="19" x="1781.5" y="600.1621">ref</text>
        <text fill="#000000" font-family="sans-serif" font-size="13" lengthAdjust="spacingAndGlyphs" textLength="271" x="1784" y="619.1621">UC_11_SD_getCandidaturasFreelancer(free)</text>
        <polygon fill="#A80036" points="63,663.2148,53,667.2148,63,671.2148,59,667.2148" style="stroke: #A80036; stroke-width: 1.0;"/>
        <line style="stroke: #A80036; stroke-width: 1.0; stroke-dasharray: 2.0,2.0;" x1="57" x2="424" y1="667.2148" y2="667.2148"/>
        <text fill="#000000" font-family="sans-serif" font-size="13" font-weight="bold" lengthAdjust="spacingAndGlyphs" textLength="18" x="69" y="655.4385">10</text>
        <text fill="#000000" font-family="sans-serif" font-size="13" lengthAdjust="spacingAndGlyphs" textLength="295" x="91" y="647.7832">mostra a lista de candidaturas efetuadas por si</text>
        <text fill="#000000" font-family="sans-serif" font-size="13" lengthAdjust="spacingAndGlyphs" textLength="171" x="95" y="663.0938">e pede para selecionar uma</text>
        <polygon fill="#A80036" points="408,692.8359,418,696.8359,408,700.8359,412,696.8359" style="stroke: #A80036; stroke-width: 1.0;"/>
        <line style="stroke: #A80036; stroke-width: 1.0;" x1="52" x2="414" y1="696.8359" y2="696.8359"/>
        <text fill="#000000" font-family="sans-serif" font-size="13" font-weight="bold" lengthAdjust="spacingAndGlyphs" textLength="18" x="59" y="692.4043">11</text>
        <text fill="#000000" font-family="sans-serif" font-size="13" lengthAdjust="spacingAndGlyphs" textLength="292" x="81" y="692.4043">seleciona a candidatura que pretende atualizar</text>
        <polygon fill="#A80036" points="764,722.1465,774,726.1465,764,730.1465,768,726.1465" style="stroke: #A80036; stroke-width: 1.0;"/>
        <line style="stroke: #A80036; stroke-width: 1.0;" x1="430" x2="770" y1="726.1465" y2="726.1465"/>
        <text fill="#000000" font-family="sans-serif" font-size="13" font-weight="bold" lengthAdjust="spacingAndGlyphs" textLength="18" x="437" y="721.7148">12</text>
        <text fill="#000000" font-family="sans-serif" font-size="13" lengthAdjust="spacingAndGlyphs" textLength="269" x="459" y="721.7148">selecionaCandidatura(anuncioId,emailFree)</text>
        <polygon fill="#A80036" points="1823,751.457,1833,755.457,1823,759.457,1827,755.457" style="stroke: #A80036; stroke-width: 1.0;"/>
        <line style="stroke: #A80036; stroke-width: 1.0;" x1="786" x2="1829" y1="755.457" y2="755.457"/>
        <text fill="#000000" font-family="sans-serif" font-size="13" font-weight="bold" lengthAdjust="spacingAndGlyphs" textLength="18" x="793" y="751.0254">13</text>
        <text fill="#000000" font-family="sans-serif" font-size="13" lengthAdjust="spacingAndGlyphs" textLength="209" x="815" y="751.0254">anu = getAnuncioById(anuncioId)</text>
        <polygon fill="#A80036" points="1588,810.7676,1598,814.7676,1588,818.7676,1592,814.7676" style="stroke: #A80036; stroke-width: 1.0;"/>
        <line style="stroke: #A80036; stroke-width: 1.0;" x1="786" x2="1594" y1="814.7676" y2="814.7676"/>
        <text fill="#000000" font-family="sans-serif" font-size="13" font-weight="bold" lengthAdjust="spacingAndGlyphs" textLength="18" x="793" y="810.3359">14</text>
        <text fill="#000000" font-family="sans-serif" font-size="13" lengthAdjust="spacingAndGlyphs" textLength="197" x="815" y="810.3359">lcandi = getListaCandidaturas()</text>
        <polygon fill="#A80036" points="1976,870.0781,1986,874.0781,1976,878.0781,1980,874.0781" style="stroke: #A80036; stroke-width: 1.0;"/>
        <line style="stroke: #A80036; stroke-width: 1.0;" x1="786" x2="1982" y1="874.0781" y2="874.0781"/>
        <text fill="#000000" font-family="sans-serif" font-size="13" font-weight="bold" lengthAdjust="spacingAndGlyphs" textLength="18" x="793" y="869.6465">15</text>
        <text fill="#000000" font-family="sans-serif" font-size="13" lengthAdjust="spacingAndGlyphs" textLength="301" x="815" y="869.6465">candAntiga = getCandidaturaByEmailFree(email)</text>
        <polygon fill="#A80036" points="63,929.3887,53,933.3887,63,937.3887,59,933.3887" style="stroke: #A80036; stroke-width: 1.0;"/>
        <line style="stroke: #A80036; stroke-width: 1.0; stroke-dasharray: 2.0,2.0;" x1="57" x2="424" y1="933.3887" y2="933.3887"/>
        <text fill="#000000" font-family="sans-serif" font-size="13" font-weight="bold" lengthAdjust="spacingAndGlyphs" textLength="18" x="69" y="928.957">16</text>
        <text fill="#000000" font-family="sans-serif" font-size="13" lengthAdjust="spacingAndGlyphs" textLength="201" x="91" y="928.957">solicita a atualização dos dados</text>
        <polygon fill="#A80036" points="408,958.6992,418,962.6992,408,966.6992,412,962.6992" style="stroke: #A80036; stroke-width: 1.0;"/>
        <line style="stroke: #A80036; stroke-width: 1.0;" x1="52" x2="414" y1="962.6992" y2="962.6992"/>
        <text fill="#000000" font-family="sans-serif" font-size="13" font-weight="bold" lengthAdjust="spacingAndGlyphs" textLength="18" x="59" y="958.2676">17</text>
        <text fill="#000000" font-family="sans-serif" font-size="13" lengthAdjust="spacingAndGlyphs" textLength="110" x="81" y="958.2676">atualiza os dados</text>
        <polygon fill="#A80036" points="764,988.0098,774,992.0098,764,996.0098,768,992.0098" style="stroke: #A80036; stroke-width: 1.0;"/>
        <line style="stroke: #A80036; stroke-width: 1.0;" x1="430" x2="770" y1="992.0098" y2="992.0098"/>
        <text fill="#000000" font-family="sans-serif" font-size="13" font-weight="bold" lengthAdjust="spacingAndGlyphs" textLength="18" x="437" y="987.5781">18</text>
        <text fill="#000000" font-family="sans-serif" font-size="13" lengthAdjust="spacingAndGlyphs" textLength="305" x="459" y="987.5781">atualizaDados(valorPrt,nrDias,txtApres,txtMotiv)</text>
        <polygon fill="#A80036" points="1588,1017.3203,1598,1021.3203,1588,1025.3203,1592,1021.3203" style="stroke: #A80036; stroke-width: 1.0;"/>
        <line style="stroke: #A80036; stroke-width: 1.0;" x1="786" x2="1594" y1="1021.3203" y2="1021.3203"/>
        <text fill="#000000" font-family="sans-serif" font-size="13" font-weight="bold" lengthAdjust="spacingAndGlyphs" textLength="18" x="793" y="1016.8887">19</text>
        <text fill="#000000" font-family="sans-serif" font-size="13" lengthAdjust="spacingAndGlyphs" textLength="422" x="815" y="1016.8887">candAtual = atualizaCandidatura(valorPrt,nrDias,txtApres,txtMotiv)</text>
        <polygon fill="#A80036" points="1823,1046.6309,1833,1050.6309,1823,1054.6309,1827,1050.6309" style="stroke: #A80036; stroke-width: 1.0;"/>
        <line style="stroke: #A80036; stroke-width: 1.0;" x1="1610" x2="1829" y1="1050.6309" y2="1050.6309"/>
        <text fill="#000000" font-family="sans-serif" font-size="13" font-weight="bold" lengthAdjust="spacingAndGlyphs" textLength="18" x="1617" y="1046.1992">20</text>
        <text fill="#000000" font-family="sans-serif" font-size="13" lengthAdjust="spacingAndGlyphs" textLength="184" x="1639" y="1046.1992">validaCandidatura(candAtual)</text>
        <polygon fill="#A80036" points="63,1105.9414,53,1109.9414,63,1113.9414,59,1109.9414" style="stroke: #A80036; stroke-width: 1.0;"/>
        <line style="stroke: #A80036; stroke-width: 1.0; stroke-dasharray: 2.0,2.0;" x1="57" x2="424" y1="1109.9414" y2="1109.9414"/>
        <text fill="#000000" font-family="sans-serif" font-size="13" font-weight="bold" lengthAdjust="spacingAndGlyphs" textLength="18" x="69" y="1105.5098">21</text>
        <text fill="#000000" font-family="sans-serif" font-size="13" lengthAdjust="spacingAndGlyphs" textLength="322" x="91" y="1105.5098">apresenta dados atualizados e solicita confirmação</text>
        <polygon fill="#A80036" points="408,1135.252,418,1139.252,408,1143.252,412,1139.252" style="stroke: #A80036; stroke-width: 1.0;"/>
        <line style="stroke: #A80036; stroke-width: 1.0;" x1="52" x2="414" y1="1139.252" y2="1139.252"/>
        <text fill="#000000" font-family="sans-serif" font-size="13" font-weight="bold" lengthAdjust="spacingAndGlyphs" textLength="18" x="59" y="1134.8203">22</text>
        <text fill="#000000" font-family="sans-serif" font-size="13" lengthAdjust="spacingAndGlyphs" textLength="167" x="81" y="1134.8203">confirma dados a atualizar</text>
        <polygon fill="#A80036" points="764,1164.5625,774,1168.5625,764,1172.5625,768,1168.5625" style="stroke: #A80036; stroke-width: 1.0;"/>
        <line style="stroke: #A80036; stroke-width: 1.0;" x1="430" x2="770" y1="1168.5625" y2="1168.5625"/>
        <text fill="#000000" font-family="sans-serif" font-size="13" font-weight="bold" lengthAdjust="spacingAndGlyphs" textLength="18" x="437" y="1164.1309">23</text>
        <text fill="#000000" font-family="sans-serif" font-size="13" lengthAdjust="spacingAndGlyphs" textLength="133" x="459" y="1164.1309">atualizaCandidatura()</text>
        <polygon fill="#A80036" points="1976,1193.873,1986,1197.873,1976,1201.873,1980,1197.873" style="stroke: #A80036; stroke-width: 1.0;"/>
        <line style="stroke: #A80036; stroke-width: 1.0;" x1="786" x2="1982" y1="1197.873" y2="1197.873"/>
        <text fill="#000000" font-family="sans-serif" font-size="13" font-weight="bold" lengthAdjust="spacingAndGlyphs" textLength="18" x="793" y="1193.4414">24</text>
        <text fill="#000000" font-family="sans-serif" font-size="13" lengthAdjust="spacingAndGlyphs" textLength="268" x="815" y="1193.4414">rC : removeCandidaturaAntiga(candAntiga)</text>
        <polygon fill="#A80036" points="1588,1253.1836,1598,1257.1836,1588,1261.1836,1592,1257.1836" style="stroke: #A80036; stroke-width: 1.0;"/>
        <line style="stroke: #A80036; stroke-width: 1.0;" x1="786" x2="1594" y1="1257.1836" y2="1257.1836"/>
        <text fill="#000000" font-family="sans-serif" font-size="13" font-weight="bold" lengthAdjust="spacingAndGlyphs" textLength="18" x="793" y="1252.752">25</text>
        <text fill="#000000" font-family="sans-serif" font-size="13" lengthAdjust="spacingAndGlyphs" textLength="196" x="815" y="1252.752">atualizaCandidatura(candAtual)</text>
        <polygon fill="#A80036" points="1976,1282.4941,1986,1286.4941,1976,1290.4941,1980,1286.4941" style="stroke: #A80036; stroke-width: 1.0;"/>
        <line style="stroke: #A80036; stroke-width: 1.0;" x1="1605" x2="1982" y1="1286.4941" y2="1286.4941"/>
        <text fill="#000000" font-family="sans-serif" font-size="13" font-weight="bold" lengthAdjust="spacingAndGlyphs" textLength="18" x="1612" y="1282.0625">26</text>
        <text fill="#000000" font-family="sans-serif" font-size="13" lengthAdjust="spacingAndGlyphs" textLength="259" x="1634" y="1282.0625">cand = candidaturaAtualizada(candAtual)</text>
        <line style="stroke: #A80036; stroke-width: 1.0;" x1="1998" x2="2040" y1="1316.1152" y2="1316.1152"/>
        <line style="stroke: #A80036; stroke-width: 1.0;" x1="2040" x2="2040" y1="1316.1152" y2="1329.1152"/>
        <line style="stroke: #A80036; stroke-width: 1.0;" x1="1999" x2="2040" y1="1329.1152" y2="1329.1152"/>
        <polygon fill="#A80036" points="2009,1325.1152,1999,1329.1152,2009,1333.1152,2005,1329.1152" style="stroke: #A80036; stroke-width: 1.0;"/>
        <text fill="#000000" font-family="sans-serif" font-size="13" font-weight="bold" lengthAdjust="spacingAndGlyphs" textLength="18" x="2005" y="1311.373">27</text>
        <text fill="#000000" font-family="sans-serif" font-size="13" lengthAdjust="spacingAndGlyphs" textLength="151" x="2027" y="1311.373">validaCandidatura(cand)</text>
        <line style="stroke: #A80036; stroke-width: 1.0;" x1="1998" x2="2040" y1="1363.4258" y2="1363.4258"/>
        <line style="stroke: #A80036; stroke-width: 1.0;" x1="2040" x2="2040" y1="1363.4258" y2="1376.4258"/>
        <line style="stroke: #A80036; stroke-width: 1.0;" x1="1993" x2="2040" y1="1376.4258" y2="1376.4258"/>
        <polygon fill="#A80036" points="2003,1372.4258,1993,1376.4258,2003,1380.4258,1999,1376.4258" style="stroke: #A80036; stroke-width: 1.0;"/>
        <text fill="#000000" font-family="sans-serif" font-size="13" font-weight="bold" lengthAdjust="spacingAndGlyphs" textLength="18" x="2005" y="1358.6836">28</text>
        <text fill="#000000" font-family="sans-serif" font-size="13" lengthAdjust="spacingAndGlyphs" textLength="137" x="2027" y="1358.6836">addCandidatura(cand)</text>
        <polygon fill="#A80036" points="63,1396.4258,53,1400.4258,63,1404.4258,59,1400.4258" style="stroke: #A80036; stroke-width: 1.0;"/>
        <line style="stroke: #A80036; stroke-width: 1.0; stroke-dasharray: 2.0,2.0;" x1="57" x2="424" y1="1400.4258" y2="1400.4258"/>
        <text fill="#000000" font-family="sans-serif" font-size="13" font-weight="bold" lengthAdjust="spacingAndGlyphs" textLength="18" x="69" y="1395.9941">29</text>
        <text fill="#000000" font-family="sans-serif" font-size="13" lengthAdjust="spacingAndGlyphs" textLength="196" x="91" y="1395.9941">informa o sucesso da operação</text>
        <!--
@startuml
autonumber
hide footbox
actor "Freelancer" as FREE

participant ":AtualizarCandidaturaUI" as UI
participant ":AtualizarCandidaturaController" as CTRL
participant "AplicacaoPOT" as POT
participant "app\n:AplicacaoPOT" as app
participant "sessao\n:SessaoUtilizador" as SESSAO
participant ":Plataforma" as PLAT
participant "rfr\n:RegistoFreelancer" as RFR
participant "anu\n:Anuncio" as AN
participant "regA\n:RegistoAnuncios" as RA
participant ":ListaCandidaturas:" as LC
participant "candAtual:\nCandidatura)" as CAN

activate FREE
FREE -> UI : inicia a atualização de uma candidatura efetuada\n por si
activate UI

UI -> CTRL : lstCF = getCandidFree()
activate CTRL

CTRL -> POT : app = getInstance()
activate POT
deactivate POT

CTRL -> app : sessao = getSessaoAtual()
activate app
deactivate app

CTRL -> SESSAO : email = getEmailUtilizador()
activate SESSAO
deactivate SESSAO

CTRL -> PLAT : rfr = getRegistoFreelancer()
activate PLAT
deactivate PLAT

CTRL -> RFR : free = getFreelancerByEmail(email)
activate RFR
deactivate RFR

CTRL -> PLAT : regA = getRegistoAnuncios()
activate PLAT
deactivate PLAT

CTRL -> RA : lstCandFreelancer = getCandidaturasFreelancer(free)
activate RA

ref over RA, LC : UC_11_SD_getCandidaturasFreelancer(free)
deactivate RA

UI - -> FREE : mostra a lista de candidaturas efetuadas por si\n e pede para selecionar uma
deactivate UI
deactivate CTRL

FREE -> UI : seleciona a candidatura que pretende atualizar
activate UI

UI -> CTRL : selecionaCandidatura(anuncioId,emailFree)
activate CTRL

CTRL -> RA : anu = getAnuncioById(anuncioId)
activate RA
deactivate RA

CTRL -> AN : lcandi = getListaCandidaturas()
activate AN
deactivate AN

CTRL -> LC : candAntiga = getCandidaturaByEmailFree(email)
activate LC
deactivate LC

UI - -> FREE : solicita a atualização dos dados

deactivate UI
deactivate CTRL

FREE -> UI : atualiza os dados
activate UI

UI -> CTRL : atualizaDados(valorPrt,nrDias,txtApres,txtMotiv)
activate CTRL

CTRL -> AN : candAtual = atualizaCandidatura(valorPrt,nrDias,txtApres,txtMotiv)
activate AN



AN -> RA : validaCandidatura(candAtual)
activate RA
deactivate RA
deactivate AN

UI - -> FREE : apresenta dados atualizados e solicita confirmação
deactivate UI
deactivate CTRL

FREE -> UI : confirma dados a atualizar
activate UI

UI -> CTRL : atualizaCandidatura()
activate CTRL
CTRL -> LC : rC : removeCandidaturaAntiga(candAntiga)
activate LC
deactivate LC

CTRL -> AN : atualizaCandidatura(candAtual)
activate AN


AN -> LC : cand = candidaturaAtualizada(candAtual)
deactivate AN
activate LC

LC -> LC : validaCandidatura(cand)
LC -> LC : addCandidatura(cand)

deactivate CTRL
deactivate LC

UI - -> FREE : informa o sucesso da operação
deactivate UI


@enduml

PlantUML version 2017.11(Wed Apr 19 17:18:59 WEST 2017)
(GPL source distribution)
Java Runtime: Java(TM) SE Runtime Environment
JVM: Java HotSpot(TM) 64-Bit Server VM
Java Version: 1.8.0_191-b12
Operating System: Mac OS X
OS Version: 10.15.4
Default Encoding: UTF-8
Language: pt
Country: PT
-->
    </g>
</svg>
