@startuml
autonumber
actor "Freelancer" as FREE

participant ":AtualizarCandidaturaUI" as UI
participant ":AtualizarCandidaturaController" as CTRL
participant "AplicacaoPOT" as POT
participant "app\n:AplicacaoPOT" as app
participant "sessao\n:SessaoUtilizador" as SESSAO
participant ":Plataforma" as PLAT
participant "rfr\n:RegistoFreelancer" as RFR
participant "regA\n:RegistoAnuncios" as RA
participant "anu\n:Anuncio" as AN
participant "cand\n:Candidatura" as C
participant "anuncioCand\n:Anuncio" as AC
participant "lstAnu\n:List<Anuncio>" as LA
participant ":ListaCandidaturas:" as LC

activate FREE
FREE -> UI : inicia a atualização de uma candidatura efetuada\n por si
activate UI

UI -> CTRL : lstCF = getCandidFree()
activate CTRL

CTRL -> POT : app = getInstance()
activate POT
deactivate POT

CTRL -> app : sessao = getSessaoAtual()
activate app
deactivate app

CTRL -> SESSAO : email = getEmailUtilizador()
activate SESSAO
deactivate SESSAO

CTRL -> PLAT : rfr = getRegistoFreelancer()
activate PLAT
deactivate PLAT

CTRL -> RFR : free = getFreelancerByEmail(email)
activate RFR
deactivate RFR

CTRL -> PLAT : regA = getRegistoAnuncios()
activate PLAT
deactivate PLAT

CTRL -> RA : lstCandFreelancer = getCandidaturasFreelancer(free)
activate RA

ref over RA, LC : UC_11_SD_getCandidaturasFreelancer(free)
deactivate RA

UI --> FREE : mostra a lista de candidaturas efetuadas por si\n e pede para selecionar uma
deactivate UI
deactivate CTRL

FREE -> UI : seleciona a candidatura que pretende atualizar
activate UI

UI -> CTRL : selecionaCandidatura(candidaturaId)
activate CTRL

CTRL -> RA : cand = getCandSelecionada(candidaturaId)
activate RA

loop [ Para cada anúncio registado ]

RA -> LA : anu = get(i)
activate LA
deactivate LA

RA -> AN : lstCand = getListaCandidaturas()
activate AN
deactivate AN

RA -> LC : temIdCand = temIdCandidatura(candidaturaId)
activate LC
deactivate LC

OPT [ temIdCand == true ]

RA -> LC : cand = getCandidaturaById(candidaturaId)
activate LC
deactivate LC

end OPT

deactivate RA
end


UI --> FREE : mostra a candidatura e solicita a atualização dos dados

deactivate UI
deactivate CTRL

FREE -> UI : atualiza os dados
activate UI

UI -> CTRL : atualizaDados(valorPrt,nrDias,txtApres,txtMotiv)
activate CTRL




CTRL -> C : atualizaDadosCand(valorPrt,nrDias,txtApres,txtMotiv)
activate C
C -> C : validaAtualizacao(valorPrt,nrDias,txtApres,txtMotiv)
C -> C : atualizaDados(valorPrt,nrDias,txtApres,txtMotiv)
deactivate C

deactivate LC

UI --> FREE : apresenta dados atualizados e solicita confirmação
deactivate UI
deactivate CTRL

FREE -> UI : confirma dados a atualizar
activate UI

UI -> CTRL : atualizaCandidatura()
activate CTRL

CTRL -> RA : anuncioCand = getAnuncioCand(cand)
activate RA
deactivate RA 

loop [ Para cada anúncio registado ]
RA -> LA : anu = get(i)
activate LA
deactivate LA

RA -> AN : lstCand = getListaCandidaturas()
activate AN
deactivate AN

RA -> LC : temCand = temCandidatura(cand)
activate LC
deactivate LC

OPT [ temCand == true ]

RA -> LA : anuncioCand = anu
activate LA
deactivate LA

end OPT

deactivate RA
end

CTRL -> AC : atualizaCandidatura(cand)
activate AC


AC -> LC : candAtual = atualizaCandidatura(cand)
deactivate AC
activate LC 

LC -> LC : validaCandAtual(candAtual)
LC -> LC : atualizaDadosCand(candAtual)

deactivate CTRL
deactivate LC

UI --> FREE : informa o sucesso da operação
deactivate UI


@enduml
