<?xml version="1.0" encoding="UTF-8"?><svg xmlns="http://www.w3.org/2000/svg" xmlns:xlink="http://www.w3.org/1999/xlink" contentScriptType="application/ecmascript" contentStyleType="text/css" height="318px" preserveAspectRatio="none" style="width:940px;height:318px;" version="1.1" viewBox="0 0 940 318" width="940px" zoomAndPan="magnify">
    <defs>
        <filter height="300%" id="fc369n9v53v4j" width="300%" x="-1" y="-1">
            <feGaussianBlur result="blurOut" stdDeviation="2.0"/>
            <feColorMatrix in="blurOut" result="blurOut2" type="matrix" values="0 0 0 0 0 0 0 0 0 0 0 0 0 0 0 0 0 0 .4 0"/>
            <feOffset dx="4.0" dy="4.0" in="blurOut2" result="blurOut3"/>
            <feBlend in="SourceGraphic" in2="blurOut3" mode="normal"/>
        </filter>
    </defs>
    <g>
        <!--cluster Domínio-->
        <polygon fill="#FFFFFF" filter="url(#fc369n9v53v4j)" points="303,160,371,160,378,182.4883,567,182.4883,567,311,303,311,303,160" style="stroke: #000000; stroke-width: 2.0;"/>
        <line style="stroke: #000000; stroke-width: 2.0;" x1="303" x2="378" y1="182.4883" y2="182.4883"/>
        <text fill="#000000" font-family="sans-serif" font-size="14" font-weight="bold" lengthAdjust="spacingAndGlyphs" textLength="62" x="307" y="175.5352">Domínio</text>
        <!--cluster Regimentos-->
        <polygon fill="#FFFFFF" filter="url(#fc369n9v53v4j)" points="22,24,114,24,121,46.4883,689,46.4883,689,136,22,136,22,24" style="stroke: #000000; stroke-width: 2.0;"/>
        <line style="stroke: #000000; stroke-width: 2.0;" x1="22" x2="121" y1="46.4883" y2="46.4883"/>
        <text fill="#000000" font-family="sans-serif" font-size="14" font-weight="bold" lengthAdjust="spacingAndGlyphs" textLength="86" x="26" y="39.5352">Regimentos</text>
        <!--cluster xCompany-->
        <polygon fill="#FFFFFF" filter="url(#fc369n9v53v4j)" points="713,24,794,24,801,46.4883,933,46.4883,933,136,713,136,713,24" style="stroke: #000000; stroke-width: 2.0;"/>
        <line style="stroke: #000000; stroke-width: 2.0;" x1="713" x2="801" y1="46.4883" y2="46.4883"/>
        <text fill="#000000" font-family="sans-serif" font-size="14" font-weight="bold" lengthAdjust="spacingAndGlyphs" textLength="75" x="717" y="39.5352">xCompany</text>
        <!--class TipoRegimento-->
        <rect fill="#FEFECE" filter="url(#fc369n9v53v4j)" height="99.8203" style="stroke: #A80036; stroke-width: 1.5;" width="231" x="319.5" y="195"/>
        <ellipse cx="387.25" cy="211" fill="#B4A7E5" rx="11" ry="11" style="stroke: #A80036; stroke-width: 1.0;"/>
        <path d="M383.6777,207.2651 L383.6777,205.1069 L391.0571,205.1069 L391.0571,207.2651 L388.5918,207.2651 L388.5918,215.3418 L391.0571,215.3418 L391.0571,217.5 L383.6777,217.5 L383.6777,215.3418 L386.1431,215.3418 L386.1431,207.2651 Z "/>
        <text fill="#000000" font-family="sans-serif" font-size="12" font-style="italic" lengthAdjust="spacingAndGlyphs" textLength="87" x="407.75" y="215.5352">TipoRegimento</text>
        <line style="stroke: #A80036; stroke-width: 1.5;" x1="320.5" x2="549.5" y1="227" y2="227"/>
        <line style="stroke: #A80036; stroke-width: 1.5;" x1="320.5" x2="549.5" y1="235" y2="235"/>
        <text fill="#000000" font-family="sans-serif" font-size="11" lengthAdjust="spacingAndGlyphs" textLength="219" x="325.5" y="249.6348">+seriarListaCandidatos(lstCand,tipoReg)</text>
        <text fill="#000000" font-family="sans-serif" font-size="11" lengthAdjust="spacingAndGlyphs" textLength="175" x="325.5" y="262.5898">+seriarListaCandidatos(tipoReg)</text>
        <text fill="#000000" font-family="sans-serif" font-size="11" lengthAdjust="spacingAndGlyphs" textLength="134" x="325.5" y="275.5449">+seriarListaCandidatos()</text>
        <text fill="#000000" font-family="sans-serif" font-size="11" lengthAdjust="spacingAndGlyphs" textLength="175" x="325.5" y="288.5">+seriarListaCandidatos(lstCand)</text>
        <!--class Automatico2PrecoMaisBaixo-->
        <rect fill="#FEFECE" filter="url(#fc369n9v53v4j)" height="60.9551" style="stroke: #A80036; stroke-width: 1.5;" width="231" x="441.5" y="59"/>
        <ellipse cx="473.6" cy="75" fill="#ADD1B2" rx="11" ry="11" style="stroke: #A80036; stroke-width: 1.0;"/>
        <path d="M476.0731,81.1431 Q475.4921,81.4419 474.8529,81.5913 Q474.2138,81.7407 473.5082,81.7407 Q471.0014,81.7407 469.6815,80.0889 Q468.3617,78.437 468.3617,75.3159 Q468.3617,72.1865 469.6815,70.5347 Q471.0014,68.8828 473.5082,68.8828 Q474.2138,68.8828 474.8612,69.0322 Q475.5087,69.1816 476.0731,69.4805 L476.0731,72.2031 Q475.4423,71.6221 474.8488,71.3523 Q474.2553,71.0825 473.6244,71.0825 Q472.2797,71.0825 471.5949,72.1492 Q470.9101,73.2158 470.9101,75.3159 Q470.9101,77.4077 471.5949,78.4744 Q472.2797,79.541 473.6244,79.541 Q474.2553,79.541 474.8488,79.2712 Q475.4423,79.0015 476.0731,78.4204 Z "/>
        <text fill="#000000" font-family="sans-serif" font-size="12" lengthAdjust="spacingAndGlyphs" textLength="161" x="491.4" y="79.5352">Automatico2PrecoMaisBaixo</text>
        <line style="stroke: #A80036; stroke-width: 1.5;" x1="442.5" x2="671.5" y1="91" y2="91"/>
        <line style="stroke: #A80036; stroke-width: 1.5;" x1="442.5" x2="671.5" y1="99" y2="99"/>
        <text fill="#000000" font-family="sans-serif" font-size="11" lengthAdjust="spacingAndGlyphs" textLength="219" x="447.5" y="113.6348">+seriarListaCandidatos(lstCand,tipoReg)</text>
        <!--class SubjetivaObrigatoria-->
        <rect fill="#FEFECE" filter="url(#fc369n9v53v4j)" height="60.9551" style="stroke: #A80036; stroke-width: 1.5;" width="187" x="219.5" y="59"/>
        <ellipse cx="251.6" cy="75" fill="#ADD1B2" rx="11" ry="11" style="stroke: #A80036; stroke-width: 1.0;"/>
        <path d="M254.0731,81.1431 Q253.4921,81.4419 252.8529,81.5913 Q252.2138,81.7407 251.5082,81.7407 Q249.0014,81.7407 247.6815,80.0889 Q246.3617,78.437 246.3617,75.3159 Q246.3617,72.1865 247.6815,70.5347 Q249.0014,68.8828 251.5082,68.8828 Q252.2138,68.8828 252.8612,69.0322 Q253.5087,69.1816 254.0731,69.4805 L254.0731,72.2031 Q253.4423,71.6221 252.8488,71.3523 Q252.2553,71.0825 251.6244,71.0825 Q250.2797,71.0825 249.5949,72.1492 Q248.9101,73.2158 248.9101,75.3159 Q248.9101,77.4077 249.5949,78.4744 Q250.2797,79.541 251.6244,79.541 Q252.2553,79.541 252.8488,79.2712 Q253.4423,79.0015 254.0731,78.4204 Z "/>
        <text fill="#000000" font-family="sans-serif" font-size="12" lengthAdjust="spacingAndGlyphs" textLength="117" x="269.4" y="79.5352">SubjetivaObrigatoria</text>
        <line style="stroke: #A80036; stroke-width: 1.5;" x1="220.5" x2="405.5" y1="91" y2="91"/>
        <line style="stroke: #A80036; stroke-width: 1.5;" x1="220.5" x2="405.5" y1="99" y2="99"/>
        <text fill="#000000" font-family="sans-serif" font-size="11" lengthAdjust="spacingAndGlyphs" textLength="175" x="225.5" y="113.6348">+seriarListaCandidatos(tipoReg)</text>
        <!--class SubjetivaOpcional-->
        <rect fill="#FEFECE" filter="url(#fc369n9v53v4j)" height="60.9551" style="stroke: #A80036; stroke-width: 1.5;" width="146" x="38" y="59"/>
        <ellipse cx="58.4" cy="75" fill="#ADD1B2" rx="11" ry="11" style="stroke: #A80036; stroke-width: 1.0;"/>
        <path d="M60.8731,81.1431 Q60.2921,81.4419 59.6529,81.5913 Q59.0138,81.7407 58.3082,81.7407 Q55.8014,81.7407 54.4815,80.0889 Q53.1617,78.437 53.1617,75.3159 Q53.1617,72.1865 54.4815,70.5347 Q55.8014,68.8828 58.3082,68.8828 Q59.0138,68.8828 59.6612,69.0322 Q60.3087,69.1816 60.8731,69.4805 L60.8731,72.2031 Q60.2423,71.6221 59.6488,71.3523 Q59.0553,71.0825 58.4244,71.0825 Q57.0797,71.0825 56.3949,72.1492 Q55.7101,73.2158 55.7101,75.3159 Q55.7101,77.4077 56.3949,78.4744 Q57.0797,79.541 58.4244,79.541 Q59.0553,79.541 59.6488,79.2712 Q60.2423,79.0015 60.8731,78.4204 Z "/>
        <text fill="#000000" font-family="sans-serif" font-size="12" lengthAdjust="spacingAndGlyphs" textLength="102" x="73.6" y="79.5352">SubjetivaOpcional</text>
        <line style="stroke: #A80036; stroke-width: 1.5;" x1="39" x2="183" y1="91" y2="91"/>
        <line style="stroke: #A80036; stroke-width: 1.5;" x1="39" x2="183" y1="99" y2="99"/>
        <text fill="#000000" font-family="sans-serif" font-size="11" lengthAdjust="spacingAndGlyphs" textLength="134" x="44" y="113.6348">+seriarListaCandidatos()</text>
        <!--class TimeBasedRanking-->
        <rect fill="#FEFECE" filter="url(#fc369n9v53v4j)" height="60.9551" style="stroke: #A80036; stroke-width: 1.5;" width="187" x="729.5" y="59"/>
        <ellipse cx="764.75" cy="75" fill="#ADD1B2" rx="11" ry="11" style="stroke: #A80036; stroke-width: 1.0;"/>
        <path d="M767.2231,81.1431 Q766.6421,81.4419 766.0029,81.5913 Q765.3638,81.7407 764.6582,81.7407 Q762.1514,81.7407 760.8315,80.0889 Q759.5117,78.437 759.5117,75.3159 Q759.5117,72.1865 760.8315,70.5347 Q762.1514,68.8828 764.6582,68.8828 Q765.3638,68.8828 766.0112,69.0322 Q766.6587,69.1816 767.2231,69.4805 L767.2231,72.2031 Q766.5923,71.6221 765.9988,71.3523 Q765.4053,71.0825 764.7744,71.0825 Q763.4297,71.0825 762.7449,72.1492 Q762.0601,73.2158 762.0601,75.3159 Q762.0601,77.4077 762.7449,78.4744 Q763.4297,79.541 764.7744,79.541 Q765.4053,79.541 765.9988,79.2712 Q766.5923,79.0015 767.2231,78.4204 Z "/>
        <text fill="#000000" font-family="sans-serif" font-size="12" lengthAdjust="spacingAndGlyphs" textLength="110" x="783.25" y="79.5352">TimeBasedRanking</text>
        <line style="stroke: #A80036; stroke-width: 1.5;" x1="730.5" x2="915.5" y1="91" y2="91"/>
        <line style="stroke: #A80036; stroke-width: 1.5;" x1="730.5" x2="915.5" y1="99" y2="99"/>
        <text fill="#000000" font-family="sans-serif" font-size="11" lengthAdjust="spacingAndGlyphs" textLength="175" x="735.5" y="113.6348">+seriarListaCandidatos(lstCand)</text>
        <path d="M533.48,120.1 C520.13,136.88 502.89,158.58 486.56,179.12 " fill="none" style="stroke: #A80036; stroke-width: 1.0; stroke-dasharray: 7.0,7.0;"/>
        <polygon fill="none" points="491.98,183.56,474.05,194.86,481.02,174.85,491.98,183.56" style="stroke: #A80036; stroke-width: 1.0;"/>
        <path d="M336.52,120.1 C349.87,136.88 367.11,158.58 383.44,179.12 " fill="none" style="stroke: #A80036; stroke-width: 1.0; stroke-dasharray: 7.0,7.0;"/>
        <polygon fill="none" points="388.98,174.85,395.95,194.86,378.02,183.56,388.98,174.85" style="stroke: #A80036; stroke-width: 1.0;"/>
        <path d="M159.01,120.25 C172.71,128.32 187.77,136.8 202,144 C233.5,159.94 268.14,175.71 300.85,189.85 " fill="none" style="stroke: #A80036; stroke-width: 1.0; stroke-dasharray: 7.0,7.0;"/>
        <polygon fill="none" points="303.68,183.45,319.32,197.75,298.17,196.32,303.68,183.45" style="stroke: #A80036; stroke-width: 1.0;"/>
        <path d="M748.95,120.14 C729.46,127.92 708.44,136.29 689,144 C650.19,159.39 608.02,176.02 569.39,191.23 " fill="none" style="stroke: #A80036; stroke-width: 1.0; stroke-dasharray: 7.0,7.0;"/>
        <polygon fill="none" points="571.92,197.76,550.74,198.57,566.79,184.73,571.92,197.76" style="stroke: #A80036; stroke-width: 1.0;"/>
        <!--
@startuml
skinparam classAttributeIconSize 0

package Domínio <<Folder>> {
interface TipoRegimento {
   +seriarListaCandidatos(lstCand,tipoReg)
   +seriarListaCandidatos(tipoReg)
   +seriarListaCandidatos()
   +seriarListaCandidatos(lstCand)
 }
}

package Regimentos <<Folder>> {
 class Automatico2PrecoMaisBaixo {
   +seriarListaCandidatos(lstCand,tipoReg)
 }

 class SubjetivaObrigatoria {
   +seriarListaCandidatos(tipoReg)
 }

 class SubjetivaOpcional {
   +seriarListaCandidatos()
 }
}

package xCompany <<Folder>> {
 class TimeBasedRanking {
   +seriarListaCandidatos(lstCand)
 }
}

Automatico2PrecoMaisBaixo ..|> TipoRegimento
SubjetivaObrigatoria ..|> TipoRegimento
SubjetivaOpcional ..|> TipoRegimento

TimeBasedRanking ..|> TipoRegimento



@enduml

PlantUML version 2017.11(Wed Apr 19 17:18:59 WEST 2017)
(GPL source distribution)
Java Runtime: Java(TM) SE Runtime Environment
JVM: Java HotSpot(TM) 64-Bit Server VM
Java Version: 1.8.0_111-b14
Operating System: Mac OS X
OS Version: 10.15
Default Encoding: UTF-8
Language: pt
Country: PT
-->
    </g>
</svg>
