@startuml
autonumber
actor "Tempo" as TMP

activate TMP
TMP -> ":Sistema" : Atingindo o Tempo agendado \n inicia-se o processo de seriação automático
activate ":Sistema"
deactivate ":Sistema"

deactivate TMP

@enduml
