@startuml
autonumber
'hide footbox
actor "Tempo" as TMP

participant "task:SeriarCandidaturasAnuncioTask" as TSK

note over TMP, TSK: Decorrido o tempo especificado por "periodo" no Anuncio.

activate TMP
TMP -> TSK : run()
activate TSK
TSK -> TSK : seriarCandidaturasSubmetidas()
activate TSK

deactivate TSK
deactivate TSK
deactivate TMP


@enduml
