@startuml
autonumber
title UC13_SD_OrdenaCandidaturaPeloTipoRegimento
participant "task: SeriarCandidaturaAnuncioTask" as TSK
participant ":Plataforma" as PLAT

participant "anu:Anuncio" as ANU
participant "cand:Candidatura" as CND
participant "lstCand:List<Candidatura>" as LSTC
participant "<<interface>>\n tp: TipoRegimento" as TP
participant "lstCandOrd\n:ListaCandidaturasOrdenada" as LCO

activate TSK

TSK -> ANU: tp = getAlgoritmoSeriacao()
activate ANU
deactivate ANU

TSK -> TP:lstCandOrd = SeriarLista(lstCand)
activate TP
deactivate TP


@enduml
