@startuml
skinparam classAttributeIconSize 0
hide methods
left to right direction

class Plataforma {
  -String designacao
}

class Candidatura {
  -Integer valorReceber
  -DataHora diasRealizacao
  -String texto
  -Freelancer candidato
}

class Anuncio{
  -DateTime pPublicIn
  -DateTime pPublicFin
  -DateTime pApreseIn
  -DateTime pApreseFin
  -DateTime pSeriaIn
  -DateTime pSeriaFin
}

class Freelancer {
  -String nome
  -String NIF
  -String contacto
  -String email
}

class Colaborador{
  -String nome
  -String funcao
  -String telefone
  -String email
}

class TipoRegimento{
}

class Organizacao{
  -String nome
  -String NIF
  -String website
  -String telefone
  -String email
}

class Utilizador {
  -String nome
  -String email
  -String password
}

class Tarefa {
  -String referencia
  -String designacao
  -String descInformal
  -String descTecnica
  -Integer duracaoEst
  -Double custoEst
}

class Utilizador {
  -String nome
  -String email
  -String password
}

class AnuncioSeriado {
  -List<Freelancer> candidatosSeriados
  -List<Colaborador> colaboradoresEnvolvidos
  -DateTime dataHoraSeriacao
}


Plataforma "1" -- "*" Freelancer : possui >
Plataforma "1" -- "*" Organizacao : tem registadas >
Plataforma "1" -- "*" TipoRegimento : possui >
Plataforma "1" -- "*" Tarefa : possui >

Colaborador "0..1" -- "1" Utilizador : atua como >
Colaborador "1" -- "*" Anuncio : especifica >
Colaborador "1" -- "*" Anuncio : seria >

Freelancer "0..1" -- "1" Utilizador: atua como >
Freelancer "1" -- "*" Candidatura: efetua >

Tarefa "*" -- "1" Colaborador : publicada por >
Tarefa "*" -- "1" Colaborador : especificada por >
Tarefa "1" -- "0..1" Anuncio : resulta >

Organizacao "1" -- "1..*" Colaborador : tem >

Anuncio "1" -- "0..*" Candidatura : tem >
Anuncio "0..*" -- "1" TipoRegimento : possui >
Anuncio "1" -- "1" AnuncioSeriado : resulta >
@enduml