<?xml version="1.0" encoding="UTF-8"?><svg xmlns="http://www.w3.org/2000/svg" xmlns:xlink="http://www.w3.org/1999/xlink" contentScriptType="application/ecmascript" contentStyleType="text/css" height="1379px" preserveAspectRatio="none" style="width:4676px;height:1379px;" version="1.1" viewBox="0 0 4676 1379" width="4676px" zoomAndPan="magnify">
    <defs>
        <filter height="300%" id="f1gvsvjdpxkhpl" width="300%" x="-1" y="-1">
            <feGaussianBlur result="blurOut" stdDeviation="2.0"/>
            <feColorMatrix in="blurOut" result="blurOut2" type="matrix" values="0 0 0 0 0 0 0 0 0 0 0 0 0 0 0 0 0 0 .4 0"/>
            <feOffset dx="4.0" dy="4.0" in="blurOut2" result="blurOut3"/>
            <feBlend in="SourceGraphic" in2="blurOut3" mode="normal"/>
        </filter>
    </defs>
    <g>
        <!--class Plataforma-->
        <rect fill="#FEFECE" filter="url(#f1gvsvjdpxkhpl)" height="60.1543" style="stroke: #A80036; stroke-width: 1.5;" width="130" x="6" y="420.13"/>
        <ellipse cx="21" cy="437.7296" fill="#ADD1B2" rx="11" ry="11" style="stroke: #A80036; stroke-width: 1.0;"/>
        <path d="M23.4731,443.8727 Q22.8921,444.1715 22.2529,444.3209 Q21.6138,444.4703 20.9082,444.4703 Q18.4014,444.4703 17.0815,442.8185 Q15.7617,441.1666 15.7617,438.0455 Q15.7617,434.9161 17.0815,433.2643 Q18.4014,431.6124 20.9082,431.6124 Q21.6138,431.6124 22.2612,431.7618 Q22.9087,431.9113 23.4731,432.2101 L23.4731,434.9327 Q22.8423,434.3517 22.2488,434.0819 Q21.6553,433.8121 21.0244,433.8121 Q19.6797,433.8121 18.9949,434.8788 Q18.3101,435.9454 18.3101,438.0455 Q18.3101,440.1373 18.9949,441.204 Q19.6797,442.2706 21.0244,442.2706 Q21.6553,442.2706 22.2488,442.0008 Q22.8423,441.7311 23.4731,441.15 Z "/>
        <text fill="#000000" font-family="sans-serif" font-size="18" lengthAdjust="spacingAndGlyphs" textLength="94" x="37" y="444.5323">Plataforma</text>
        <line style="stroke: #A80036; stroke-width: 1.5;" x1="7" x2="135" y1="455.3292" y2="455.3292"/>
        <text fill="#000000" font-family="sans-serif" font-size="11" lengthAdjust="spacingAndGlyphs" textLength="102" x="14" y="471.964">-String designacao</text>
        <!--class AreaAtividade-->
        <rect fill="#FEFECE" filter="url(#f1gvsvjdpxkhpl)" height="94.0645" style="stroke: #A80036; stroke-width: 1.5;" width="155" x="4235" y="152.13"/>
        <ellipse cx="4250" cy="169.7296" fill="#ADD1B2" rx="11" ry="11" style="stroke: #A80036; stroke-width: 1.0;"/>
        <path d="M4252.4731,175.8727 Q4251.8921,176.1715 4251.2529,176.3209 Q4250.6138,176.4703 4249.9082,176.4703 Q4247.4014,176.4703 4246.0815,174.8185 Q4244.7617,173.1666 4244.7617,170.0455 Q4244.7617,166.9161 4246.0815,165.2643 Q4247.4014,163.6124 4249.9082,163.6124 Q4250.6138,163.6124 4251.2612,163.7618 Q4251.9087,163.9113 4252.4731,164.2101 L4252.4731,166.9327 Q4251.8423,166.3517 4251.2488,166.0819 Q4250.6553,165.8121 4250.0244,165.8121 Q4248.6797,165.8121 4247.9949,166.8788 Q4247.3101,167.9454 4247.3101,170.0455 Q4247.3101,172.1373 4247.9949,173.204 Q4248.6797,174.2706 4250.0244,174.2706 Q4250.6553,174.2706 4251.2488,174.0008 Q4251.8423,173.7311 4252.4731,173.15 Z "/>
        <text fill="#000000" font-family="sans-serif" font-size="18" lengthAdjust="spacingAndGlyphs" textLength="119" x="4266" y="176.5323">AreaAtividade</text>
        <line style="stroke: #A80036; stroke-width: 1.5;" x1="4236" x2="4389" y1="187.3292" y2="187.3292"/>
        <text fill="#000000" font-family="sans-serif" font-size="11" lengthAdjust="spacingAndGlyphs" textLength="78" x="4243" y="203.964">-String codigo</text>
        <text fill="#000000" font-family="sans-serif" font-size="11" lengthAdjust="spacingAndGlyphs" textLength="95" x="4243" y="220.9191">-String descBreve</text>
        <text fill="#000000" font-family="sans-serif" font-size="11" lengthAdjust="spacingAndGlyphs" textLength="119" x="4243" y="237.8741">-String descDetalhada</text>
        <!--class CompetenciaTecnica-->
        <rect fill="#FEFECE" filter="url(#f1gvsvjdpxkhpl)" height="94.0645" style="stroke: #A80036; stroke-width: 1.5;" width="214" x="3769" y="301.13"/>
        <ellipse cx="3784" cy="318.7296" fill="#ADD1B2" rx="11" ry="11" style="stroke: #A80036; stroke-width: 1.0;"/>
        <path d="M3786.4731,324.8727 Q3785.8921,325.1715 3785.2529,325.3209 Q3784.6138,325.4703 3783.9082,325.4703 Q3781.4014,325.4703 3780.0815,323.8185 Q3778.7617,322.1666 3778.7617,319.0455 Q3778.7617,315.9161 3780.0815,314.2643 Q3781.4014,312.6124 3783.9082,312.6124 Q3784.6138,312.6124 3785.2612,312.7618 Q3785.9087,312.9113 3786.4731,313.2101 L3786.4731,315.9327 Q3785.8423,315.3517 3785.2488,315.0819 Q3784.6553,314.8121 3784.0244,314.8121 Q3782.6797,314.8121 3781.9949,315.8788 Q3781.3101,316.9454 3781.3101,319.0455 Q3781.3101,321.1373 3781.9949,322.204 Q3782.6797,323.2706 3784.0244,323.2706 Q3784.6553,323.2706 3785.2488,323.0008 Q3785.8423,322.7311 3786.4731,322.15 Z "/>
        <text fill="#000000" font-family="sans-serif" font-size="18" lengthAdjust="spacingAndGlyphs" textLength="178" x="3800" y="325.5323">CompetenciaTecnica</text>
        <line style="stroke: #A80036; stroke-width: 1.5;" x1="3770" x2="3982" y1="336.3292" y2="336.3292"/>
        <text fill="#000000" font-family="sans-serif" font-size="11" lengthAdjust="spacingAndGlyphs" textLength="78" x="3777" y="352.964">-String codigo</text>
        <text fill="#000000" font-family="sans-serif" font-size="11" lengthAdjust="spacingAndGlyphs" textLength="95" x="3777" y="369.9191">-String descBreve</text>
        <text fill="#000000" font-family="sans-serif" font-size="11" lengthAdjust="spacingAndGlyphs" textLength="119" x="3777" y="386.8741">-String descDetalhada</text>
        <!--class GrauProficiencia-->
        <rect fill="#FEFECE" filter="url(#f1gvsvjdpxkhpl)" height="77.1094" style="stroke: #A80036; stroke-width: 1.5;" width="176" x="4491" y="602.63"/>
        <ellipse cx="4506" cy="620.2296" fill="#ADD1B2" rx="11" ry="11" style="stroke: #A80036; stroke-width: 1.0;"/>
        <path d="M4508.4731,626.3727 Q4507.8921,626.6715 4507.2529,626.8209 Q4506.6138,626.9703 4505.9082,626.9703 Q4503.4014,626.9703 4502.0815,625.3185 Q4500.7617,623.6666 4500.7617,620.5455 Q4500.7617,617.4161 4502.0815,615.7643 Q4503.4014,614.1124 4505.9082,614.1124 Q4506.6138,614.1124 4507.2612,614.2618 Q4507.9087,614.4113 4508.4731,614.7101 L4508.4731,617.4327 Q4507.8423,616.8517 4507.2488,616.5819 Q4506.6553,616.3121 4506.0244,616.3121 Q4504.6797,616.3121 4503.9949,617.3788 Q4503.3101,618.4454 4503.3101,620.5455 Q4503.3101,622.6373 4503.9949,623.704 Q4504.6797,624.7706 4506.0244,624.7706 Q4506.6553,624.7706 4507.2488,624.5008 Q4507.8423,624.2311 4508.4731,623.65 Z "/>
        <text fill="#000000" font-family="sans-serif" font-size="18" lengthAdjust="spacingAndGlyphs" textLength="140" x="4522" y="627.0323">GrauProficiencia</text>
        <line style="stroke: #A80036; stroke-width: 1.5;" x1="4492" x2="4666" y1="637.8292" y2="637.8292"/>
        <text fill="#000000" font-family="sans-serif" font-size="11" lengthAdjust="spacingAndGlyphs" textLength="74" x="4499" y="654.464">-Integer valor</text>
        <text fill="#000000" font-family="sans-serif" font-size="11" lengthAdjust="spacingAndGlyphs" textLength="102" x="4499" y="671.4191">-String designacao</text>
        <!--class Categoria-->
        <rect fill="#FEFECE" filter="url(#f1gvsvjdpxkhpl)" height="77.1094" style="stroke: #A80036; stroke-width: 1.5;" width="119" x="2943" y="170.63"/>
        <ellipse cx="2958" cy="188.2296" fill="#ADD1B2" rx="11" ry="11" style="stroke: #A80036; stroke-width: 1.0;"/>
        <path d="M2960.4731,194.3727 Q2959.8921,194.6715 2959.2529,194.8209 Q2958.6138,194.9703 2957.9082,194.9703 Q2955.4014,194.9703 2954.0815,193.3185 Q2952.7617,191.6666 2952.7617,188.5455 Q2952.7617,185.4161 2954.0815,183.7643 Q2955.4014,182.1124 2957.9082,182.1124 Q2958.6138,182.1124 2959.2612,182.2618 Q2959.9087,182.4113 2960.4731,182.7101 L2960.4731,185.4327 Q2959.8423,184.8517 2959.2488,184.5819 Q2958.6553,184.3121 2958.0244,184.3121 Q2956.6797,184.3121 2955.9949,185.3788 Q2955.3101,186.4454 2955.3101,188.5455 Q2955.3101,190.6373 2955.9949,191.704 Q2956.6797,192.7706 2958.0244,192.7706 Q2958.6553,192.7706 2959.2488,192.5008 Q2959.8423,192.2311 2960.4731,191.65 Z "/>
        <text fill="#000000" font-family="sans-serif" font-size="18" lengthAdjust="spacingAndGlyphs" textLength="83" x="2974" y="195.0323">Categoria</text>
        <line style="stroke: #A80036; stroke-width: 1.5;" x1="2944" x2="3061" y1="205.8292" y2="205.8292"/>
        <text fill="#000000" font-family="sans-serif" font-size="11" lengthAdjust="spacingAndGlyphs" textLength="51" x="2951" y="222.464">-String id</text>
        <text fill="#000000" font-family="sans-serif" font-size="11" lengthAdjust="spacingAndGlyphs" textLength="93" x="2951" y="239.4191">-String descricao</text>
        <!--class CaraterCT-->
        <rect fill="#FEFECE" filter="url(#f1gvsvjdpxkhpl)" height="60.1543" style="stroke: #A80036; stroke-width: 1.5;" width="127" x="3382.5" y="706.13"/>
        <ellipse cx="3399.75" cy="723.7296" fill="#ADD1B2" rx="11" ry="11" style="stroke: #A80036; stroke-width: 1.0;"/>
        <path d="M3402.2231,729.8727 Q3401.6421,730.1715 3401.0029,730.3209 Q3400.3638,730.4703 3399.6582,730.4703 Q3397.1514,730.4703 3395.8315,728.8185 Q3394.5117,727.1666 3394.5117,724.0455 Q3394.5117,720.9161 3395.8315,719.2643 Q3397.1514,717.6124 3399.6582,717.6124 Q3400.3638,717.6124 3401.0112,717.7618 Q3401.6587,717.9113 3402.2231,718.2101 L3402.2231,720.9327 Q3401.5923,720.3517 3400.9988,720.0819 Q3400.4053,719.8121 3399.7744,719.8121 Q3398.4297,719.8121 3397.7449,720.8788 Q3397.0601,721.9454 3397.0601,724.0455 Q3397.0601,726.1373 3397.7449,727.204 Q3398.4297,728.2706 3399.7744,728.2706 Q3400.4053,728.2706 3400.9988,728.0008 Q3401.5923,727.7311 3402.2231,727.15 Z "/>
        <text fill="#000000" font-family="sans-serif" font-size="18" lengthAdjust="spacingAndGlyphs" textLength="86" x="3416.25" y="730.5323">CaraterCT</text>
        <line style="stroke: #A80036; stroke-width: 1.5;" x1="3383.5" x2="3508.5" y1="741.3292" y2="741.3292"/>
        <text fill="#000000" font-family="sans-serif" font-size="11" lengthAdjust="spacingAndGlyphs" textLength="111" x="3390.5" y="757.964">-Boolean obrigatoria</text>
        <!--class Organizacao-->
        <rect fill="#FEFECE" filter="url(#f1gvsvjdpxkhpl)" height="127.9746" style="stroke: #A80036; stroke-width: 1.5;" width="144" x="2049" y="529.13"/>
        <ellipse cx="2064" cy="546.7296" fill="#ADD1B2" rx="11" ry="11" style="stroke: #A80036; stroke-width: 1.0;"/>
        <path d="M2066.4731,552.8727 Q2065.8921,553.1715 2065.2529,553.3209 Q2064.6138,553.4703 2063.9082,553.4703 Q2061.4014,553.4703 2060.0815,551.8185 Q2058.7617,550.1666 2058.7617,547.0455 Q2058.7617,543.9161 2060.0815,542.2643 Q2061.4014,540.6124 2063.9082,540.6124 Q2064.6138,540.6124 2065.2612,540.7618 Q2065.9087,540.9113 2066.4731,541.2101 L2066.4731,543.9327 Q2065.8423,543.3517 2065.2488,543.0819 Q2064.6553,542.8121 2064.0244,542.8121 Q2062.6797,542.8121 2061.9949,543.8788 Q2061.3101,544.9454 2061.3101,547.0455 Q2061.3101,549.1373 2061.9949,550.204 Q2062.6797,551.2706 2064.0244,551.2706 Q2064.6553,551.2706 2065.2488,551.0008 Q2065.8423,550.7311 2066.4731,550.15 Z "/>
        <text fill="#000000" font-family="sans-serif" font-size="18" lengthAdjust="spacingAndGlyphs" textLength="108" x="2080" y="553.5323">Organizacao</text>
        <line style="stroke: #A80036; stroke-width: 1.5;" x1="2050" x2="2192" y1="564.3292" y2="564.3292"/>
        <text fill="#000000" font-family="sans-serif" font-size="11" lengthAdjust="spacingAndGlyphs" textLength="71" x="2057" y="580.964">-String nome</text>
        <text fill="#000000" font-family="sans-serif" font-size="11" lengthAdjust="spacingAndGlyphs" textLength="58" x="2057" y="597.9191">-String NIF</text>
        <text fill="#000000" font-family="sans-serif" font-size="11" lengthAdjust="spacingAndGlyphs" textLength="81" x="2057" y="614.8741">-String website</text>
        <text fill="#000000" font-family="sans-serif" font-size="11" lengthAdjust="spacingAndGlyphs" textLength="84" x="2057" y="631.8292">-String telefone</text>
        <text fill="#000000" font-family="sans-serif" font-size="11" lengthAdjust="spacingAndGlyphs" textLength="69" x="2057" y="648.7843">-String email</text>
        <!--class Colaborador-->
        <rect fill="#FEFECE" filter="url(#f1gvsvjdpxkhpl)" height="111.0195" style="stroke: #A80036; stroke-width: 1.5;" width="142" x="2931.5" y="522.63"/>
        <ellipse cx="2946.5" cy="540.2296" fill="#ADD1B2" rx="11" ry="11" style="stroke: #A80036; stroke-width: 1.0;"/>
        <path d="M2948.9731,546.3727 Q2948.3921,546.6715 2947.7529,546.8209 Q2947.1138,546.9703 2946.4082,546.9703 Q2943.9014,546.9703 2942.5815,545.3185 Q2941.2617,543.6666 2941.2617,540.5455 Q2941.2617,537.4161 2942.5815,535.7643 Q2943.9014,534.1124 2946.4082,534.1124 Q2947.1138,534.1124 2947.7612,534.2618 Q2948.4087,534.4113 2948.9731,534.7101 L2948.9731,537.4327 Q2948.3423,536.8517 2947.7488,536.5819 Q2947.1553,536.3121 2946.5244,536.3121 Q2945.1797,536.3121 2944.4949,537.3788 Q2943.8101,538.4454 2943.8101,540.5455 Q2943.8101,542.6373 2944.4949,543.704 Q2945.1797,544.7706 2946.5244,544.7706 Q2947.1553,544.7706 2947.7488,544.5008 Q2948.3423,544.2311 2948.9731,543.65 Z "/>
        <text fill="#000000" font-family="sans-serif" font-size="18" lengthAdjust="spacingAndGlyphs" textLength="106" x="2962.5" y="547.0323">Colaborador</text>
        <line style="stroke: #A80036; stroke-width: 1.5;" x1="2932.5" x2="3072.5" y1="557.8292" y2="557.8292"/>
        <text fill="#000000" font-family="sans-serif" font-size="11" lengthAdjust="spacingAndGlyphs" textLength="71" x="2939.5" y="574.464">-String nome</text>
        <text fill="#000000" font-family="sans-serif" font-size="11" lengthAdjust="spacingAndGlyphs" textLength="78" x="2939.5" y="591.4191">-String funcao</text>
        <text fill="#000000" font-family="sans-serif" font-size="11" lengthAdjust="spacingAndGlyphs" textLength="84" x="2939.5" y="608.3741">-String telefone</text>
        <text fill="#000000" font-family="sans-serif" font-size="11" lengthAdjust="spacingAndGlyphs" textLength="69" x="2939.5" y="625.3292">-String email</text>
        <!--class EnderecoPostal-->
        <rect fill="#FEFECE" filter="url(#f1gvsvjdpxkhpl)" height="94.0645" style="stroke: #A80036; stroke-width: 1.5;" width="167" x="2427" y="845.13"/>
        <ellipse cx="2442" cy="862.7296" fill="#ADD1B2" rx="11" ry="11" style="stroke: #A80036; stroke-width: 1.0;"/>
        <path d="M2444.4731,868.8727 Q2443.8921,869.1715 2443.2529,869.3209 Q2442.6138,869.4703 2441.9082,869.4703 Q2439.4014,869.4703 2438.0815,867.8185 Q2436.7617,866.1666 2436.7617,863.0455 Q2436.7617,859.9161 2438.0815,858.2643 Q2439.4014,856.6124 2441.9082,856.6124 Q2442.6138,856.6124 2443.2612,856.7618 Q2443.9087,856.9113 2444.4731,857.2101 L2444.4731,859.9327 Q2443.8423,859.3517 2443.2488,859.0819 Q2442.6553,858.8121 2442.0244,858.8121 Q2440.6797,858.8121 2439.9949,859.8788 Q2439.3101,860.9454 2439.3101,863.0455 Q2439.3101,865.1373 2439.9949,866.204 Q2440.6797,867.2706 2442.0244,867.2706 Q2442.6553,867.2706 2443.2488,867.0008 Q2443.8423,866.7311 2444.4731,866.15 Z "/>
        <text fill="#000000" font-family="sans-serif" font-size="18" lengthAdjust="spacingAndGlyphs" textLength="131" x="2458" y="869.5323">EnderecoPostal</text>
        <line style="stroke: #A80036; stroke-width: 1.5;" x1="2428" x2="2593" y1="880.3292" y2="880.3292"/>
        <text fill="#000000" font-family="sans-serif" font-size="11" lengthAdjust="spacingAndGlyphs" textLength="66" x="2435" y="896.964">-String local</text>
        <text fill="#000000" font-family="sans-serif" font-size="11" lengthAdjust="spacingAndGlyphs" textLength="93" x="2435" y="913.9191">-String codPostal</text>
        <text fill="#000000" font-family="sans-serif" font-size="11" lengthAdjust="spacingAndGlyphs" textLength="95" x="2435" y="930.8741">-String localidade</text>
        <!--class Tarefa-->
        <rect fill="#FEFECE" filter="url(#f1gvsvjdpxkhpl)" height="144.9297" style="stroke: #A80036; stroke-width: 1.5;" width="127" x="2447" y="331.63"/>
        <ellipse cx="2478.2" cy="349.2296" fill="#ADD1B2" rx="11" ry="11" style="stroke: #A80036; stroke-width: 1.0;"/>
        <path d="M2480.6731,355.3727 Q2480.0921,355.6715 2479.4529,355.8209 Q2478.8138,355.9703 2478.1082,355.9703 Q2475.6014,355.9703 2474.2815,354.3185 Q2472.9617,352.6666 2472.9617,349.5455 Q2472.9617,346.4161 2474.2815,344.7643 Q2475.6014,343.1124 2478.1082,343.1124 Q2478.8138,343.1124 2479.4612,343.2618 Q2480.1087,343.4113 2480.6731,343.7101 L2480.6731,346.4327 Q2480.0423,345.8517 2479.4488,345.5819 Q2478.8553,345.3121 2478.2244,345.3121 Q2476.8797,345.3121 2476.1949,346.3788 Q2475.5101,347.4454 2475.5101,349.5455 Q2475.5101,351.6373 2476.1949,352.704 Q2476.8797,353.7706 2478.2244,353.7706 Q2478.8553,353.7706 2479.4488,353.5008 Q2480.0423,353.2311 2480.6731,352.65 Z "/>
        <text fill="#000000" font-family="sans-serif" font-size="18" lengthAdjust="spacingAndGlyphs" textLength="55" x="2497.8" y="356.0323">Tarefa</text>
        <line style="stroke: #A80036; stroke-width: 1.5;" x1="2448" x2="2573" y1="366.8292" y2="366.8292"/>
        <text fill="#000000" font-family="sans-serif" font-size="11" lengthAdjust="spacingAndGlyphs" textLength="95" x="2455" y="383.464">-String referencia</text>
        <text fill="#000000" font-family="sans-serif" font-size="11" lengthAdjust="spacingAndGlyphs" textLength="102" x="2455" y="400.4191">-String designacao</text>
        <text fill="#000000" font-family="sans-serif" font-size="11" lengthAdjust="spacingAndGlyphs" textLength="111" x="2455" y="417.3741">-String descInformal</text>
        <text fill="#000000" font-family="sans-serif" font-size="11" lengthAdjust="spacingAndGlyphs" textLength="107" x="2455" y="434.3292">-String descTecnica</text>
        <text fill="#000000" font-family="sans-serif" font-size="11" lengthAdjust="spacingAndGlyphs" textLength="107" x="2455" y="451.2843">-Integer duracaoEst</text>
        <text fill="#000000" font-family="sans-serif" font-size="11" lengthAdjust="spacingAndGlyphs" textLength="93" x="2455" y="468.2394">-Double custoEst</text>
        <!--class TipoRegimento-->
        <rect fill="#FEFECE" filter="url(#f1gvsvjdpxkhpl)" height="77.1094" style="stroke: #A80036; stroke-width: 1.5;" width="167" x="1338" y="1018.63"/>
        <ellipse cx="1353" cy="1036.2296" fill="#ADD1B2" rx="11" ry="11" style="stroke: #A80036; stroke-width: 1.0;"/>
        <path d="M1355.4731,1042.3727 Q1354.8921,1042.6715 1354.2529,1042.8209 Q1353.6138,1042.9703 1352.9082,1042.9703 Q1350.4014,1042.9703 1349.0815,1041.3185 Q1347.7617,1039.6666 1347.7617,1036.5455 Q1347.7617,1033.4161 1349.0815,1031.7643 Q1350.4014,1030.1124 1352.9082,1030.1124 Q1353.6138,1030.1124 1354.2612,1030.2618 Q1354.9087,1030.4113 1355.4731,1030.7101 L1355.4731,1033.4327 Q1354.8423,1032.8517 1354.2488,1032.5819 Q1353.6553,1032.3121 1353.0244,1032.3121 Q1351.6797,1032.3121 1350.9949,1033.3788 Q1350.3101,1034.4454 1350.3101,1036.5455 Q1350.3101,1038.6373 1350.9949,1039.704 Q1351.6797,1040.7706 1353.0244,1040.7706 Q1353.6553,1040.7706 1354.2488,1040.5008 Q1354.8423,1040.2311 1355.4731,1039.65 Z "/>
        <text fill="#000000" font-family="sans-serif" font-size="18" lengthAdjust="spacingAndGlyphs" textLength="131" x="1369" y="1043.0323">TipoRegimento</text>
        <line style="stroke: #A80036; stroke-width: 1.5;" x1="1339" x2="1504" y1="1053.8292" y2="1053.8292"/>
        <text fill="#000000" font-family="sans-serif" font-size="11" lengthAdjust="spacingAndGlyphs" textLength="102" x="1346" y="1070.464">-String designacao</text>
        <text fill="#000000" font-family="sans-serif" font-size="11" lengthAdjust="spacingAndGlyphs" textLength="130" x="1346" y="1087.4191">-String descricaoRegras</text>
        <!--class Administrativo-->
        <rect fill="#FEFECE" filter="url(#f1gvsvjdpxkhpl)" height="43.1992" style="stroke: #A80036; stroke-width: 1.5;" width="162" x="1103" y="240.63"/>
        <ellipse cx="1118" cy="258.2296" fill="#ADD1B2" rx="11" ry="11" style="stroke: #A80036; stroke-width: 1.0;"/>
        <path d="M1120.4731,264.3727 Q1119.8921,264.6715 1119.2529,264.8209 Q1118.6138,264.9703 1117.9082,264.9703 Q1115.4014,264.9703 1114.0815,263.3185 Q1112.7617,261.6666 1112.7617,258.5455 Q1112.7617,255.4161 1114.0815,253.7643 Q1115.4014,252.1124 1117.9082,252.1124 Q1118.6138,252.1124 1119.2612,252.2618 Q1119.9087,252.4113 1120.4731,252.7101 L1120.4731,255.4327 Q1119.8423,254.8517 1119.2488,254.5819 Q1118.6553,254.3121 1118.0244,254.3121 Q1116.6797,254.3121 1115.9949,255.3788 Q1115.3101,256.4454 1115.3101,258.5455 Q1115.3101,260.6373 1115.9949,261.704 Q1116.6797,262.7706 1118.0244,262.7706 Q1118.6553,262.7706 1119.2488,262.5008 Q1119.8423,262.2311 1120.4731,261.65 Z "/>
        <text fill="#000000" font-family="sans-serif" font-size="18" lengthAdjust="spacingAndGlyphs" textLength="126" x="1134" y="265.0323">Administrativo</text>
        <line style="stroke: #A80036; stroke-width: 1.5;" x1="1104" x2="1264" y1="275.8292" y2="275.8292"/>
        <!--class Freelancer-->
        <rect fill="#FEFECE" filter="url(#f1gvsvjdpxkhpl)" height="111.0195" style="stroke: #A80036; stroke-width: 1.5;" width="125" x="2058.5" y="1028.63"/>
        <ellipse cx="2073.5" cy="1046.2296" fill="#ADD1B2" rx="11" ry="11" style="stroke: #A80036; stroke-width: 1.0;"/>
        <path d="M2075.9731,1052.3727 Q2075.3921,1052.6715 2074.7529,1052.8209 Q2074.1138,1052.9703 2073.4082,1052.9703 Q2070.9014,1052.9703 2069.5815,1051.3185 Q2068.2617,1049.6666 2068.2617,1046.5455 Q2068.2617,1043.4161 2069.5815,1041.7643 Q2070.9014,1040.1124 2073.4082,1040.1124 Q2074.1138,1040.1124 2074.7612,1040.2618 Q2075.4087,1040.4113 2075.9731,1040.7101 L2075.9731,1043.4327 Q2075.3423,1042.8517 2074.7488,1042.5819 Q2074.1553,1042.3121 2073.5244,1042.3121 Q2072.1797,1042.3121 2071.4949,1043.3788 Q2070.8101,1044.4454 2070.8101,1046.5455 Q2070.8101,1048.6373 2071.4949,1049.704 Q2072.1797,1050.7706 2073.5244,1050.7706 Q2074.1553,1050.7706 2074.7488,1050.5008 Q2075.3423,1050.2311 2075.9731,1049.65 Z "/>
        <text fill="#000000" font-family="sans-serif" font-size="18" lengthAdjust="spacingAndGlyphs" textLength="89" x="2089.5" y="1053.0323">Freelancer</text>
        <line style="stroke: #A80036; stroke-width: 1.5;" x1="2059.5" x2="2182.5" y1="1063.8292" y2="1063.8292"/>
        <text fill="#000000" font-family="sans-serif" font-size="11" lengthAdjust="spacingAndGlyphs" textLength="71" x="2066.5" y="1080.464">-String nome</text>
        <text fill="#000000" font-family="sans-serif" font-size="11" lengthAdjust="spacingAndGlyphs" textLength="58" x="2066.5" y="1097.4191">-String NIF</text>
        <text fill="#000000" font-family="sans-serif" font-size="11" lengthAdjust="spacingAndGlyphs" textLength="84" x="2066.5" y="1114.3741">-String telefone</text>
        <text fill="#000000" font-family="sans-serif" font-size="11" lengthAdjust="spacingAndGlyphs" textLength="69" x="2066.5" y="1131.3292">-String email</text>
        <!--class ReconhecimentoCT-->
        <rect fill="#FEFECE" filter="url(#f1gvsvjdpxkhpl)" height="60.1543" style="stroke: #A80036; stroke-width: 1.5;" width="202" x="3345" y="611.13"/>
        <ellipse cx="3360" cy="628.7296" fill="#ADD1B2" rx="11" ry="11" style="stroke: #A80036; stroke-width: 1.0;"/>
        <path d="M3362.4731,634.8727 Q3361.8921,635.1715 3361.2529,635.3209 Q3360.6138,635.4703 3359.9082,635.4703 Q3357.4014,635.4703 3356.0815,633.8185 Q3354.7617,632.1666 3354.7617,629.0455 Q3354.7617,625.9161 3356.0815,624.2643 Q3357.4014,622.6124 3359.9082,622.6124 Q3360.6138,622.6124 3361.2612,622.7618 Q3361.9087,622.9113 3362.4731,623.2101 L3362.4731,625.9327 Q3361.8423,625.3517 3361.2488,625.0819 Q3360.6553,624.8121 3360.0244,624.8121 Q3358.6797,624.8121 3357.9949,625.8788 Q3357.3101,626.9454 3357.3101,629.0455 Q3357.3101,631.1373 3357.9949,632.204 Q3358.6797,633.2706 3360.0244,633.2706 Q3360.6553,633.2706 3361.2488,633.0008 Q3361.8423,632.7311 3362.4731,632.15 Z "/>
        <text fill="#000000" font-family="sans-serif" font-size="18" lengthAdjust="spacingAndGlyphs" textLength="166" x="3376" y="635.5323">ReconhecimentoCT</text>
        <line style="stroke: #A80036; stroke-width: 1.5;" x1="3346" x2="3546" y1="646.3292" y2="646.3292"/>
        <text fill="#000000" font-family="sans-serif" font-size="11" lengthAdjust="spacingAndGlyphs" textLength="145" x="3353" y="662.964">-Date dataReconhecimento</text>
        <!--class HabilitacaoAcademica-->
        <rect fill="#FEFECE" filter="url(#f1gvsvjdpxkhpl)" height="111.0195" style="stroke: #A80036; stroke-width: 1.5;" width="225" x="2398" y="974.63"/>
        <ellipse cx="2413" cy="992.2296" fill="#ADD1B2" rx="11" ry="11" style="stroke: #A80036; stroke-width: 1.0;"/>
        <path d="M2415.4731,998.3727 Q2414.8921,998.6715 2414.2529,998.8209 Q2413.6138,998.9703 2412.9082,998.9703 Q2410.4014,998.9703 2409.0815,997.3185 Q2407.7617,995.6666 2407.7617,992.5455 Q2407.7617,989.4161 2409.0815,987.7643 Q2410.4014,986.1124 2412.9082,986.1124 Q2413.6138,986.1124 2414.2612,986.2618 Q2414.9087,986.4113 2415.4731,986.7101 L2415.4731,989.4327 Q2414.8423,988.8517 2414.2488,988.5819 Q2413.6553,988.3121 2413.0244,988.3121 Q2411.6797,988.3121 2410.9949,989.3788 Q2410.3101,990.4454 2410.3101,992.5455 Q2410.3101,994.6373 2410.9949,995.704 Q2411.6797,996.7706 2413.0244,996.7706 Q2413.6553,996.7706 2414.2488,996.5008 Q2414.8423,996.2311 2415.4731,995.65 Z "/>
        <text fill="#000000" font-family="sans-serif" font-size="18" lengthAdjust="spacingAndGlyphs" textLength="189" x="2429" y="999.0323">HabilitacaoAcademica</text>
        <line style="stroke: #A80036; stroke-width: 1.5;" x1="2399" x2="2622" y1="1009.8292" y2="1009.8292"/>
        <text fill="#000000" font-family="sans-serif" font-size="11" lengthAdjust="spacingAndGlyphs" textLength="66" x="2406" y="1026.464">-String grau</text>
        <text fill="#000000" font-family="sans-serif" font-size="11" lengthAdjust="spacingAndGlyphs" textLength="135" x="2406" y="1043.4191">-String designacaoCurso</text>
        <text fill="#000000" font-family="sans-serif" font-size="11" lengthAdjust="spacingAndGlyphs" textLength="127" x="2406" y="1060.3741">-String nomeInstituicao</text>
        <text fill="#000000" font-family="sans-serif" font-size="11" lengthAdjust="spacingAndGlyphs" textLength="112" x="2406" y="1077.3292">-Double mediaCurso</text>
        <polygon fill="#FBFB77" filter="url(#f1gvsvjdpxkhpl)" points="2845,992.63,2845,1067.8722,3160,1067.8722,3160,1002.63,3150,992.63,2845,992.63" style="stroke: #A80036; stroke-width: 1.0;"/>
        <polygon fill="#FBFB77" points="2845,992.63,2845,1026.13,2623.3,1030.13,2845,1034.13,2845,1067.8722,3160,1067.8722,3160,1002.63,3150,992.63,2845,992.63" style="stroke: #A80036; stroke-width: 1.0;"/>
        <line style="stroke: #A80036; stroke-width: 1.0;" x1="3150" x2="3150" y1="992.63" y2="1002.63"/>
        <line style="stroke: #A80036; stroke-width: 1.0;" x1="3160" x2="3150" y1="1002.63" y2="1002.63"/>
        <text fill="#000000" font-family="sans-serif" font-size="13" lengthAdjust="spacingAndGlyphs" textLength="231" x="2853" y="1012.1984">Por simplificação, não se considerou</text>
        <text fill="#000000" font-family="sans-serif" font-size="13" lengthAdjust="spacingAndGlyphs" textLength="264" x="2853" y="1027.5089">Instituição, Curso e Grau como conceitos.</text>
        <text fill="#000000" font-family="sans-serif" font-size="13" lengthAdjust="spacingAndGlyphs" textLength="251" x="2853" y="1042.8195">Contudo, tal poderá ser feito mais tarde</text>
        <text fill="#000000" font-family="sans-serif" font-size="13" lengthAdjust="spacingAndGlyphs" textLength="290" x="2853" y="1058.13">se se vier a revelar importante para o negócio.</text>
        <!--class Anuncio-->
        <rect fill="#FEFECE" filter="url(#f1gvsvjdpxkhpl)" height="178.8398" style="stroke: #A80036; stroke-width: 1.5;" width="155" x="310" y="618.63"/>
        <ellipse cx="347.05" cy="636.2296" fill="#ADD1B2" rx="11" ry="11" style="stroke: #A80036; stroke-width: 1.0;"/>
        <path d="M349.5231,642.3727 Q348.9421,642.6715 348.3029,642.8209 Q347.6638,642.9703 346.9582,642.9703 Q344.4514,642.9703 343.1315,641.3185 Q341.8117,639.6666 341.8117,636.5455 Q341.8117,633.4161 343.1315,631.7643 Q344.4514,630.1124 346.9582,630.1124 Q347.6638,630.1124 348.3112,630.2618 Q348.9587,630.4113 349.5231,630.7101 L349.5231,633.4327 Q348.8923,632.8517 348.2988,632.5819 Q347.7053,632.3121 347.0744,632.3121 Q345.7297,632.3121 345.0449,633.3788 Q344.3601,634.4454 344.3601,636.5455 Q344.3601,638.6373 345.0449,639.704 Q345.7297,640.7706 347.0744,640.7706 Q347.7053,640.7706 348.2988,640.5008 Q348.8923,640.2311 349.5231,639.65 Z "/>
        <text fill="#000000" font-family="sans-serif" font-size="18" lengthAdjust="spacingAndGlyphs" textLength="70" x="367.95" y="643.0323">Anuncio</text>
        <line style="stroke: #A80036; stroke-width: 1.5;" x1="311" x2="464" y1="653.8292" y2="653.8292"/>
        <text fill="#000000" font-family="sans-serif" font-size="11" lengthAdjust="spacingAndGlyphs" textLength="94" x="318" y="670.464">-String anuncioId</text>
        <text fill="#000000" font-family="sans-serif" font-size="11" lengthAdjust="spacingAndGlyphs" textLength="137" x="318" y="687.4191">-Date dtInicioPublicitacao</text>
        <text fill="#000000" font-family="sans-serif" font-size="11" lengthAdjust="spacingAndGlyphs" textLength="127" x="318" y="704.3741">-Date dtFimPublicitacao</text>
        <text fill="#000000" font-family="sans-serif" font-size="11" lengthAdjust="spacingAndGlyphs" textLength="139" x="318" y="721.3292">-Date dtInicioCandidatura</text>
        <text fill="#000000" font-family="sans-serif" font-size="11" lengthAdjust="spacingAndGlyphs" textLength="129" x="318" y="738.2843">-Date dtFimCandidatura</text>
        <text fill="#000000" font-family="sans-serif" font-size="11" lengthAdjust="spacingAndGlyphs" textLength="118" x="318" y="755.2394">-Date dtInicioSeriacao</text>
        <text fill="#000000" font-family="sans-serif" font-size="11" lengthAdjust="spacingAndGlyphs" textLength="108" x="318" y="772.1945">-Date dtFimSeriacao</text>
        <text fill="#000000" font-family="sans-serif" font-size="11" lengthAdjust="spacingAndGlyphs" textLength="75" x="318" y="789.1495">-long periodo</text>
        <!--class Candidatura-->
        <rect fill="#FEFECE" filter="url(#f1gvsvjdpxkhpl)" height="127.9746" style="stroke: #A80036; stroke-width: 1.5;" width="148" x="1691" y="1020.13"/>
        <ellipse cx="1709.15" cy="1037.7296" fill="#ADD1B2" rx="11" ry="11" style="stroke: #A80036; stroke-width: 1.0;"/>
        <path d="M1711.6231,1043.8727 Q1711.0421,1044.1715 1710.4029,1044.3209 Q1709.7638,1044.4703 1709.0582,1044.4703 Q1706.5514,1044.4703 1705.2315,1042.8185 Q1703.9117,1041.1666 1703.9117,1038.0455 Q1703.9117,1034.9161 1705.2315,1033.2643 Q1706.5514,1031.6124 1709.0582,1031.6124 Q1709.7638,1031.6124 1710.4112,1031.7618 Q1711.0587,1031.9113 1711.6231,1032.2101 L1711.6231,1034.9327 Q1710.9923,1034.3517 1710.3988,1034.0819 Q1709.8053,1033.8121 1709.1744,1033.8121 Q1707.8297,1033.8121 1707.1449,1034.8788 Q1706.4601,1035.9454 1706.4601,1038.0455 Q1706.4601,1040.1373 1707.1449,1041.204 Q1707.8297,1042.2706 1709.1744,1042.2706 Q1709.8053,1042.2706 1710.3988,1042.0008 Q1710.9923,1041.7311 1711.6231,1041.15 Z "/>
        <text fill="#000000" font-family="sans-serif" font-size="18" lengthAdjust="spacingAndGlyphs" textLength="105" x="1725.85" y="1044.5323">Candidatura</text>
        <line style="stroke: #A80036; stroke-width: 1.5;" x1="1692" x2="1838" y1="1055.3292" y2="1055.3292"/>
        <text fill="#000000" font-family="sans-serif" font-size="11" lengthAdjust="spacingAndGlyphs" textLength="122" x="1699" y="1071.964">-Date dataCandidatura</text>
        <text fill="#000000" font-family="sans-serif" font-size="11" lengthAdjust="spacingAndGlyphs" textLength="132" x="1699" y="1088.9191">-Double valorPretendido</text>
        <text fill="#000000" font-family="sans-serif" font-size="11" lengthAdjust="spacingAndGlyphs" textLength="82" x="1699" y="1105.8741">-Integer nrDias</text>
        <text fill="#000000" font-family="sans-serif" font-size="11" lengthAdjust="spacingAndGlyphs" textLength="130" x="1699" y="1122.8292">-String txtApresentacao</text>
        <text fill="#000000" font-family="sans-serif" font-size="11" lengthAdjust="spacingAndGlyphs" textLength="110" x="1699" y="1139.7843">-String txtMotivacao</text>
        <!--class Classificacao-->
        <rect fill="#FEFECE" filter="url(#f1gvsvjdpxkhpl)" height="77.1094" style="stroke: #A80036; stroke-width: 1.5;" width="147" x="1348" y="906.63"/>
        <ellipse cx="1363" cy="924.2296" fill="#ADD1B2" rx="11" ry="11" style="stroke: #A80036; stroke-width: 1.0;"/>
        <path d="M1365.4731,930.3727 Q1364.8921,930.6715 1364.2529,930.8209 Q1363.6138,930.9703 1362.9082,930.9703 Q1360.4014,930.9703 1359.0815,929.3185 Q1357.7617,927.6666 1357.7617,924.5455 Q1357.7617,921.4161 1359.0815,919.7643 Q1360.4014,918.1124 1362.9082,918.1124 Q1363.6138,918.1124 1364.2612,918.2618 Q1364.9087,918.4113 1365.4731,918.7101 L1365.4731,921.4327 Q1364.8423,920.8517 1364.2488,920.5819 Q1363.6553,920.3121 1363.0244,920.3121 Q1361.6797,920.3121 1360.9949,921.3788 Q1360.3101,922.4454 1360.3101,924.5455 Q1360.3101,926.6373 1360.9949,927.704 Q1361.6797,928.7706 1363.0244,928.7706 Q1363.6553,928.7706 1364.2488,928.5008 Q1364.8423,928.2311 1365.4731,927.65 Z "/>
        <text fill="#000000" font-family="sans-serif" font-size="18" lengthAdjust="spacingAndGlyphs" textLength="111" x="1379" y="931.0323">Classificacao</text>
        <line style="stroke: #A80036; stroke-width: 1.5;" x1="1349" x2="1494" y1="941.8292" y2="941.8292"/>
        <text fill="#000000" font-family="sans-serif" font-size="11" lengthAdjust="spacingAndGlyphs" textLength="75" x="1356" y="958.464">-Integer lugar</text>
        <text fill="#000000" font-family="sans-serif" font-size="11" lengthAdjust="spacingAndGlyphs" textLength="102" x="1356" y="975.4191">-String justificacao</text>
        <!--class ProcessoSeriacao-->
        <rect fill="#FEFECE" filter="url(#f1gvsvjdpxkhpl)" height="77.1094" style="stroke: #A80036; stroke-width: 1.5;" width="184" x="846" y="801.63"/>
        <ellipse cx="861" cy="819.2296" fill="#ADD1B2" rx="11" ry="11" style="stroke: #A80036; stroke-width: 1.0;"/>
        <path d="M863.4731,825.3727 Q862.8921,825.6715 862.2529,825.8209 Q861.6138,825.9703 860.9082,825.9703 Q858.4014,825.9703 857.0815,824.3185 Q855.7617,822.6666 855.7617,819.5455 Q855.7617,816.4161 857.0815,814.7643 Q858.4014,813.1124 860.9082,813.1124 Q861.6138,813.1124 862.2612,813.2618 Q862.9087,813.4113 863.4731,813.7101 L863.4731,816.4327 Q862.8423,815.8517 862.2488,815.5819 Q861.6553,815.3121 861.0244,815.3121 Q859.6797,815.3121 858.9949,816.3788 Q858.3101,817.4454 858.3101,819.5455 Q858.3101,821.6373 858.9949,822.704 Q859.6797,823.7706 861.0244,823.7706 Q861.6553,823.7706 862.2488,823.5008 Q862.8423,823.2311 863.4731,822.65 Z "/>
        <text fill="#000000" font-family="sans-serif" font-size="18" lengthAdjust="spacingAndGlyphs" textLength="148" x="877" y="826.0323">ProcessoSeriacao</text>
        <line style="stroke: #A80036; stroke-width: 1.5;" x1="847" x2="1029" y1="836.8292" y2="836.8292"/>
        <text fill="#000000" font-family="sans-serif" font-size="11" lengthAdjust="spacingAndGlyphs" textLength="112" x="854" y="853.464">-Date dataRealizacao</text>
        <text fill="#000000" font-family="sans-serif" font-size="11" lengthAdjust="spacingAndGlyphs" textLength="126" x="854" y="870.4191">-String textoConclusao</text>
        <!--class Utilizador-->
        <rect fill="#FEFECE" filter="url(#f1gvsvjdpxkhpl)" height="94.0645" style="stroke: #A80036; stroke-width: 1.5;" width="119" x="3386.5" y="482.13"/>
        <ellipse cx="3401.5" cy="499.7296" fill="#ADD1B2" rx="11" ry="11" style="stroke: #A80036; stroke-width: 1.0;"/>
        <path d="M3403.9731,505.8727 Q3403.3921,506.1715 3402.7529,506.3209 Q3402.1138,506.4703 3401.4082,506.4703 Q3398.9014,506.4703 3397.5815,504.8185 Q3396.2617,503.1666 3396.2617,500.0455 Q3396.2617,496.9161 3397.5815,495.2643 Q3398.9014,493.6124 3401.4082,493.6124 Q3402.1138,493.6124 3402.7612,493.7618 Q3403.4087,493.9113 3403.9731,494.2101 L3403.9731,496.9327 Q3403.3423,496.3517 3402.7488,496.0819 Q3402.1553,495.8121 3401.5244,495.8121 Q3400.1797,495.8121 3399.4949,496.8788 Q3398.8101,497.9454 3398.8101,500.0455 Q3398.8101,502.1373 3399.4949,503.204 Q3400.1797,504.2706 3401.5244,504.2706 Q3402.1553,504.2706 3402.7488,504.0008 Q3403.3423,503.7311 3403.9731,503.15 Z "/>
        <text fill="#000000" font-family="sans-serif" font-size="18" lengthAdjust="spacingAndGlyphs" textLength="83" x="3417.5" y="506.5323">Utilizador</text>
        <line style="stroke: #A80036; stroke-width: 1.5;" x1="3387.5" x2="3504.5" y1="517.3292" y2="517.3292"/>
        <text fill="#000000" font-family="sans-serif" font-size="11" lengthAdjust="spacingAndGlyphs" textLength="71" x="3394.5" y="533.964">-String nome</text>
        <text fill="#000000" font-family="sans-serif" font-size="11" lengthAdjust="spacingAndGlyphs" textLength="69" x="3394.5" y="550.9191">-String email</text>
        <text fill="#000000" font-family="sans-serif" font-size="11" lengthAdjust="spacingAndGlyphs" textLength="93" x="3394.5" y="567.8741">-String password</text>
        <!--class AlgoritmoGeradorPasswords-->
        <rect fill="#FEFECE" filter="url(#f1gvsvjdpxkhpl)" height="43.1992" style="stroke: #A80036; stroke-width: 1.5;" width="281" x="515" y="1282.63"/>
        <ellipse cx="530" cy="1300.2296" fill="#ADD1B2" rx="11" ry="11" style="stroke: #A80036; stroke-width: 1.0;"/>
        <path d="M532.4731,1306.3727 Q531.8921,1306.6715 531.2529,1306.8209 Q530.6138,1306.9703 529.9082,1306.9703 Q527.4014,1306.9703 526.0815,1305.3185 Q524.7617,1303.6666 524.7617,1300.5455 Q524.7617,1297.4161 526.0815,1295.7643 Q527.4014,1294.1124 529.9082,1294.1124 Q530.6138,1294.1124 531.2612,1294.2618 Q531.9087,1294.4113 532.4731,1294.7101 L532.4731,1297.4327 Q531.8423,1296.8517 531.2488,1296.5819 Q530.6553,1296.3121 530.0244,1296.3121 Q528.6797,1296.3121 527.9949,1297.3788 Q527.3101,1298.4454 527.3101,1300.5455 Q527.3101,1302.6373 527.9949,1303.704 Q528.6797,1304.7706 530.0244,1304.7706 Q530.6553,1304.7706 531.2488,1304.5008 Q531.8423,1304.2311 532.4731,1303.65 Z "/>
        <text fill="#000000" font-family="sans-serif" font-size="18" lengthAdjust="spacingAndGlyphs" textLength="245" x="546" y="1307.0323">AlgoritmoGeradorPasswords</text>
        <line style="stroke: #A80036; stroke-width: 1.5;" x1="516" x2="795" y1="1317.8292" y2="1317.8292"/>
        <!--class Adjudicacao-->
        <rect fill="#FEFECE" filter="url(#f1gvsvjdpxkhpl)" height="77.1094" style="stroke: #A80036; stroke-width: 1.5;" width="144" x="1693" y="696.63"/>
        <ellipse cx="1709.8" cy="714.2296" fill="#ADD1B2" rx="11" ry="11" style="stroke: #A80036; stroke-width: 1.0;"/>
        <path d="M1712.2731,720.3727 Q1711.6921,720.6715 1711.0529,720.8209 Q1710.4138,720.9703 1709.7082,720.9703 Q1707.2014,720.9703 1705.8815,719.3185 Q1704.5617,717.6666 1704.5617,714.5455 Q1704.5617,711.4161 1705.8815,709.7643 Q1707.2014,708.1124 1709.7082,708.1124 Q1710.4138,708.1124 1711.0612,708.2618 Q1711.7087,708.4113 1712.2731,708.7101 L1712.2731,711.4327 Q1711.6423,710.8517 1711.0488,710.5819 Q1710.4553,710.3121 1709.8244,710.3121 Q1708.4797,710.3121 1707.7949,711.3788 Q1707.1101,712.4454 1707.1101,714.5455 Q1707.1101,716.6373 1707.7949,717.704 Q1708.4797,718.7706 1709.8244,718.7706 Q1710.4553,718.7706 1711.0488,718.5008 Q1711.6423,718.2311 1712.2731,717.65 Z "/>
        <text fill="#000000" font-family="sans-serif" font-size="18" lengthAdjust="spacingAndGlyphs" textLength="104" x="1726.2" y="721.0323">Adjudicacao</text>
        <line style="stroke: #A80036; stroke-width: 1.5;" x1="1694" x2="1836" y1="731.8292" y2="731.8292"/>
        <text fill="#000000" font-family="sans-serif" font-size="11" lengthAdjust="spacingAndGlyphs" textLength="128" x="1701" y="748.464">-Integer numSequencial</text>
        <text fill="#000000" font-family="sans-serif" font-size="11" lengthAdjust="spacingAndGlyphs" textLength="123" x="1701" y="765.4191">-Date DataAdjudicacao</text>
        <ellipse cx="3446" cy="348.13" fill="#000000" rx="2" ry="2" style="stroke: none; stroke-width: 1.0;"/>
        <path d="M78.85,419.85 C102.67,323.32 191.26,29.13 386.5,29.13 C386.5,29.13 386.5,29.13 3877,29.13 C4012.48,29.13 4156.39,101.69 4239.89,152 " fill="none" style="stroke: #A80036; stroke-width: 1.0;"/>
        <text fill="#000000" font-family="sans-serif" font-size="13" lengthAdjust="spacingAndGlyphs" textLength="42" x="2093.5" y="23.6984">possui</text>
        <polygon fill="#000000" points="2140.5,17.2853,2146.5,20.2853,2140.5,23.2853,2140.5,17.2853" style="stroke: #000000; stroke-width: 1.0;"/>
        <text fill="#000000" font-family="sans-serif" font-size="13" lengthAdjust="spacingAndGlyphs" textLength="8" x="69.2316" y="407.2298">1</text>
        <text fill="#000000" font-family="sans-serif" font-size="13" lengthAdjust="spacingAndGlyphs" textLength="6" x="4220.491" y="139.2689">*</text>
        <path d="M81,420 C96.13,373.64 130.56,284.21 186,227.13 C256.81,154.22 284.86,117.13 386.5,117.13 C386.5,117.13 386.5,117.13 3447,117.13 C3570.61,117.13 3611.95,113.33 3719,175.13 C3772.24,205.86 3817.25,261.09 3845.04,300.89 " fill="none" style="stroke: #A80036; stroke-width: 1.0;"/>
        <text fill="#000000" font-family="sans-serif" font-size="13" lengthAdjust="spacingAndGlyphs" textLength="42" x="1916.5" y="111.6984">possui</text>
        <polygon fill="#000000" points="1963.5,105.2853,1969.5,108.2853,1963.5,111.2853,1963.5,105.2853" style="stroke: #000000; stroke-width: 1.0;"/>
        <text fill="#000000" font-family="sans-serif" font-size="13" lengthAdjust="spacingAndGlyphs" textLength="8" x="86.3" y="407.4108">1</text>
        <text fill="#000000" font-family="sans-serif" font-size="13" lengthAdjust="spacingAndGlyphs" textLength="6" x="3831.9831" y="288.4966">*</text>
        <path d="M87.32,419.83 C106.57,384.04 142.42,324.28 186,284.13 C258.66,217.18 287.7,188.13 386.5,188.13 C386.5,188.13 386.5,188.13 2511.5,188.13 C2667.32,188.13 2850.76,198.86 2942.7,204.98 " fill="none" style="stroke: #A80036; stroke-width: 1.0;"/>
        <text fill="#000000" font-family="sans-serif" font-size="13" lengthAdjust="spacingAndGlyphs" textLength="42" x="1570.5" y="182.6984">possui</text>
        <polygon fill="#000000" points="1617.5,176.2853,1623.5,179.2853,1617.5,182.2853,1617.5,176.2853" style="stroke: #000000; stroke-width: 1.0;"/>
        <text fill="#000000" font-family="sans-serif" font-size="13" lengthAdjust="spacingAndGlyphs" textLength="8" x="93.9235" y="407.2057">1</text>
        <text fill="#000000" font-family="sans-serif" font-size="13" lengthAdjust="spacingAndGlyphs" textLength="6" x="2926.8025" y="220.2126">*</text>
        <path d="M136.3,437.73 C222.26,421.61 379.53,393.67 515,378.13 C810.62,344.22 885.44,333.13 1183,333.13 C1183,333.13 1183,333.13 1766,333.13 C1897.92,333.13 2013.21,451.87 2074.1,528.86 " fill="none" style="stroke: #A80036; stroke-width: 1.0;"/>
        <text fill="#000000" font-family="sans-serif" font-size="13" lengthAdjust="spacingAndGlyphs" textLength="93" x="1131" y="327.6984">tem registadas</text>
        <polygon fill="#000000" points="1229,321.2853,1235,324.2853,1229,327.2853,1229,321.2853" style="stroke: #000000; stroke-width: 1.0;"/>
        <text fill="#000000" font-family="sans-serif" font-size="13" lengthAdjust="spacingAndGlyphs" textLength="8" x="146.0984" y="451.9897">1</text>
        <text fill="#000000" font-family="sans-serif" font-size="13" lengthAdjust="spacingAndGlyphs" textLength="6" x="2060.4234" y="516.3781">*</text>
        <path d="M80.47,480.35 C113.5,591.6 245.37,979.3 515,1121.13 C667.04,1201.1 1121.39,1169.96 1288,1128.13 C1314.2,1121.55 1340.87,1108.69 1363.35,1095.69 " fill="none" style="stroke: #A80036; stroke-width: 1.0;"/>
        <text fill="#000000" font-family="sans-serif" font-size="13" lengthAdjust="spacingAndGlyphs" textLength="48" x="625" y="1115.6984">suporta</text>
        <polygon fill="#000000" points="678,1109.2853,684,1112.2853,678,1115.2853,678,1109.2853" style="stroke: #000000; stroke-width: 1.0;"/>
        <text fill="#000000" font-family="sans-serif" font-size="13" lengthAdjust="spacingAndGlyphs" textLength="8" x="71.1532" y="502.7536">1</text>
        <text fill="#000000" font-family="sans-serif" font-size="13" lengthAdjust="spacingAndGlyphs" textLength="6" x="1344.8908" y="1118.235">*</text>
        <path d="M90.26,480.14 C110.65,511.85 146.08,561.91 186,596.13 C222.93,627.79 270.2,654.71 309.56,674.21 " fill="none" style="stroke: #A80036; stroke-width: 1.0;"/>
        <text fill="#000000" font-family="sans-serif" font-size="13" lengthAdjust="spacingAndGlyphs" textLength="55" x="189" y="590.6984">publicita</text>
        <polygon fill="#000000" points="249,584.2853,255,587.2853,249,590.2853,249,584.2853" style="stroke: #000000; stroke-width: 1.0;"/>
        <text fill="#000000" font-family="sans-serif" font-size="13" lengthAdjust="spacingAndGlyphs" textLength="8" x="97.4699" y="502.8734">1</text>
        <text fill="#000000" font-family="sans-serif" font-size="13" lengthAdjust="spacingAndGlyphs" textLength="6" x="293.914" y="686.5488">*</text>
        <path d="M77.21,480.34 C102.86,624.24 221.15,1233.13 386.5,1233.13 C386.5,1233.13 386.5,1233.13 1766,1233.13 C1875.52,1233.13 1990.23,1171.79 2058.38,1127.83 " fill="none" style="stroke: #A80036; stroke-width: 1.0;"/>
        <text fill="#000000" font-family="sans-serif" font-size="13" lengthAdjust="spacingAndGlyphs" textLength="53" x="1151" y="1227.6984">tem/usa</text>
        <polygon fill="#000000" points="1209,1221.2853,1215,1224.2853,1209,1227.2853,1209,1221.2853" style="stroke: #000000; stroke-width: 1.0;"/>
        <text fill="#000000" font-family="sans-serif" font-size="13" lengthAdjust="spacingAndGlyphs" textLength="8" x="81.6138" y="502.7416">1</text>
        <text fill="#000000" font-family="sans-serif" font-size="13" lengthAdjust="spacingAndGlyphs" textLength="6" x="2042.5614" y="1148.5664">*</text>
        <path d="M89.41,420.03 C108.73,389.81 142.94,344.86 186,324.13 C496.95,174.41 926.92,219.99 1102.98,247.71 " fill="none" style="stroke: #A80036; stroke-width: 1.0;"/>
        <text fill="#000000" font-family="sans-serif" font-size="13" lengthAdjust="spacingAndGlyphs" textLength="24" x="369" y="236.6984">tem</text>
        <polygon fill="#000000" points="398,230.2853,404,233.2853,398,236.2853,398,230.2853" style="stroke: #000000; stroke-width: 1.0;"/>
        <text fill="#000000" font-family="sans-serif" font-size="13" lengthAdjust="spacingAndGlyphs" textLength="8" x="95.8533" y="407.4069">1</text>
        <text fill="#000000" font-family="sans-serif" font-size="13" lengthAdjust="spacingAndGlyphs" textLength="6" x="1087.05" y="261.8299">*</text>
        <path d="M73.9,480.3 C83.15,622.91 125.6,1224.67 186,1280.13 C293.39,1378.72 479.65,1351.17 581.99,1325.68 " fill="none" style="stroke: #A80036; stroke-width: 1.0;"/>
        <text fill="#000000" font-family="sans-serif" font-size="13" lengthAdjust="spacingAndGlyphs" textLength="55" x="189" y="1274.6984">recorre a</text>
        <polygon fill="#000000" points="212,1285.4405,215,1291.4405,218,1285.4405,212,1285.4405" style="stroke: #000000; stroke-width: 1.0;"/>
        <text fill="#000000" font-family="sans-serif" font-size="13" lengthAdjust="spacingAndGlyphs" textLength="8" x="63.2606" y="503.0664">1</text>
        <text fill="#000000" font-family="sans-serif" font-size="13" lengthAdjust="spacingAndGlyphs" textLength="8" x="551.6156" y="1348.2192">1</text>
        <path d="M130.27,480.23 C192.15,509.36 293.62,549.13 386.5,549.13 C386.5,549.13 386.5,549.13 1422.5,549.13 C1544.7,549.13 1664.81,642.11 1724.71,696.59 " fill="none" style="stroke: #A80036; stroke-width: 1.0;"/>
        <text fill="#000000" font-family="sans-serif" font-size="13" lengthAdjust="spacingAndGlyphs" textLength="43" x="910" y="543.6984">regista</text>
        <polygon fill="#000000" points="958,537.2853,964,540.2853,958,543.2853,958,537.2853" style="stroke: #000000; stroke-width: 1.0;"/>
        <text fill="#000000" font-family="sans-serif" font-size="13" lengthAdjust="spacingAndGlyphs" textLength="8" x="131.2569" y="502.982">1</text>
        <text fill="#000000" font-family="sans-serif" font-size="13" lengthAdjust="spacingAndGlyphs" textLength="6" x="1708.9258" y="683.9188">*</text>
        <path d="M1837.21,706.56 C1898.79,681.86 1987.36,646.34 2048.9,621.65 " fill="none" style="stroke: #A80036; stroke-width: 1.0;"/>
        <text fill="#000000" font-family="sans-serif" font-size="13" lengthAdjust="spacingAndGlyphs" textLength="42" x="1916.5" y="637.6984">possui</text>
        <polygon fill="#000000" points="1963.5,631.2853,1969.5,634.2853,1963.5,637.2853,1963.5,631.2853" style="stroke: #000000; stroke-width: 1.0;"/>
        <text fill="#000000" font-family="sans-serif" font-size="13" lengthAdjust="spacingAndGlyphs" textLength="6" x="1847.1723" y="719.1721">*</text>
        <text fill="#000000" font-family="sans-serif" font-size="13" lengthAdjust="spacingAndGlyphs" textLength="8" x="2030.8459" y="640.1565">1</text>
        <path d="M1692.79,731.95 C1675.82,731.28 1657.77,730.62 1641,730.13 C1195.62,717.17 660.92,710.86 465.12,708.86 " fill="none" style="stroke: #A80036; stroke-width: 1.0;"/>
        <polygon fill="#000000" points="1161.5,706.2853,1155.5,709.2853,1161.5,712.2853,1161.5,706.2853" style="stroke: #000000; stroke-width: 1.0;"/>
        <text fill="#000000" font-family="sans-serif" font-size="13" lengthAdjust="spacingAndGlyphs" textLength="42" x="1169.5" y="712.6984">possui</text>
        <text fill="#000000" font-family="sans-serif" font-size="13" lengthAdjust="spacingAndGlyphs" textLength="6" x="1676.8277" y="726.2211">*</text>
        <text fill="#000000" font-family="sans-serif" font-size="13" lengthAdjust="spacingAndGlyphs" textLength="8" x="475.09" y="724.4258">1</text>
        <path d="M1837.03,736.45 C1887.58,740.95 1954.2,754.6 1999,793.13 C2069.62,853.87 2099.83,962.52 2112.14,1028.5 " fill="none" style="stroke: #A80036; stroke-width: 1.0;"/>
        <text fill="#000000" font-family="sans-serif" font-size="13" lengthAdjust="spacingAndGlyphs" textLength="42" x="1916.5" y="740.6984">possui</text>
        <polygon fill="#000000" points="1933,751.4405,1936,757.4405,1939,751.4405,1933,751.4405" style="stroke: #000000; stroke-width: 1.0;"/>
        <text fill="#000000" font-family="sans-serif" font-size="13" lengthAdjust="spacingAndGlyphs" textLength="6" x="1846.9737" y="752.1445">*</text>
        <text fill="#000000" font-family="sans-serif" font-size="13" lengthAdjust="spacingAndGlyphs" textLength="8" x="2100.2361" y="1015.7422">1</text>
        <path d="M2193.19,594.44 C2248.93,595.4 2328.4,596.62 2398,597.13 C2498,597.85 2523.03,599.64 2623,597.13 C2730.7,594.43 2855.49,587.41 2931.43,582.7 " fill="none" style="stroke: #A80036; stroke-width: 1.0;"/>
        <text fill="#000000" font-family="sans-serif" font-size="13" lengthAdjust="spacingAndGlyphs" textLength="24" x="2492" y="591.6984">tem</text>
        <polygon fill="#000000" points="2521,585.2853,2527,588.2853,2521,591.2853,2521,585.2853" style="stroke: #000000; stroke-width: 1.0;"/>
        <text fill="#000000" font-family="sans-serif" font-size="13" lengthAdjust="spacingAndGlyphs" textLength="8" x="2202.8868" y="610.089">1</text>
        <text fill="#000000" font-family="sans-serif" font-size="13" lengthAdjust="spacingAndGlyphs" textLength="22" x="2899.4171" y="598.6233">1..*</text>
        <path d="M2193.28,584.81 C2209.6,583.08 2226.89,581.41 2243,580.13 C2487.63,560.69 2549.69,560.6 2795,567.13 C2840.4,568.34 2891.35,571.04 2931.29,573.46 " fill="none" style="stroke: #A80036; stroke-width: 1.0;"/>
        <text fill="#000000" font-family="sans-serif" font-size="13" lengthAdjust="spacingAndGlyphs" textLength="68" x="2470" y="558.6984">tem gestor</text>
        <polygon fill="#000000" points="2543,552.2853,2549,555.2853,2543,558.2853,2543,552.2853" style="stroke: #000000; stroke-width: 1.0;"/>
        <text fill="#000000" font-family="sans-serif" font-size="13" lengthAdjust="spacingAndGlyphs" textLength="8" x="2202.9857" y="578.6407">1</text>
        <text fill="#000000" font-family="sans-serif" font-size="13" lengthAdjust="spacingAndGlyphs" textLength="8" x="2913.3277" y="567.5821">1</text>
        <path d="M2193.07,647.97 C2266.27,704.45 2379.14,791.54 2448.44,845.01 " fill="none" style="stroke: #A80036; stroke-width: 1.0;"/>
        <text fill="#000000" font-family="sans-serif" font-size="13" lengthAdjust="spacingAndGlyphs" textLength="86" x="2246" y="684.6984">localizada em</text>
        <polygon fill="#000000" points="2337,678.2853,2343,681.2853,2337,684.2853,2337,678.2853" style="stroke: #000000; stroke-width: 1.0;"/>
        <text fill="#000000" font-family="sans-serif" font-size="13" lengthAdjust="spacingAndGlyphs" textLength="24" x="2203.0046" y="668.4852">0..1</text>
        <text fill="#000000" font-family="sans-serif" font-size="13" lengthAdjust="spacingAndGlyphs" textLength="8" x="2428.4437" y="832.2804">1</text>
        <path d="M2193.21,560.08 C2209.46,552.89 2226.73,545.53 2243,539.13 C2288.9,521.06 2303.37,524.15 2348,503.13 C2381.92,487.16 2417.65,465.78 2446.86,446.97 " fill="none" style="stroke: #A80036; stroke-width: 1.0;"/>
        <text fill="#000000" font-family="sans-serif" font-size="13" lengthAdjust="spacingAndGlyphs" textLength="42" x="2268" y="497.6984">possui</text>
        <polygon fill="#000000" points="2315,491.2853,2321,494.2853,2315,497.2853,2315,491.2853" style="stroke: #000000; stroke-width: 1.0;"/>
        <text fill="#000000" font-family="sans-serif" font-size="13" lengthAdjust="spacingAndGlyphs" textLength="8" x="2202.9088" y="551.4764">1</text>
        <text fill="#000000" font-family="sans-serif" font-size="13" lengthAdjust="spacingAndGlyphs" textLength="6" x="2430.9235" y="467.6122">*</text>
        <path d="M3983.16,314.01 C4042.68,294.63 4118.17,269.6 4185,246.13 C4201.14,240.46 4218.36,234.2 4234.73,228.15 " fill="none" style="stroke: #A80036; stroke-width: 1.0;"/>
        <text fill="#000000" font-family="sans-serif" font-size="13" lengthAdjust="spacingAndGlyphs" textLength="67" x="4069" y="240.6984">referente a</text>
        <polygon fill="#000000" points="4141,234.2853,4147,237.2853,4141,240.2853,4141,234.2853" style="stroke: #000000; stroke-width: 1.0;"/>
        <text fill="#000000" font-family="sans-serif" font-size="13" lengthAdjust="spacingAndGlyphs" textLength="6" x="3993.0463" y="326.8559">*</text>
        <text fill="#000000" font-family="sans-serif" font-size="13" lengthAdjust="spacingAndGlyphs" textLength="8" x="4217.0075" y="246.2808">1</text>
        <path d="M3983.09,392.47 C4121.83,450.46 4362.33,550.98 4490.94,604.74 " fill="none" style="stroke: #A80036; stroke-width: 1.0;"/>
        <text fill="#000000" font-family="sans-serif" font-size="13" lengthAdjust="spacingAndGlyphs" textLength="37" x="4287.5" y="492.6984">aplica</text>
        <polygon fill="#000000" points="4329.5,486.2853,4335.5,489.2853,4329.5,492.2853,4329.5,486.2853" style="stroke: #000000; stroke-width: 1.0;"/>
        <text fill="#000000" font-family="sans-serif" font-size="13" lengthAdjust="spacingAndGlyphs" textLength="8" x="3993.0416" y="410.8326">1</text>
        <text fill="#000000" font-family="sans-serif" font-size="13" lengthAdjust="spacingAndGlyphs" textLength="6" x="4474.9427" y="617.0061">*</text>
        <path d="M3062.24,208.68 C3273.76,207.06 3996.51,201.54 4234.69,199.72 " fill="none" style="stroke: #A80036; stroke-width: 1.0;"/>
        <text fill="#000000" font-family="sans-serif" font-size="13" lengthAdjust="spacingAndGlyphs" textLength="103" x="3600" y="198.6984">enquadra-se em</text>
        <polygon fill="#000000" points="3708,192.2853,3714,195.2853,3708,198.2853,3708,192.2853" style="stroke: #000000; stroke-width: 1.0;"/>
        <text fill="#000000" font-family="sans-serif" font-size="13" lengthAdjust="spacingAndGlyphs" textLength="6" x="3072.1302" y="203.048">*</text>
        <text fill="#000000" font-family="sans-serif" font-size="13" lengthAdjust="spacingAndGlyphs" textLength="8" x="4216.9638" y="215.2299">1</text>
        <path d="M3062.14,220.76 C3121.61,233.26 3215.91,255.04 3295,282.13 C3359.06,304.07 3433.66,342.26 3443.83,347.52 " fill="none" style="stroke: #A80036; stroke-width: 1.0;"/>
        <text fill="#000000" font-family="sans-serif" font-size="13" lengthAdjust="spacingAndGlyphs" textLength="40" x="3226" y="252.6984">requer</text>
        <polygon fill="#000000" points="3271,246.2853,3277,249.2853,3271,252.2853,3271,246.2853" style="stroke: #000000; stroke-width: 1.0;"/>
        <text fill="#000000" font-family="sans-serif" font-size="13" lengthAdjust="spacingAndGlyphs" textLength="6" x="3072.018" y="237.9158">*</text>
        <path d="M3448.23,348.13 C3464.91,348.13 3647.89,348.13 3768.78,348.13 " fill="none" style="stroke: #A80036; stroke-width: 1.0;"/>
        <text fill="#000000" font-family="sans-serif" font-size="13" lengthAdjust="spacingAndGlyphs" textLength="6" x="3752.8895" y="363.375">*</text>
        <path d="M3443.93,348.74 C3426.1,354.15 3297.65,395.62 3252.5,481.63 C3213.45,556 3203.54,602.37 3252.5,670.63 C3281.75,711.41 3337.78,727.12 3382.05,733.01 " fill="none" style="stroke: #A80036; stroke-width: 1.0; stroke-dasharray: 7.0,7.0;"/>
        <path d="M3509.82,730.85 C3700.24,714.86 4271.31,666.89 4490.77,648.46 " fill="none" style="stroke: #A80036; stroke-width: 1.0;"/>
        <text fill="#000000" font-family="sans-serif" font-size="13" lengthAdjust="spacingAndGlyphs" textLength="133" x="4036" y="669.6984">exige (como mínimo)</text>
        <polygon fill="#000000" points="4174,663.2853,4180,666.2853,4174,669.2853,4174,663.2853" style="stroke: #000000; stroke-width: 1.0;"/>
        <text fill="#000000" font-family="sans-serif" font-size="13" lengthAdjust="spacingAndGlyphs" textLength="6" x="3519.3472" y="745.8885">*</text>
        <text fill="#000000" font-family="sans-serif" font-size="13" lengthAdjust="spacingAndGlyphs" textLength="8" x="4472.9666" y="664.4304">1</text>
        <path d="M2574.06,379.23 C2669.39,341.3 2849.74,269.52 2942.75,232.51 " fill="none" style="stroke: #A80036; stroke-width: 1.0;"/>
        <text fill="#000000" font-family="sans-serif" font-size="13" lengthAdjust="spacingAndGlyphs" textLength="103" x="2676" y="289.6984">enquadra-se em</text>
        <polygon fill="#000000" points="2784,283.2853,2790,286.2853,2784,289.2853,2784,283.2853" style="stroke: #000000; stroke-width: 1.0;"/>
        <text fill="#000000" font-family="sans-serif" font-size="13" lengthAdjust="spacingAndGlyphs" textLength="6" x="2583.9873" y="392.0398">*</text>
        <text fill="#000000" font-family="sans-serif" font-size="13" lengthAdjust="spacingAndGlyphs" textLength="8" x="2925.1477" y="250.8917">1</text>
        <path d="M2574.06,426.34 C2665.65,458.87 2835.72,519.26 2931.41,553.24 " fill="none" style="stroke: #A80036; stroke-width: 1.0;"/>
        <text fill="#000000" font-family="sans-serif" font-size="13" lengthAdjust="spacingAndGlyphs" textLength="103" x="2676" y="460.6984">especificada por</text>
        <polygon fill="#000000" points="2784,454.2853,2790,457.2853,2784,460.2853,2784,454.2853" style="stroke: #000000; stroke-width: 1.0;"/>
        <text fill="#000000" font-family="sans-serif" font-size="13" lengthAdjust="spacingAndGlyphs" textLength="6" x="2583.9873" y="444.5968">*</text>
        <text fill="#000000" font-family="sans-serif" font-size="13" lengthAdjust="spacingAndGlyphs" textLength="8" x="2913.4601" y="545.2769">1</text>
        <path d="M408.5,618.41 C426.34,560.41 458.66,488.62 515,449.13 C669.46,340.87 748.38,404.13 937,404.13 C937,404.13 937,404.13 2122,404.13 C2236.53,404.13 2370.11,404.13 2446.75,404.13 " fill="none" style="stroke: #A80036; stroke-width: 1.0;"/>
        <text fill="#000000" font-family="sans-serif" font-size="13" lengthAdjust="spacingAndGlyphs" textLength="55" x="1564" y="398.6984">publicita</text>
        <polygon fill="#000000" points="1624,392.2853,1630,395.2853,1624,398.2853,1624,392.2853" style="stroke: #000000; stroke-width: 1.0;"/>
        <text fill="#000000" font-family="sans-serif" font-size="13" lengthAdjust="spacingAndGlyphs" textLength="24" x="383.0797" y="605.7812">0..1</text>
        <text fill="#000000" font-family="sans-serif" font-size="13" lengthAdjust="spacingAndGlyphs" textLength="8" x="2429.1211" y="419.7583">1</text>
        <path d="M465.31,642.67 C481.1,631.13 498.09,620 515,611.13 C689.52,519.61 739.95,475.13 937,475.13 C937,475.13 937,475.13 1945,475.13 C2128.48,475.13 2342.89,437.75 2446.75,417.23 " fill="none" style="stroke: #A80036; stroke-width: 1.0;"/>
        <polygon fill="#000000" points="1565,463.2853,1559,466.2853,1565,469.2853,1565,463.2853" style="stroke: #000000; stroke-width: 1.0;"/>
        <text fill="#000000" font-family="sans-serif" font-size="13" lengthAdjust="spacingAndGlyphs" textLength="63" x="1573" y="469.6984">dá origem</text>
        <text fill="#000000" font-family="sans-serif" font-size="13" lengthAdjust="spacingAndGlyphs" textLength="24" x="474.913" y="652.6237">0..1</text>
        <text fill="#000000" font-family="sans-serif" font-size="13" lengthAdjust="spacingAndGlyphs" textLength="8" x="2429.1211" y="434.2911">1</text>
        <path d="M436.91,797.81 C457.26,827.65 483.58,858.29 515,878.13 C780.25,1045.58 1169.29,1061.61 1337.72,1059.88 " fill="none" style="stroke: #A80036; stroke-width: 1.0;"/>
        <text fill="#000000" font-family="sans-serif" font-size="13" lengthAdjust="spacingAndGlyphs" textLength="74" x="894.5" y="1005.6984">rege-se por</text>
        <polygon fill="#000000" points="973.5,999.2853,979.5,1002.2853,973.5,1005.2853,973.5,999.2853" style="stroke: #000000; stroke-width: 1.0;"/>
        <text fill="#000000" font-family="sans-serif" font-size="13" lengthAdjust="spacingAndGlyphs" textLength="6" x="432.3101" y="819.9898">*</text>
        <text fill="#000000" font-family="sans-serif" font-size="13" lengthAdjust="spacingAndGlyphs" textLength="8" x="1320.0045" y="1075.5097">1</text>
        <path d="M465.41,693.05 C698.93,649.91 1419.3,536.33 1999,653.13 C2022.63,657.89 2025.59,668.4 2049,674.13 C2178.27,705.76 2215.4,701.41 2348,690.13 C2562.48,671.88 2812.32,620.53 2931.41,594.18 " fill="none" style="stroke: #A80036; stroke-width: 1.0;"/>
        <text fill="#000000" font-family="sans-serif" font-size="13" lengthAdjust="spacingAndGlyphs" textLength="87" x="1715" y="606.6984">publicado por</text>
        <polygon fill="#000000" points="1807,600.2853,1813,603.2853,1807,606.2853,1807,600.2853" style="stroke: #000000; stroke-width: 1.0;"/>
        <text fill="#000000" font-family="sans-serif" font-size="13" lengthAdjust="spacingAndGlyphs" textLength="6" x="475.0533" y="707.1256">*</text>
        <text fill="#000000" font-family="sans-serif" font-size="13" lengthAdjust="spacingAndGlyphs" textLength="8" x="2913.4601" y="611.3982">1</text>
        <path d="M403.4,797.87 C419.33,864.48 451.48,951.94 515,1001.13 C690.06,1136.68 1283.94,1125.47 1505,1113.13 C1567.91,1109.62 1639.01,1101.35 1690.78,1094.53 " fill="none" style="stroke: #A80036; stroke-width: 1.0;"/>
        <text fill="#000000" font-family="sans-serif" font-size="13" lengthAdjust="spacingAndGlyphs" textLength="41" x="1157" y="1112.6984">recebe</text>
        <polygon fill="#000000" points="1203,1106.2853,1209,1109.2853,1203,1112.2853,1203,1106.2853" style="stroke: #000000; stroke-width: 1.0;"/>
        <text fill="#000000" font-family="sans-serif" font-size="13" lengthAdjust="spacingAndGlyphs" textLength="8" x="394.158" y="820.0544">1</text>
        <text fill="#000000" font-family="sans-serif" font-size="13" lengthAdjust="spacingAndGlyphs" textLength="6" x="1674.9818" y="1111.0738">*</text>
        <path d="M458.5,797.86 C475.21,813.4 494.28,827.36 515,836.13 C621.61,881.25 757.37,872.2 845.69,858.66 " fill="none" style="stroke: #A80036; stroke-width: 1.0;"/>
        <text fill="#000000" font-family="sans-serif" font-size="13" lengthAdjust="spacingAndGlyphs" textLength="45" x="626.5" y="830.6984">agenda</text>
        <polygon fill="#000000" points="676.5,824.2853,682.5,827.2853,676.5,830.2853,676.5,824.2853" style="stroke: #000000; stroke-width: 1.0;"/>
        <text fill="#000000" font-family="sans-serif" font-size="13" lengthAdjust="spacingAndGlyphs" textLength="8" x="453.4766" y="820.0437">1</text>
        <text fill="#000000" font-family="sans-serif" font-size="13" lengthAdjust="spacingAndGlyphs" textLength="24" x="811.8829" y="875.2942">0..1</text>
        <path d="M465.12,738.81 C481.43,744.72 498.66,750.5 515,755.13 C637.52,789.86 671.19,785.86 796,811.13 C812.17,814.4 829.37,817.91 846,821.33 " fill="none" style="stroke: #A80036; stroke-width: 1.0;"/>
        <text fill="#000000" font-family="sans-serif" font-size="13" lengthAdjust="spacingAndGlyphs" textLength="53" x="622.5" y="749.6984">espoleta</text>
        <polygon fill="#000000" points="680.5,743.2853,686.5,746.2853,680.5,749.2853,680.5,743.2853" style="stroke: #000000; stroke-width: 1.0;"/>
        <text fill="#000000" font-family="sans-serif" font-size="13" lengthAdjust="spacingAndGlyphs" textLength="8" x="475.09" y="757.2304">1</text>
        <text fill="#000000" font-family="sans-serif" font-size="13" lengthAdjust="spacingAndGlyphs" textLength="24" x="811.8844" y="835.194">0..1</text>
        <path d="M1839.21,1068.84 C1855.53,1066.05 1872.79,1063.57 1889,1062.13 C1937.7,1057.81 1950.31,1057.74 1999,1062.13 C2018.46,1063.88 2039.46,1067.19 2058.43,1070.72 " fill="none" style="stroke: #A80036; stroke-width: 1.0;"/>
        <text fill="#000000" font-family="sans-serif" font-size="13" lengthAdjust="spacingAndGlyphs" textLength="81" x="1897" y="1053.6984">realizada por</text>
        <polygon fill="#000000" points="1983,1047.2853,1989,1050.2853,1983,1053.2853,1983,1047.2853" style="stroke: #000000; stroke-width: 1.0;"/>
        <text fill="#000000" font-family="sans-serif" font-size="13" lengthAdjust="spacingAndGlyphs" textLength="6" x="1849.0072" y="1082.8549">*</text>
        <text fill="#000000" font-family="sans-serif" font-size="13" lengthAdjust="spacingAndGlyphs" textLength="8" x="2040.5016" y="1084.8531">1</text>
        <path d="M1839.14,1088.98 C1855.54,1089.87 1872.86,1090.67 1889,1091.13 C1937.87,1092.52 1950.13,1092.54 1999,1091.13 C2018.35,1090.57 2039.42,1089.51 2058.47,1088.38 " fill="none" style="stroke: #A80036; stroke-width: 1.0;"/>
        <polygon fill="#000000" points="1919.5,1079.2853,1913.5,1082.2853,1919.5,1085.2853,1919.5,1079.2853" style="stroke: #000000; stroke-width: 1.0;"/>
        <text fill="#000000" font-family="sans-serif" font-size="13" lengthAdjust="spacingAndGlyphs" textLength="46" x="1927.5" y="1085.6984">elimina</text>
        <text fill="#000000" font-family="sans-serif" font-size="13" lengthAdjust="spacingAndGlyphs" textLength="22" x="1848.9009" y="1104.8414">1..*</text>
        <text fill="#000000" font-family="sans-serif" font-size="13" lengthAdjust="spacingAndGlyphs" textLength="8" x="2040.5462" y="1104.555">1</text>
        <path d="M1839.31,1110.7 C1855.47,1115.44 1872.65,1119.66 1889,1122.13 C1937.34,1129.43 1950.68,1129.54 1999,1122.13 C2018.7,1119.11 2039.59,1113.47 2058.37,1107.45 " fill="none" style="stroke: #A80036; stroke-width: 1.0;"/>
        <polygon fill="#000000" points="1918,1110.2853,1912,1113.2853,1918,1116.2853,1918,1110.2853" style="stroke: #000000; stroke-width: 1.0;"/>
        <text fill="#000000" font-family="sans-serif" font-size="13" lengthAdjust="spacingAndGlyphs" textLength="49" x="1926" y="1116.6984">atualiza</text>
        <text fill="#000000" font-family="sans-serif" font-size="13" lengthAdjust="spacingAndGlyphs" textLength="22" x="1849.086" y="1128.4958">1..*</text>
        <text fill="#000000" font-family="sans-serif" font-size="13" lengthAdjust="spacingAndGlyphs" textLength="8" x="2040.4347" y="1125.83">1</text>
        <path d="M974,878.88 C1000.42,905.58 1039.03,939.49 1080,958.13 C1165.19,996.9 1198.85,962.6 1288,991.13 C1309.91,998.14 1332.69,1008.32 1353.06,1018.59 " fill="none" style="stroke: #A80036; stroke-width: 1.0;"/>
        <text fill="#000000" font-family="sans-serif" font-size="13" lengthAdjust="spacingAndGlyphs" textLength="189" x="1083" y="952.6984">decorre em concordância com</text>
        <polygon fill="#000000" points="1277,946.2853,1283,949.2853,1277,952.2853,1277,946.2853" style="stroke: #000000; stroke-width: 1.0;"/>
        <text fill="#000000" font-family="sans-serif" font-size="13" lengthAdjust="spacingAndGlyphs" textLength="6" x="971.1344" y="901.4564">*</text>
        <text fill="#000000" font-family="sans-serif" font-size="13" lengthAdjust="spacingAndGlyphs" textLength="8" x="1330.1293" y="1006.006">1</text>
        <path d="M1030.21,842.78 C1357.33,851.12 2469.37,869.01 2795,738.13 C2853.07,714.79 2908.54,670.12 2947.34,633.9 " fill="none" style="stroke: #A80036; stroke-width: 1.0;"/>
        <text fill="#000000" font-family="sans-serif" font-size="13" lengthAdjust="spacingAndGlyphs" textLength="82" x="1896.5" y="835.6984">realizado por</text>
        <polygon fill="#000000" points="1983.5,829.2853,1989.5,832.2853,1983.5,835.2853,1983.5,829.2853" style="stroke: #000000; stroke-width: 1.0;"/>
        <text fill="#000000" font-family="sans-serif" font-size="13" lengthAdjust="spacingAndGlyphs" textLength="8" x="1040.0361" y="858.3246">1</text>
        <text fill="#000000" font-family="sans-serif" font-size="13" lengthAdjust="spacingAndGlyphs" textLength="22" x="2915.459" y="656.032">1..*</text>
        <path d="M1030.21,878.35 C1046.59,884.27 1063.65,889.83 1080,894.13 C1129.14,907.05 1263.17,925.3 1347.67,936.1 " fill="none" style="stroke: #A80036; stroke-width: 1.0;"/>
        <text fill="#000000" font-family="sans-serif" font-size="13" lengthAdjust="spacingAndGlyphs" textLength="43" x="1156" y="888.6984">resulta</text>
        <polygon fill="#000000" points="1204,882.2853,1210,885.2853,1204,888.2853,1204,882.2853" style="stroke: #000000; stroke-width: 1.0;"/>
        <text fill="#000000" font-family="sans-serif" font-size="13" lengthAdjust="spacingAndGlyphs" textLength="8" x="1035.5662" y="901.4364">1</text>
        <text fill="#000000" font-family="sans-serif" font-size="13" lengthAdjust="spacingAndGlyphs" textLength="6" x="1331.9102" y="950.7245">*</text>
        <path d="M1030,827.75 C1046.63,825.52 1063.83,823.23 1080,821.13 C1303.42,792.03 1568.12,759.22 1692.58,743.9 " fill="none" style="stroke: #A80036; stroke-width: 1.0;"/>
        <text fill="#000000" font-family="sans-serif" font-size="13" lengthAdjust="spacingAndGlyphs" textLength="43" x="1393.5" y="762.6984">resulta</text>
        <polygon fill="#000000" points="1441.5,756.2853,1447.5,759.2853,1441.5,762.2853,1441.5,756.2853" style="stroke: #000000; stroke-width: 1.0;"/>
        <text fill="#000000" font-family="sans-serif" font-size="13" lengthAdjust="spacingAndGlyphs" textLength="6" x="1040.0328" y="821.5148">*</text>
        <text fill="#000000" font-family="sans-serif" font-size="13" lengthAdjust="spacingAndGlyphs" textLength="8" x="1675.1056" y="760.2193">1</text>
        <path d="M1495.34,974.78 C1553.03,998.26 1633.24,1030.91 1690.98,1054.41 " fill="none" style="stroke: #A80036; stroke-width: 1.0;"/>
        <text fill="#000000" font-family="sans-serif" font-size="13" lengthAdjust="spacingAndGlyphs" textLength="67" x="1558" y="997.6984">referente a</text>
        <polygon fill="#000000" points="1630,991.2853,1636,994.2853,1630,997.2853,1630,991.2853" style="stroke: #000000; stroke-width: 1.0;"/>
        <text fill="#000000" font-family="sans-serif" font-size="13" lengthAdjust="spacingAndGlyphs" textLength="24" x="1504.8887" y="992.7215">0..1</text>
        <text fill="#000000" font-family="sans-serif" font-size="13" lengthAdjust="spacingAndGlyphs" textLength="8" x="1673.103" y="1067.0045">1</text>
        <path d="M1486.69,906.35 C1530.29,879.93 1589.23,844.09 1641,812.13 C1661.15,799.69 1683.09,786 1702.78,773.66 " fill="none" style="stroke: #A80036; stroke-width: 1.0;"/>
        <text fill="#000000" font-family="sans-serif" font-size="13" lengthAdjust="spacingAndGlyphs" textLength="36" x="1573.5" y="806.6984">leva a</text>
        <polygon fill="#000000" points="1614.5,800.2853,1620.5,803.2853,1614.5,806.2853,1614.5,800.2853" style="stroke: #000000; stroke-width: 1.0;"/>
        <text fill="#000000" font-family="sans-serif" font-size="13" lengthAdjust="spacingAndGlyphs" textLength="6" x="1488.659" y="893.9386">*</text>
        <text fill="#000000" font-family="sans-serif" font-size="13" lengthAdjust="spacingAndGlyphs" textLength="8" x="1681.4811" y="796.2">1</text>
        <path d="M1265.01,256.27 C1501.34,240.71 2215.94,206.32 2795,310.13 C3020.34,350.53 3273.81,453.76 3386.07,502.67 " fill="none" style="stroke: #A80036; stroke-width: 1.0;"/>
        <text fill="#000000" font-family="sans-serif" font-size="13" lengthAdjust="spacingAndGlyphs" textLength="66" x="2081.5" y="236.6984">atua como</text>
        <polygon fill="#000000" points="2152.5,230.2853,2158.5,233.2853,2152.5,236.2853,2152.5,230.2853" style="stroke: #000000; stroke-width: 1.0;"/>
        <text fill="#000000" font-family="sans-serif" font-size="13" lengthAdjust="spacingAndGlyphs" textLength="24" x="1274.878" y="271.1444">0..1</text>
        <text fill="#000000" font-family="sans-serif" font-size="13" lengthAdjust="spacingAndGlyphs" textLength="8" x="3368.4468" y="515.2916">1</text>
        <path d="M3073.95,570.31 C3160.49,560.7 3305.74,544.58 3386.45,535.63 " fill="none" style="stroke: #A80036; stroke-width: 1.0;"/>
        <text fill="#000000" font-family="sans-serif" font-size="13" lengthAdjust="spacingAndGlyphs" textLength="66" x="3213" y="541.6984">atua como</text>
        <polygon fill="#000000" points="3284,535.2853,3290,538.2853,3284,541.2853,3284,535.2853" style="stroke: #000000; stroke-width: 1.0;"/>
        <text fill="#000000" font-family="sans-serif" font-size="13" lengthAdjust="spacingAndGlyphs" textLength="24" x="3083.5604" y="585.0409">0..1</text>
        <text fill="#000000" font-family="sans-serif" font-size="13" lengthAdjust="spacingAndGlyphs" textLength="8" x="3368.4611" y="552.1634">1</text>
        <path d="M2183.65,1093.23 C2382.52,1121.22 3003.23,1197.6 3160,1085.13 C3349.82,948.95 3198,774.7 3345,593.13 C3356.22,579.27 3371.27,567.47 3386.29,557.92 " fill="none" style="stroke: #A80036; stroke-width: 1.0;"/>
        <text fill="#000000" font-family="sans-serif" font-size="13" lengthAdjust="spacingAndGlyphs" textLength="66" x="2694.5" y="1136.6984">atua como</text>
        <polygon fill="#000000" points="2765.5,1130.2853,2771.5,1133.2853,2765.5,1136.2853,2765.5,1130.2853" style="stroke: #000000; stroke-width: 1.0;"/>
        <text fill="#000000" font-family="sans-serif" font-size="13" lengthAdjust="spacingAndGlyphs" textLength="24" x="2193.5545" y="1109.7315">0..1</text>
        <text fill="#000000" font-family="sans-serif" font-size="13" lengthAdjust="spacingAndGlyphs" textLength="8" x="3368.6923" y="576.9299">1</text>
        <path d="M2183.83,1053.49 C2249.64,1020.88 2354.13,969.11 2426.94,933.04 " fill="none" style="stroke: #A80036; stroke-width: 1.0;"/>
        <text fill="#000000" font-family="sans-serif" font-size="13" lengthAdjust="spacingAndGlyphs" textLength="24" x="2277" y="971.6984">tem</text>
        <polygon fill="#000000" points="2306,965.2853,2312,968.2853,2306,971.2853,2306,965.2853" style="stroke: #000000; stroke-width: 1.0;"/>
        <text fill="#000000" font-family="sans-serif" font-size="13" lengthAdjust="spacingAndGlyphs" textLength="24" x="2193.393" y="1065.9917">0..1</text>
        <text fill="#000000" font-family="sans-serif" font-size="13" lengthAdjust="spacingAndGlyphs" textLength="8" x="2408.9636" y="952.109">1</text>
        <path d="M2183.83,1075.51 C2241.31,1067.5 2328.29,1055.38 2397.9,1045.68 " fill="none" style="stroke: #A80036; stroke-width: 1.0;"/>
        <text fill="#000000" font-family="sans-serif" font-size="13" lengthAdjust="spacingAndGlyphs" textLength="24" x="2277" y="1048.6984">tem</text>
        <polygon fill="#000000" points="2306,1042.2853,2312,1045.2853,2306,1048.2853,2306,1042.2853" style="stroke: #000000; stroke-width: 1.0;"/>
        <text fill="#000000" font-family="sans-serif" font-size="13" lengthAdjust="spacingAndGlyphs" textLength="8" x="2193.3583" y="1090.1905">1</text>
        <text fill="#000000" font-family="sans-serif" font-size="13" lengthAdjust="spacingAndGlyphs" textLength="6" x="2381.9988" y="1061.9412">*</text>
        <path d="M2183.77,1134.07 C2201.88,1146.25 2222.38,1157.86 2243,1165.13 C2463.47,1242.88 3127.35,1328.05 3295,1165.13 C3371.43,1090.85 3283.25,775 3345,688.13 C3349.56,681.72 3355.22,676.16 3361.52,671.33 " fill="none" style="stroke: #A80036; stroke-width: 1.0;"/>
        <text fill="#000000" font-family="sans-serif" font-size="13" lengthAdjust="spacingAndGlyphs" textLength="57" x="2699" y="1242.6984">recebe(u)</text>
        <polygon fill="#000000" points="2761,1236.2853,2767,1239.2853,2761,1242.2853,2761,1236.2853" style="stroke: #000000; stroke-width: 1.0;"/>
        <text fill="#000000" font-family="sans-serif" font-size="13" lengthAdjust="spacingAndGlyphs" textLength="8" x="2193.2917" y="1155.1555">1</text>
        <text fill="#000000" font-family="sans-serif" font-size="13" lengthAdjust="spacingAndGlyphs" textLength="6" x="3335.9036" y="693.7297">*</text>
        <path d="M3514.38,611 C3525.48,605.41 3536.7,599.36 3547,593.13 C3647.77,532.1 3755.55,447.39 3819.02,395.25 " fill="none" style="stroke: #A80036; stroke-width: 1.0;"/>
        <text fill="#000000" font-family="sans-serif" font-size="13" lengthAdjust="spacingAndGlyphs" textLength="57" x="3623" y="473.6984">relativa a</text>
        <polygon fill="#000000" points="3685,467.2853,3691,470.2853,3685,473.2853,3685,467.2853" style="stroke: #000000; stroke-width: 1.0;"/>
        <text fill="#000000" font-family="sans-serif" font-size="13" lengthAdjust="spacingAndGlyphs" textLength="6" x="3519.4521" y="598.4108">*</text>
        <text fill="#000000" font-family="sans-serif" font-size="13" lengthAdjust="spacingAndGlyphs" textLength="8" x="3800.1634" y="417.7979">1</text>
        <path d="M3547.37,641.13 C3766.46,641.13 4284.39,641.13 4490.85,641.13 " fill="none" style="stroke: #A80036; stroke-width: 1.0;"/>
        <text fill="#000000" font-family="sans-serif" font-size="13" lengthAdjust="spacingAndGlyphs" textLength="50" x="4077.5" y="635.6984">reconhe</text>
        <polygon fill="#000000" points="4132.5,629.2853,4138.5,632.2853,4132.5,635.2853,4132.5,629.2853" style="stroke: #000000; stroke-width: 1.0;"/>
        <text fill="#000000" font-family="sans-serif" font-size="13" lengthAdjust="spacingAndGlyphs" textLength="6" x="3556.8491" y="656.3718">*</text>
        <text fill="#000000" font-family="sans-serif" font-size="13" lengthAdjust="spacingAndGlyphs" textLength="8" x="4473.0532" y="635.92">1</text>
        <path d="M796.17,1304.13 C902.28,1304.13 1051.83,1304.13 1183,1304.13 C1183,1304.13 1183,1304.13 3003.5,1304.13 C3175.92,1304.13 3215.41,1201.08 3295,1048.13 C3388.91,867.66 3237.72,765.98 3345,593.13 C3354.89,577.19 3370.39,564.5 3386.25,554.76 " fill="none" style="stroke: #A80036; stroke-width: 1.0;"/>
        <text fill="#000000" font-family="sans-serif" font-size="13" lengthAdjust="spacingAndGlyphs" textLength="91" x="1892" y="1298.6984">gera password</text>
        <polygon fill="#000000" points="1988,1292.2853,1994,1295.2853,1988,1298.2853,1988,1292.2853" style="stroke: #000000; stroke-width: 1.0;"/>
        <text fill="#000000" font-family="sans-serif" font-size="13" lengthAdjust="spacingAndGlyphs" textLength="8" x="806.191" y="1319.2209">1</text>
        <text fill="#000000" font-family="sans-serif" font-size="13" lengthAdjust="spacingAndGlyphs" textLength="6" x="3370.3586" y="573.6248">*</text>
        <!--
@startuml
skinparam classAttributeIconSize 0
hide methods
left to right direction

skinparam padding 2
skinparam ranksep 100
skinparam classFontSize 18

class Plataforma {
  -String designacao
}

class AreaAtividade {
  -String codigo
  -String descBreve
  -String descDetalhada

}

class CompetenciaTecnica {
  -String codigo
  -String descBreve
  -String descDetalhada
}

class GrauProficiencia {
  -Integer valor
  -String designacao
}

class Categoria {
  -String id
  -String descricao
}

class CaraterCT {
  -Boolean obrigatoria
}

class Organizacao {
  -String nome
  -String NIF
  -String website
  -String telefone
  -String email
}

class Colaborador {
  -String nome
  -String funcao
  -String telefone
  -String email
}

class EnderecoPostal {
  -String local
  -String codPostal
  -String localidade
}

class Tarefa {
  -String referencia
  -String designacao
  -String descInformal
  -String descTecnica
  -Integer duracaoEst
  -Double custoEst
}

class TipoRegimento{
    -String designacao
    -String descricaoRegras
}

class Administrativo {

}

class Freelancer {
    -String nome
    -String NIF
    -String telefone
    -String email
}

class ReconhecimentoCT {
    -Date dataReconhecimento
}

class HabilitacaoAcademica {
    -String grau
    -String designacaoCurso
    -String nomeInstituicao
    -Double mediaCurso
}

note right
Por simplificação, não se considerou
Instituição, Curso e Grau como conceitos.
Contudo, tal poderá ser feito mais tarde
se se vier a revelar importante para o negócio.
end note



class Anuncio{
    -String anuncioId
    -Date dtInicioPublicitacao
    -Date dtFimPublicitacao
    -Date dtInicioCandidatura
    -Date dtFimCandidatura
    -Date dtInicioSeriacao
    -Date dtFimSeriacao
    -long periodo
}

class Candidatura{
    -Date dataCandidatura
    -Double valorPretendido
    -Integer nrDias
    -String txtApresentacao
    -String txtMotivacao
}

class Classificacao{
    -Integer lugar
    -String justificacao
}

class ProcessoSeriacao{
    -Date dataRealizacao
    -String textoConclusao
}

class Utilizador {
  -String nome
  -String email
  -String password
}

class AlgoritmoGeradorPasswords {
}

class Adjudicacao{
    -Integer numSequencial
    -Date DataAdjudicacao
}

Plataforma "1" - - "*" AreaAtividade : possui >
Plataforma "1" - - "*" CompetenciaTecnica : possui >
Plataforma "1" - - "*" Categoria : possui >
Plataforma "1" - - "*" Organizacao : tem registadas >
Plataforma "1" - - "*" TipoRegimento : suporta >
Plataforma "1" - - "*" Anuncio : publicita >
Plataforma "1" - - "*" Freelancer : tem/usa  >
Plataforma "1" - - "*" Administrativo : tem  >
Plataforma "1" - - "1" AlgoritmoGeradorPasswords : recorre a >
Plataforma "1" - - "*" Adjudicacao : regista >

Adjudicacao "*" - - "1" Organizacao: possui >
Adjudicacao "*" - - "1" Anuncio: possui >
Adjudicacao "*" - - "1" Freelancer: possui >

Organizacao "1" - - "1..*" Colaborador: tem >
Organizacao "1" - - "1" Colaborador: tem gestor >
Organizacao "0..1" - - "1" EnderecoPostal: localizada em >
Organizacao "1" - - "*" Tarefa: possui >

CompetenciaTecnica "*" - - "1" AreaAtividade : referente a >
CompetenciaTecnica "1" - - - "*" GrauProficiencia : aplica  >

Categoria "*" - - "1" AreaAtividade: enquadra-se em >
Categoria "*" - - "*" CompetenciaTecnica: requer >
(Categoria, CompetenciaTecnica) .. CaraterCT
CaraterCT "*" - - "1" GrauProficiencia: exige (como mínimo)  >

Tarefa "*" - - "1" Categoria: enquadra-se em >
Tarefa "*" - - "1" Colaborador: especificada por >


Anuncio "0..1" - - "1" Tarefa: publicita >
Anuncio "0..1" - - "1" Tarefa: dá origem <
Anuncio "*" - - "1" TipoRegimento: rege-se por >
Anuncio "*" - - "1" Colaborador: publicado por >
Anuncio "1" - - "*" Candidatura: recebe >
Anuncio "1" - - "0..1" ProcessoSeriacao: agenda >
Anuncio "1" - - "0..1" ProcessoSeriacao: espoleta >

Candidatura "*" - - "1"  Freelancer: realizada por >
Candidatura "1..*" - - "1" Freelancer: elimina <
Candidatura "1..*" - - "1" Freelancer: atualiza <

ProcessoSeriacao "*" - - "1" TipoRegimento: decorre em concordância com >
ProcessoSeriacao "1" - - "1..*" Colaborador: realizado por >
ProcessoSeriacao "1" - - "*" Classificacao: resulta >
ProcessoSeriacao "*" - - "1" Adjudicacao: resulta >

Classificacao "0..1" - - "1" Candidatura: referente a >
Classificacao "*" - - "1" Adjudicacao: leva a >

Administrativo "0..1" - - "1" Utilizador: atua como >

Colaborador "0..1" - - "1" Utilizador: atua como >

Freelancer "0..1" - - "1" Utilizador: atua como >
Freelancer "0..1" - - "1" EnderecoPostal: tem >
Freelancer "1" - - "*" HabilitacaoAcademica: tem >
Freelancer "1" - - "*" ReconhecimentoCT : recebe(u) >


ReconhecimentoCT "*" - - "1" CompetenciaTecnica: relativa a >
ReconhecimentoCT "*" - - "1" GrauProficiencia: reconhe >



AlgoritmoGeradorPasswords "1" - - "*" Utilizador : gera password >

@enduml

PlantUML version 2017.11(Wed Apr 19 17:18:59 WEST 2017)
(GPL source distribution)
Java Runtime: Java(TM) SE Runtime Environment
JVM: Java HotSpot(TM) 64-Bit Server VM
Java Version: 1.8.0_191-b12
Operating System: Mac OS X
OS Version: 10.15.4
Default Encoding: UTF-8
Language: pt
Country: PT
-->
    </g>
</svg>
