<?xml version="1.0" encoding="UTF-8" standalone="no"?><svg xmlns="http://www.w3.org/2000/svg" xmlns:xlink="http://www.w3.org/1999/xlink" contentScriptType="application/ecmascript" contentStyleType="text/css" height="258.4px" preserveAspectRatio="none" style="width:648px;height:258px;" version="1.1" viewBox="0 0 648 258" width="648.8px" zoomAndPan="magnify"><defs><filter height="300%" id="fvbfz351tjdq9" width="300%" x="-1" y="-1"><feGaussianBlur result="blurOut" stdDeviation="1.6"/><feColorMatrix in="blurOut" result="blurOut2" type="matrix" values="0 0 0 0 0 0 0 0 0 0 0 0 0 0 0 0 0 0 .4 0"/><feOffset dx="3.2" dy="3.2" in="blurOut2" result="blurOut3"/><feBlend in="SourceGraphic" in2="blurOut3" mode="normal"/></filter></defs><g><text fill="#000000" font-family="sans-serif" font-size="14.4" lengthAdjust="spacingAndGlyphs" textLength="402.4" x="123.2" y="21.9219">SD_CreatorOrganizacao (detalhe interligação UC 1 e UC 5)</text><rect fill="#FFFFFF" filter="url(#fvbfz351tjdq9)" height="145.2781" style="stroke: #A80036; stroke-width: 0.8;" width="8" x="75.2" y="66.95"/><rect fill="#FFFFFF" filter="url(#fvbfz351tjdq9)" height="120.2297" style="stroke: #A80036; stroke-width: 0.8;" width="8" x="365.2" y="91.9984"/><rect fill="#FFFFFF" filter="url(#fvbfz351tjdq9)" height="24" style="stroke: #A80036; stroke-width: 0.8;" width="8" x="518.8" y="188.2281"/><line style="stroke: #A80036; stroke-width: 0.8; stroke-dasharray: 5.0,5.0;" x1="79.2" x2="79.2" y1="58.95" y2="226.6281"/><line style="stroke: #A80036; stroke-width: 0.8; stroke-dasharray: 5.0,5.0;" x1="368.8" x2="368.8" y1="93.1453" y2="226.6281"/><line style="stroke: #A80036; stroke-width: 0.8; stroke-dasharray: 5.0,5.0;" x1="522.8" x2="522.8" y1="129.5359" y2="226.6281"/><rect fill="#FEFECE" filter="url(#fvbfz351tjdq9)" height="24.3906" style="stroke: #A80036; stroke-width: 1.2000000000000002;" width="142.4" x="6.4" y="30.5594"/><text fill="#000000" font-family="sans-serif" font-size="11.2" lengthAdjust="spacingAndGlyphs" textLength="131.2" x="12" y="46.9875">ro:RegistoOrganizacoes</text><rect fill="#FEFECE" filter="url(#fvbfz351tjdq9)" height="24.3906" style="stroke: #A80036; stroke-width: 1.2000000000000002;" width="142.4" x="6.4" y="225.8281"/><text fill="#000000" font-family="sans-serif" font-size="11.2" lengthAdjust="spacingAndGlyphs" textLength="131.2" x="12" y="242.2563">ro:RegistoOrganizacoes</text><rect fill="#FEFECE" filter="url(#fvbfz351tjdq9)" height="24.3906" style="stroke: #A80036; stroke-width: 1.2000000000000002;" width="103.2" x="316" y="225.8281"/><text fill="#000000" font-family="sans-serif" font-size="11.2" lengthAdjust="spacingAndGlyphs" textLength="92" x="321.6" y="242.2563">org:Organizacao</text><rect fill="#FEFECE" filter="url(#fvbfz351tjdq9)" height="24.3906" style="stroke: #A80036; stroke-width: 1.2000000000000002;" width="129.6" x="456.4" y="225.8281"/><text fill="#000000" font-family="sans-serif" font-size="11.2" lengthAdjust="spacingAndGlyphs" textLength="118.4" x="462" y="242.2563">lc:ListaColaboradores</text><rect fill="#FFFFFF" filter="url(#fvbfz351tjdq9)" height="145.2781" style="stroke: #A80036; stroke-width: 0.8;" width="8" x="75.2" y="66.95"/><rect fill="#FFFFFF" filter="url(#fvbfz351tjdq9)" height="120.2297" style="stroke: #A80036; stroke-width: 0.8;" width="8" x="365.2" y="91.9984"/><rect fill="#FFFFFF" filter="url(#fvbfz351tjdq9)" height="24" style="stroke: #A80036; stroke-width: 0.8;" width="8" x="518.8" y="188.2281"/><polygon fill="#A80036" points="306.4,80.7984,314.4,83.9984,306.4,87.1984,309.6,83.9984" style="stroke: #A80036; stroke-width: 0.8;"/><line style="stroke: #A80036; stroke-width: 0.8; stroke-dasharray: 2.0,2.0;" x1="83.2" x2="311.2" y1="83.9984" y2="83.9984"/><text fill="#000000" font-family="sans-serif" font-size="10.4" font-weight="bold" lengthAdjust="spacingAndGlyphs" textLength="7.2" x="88.8" y="80.2047">1</text><text fill="#000000" font-family="sans-serif" font-size="10.4" lengthAdjust="spacingAndGlyphs" textLength="203.2" x="99.2" y="80.2047">create(nome,NIF,end,tlf,site,email,colab)</text><rect fill="#FEFECE" filter="url(#fvbfz351tjdq9)" height="24.3906" style="stroke: #A80036; stroke-width: 1.2000000000000002;" width="103.2" x="316" y="66.95"/><text fill="#000000" font-family="sans-serif" font-size="11.2" lengthAdjust="spacingAndGlyphs" textLength="92" x="321.6" y="83.3781">org:Organizacao</text><polygon fill="#A80036" points="446.8,117.1891,454.8,120.3891,446.8,123.5891,450,120.3891" style="stroke: #A80036; stroke-width: 0.8;"/><line style="stroke: #A80036; stroke-width: 0.8; stroke-dasharray: 2.0,2.0;" x1="373.2" x2="451.6" y1="120.3891" y2="120.3891"/><text fill="#000000" font-family="sans-serif" font-size="10.4" font-weight="bold" lengthAdjust="spacingAndGlyphs" textLength="7.2" x="378.8" y="116.5953">2</text><text fill="#000000" font-family="sans-serif" font-size="10.4" lengthAdjust="spacingAndGlyphs" textLength="53.6" x="389.2" y="116.5953">create(org)</text><rect fill="#FEFECE" filter="url(#fvbfz351tjdq9)" height="24.3906" style="stroke: #A80036; stroke-width: 1.2000000000000002;" width="129.6" x="456.4" y="103.3406"/><text fill="#000000" font-family="sans-serif" font-size="11.2" lengthAdjust="spacingAndGlyphs" textLength="118.4" x="462" y="119.7688">lc:ListaColaboradores</text><path d="M376.8,143.7313 L376.8,163.7313 L639.2,163.7313 L639.2,151.7313 L631.2,143.7313 L376.8,143.7313 " fill="#FBFB77" filter="url(#fvbfz351tjdq9)" style="stroke: #A80036; stroke-width: 0.8;"/><path d="M631.2,143.7313 L631.2,151.7313 L639.2,151.7313 L631.2,143.7313 " fill="#FBFB77" style="stroke: #A80036; stroke-width: 0.8;"/><text fill="#000000" font-family="sans-serif" font-size="10.4" lengthAdjust="spacingAndGlyphs" textLength="245.6" x="381.6" y="157.7859">ver com atenção o parametro do método "create"</text><polygon fill="#A80036" points="509.2,185.0281,517.2,188.2281,509.2,191.4281,512.4,188.2281" style="stroke: #A80036; stroke-width: 0.8;"/><line style="stroke: #A80036; stroke-width: 0.8; stroke-dasharray: 2.0,2.0;" x1="373.2" x2="514" y1="188.2281" y2="188.2281"/><text fill="#000000" font-family="sans-serif" font-size="10.4" font-weight="bold" lengthAdjust="spacingAndGlyphs" textLength="7.2" x="378.8" y="184.4344">3</text><text fill="#000000" font-family="sans-serif" font-size="10.4" lengthAdjust="spacingAndGlyphs" textLength="113.6" x="389.2" y="184.4344">addColaborador(colab)</text><!--MD5=[b703b8c59f80b91f255ea7ef59de36bd]
@startuml
autonumber

title SD_CreatorOrganizacao (detalhe interligação UC 1 e UC 5)

participant "ro:RegistoOrganizacoes" as ORGS
participant "org:Organizacao" as ORG
participant "lc:ListaColaboradores" as LCOLABS

activate ORGS
ORGS - -> ORG ** : create(nome,NIF,end,tlf,site,email,colab)

activate ORG
ORG - -> LCOLABS ** : create(org)

note right ORG
ver com atenção o parametro do método "create"
end note


ORG - -> LCOLABS : addColaborador(colab)
activate LCOLABS
deactivate LCOLABS

deactivate ORG

deactivate ORGS
@enduml

PlantUML version 1.2020.03beta6(Unknown compile time)
(GPL source distribution)
Java Runtime: OpenJDK Runtime Environment
JVM: OpenJDK 64-Bit Server VM
Java Version: 11.0.5+10-b520.38
Operating System: Mac OS X
Default Encoding: UTF-8
Language: en
Country: PT
--></g></svg>