<?xml version="1.0" encoding="UTF-8"?><svg xmlns="http://www.w3.org/2000/svg" xmlns:xlink="http://www.w3.org/1999/xlink" contentScriptType="application/ecmascript" contentStyleType="text/css" height="2200px" preserveAspectRatio="none" style="width:3389px;height:2200px;" version="1.1" viewBox="0 0 3389 2200" width="3389px" zoomAndPan="magnify">
    <defs>
        <filter height="300%" id="fepgqf4emwz02" width="300%" x="-1" y="-1">
            <feGaussianBlur result="blurOut" stdDeviation="2.0"/>
            <feColorMatrix in="blurOut" result="blurOut2" type="matrix" values="0 0 0 0 0 0 0 0 0 0 0 0 0 0 0 0 0 0 .4 0"/>
            <feOffset dx="4.0" dy="4.0" in="blurOut2" result="blurOut3"/>
            <feBlend in="SourceGraphic" in2="blurOut3" mode="normal"/>
        </filter>
    </defs>
    <g>
        <text fill="#000000" font-family="sans-serif" font-size="14" font-weight="bold" lengthAdjust="spacingAndGlyphs" textLength="275" x="1559" y="23.5352">UC13_SD_SeriarCandidaturaSubmetida</text>
        <rect fill="#FFFFFF" filter="url(#fepgqf4emwz02)" height="1878.7539" style="stroke: #A80036; stroke-width: 1.0;" width="10" x="220" y="256.3281"/>
        <rect fill="#FFFFFF" filter="url(#fepgqf4emwz02)" height="30" style="stroke: #A80036; stroke-width: 1.0;" width="10" x="578" y="285.6387"/>
        <rect fill="#FFFFFF" filter="url(#fepgqf4emwz02)" height="30" style="stroke: #A80036; stroke-width: 1.0;" width="10" x="578" y="369.2598"/>
        <rect fill="#FFFFFF" filter="url(#fepgqf4emwz02)" height="29.3105" style="stroke: #A80036; stroke-width: 1.0;" width="10" x="578" y="487.8809"/>
        <rect fill="#FFFFFF" filter="url(#fepgqf4emwz02)" height="30" style="stroke: #A80036; stroke-width: 1.0;" width="10" x="578" y="587.123"/>
        <rect fill="#FFFFFF" filter="url(#fepgqf4emwz02)" height="136.9316" style="stroke: #A80036; stroke-width: 1.0;" width="10" x="578" y="1031.584"/>
        <rect fill="#FFFFFF" filter="url(#fepgqf4emwz02)" height="30" style="stroke: #A80036; stroke-width: 1.0;" width="10" x="578" y="1204.8262"/>
        <rect fill="#FFFFFF" filter="url(#fepgqf4emwz02)" height="30" style="stroke: #A80036; stroke-width: 1.0;" width="10" x="578" y="1288.4473"/>
        <rect fill="#FFFFFF" filter="url(#fepgqf4emwz02)" height="30" style="stroke: #A80036; stroke-width: 1.0;" width="10" x="578" y="1525.6895"/>
        <rect fill="#FFFFFF" filter="url(#fepgqf4emwz02)" height="30" style="stroke: #A80036; stroke-width: 1.0;" width="10" x="578" y="1762.9316"/>
        <rect fill="#FFFFFF" filter="url(#fepgqf4emwz02)" height="30" style="stroke: #A80036; stroke-width: 1.0;" width="10" x="792" y="1585"/>
        <rect fill="#FFFFFF" filter="url(#fepgqf4emwz02)" height="30" style="stroke: #A80036; stroke-width: 1.0;" width="10" x="792" y="1644.3105"/>
        <rect fill="#FFFFFF" filter="url(#fepgqf4emwz02)" height="30" style="stroke: #A80036; stroke-width: 1.0;" width="10" x="950" y="428.5703"/>
        <rect fill="#FFFFFF" filter="url(#fepgqf4emwz02)" height="30" style="stroke: #A80036; stroke-width: 1.0;" width="10" x="1300" y="646.4336"/>
        <rect fill="#FFFFFF" filter="url(#fepgqf4emwz02)" height="30" style="stroke: #A80036; stroke-width: 1.0;" width="10" x="1300" y="1347.7578"/>
        <rect fill="#FFFFFF" filter="url(#fepgqf4emwz02)" height="30" style="stroke: #A80036; stroke-width: 1.0;" width="10" x="1300" y="1822.2422"/>
        <rect fill="#FFFFFF" filter="url(#fepgqf4emwz02)" height="30" style="stroke: #A80036; stroke-width: 1.0;" width="10" x="1430.5" y="705.7441"/>
        <rect fill="#FFFFFF" filter="url(#fepgqf4emwz02)" height="30" style="stroke: #A80036; stroke-width: 1.0;" width="10" x="1589" y="789.3652"/>
        <rect fill="#FFFFFF" filter="url(#fepgqf4emwz02)" height="30" style="stroke: #A80036; stroke-width: 1.0;" width="10" x="1708" y="1466.3789"/>
        <rect fill="#FFFFFF" filter="url(#fepgqf4emwz02)" height="30" style="stroke: #A80036; stroke-width: 1.0;" width="10" x="1798" y="1703.6211"/>
        <rect fill="#FFFFFF" filter="url(#fepgqf4emwz02)" height="30" style="stroke: #A80036; stroke-width: 1.0;" width="10" x="1938.5" y="1407.0684"/>
        <rect fill="#FFFFFF" filter="url(#fepgqf4emwz02)" height="224.2188" style="stroke: #A80036; stroke-width: 1.0;" width="10" x="2233" y="1881.5527"/>
        <rect fill="#FFFFFF" filter="url(#fepgqf4emwz02)" height="139.5977" style="stroke: #A80036; stroke-width: 1.0;" width="10" x="3026.5" y="848.6758"/>
        <rect fill="#FFFFFF" filter="url(#fepgqf4emwz02)" height="30" style="stroke: #A80036; stroke-width: 1.0;" width="10" x="3026.5" y="1103.2051"/>
        <rect fill="#FFFFFF" filter="url(#fepgqf4emwz02)" height="1797.1328" style="stroke: #000000; stroke-width: 2.0;" width="3307" x="73" y="330.9492"/>
        <rect fill="#FEFECE" filter="url(#fepgqf4emwz02)" height="30.4883" style="stroke: #A80036; stroke-width: 1.5;" width="153" x="2953" y="508.4131"/>
        <text fill="#000000" font-family="sans-serif" font-size="14" lengthAdjust="spacingAndGlyphs" textLength="139" x="2960" y="528.9482">ps:ProcessoSeriacao</text>
        <rect fill="#FFFFFF" filter="url(#fepgqf4emwz02)" height="252.5293" style="stroke: #000000; stroke-width: 2.0;" width="3289.5" x="83" y="751.0547"/>
        <rect fill="#FEFECE" filter="url(#fepgqf4emwz02)" height="46.9766" style="stroke: #A80036; stroke-width: 1.5;" width="106" x="3252.5" y="856.9863"/>
        <text fill="#000000" font-family="sans-serif" font-size="14" lengthAdjust="spacingAndGlyphs" textLength="33" x="3289" y="877.5215">class</text>
        <text fill="#000000" font-family="sans-serif" font-size="14" lengthAdjust="spacingAndGlyphs" textLength="92" x="3259.5" y="894.0098">:Classificacao</text>
        <rect fill="#FFFFFF" filter="url(#fepgqf4emwz02)" height="870.9453" style="stroke: #000000; stroke-width: 2.0;" width="2870" x="83" y="1250.1367"/>
        <rect fill="#FEFECE" filter="url(#fepgqf4emwz02)" height="46.9766" style="stroke: #A80036; stroke-width: 1.5;" width="102" x="2837" y="1974.4844"/>
        <text fill="#000000" font-family="sans-serif" font-size="14" lengthAdjust="spacingAndGlyphs" textLength="43" x="2866.5" y="1995.0195">adjudi</text>
        <text fill="#000000" font-family="sans-serif" font-size="14" lengthAdjust="spacingAndGlyphs" textLength="88" x="2844" y="2011.5078">:Adjudicacao</text>
        <line style="stroke: #A80036; stroke-width: 1.0; stroke-dasharray: 5.0,5.0;" x1="225" x2="225" y1="85.4648" y2="2145.082"/>
        <line style="stroke: #A80036; stroke-width: 1.0; stroke-dasharray: 5.0,5.0;" x1="582.5" x2="582.5" y1="85.4648" y2="2145.082"/>
        <line style="stroke: #A80036; stroke-width: 1.0; stroke-dasharray: 5.0,5.0;" x1="797" x2="797" y1="85.4648" y2="2145.082"/>
        <line style="stroke: #A80036; stroke-width: 1.0; stroke-dasharray: 5.0,5.0;" x1="955" x2="955" y1="85.4648" y2="2145.082"/>
        <line style="stroke: #A80036; stroke-width: 1.0; stroke-dasharray: 5.0,5.0;" x1="1145" x2="1145" y1="85.4648" y2="2145.082"/>
        <line style="stroke: #A80036; stroke-width: 1.0; stroke-dasharray: 5.0,5.0;" x1="1305" x2="1305" y1="85.4648" y2="2145.082"/>
        <line style="stroke: #A80036; stroke-width: 1.0; stroke-dasharray: 5.0,5.0;" x1="1435" x2="1435" y1="85.4648" y2="2145.082"/>
        <line style="stroke: #A80036; stroke-width: 1.0; stroke-dasharray: 5.0,5.0;" x1="1594" x2="1594" y1="85.4648" y2="2145.082"/>
        <line style="stroke: #A80036; stroke-width: 1.0; stroke-dasharray: 5.0,5.0;" x1="1713" x2="1713" y1="85.4648" y2="2145.082"/>
        <line style="stroke: #A80036; stroke-width: 1.0; stroke-dasharray: 5.0,5.0;" x1="1803" x2="1803" y1="85.4648" y2="2145.082"/>
        <line style="stroke: #A80036; stroke-width: 1.0; stroke-dasharray: 5.0,5.0;" x1="1943" x2="1943" y1="85.4648" y2="2145.082"/>
        <line style="stroke: #A80036; stroke-width: 1.0; stroke-dasharray: 5.0,5.0;" x1="2091" x2="2091" y1="85.4648" y2="2145.082"/>
        <line style="stroke: #A80036; stroke-width: 1.0; stroke-dasharray: 5.0,5.0;" x1="2238" x2="2238" y1="85.4648" y2="2145.082"/>
        <line style="stroke: #A80036; stroke-width: 1.0; stroke-dasharray: 5.0,5.0;" x1="2890" x2="2890" y1="2015.4727" y2="2145.082"/>
        <line style="stroke: #A80036; stroke-width: 1.0; stroke-dasharray: 5.0,5.0;" x1="3031" x2="3031" y1="541.1572" y2="2145.082"/>
        <line style="stroke: #A80036; stroke-width: 1.0; stroke-dasharray: 5.0,5.0;" x1="3307.5" x2="3307.5" y1="897.9746" y2="2145.082"/>
        <rect fill="#FEFECE" filter="url(#fepgqf4emwz02)" height="30.4883" style="stroke: #A80036; stroke-width: 1.5;" width="260" x="93" y="49.9766"/>
        <text fill="#000000" font-family="sans-serif" font-size="14" lengthAdjust="spacingAndGlyphs" textLength="246" x="100" y="70.5117">task:SeriarCandidaturaAnuncioTask</text>
        <rect fill="#FEFECE" filter="url(#fepgqf4emwz02)" height="30.4883" style="stroke: #A80036; stroke-width: 1.5;" width="260" x="93" y="2144.082"/>
        <text fill="#000000" font-family="sans-serif" font-size="14" lengthAdjust="spacingAndGlyphs" textLength="246" x="100" y="2164.6172">task:SeriarCandidaturaAnuncioTask</text>
        <rect fill="#FEFECE" filter="url(#fepgqf4emwz02)" height="30.4883" style="stroke: #A80036; stroke-width: 1.5;" width="101" x="530.5" y="49.9766"/>
        <text fill="#000000" font-family="sans-serif" font-size="14" lengthAdjust="spacingAndGlyphs" textLength="87" x="537.5" y="70.5117">anu:Anuncio</text>
        <rect fill="#FEFECE" filter="url(#fepgqf4emwz02)" height="30.4883" style="stroke: #A80036; stroke-width: 1.5;" width="101" x="530.5" y="2144.082"/>
        <text fill="#000000" font-family="sans-serif" font-size="14" lengthAdjust="spacingAndGlyphs" textLength="87" x="537.5" y="2164.6172">anu:Anuncio</text>
        <rect fill="#FEFECE" filter="url(#fepgqf4emwz02)" height="30.4883" style="stroke: #A80036; stroke-width: 1.5;" width="136" x="727" y="49.9766"/>
        <text fill="#000000" font-family="sans-serif" font-size="14" lengthAdjust="spacingAndGlyphs" textLength="122" x="734" y="70.5117">cand:Candidatura</text>
        <rect fill="#FEFECE" filter="url(#fepgqf4emwz02)" height="30.4883" style="stroke: #A80036; stroke-width: 1.5;" width="136" x="727" y="2144.082"/>
        <text fill="#000000" font-family="sans-serif" font-size="14" lengthAdjust="spacingAndGlyphs" textLength="122" x="734" y="2164.6172">cand:Candidatura</text>
        <rect fill="#FEFECE" filter="url(#fepgqf4emwz02)" height="30.4883" style="stroke: #A80036; stroke-width: 1.5;" width="152" x="877" y="49.9766"/>
        <text fill="#000000" font-family="sans-serif" font-size="14" lengthAdjust="spacingAndGlyphs" textLength="138" x="884" y="70.5117">lc:ListaCandidaturas</text>
        <rect fill="#FEFECE" filter="url(#fepgqf4emwz02)" height="30.4883" style="stroke: #A80036; stroke-width: 1.5;" width="152" x="877" y="2144.082"/>
        <text fill="#000000" font-family="sans-serif" font-size="14" lengthAdjust="spacingAndGlyphs" textLength="138" x="884" y="2164.6172">lc:ListaCandidaturas</text>
        <rect fill="#FEFECE" filter="url(#fepgqf4emwz02)" height="30.4883" style="stroke: #A80036; stroke-width: 1.5;" width="200" x="1043" y="49.9766"/>
        <text fill="#000000" font-family="sans-serif" font-size="14" lengthAdjust="spacingAndGlyphs" textLength="186" x="1050" y="70.5117">lstCand:List&lt;Candidatura&gt;</text>
        <rect fill="#FEFECE" filter="url(#fepgqf4emwz02)" height="30.4883" style="stroke: #A80036; stroke-width: 1.5;" width="200" x="1043" y="2144.082"/>
        <text fill="#000000" font-family="sans-serif" font-size="14" lengthAdjust="spacingAndGlyphs" textLength="186" x="1050" y="2164.6172">lstCand:List&lt;Candidatura&gt;</text>
        <rect fill="#FEFECE" filter="url(#fepgqf4emwz02)" height="30.4883" style="stroke: #A80036; stroke-width: 1.5;" width="92" x="1257" y="49.9766"/>
        <text fill="#000000" font-family="sans-serif" font-size="14" lengthAdjust="spacingAndGlyphs" textLength="78" x="1264" y="70.5117">:Plataforma</text>
        <rect fill="#FEFECE" filter="url(#fepgqf4emwz02)" height="30.4883" style="stroke: #A80036; stroke-width: 1.5;" width="92" x="1257" y="2144.082"/>
        <text fill="#000000" font-family="sans-serif" font-size="14" lengthAdjust="spacingAndGlyphs" textLength="78" x="1264" y="2164.6172">:Plataforma</text>
        <rect fill="#FEFECE" filter="url(#fepgqf4emwz02)" height="46.9766" style="stroke: #A80036; stroke-width: 1.5;" width="141" x="1363" y="33.4883"/>
        <text fill="#000000" font-family="sans-serif" font-size="14" lengthAdjust="spacingAndGlyphs" textLength="104" x="1381.5" y="54.0234">&lt;&lt;interface&gt;&gt;</text>
        <text fill="#000000" font-family="sans-serif" font-size="14" lengthAdjust="spacingAndGlyphs" textLength="123" x="1374" y="70.5117">tp:TipoRegimento</text>
        <rect fill="#FEFECE" filter="url(#fepgqf4emwz02)" height="46.9766" style="stroke: #A80036; stroke-width: 1.5;" width="141" x="1363" y="2144.082"/>
        <text fill="#000000" font-family="sans-serif" font-size="14" lengthAdjust="spacingAndGlyphs" textLength="104" x="1381.5" y="2164.6172">&lt;&lt;interface&gt;&gt;</text>
        <text fill="#000000" font-family="sans-serif" font-size="14" lengthAdjust="spacingAndGlyphs" textLength="123" x="1374" y="2181.1055">tp:TipoRegimento</text>
        <rect fill="#FEFECE" filter="url(#fepgqf4emwz02)" height="46.9766" style="stroke: #A80036; stroke-width: 1.5;" width="148" x="1518" y="33.4883"/>
        <text fill="#000000" font-family="sans-serif" font-size="14" lengthAdjust="spacingAndGlyphs" textLength="78" x="1553" y="54.0234">lstCandOrd</text>
        <text fill="#000000" font-family="sans-serif" font-size="14" lengthAdjust="spacingAndGlyphs" textLength="134" x="1525" y="70.5117">:List&lt;Candidatura&gt;</text>
        <rect fill="#FEFECE" filter="url(#fepgqf4emwz02)" height="46.9766" style="stroke: #A80036; stroke-width: 1.5;" width="148" x="1518" y="2144.082"/>
        <text fill="#000000" font-family="sans-serif" font-size="14" lengthAdjust="spacingAndGlyphs" textLength="78" x="1553" y="2164.6172">lstCandOrd</text>
        <text fill="#000000" font-family="sans-serif" font-size="14" lengthAdjust="spacingAndGlyphs" textLength="134" x="1525" y="2181.1055">:List&lt;Candidatura&gt;</text>
        <rect fill="#FEFECE" filter="url(#fepgqf4emwz02)" height="46.9766" style="stroke: #A80036; stroke-width: 1.5;" width="62" x="1680" y="33.4883"/>
        <text fill="#000000" font-family="sans-serif" font-size="14" lengthAdjust="spacingAndGlyphs" textLength="19" x="1701.5" y="54.0234">tar</text>
        <text fill="#000000" font-family="sans-serif" font-size="14" lengthAdjust="spacingAndGlyphs" textLength="48" x="1687" y="70.5117">:Tarefa</text>
        <rect fill="#FEFECE" filter="url(#fepgqf4emwz02)" height="46.9766" style="stroke: #A80036; stroke-width: 1.5;" width="62" x="1680" y="2144.082"/>
        <text fill="#000000" font-family="sans-serif" font-size="14" lengthAdjust="spacingAndGlyphs" textLength="19" x="1701.5" y="2164.6172">tar</text>
        <text fill="#000000" font-family="sans-serif" font-size="14" lengthAdjust="spacingAndGlyphs" textLength="48" x="1687" y="2181.1055">:Tarefa</text>
        <rect fill="#FEFECE" filter="url(#fepgqf4emwz02)" height="46.9766" style="stroke: #A80036; stroke-width: 1.5;" width="90" x="1756" y="33.4883"/>
        <text fill="#000000" font-family="sans-serif" font-size="14" lengthAdjust="spacingAndGlyphs" textLength="27" x="1787.5" y="54.0234">free</text>
        <text fill="#000000" font-family="sans-serif" font-size="14" lengthAdjust="spacingAndGlyphs" textLength="76" x="1763" y="70.5117">:Freelancer</text>
        <rect fill="#FEFECE" filter="url(#fepgqf4emwz02)" height="46.9766" style="stroke: #A80036; stroke-width: 1.5;" width="90" x="1756" y="2144.082"/>
        <text fill="#000000" font-family="sans-serif" font-size="14" lengthAdjust="spacingAndGlyphs" textLength="27" x="1787.5" y="2164.6172">free</text>
        <text fill="#000000" font-family="sans-serif" font-size="14" lengthAdjust="spacingAndGlyphs" textLength="76" x="1763" y="2181.1055">:Freelancer</text>
        <rect fill="#FEFECE" filter="url(#fepgqf4emwz02)" height="46.9766" style="stroke: #A80036; stroke-width: 1.5;" width="163" x="1860" y="33.4883"/>
        <text fill="#000000" font-family="sans-serif" font-size="14" lengthAdjust="spacingAndGlyphs" textLength="30" x="1926.5" y="54.0234">rorg</text>
        <text fill="#000000" font-family="sans-serif" font-size="14" lengthAdjust="spacingAndGlyphs" textLength="149" x="1867" y="70.5117">:RegistoOrganizacoes</text>
        <rect fill="#FEFECE" filter="url(#fepgqf4emwz02)" height="46.9766" style="stroke: #A80036; stroke-width: 1.5;" width="163" x="1860" y="2144.082"/>
        <text fill="#000000" font-family="sans-serif" font-size="14" lengthAdjust="spacingAndGlyphs" textLength="30" x="1926.5" y="2164.6172">rorg</text>
        <text fill="#000000" font-family="sans-serif" font-size="14" lengthAdjust="spacingAndGlyphs" textLength="149" x="1867" y="2181.1055">:RegistoOrganizacoes</text>
        <rect fill="#FEFECE" filter="url(#fepgqf4emwz02)" height="46.9766" style="stroke: #A80036; stroke-width: 1.5;" width="105" x="2037" y="33.4883"/>
        <text fill="#000000" font-family="sans-serif" font-size="14" lengthAdjust="spacingAndGlyphs" textLength="24" x="2077.5" y="54.0234">org</text>
        <text fill="#000000" font-family="sans-serif" font-size="14" lengthAdjust="spacingAndGlyphs" textLength="91" x="2044" y="70.5117">:Organizacao</text>
        <rect fill="#FEFECE" filter="url(#fepgqf4emwz02)" height="46.9766" style="stroke: #A80036; stroke-width: 1.5;" width="105" x="2037" y="2144.082"/>
        <text fill="#000000" font-family="sans-serif" font-size="14" lengthAdjust="spacingAndGlyphs" textLength="24" x="2077.5" y="2164.6172">org</text>
        <text fill="#000000" font-family="sans-serif" font-size="14" lengthAdjust="spacingAndGlyphs" textLength="91" x="2044" y="2181.1055">:Organizacao</text>
        <rect fill="#FEFECE" filter="url(#fepgqf4emwz02)" height="46.9766" style="stroke: #A80036; stroke-width: 1.5;" width="160" x="2156" y="33.4883"/>
        <text fill="#000000" font-family="sans-serif" font-size="14" lengthAdjust="spacingAndGlyphs" textLength="49" x="2211.5" y="54.0234">radjudi</text>
        <text fill="#000000" font-family="sans-serif" font-size="14" lengthAdjust="spacingAndGlyphs" textLength="146" x="2163" y="70.5117">:RegistoAdjudicacoes</text>
        <rect fill="#FEFECE" filter="url(#fepgqf4emwz02)" height="46.9766" style="stroke: #A80036; stroke-width: 1.5;" width="160" x="2156" y="2144.082"/>
        <text fill="#000000" font-family="sans-serif" font-size="14" lengthAdjust="spacingAndGlyphs" textLength="49" x="2211.5" y="2164.6172">radjudi</text>
        <text fill="#000000" font-family="sans-serif" font-size="14" lengthAdjust="spacingAndGlyphs" textLength="146" x="2163" y="2181.1055">:RegistoAdjudicacoes</text>
        <rect fill="#FEFECE" filter="url(#fepgqf4emwz02)" height="46.9766" style="stroke: #A80036; stroke-width: 1.5;" width="102" x="2837" y="2144.082"/>
        <text fill="#000000" font-family="sans-serif" font-size="14" lengthAdjust="spacingAndGlyphs" textLength="43" x="2866.5" y="2164.6172">adjudi</text>
        <text fill="#000000" font-family="sans-serif" font-size="14" lengthAdjust="spacingAndGlyphs" textLength="88" x="2844" y="2181.1055">:Adjudicacao</text>
        <rect fill="#FEFECE" filter="url(#fepgqf4emwz02)" height="30.4883" style="stroke: #A80036; stroke-width: 1.5;" width="153" x="2953" y="2144.082"/>
        <text fill="#000000" font-family="sans-serif" font-size="14" lengthAdjust="spacingAndGlyphs" textLength="139" x="2960" y="2164.6172">ps:ProcessoSeriacao</text>
        <rect fill="#FEFECE" filter="url(#fepgqf4emwz02)" height="46.9766" style="stroke: #A80036; stroke-width: 1.5;" width="106" x="3252.5" y="2144.082"/>
        <text fill="#000000" font-family="sans-serif" font-size="14" lengthAdjust="spacingAndGlyphs" textLength="33" x="3289" y="2164.6172">class</text>
        <text fill="#000000" font-family="sans-serif" font-size="14" lengthAdjust="spacingAndGlyphs" textLength="92" x="3259.5" y="2181.1055">:Classificacao</text>
        <rect fill="#FFFFFF" filter="url(#fepgqf4emwz02)" height="1878.7539" style="stroke: #A80036; stroke-width: 1.0;" width="10" x="220" y="256.3281"/>
        <rect fill="#FFFFFF" filter="url(#fepgqf4emwz02)" height="30" style="stroke: #A80036; stroke-width: 1.0;" width="10" x="578" y="285.6387"/>
        <rect fill="#FFFFFF" filter="url(#fepgqf4emwz02)" height="30" style="stroke: #A80036; stroke-width: 1.0;" width="10" x="578" y="369.2598"/>
        <rect fill="#FFFFFF" filter="url(#fepgqf4emwz02)" height="29.3105" style="stroke: #A80036; stroke-width: 1.0;" width="10" x="578" y="487.8809"/>
        <rect fill="#FFFFFF" filter="url(#fepgqf4emwz02)" height="30" style="stroke: #A80036; stroke-width: 1.0;" width="10" x="578" y="587.123"/>
        <rect fill="#FFFFFF" filter="url(#fepgqf4emwz02)" height="136.9316" style="stroke: #A80036; stroke-width: 1.0;" width="10" x="578" y="1031.584"/>
        <rect fill="#FFFFFF" filter="url(#fepgqf4emwz02)" height="30" style="stroke: #A80036; stroke-width: 1.0;" width="10" x="578" y="1204.8262"/>
        <rect fill="#FFFFFF" filter="url(#fepgqf4emwz02)" height="30" style="stroke: #A80036; stroke-width: 1.0;" width="10" x="578" y="1288.4473"/>
        <rect fill="#FFFFFF" filter="url(#fepgqf4emwz02)" height="30" style="stroke: #A80036; stroke-width: 1.0;" width="10" x="578" y="1525.6895"/>
        <rect fill="#FFFFFF" filter="url(#fepgqf4emwz02)" height="30" style="stroke: #A80036; stroke-width: 1.0;" width="10" x="578" y="1762.9316"/>
        <rect fill="#FFFFFF" filter="url(#fepgqf4emwz02)" height="30" style="stroke: #A80036; stroke-width: 1.0;" width="10" x="792" y="1585"/>
        <rect fill="#FFFFFF" filter="url(#fepgqf4emwz02)" height="30" style="stroke: #A80036; stroke-width: 1.0;" width="10" x="792" y="1644.3105"/>
        <rect fill="#FFFFFF" filter="url(#fepgqf4emwz02)" height="30" style="stroke: #A80036; stroke-width: 1.0;" width="10" x="950" y="428.5703"/>
        <rect fill="#FFFFFF" filter="url(#fepgqf4emwz02)" height="30" style="stroke: #A80036; stroke-width: 1.0;" width="10" x="1300" y="646.4336"/>
        <rect fill="#FFFFFF" filter="url(#fepgqf4emwz02)" height="30" style="stroke: #A80036; stroke-width: 1.0;" width="10" x="1300" y="1347.7578"/>
        <rect fill="#FFFFFF" filter="url(#fepgqf4emwz02)" height="30" style="stroke: #A80036; stroke-width: 1.0;" width="10" x="1300" y="1822.2422"/>
        <rect fill="#FFFFFF" filter="url(#fepgqf4emwz02)" height="30" style="stroke: #A80036; stroke-width: 1.0;" width="10" x="1430.5" y="705.7441"/>
        <rect fill="#FFFFFF" filter="url(#fepgqf4emwz02)" height="30" style="stroke: #A80036; stroke-width: 1.0;" width="10" x="1589" y="789.3652"/>
        <rect fill="#FFFFFF" filter="url(#fepgqf4emwz02)" height="30" style="stroke: #A80036; stroke-width: 1.0;" width="10" x="1708" y="1466.3789"/>
        <rect fill="#FFFFFF" filter="url(#fepgqf4emwz02)" height="30" style="stroke: #A80036; stroke-width: 1.0;" width="10" x="1798" y="1703.6211"/>
        <rect fill="#FFFFFF" filter="url(#fepgqf4emwz02)" height="30" style="stroke: #A80036; stroke-width: 1.0;" width="10" x="1938.5" y="1407.0684"/>
        <rect fill="#FFFFFF" filter="url(#fepgqf4emwz02)" height="224.2188" style="stroke: #A80036; stroke-width: 1.0;" width="10" x="2233" y="1881.5527"/>
        <rect fill="#FFFFFF" filter="url(#fepgqf4emwz02)" height="139.5977" style="stroke: #A80036; stroke-width: 1.0;" width="10" x="3026.5" y="848.6758"/>
        <rect fill="#FFFFFF" filter="url(#fepgqf4emwz02)" height="30" style="stroke: #A80036; stroke-width: 1.0;" width="10" x="3026.5" y="1103.2051"/>
        <polygon fill="#FBFB77" filter="url(#fepgqf4emwz02)" points="1501,100.4648,1501,155.4648,1683,155.4648,1683,110.4648,1673,100.4648,1501,100.4648" style="stroke: #A80036; stroke-width: 1.0;"/>
        <line style="stroke: #A80036; stroke-width: 1.0;" x1="1673" x2="1673" y1="100.4648" y2="110.4648"/>
        <line style="stroke: #A80036; stroke-width: 1.0;" x1="1683" x2="1673" y1="110.4648" y2="110.4648"/>
        <text fill="#000000" font-family="sans-serif" font-size="13" lengthAdjust="spacingAndGlyphs" textLength="131" x="1507" y="118.0332">lista de candidaturas</text>
        <text fill="#000000" font-family="sans-serif" font-size="13" lengthAdjust="spacingAndGlyphs" textLength="118" x="1511" y="133.3438">ordenada pelo tipo</text>
        <text fill="#000000" font-family="sans-serif" font-size="13" lengthAdjust="spacingAndGlyphs" textLength="157" x="1511" y="148.6543">de regimento do anuncio</text>
        <polygon fill="#FBFB77" filter="url(#fepgqf4emwz02)" points="1339,170.3965,1339,225.3965,1527,225.3965,1527,180.3965,1517,170.3965,1339,170.3965" style="stroke: #A80036; stroke-width: 1.0;"/>
        <line style="stroke: #A80036; stroke-width: 1.0;" x1="1517" x2="1517" y1="170.3965" y2="180.3965"/>
        <line style="stroke: #A80036; stroke-width: 1.0;" x1="1527" x2="1517" y1="180.3965" y2="180.3965"/>
        <text fill="#000000" font-family="sans-serif" font-size="13" lengthAdjust="spacingAndGlyphs" textLength="118" x="1345" y="187.9648">É uma instância de</text>
        <text fill="#000000" font-family="sans-serif" font-size="13" lengthAdjust="spacingAndGlyphs" textLength="125" x="1349" y="203.2754">qualquer classe que</text>
        <text fill="#000000" font-family="sans-serif" font-size="13" lengthAdjust="spacingAndGlyphs" textLength="163" x="1349" y="218.5859">implemente esta interface</text>
        <polygon fill="#A80036" points="208,252.3281,218,256.3281,208,260.3281,212,256.3281" style="stroke: #A80036; stroke-width: 1.0;"/>
        <line style="stroke: #A80036; stroke-width: 1.0;" x1="3" x2="214" y1="256.3281" y2="256.3281"/>
        <text fill="#000000" font-family="sans-serif" font-size="13" font-weight="bold" lengthAdjust="spacingAndGlyphs" textLength="9" x="10" y="251.8965">1</text>
        <text fill="#000000" font-family="sans-serif" font-size="13" lengthAdjust="spacingAndGlyphs" textLength="185" x="23" y="251.8965">SeriarCandidaturaSubmetida()</text>
        <polygon fill="#A80036" points="566,281.6387,576,285.6387,566,289.6387,570,285.6387" style="stroke: #A80036; stroke-width: 1.0;"/>
        <line style="stroke: #A80036; stroke-width: 1.0;" x1="230" x2="572" y1="285.6387" y2="285.6387"/>
        <text fill="#000000" font-family="sans-serif" font-size="13" font-weight="bold" lengthAdjust="spacingAndGlyphs" textLength="9" x="237" y="281.207">2</text>
        <text fill="#000000" font-family="sans-serif" font-size="13" lengthAdjust="spacingAndGlyphs" textLength="244" x="250" y="281.207">primeiraSeriacao = isPrimeiraSeriacao()</text>
        <rect fill="none" height="1797.1328" style="stroke: #000000; stroke-width: 2.0;" width="3307" x="73" y="330.9492"/>
        <polygon fill="#EEEEEE" points="73,330.9492,140,330.9492,140,337.9492,130,347.9492,73,347.9492,73,330.9492" style="stroke: #000000; stroke-width: 2.0;"/>
        <text fill="#000000" font-family="sans-serif" font-size="13" font-weight="bold" lengthAdjust="spacingAndGlyphs" textLength="22" x="88" y="344.5176">opt</text>
        <a target="_top" xlink:actuate="onRequest" xlink:href="" xlink:show="new" xlink:title="" xlink:type="simple">
            <text fill="#0000FF" font-family="sans-serif" font-size="11" font-weight="bold" lengthAdjust="spacingAndGlyphs" text-decoration="underline" textLength="142" x="155" y="343.584">primeiraSeriacao == true</text>
            <line style="stroke: #0000FF; stroke-width: 1.0;" x1="155" x2="297" y1="345.584" y2="345.584"/>
        </a>
        <polygon fill="#A80036" points="566,365.2598,576,369.2598,566,373.2598,570,369.2598" style="stroke: #A80036; stroke-width: 1.0;"/>
        <line style="stroke: #A80036; stroke-width: 1.0;" x1="230" x2="572" y1="369.2598" y2="369.2598"/>
        <text fill="#000000" font-family="sans-serif" font-size="13" font-weight="bold" lengthAdjust="spacingAndGlyphs" textLength="9" x="237" y="364.8281">3</text>
        <text fill="#000000" font-family="sans-serif" font-size="13" lengthAdjust="spacingAndGlyphs" textLength="170" x="250" y="364.8281">lc = getListaCandidaturas()</text>
        <polygon fill="#A80036" points="938,424.5703,948,428.5703,938,432.5703,942,428.5703" style="stroke: #A80036; stroke-width: 1.0;"/>
        <line style="stroke: #A80036; stroke-width: 1.0;" x1="230" x2="944" y1="428.5703" y2="428.5703"/>
        <text fill="#000000" font-family="sans-serif" font-size="13" font-weight="bold" lengthAdjust="spacingAndGlyphs" textLength="9" x="237" y="424.1387">4</text>
        <text fill="#000000" font-family="sans-serif" font-size="13" lengthAdjust="spacingAndGlyphs" textLength="207" x="250" y="424.1387">lstCand = getListaCandidaturas()</text>
        <polygon fill="#A80036" points="566,483.8809,576,487.8809,566,491.8809,570,487.8809" style="stroke: #A80036; stroke-width: 1.0;"/>
        <line style="stroke: #A80036; stroke-width: 1.0;" x1="230" x2="572" y1="487.8809" y2="487.8809"/>
        <text fill="#000000" font-family="sans-serif" font-size="13" font-weight="bold" lengthAdjust="spacingAndGlyphs" textLength="9" x="237" y="483.4492">5</text>
        <text fill="#000000" font-family="sans-serif" font-size="13" lengthAdjust="spacingAndGlyphs" textLength="180" x="250" y="483.4492">ps = novoProcessoSeriacao()</text>
        <polygon fill="#A80036" points="2941,513.1914,2951,517.1914,2941,521.1914,2945,517.1914" style="stroke: #A80036; stroke-width: 1.0;"/>
        <line style="stroke: #A80036; stroke-width: 1.0; stroke-dasharray: 2.0,2.0;" x1="583" x2="2947" y1="517.1914" y2="517.1914"/>
        <text fill="#000000" font-family="sans-serif" font-size="13" font-weight="bold" lengthAdjust="spacingAndGlyphs" textLength="9" x="590" y="512.7598">6</text>
        <text fill="#000000" font-family="sans-serif" font-size="13" lengthAdjust="spacingAndGlyphs" textLength="94" x="603" y="512.7598">create(tipoReg)</text>
        <rect fill="#FEFECE" filter="url(#fepgqf4emwz02)" height="30.4883" style="stroke: #A80036; stroke-width: 1.5;" width="153" x="2953" y="508.4131"/>
        <text fill="#000000" font-family="sans-serif" font-size="14" lengthAdjust="spacingAndGlyphs" textLength="139" x="2960" y="528.9482">ps:ProcessoSeriacao</text>
        <polygon fill="#FBFB77" filter="url(#fepgqf4emwz02)" points="3114.5,501.1914,3114.5,556.1914,3360.5,556.1914,3360.5,511.1914,3350.5,501.1914,3114.5,501.1914" style="stroke: #A80036; stroke-width: 1.0;"/>
        <line style="stroke: #A80036; stroke-width: 1.0;" x1="3350.5" x2="3350.5" y1="501.1914" y2="511.1914"/>
        <line style="stroke: #A80036; stroke-width: 1.0;" x1="3360.5" x2="3350.5" y1="511.1914" y2="511.1914"/>
        <text fill="#000000" font-family="sans-serif" font-size="13" lengthAdjust="spacingAndGlyphs" textLength="223" x="3120.5" y="518.7598">"tipoReg" refere-se a uma instância</text>
        <text fill="#000000" font-family="sans-serif" font-size="13" lengthAdjust="spacingAndGlyphs" textLength="225" x="3120.5" y="534.0703">de TipoRegimento, aquela pelo qual</text>
        <text fill="#000000" font-family="sans-serif" font-size="13" lengthAdjust="spacingAndGlyphs" textLength="140" x="3120.5" y="549.3809">se que rege o Anúncio</text>
        <polygon fill="#A80036" points="566,583.123,576,587.123,566,591.123,570,587.123" style="stroke: #A80036; stroke-width: 1.0;"/>
        <line style="stroke: #A80036; stroke-width: 1.0;" x1="230" x2="572" y1="587.123" y2="587.123"/>
        <text fill="#000000" font-family="sans-serif" font-size="13" font-weight="bold" lengthAdjust="spacingAndGlyphs" textLength="9" x="237" y="582.6914">7</text>
        <text fill="#000000" font-family="sans-serif" font-size="13" lengthAdjust="spacingAndGlyphs" textLength="189" x="250" y="582.6914">tipoReg = getTipoRegimento()</text>
        <polygon fill="#A80036" points="1288,642.4336,1298,646.4336,1288,650.4336,1292,646.4336" style="stroke: #A80036; stroke-width: 1.0;"/>
        <line style="stroke: #A80036; stroke-width: 1.0;" x1="230" x2="1294" y1="646.4336" y2="646.4336"/>
        <text fill="#000000" font-family="sans-serif" font-size="13" font-weight="bold" lengthAdjust="spacingAndGlyphs" textLength="9" x="237" y="642.002">8</text>
        <text fill="#000000" font-family="sans-serif" font-size="13" lengthAdjust="spacingAndGlyphs" textLength="174" x="250" y="642.002">tp = getAlgoritmoSeriacao()</text>
        <polygon fill="#A80036" points="1418.5,701.7441,1428.5,705.7441,1418.5,709.7441,1422.5,705.7441" style="stroke: #A80036; stroke-width: 1.0;"/>
        <line style="stroke: #A80036; stroke-width: 1.0;" x1="230" x2="1424.5" y1="705.7441" y2="705.7441"/>
        <text fill="#000000" font-family="sans-serif" font-size="13" font-weight="bold" lengthAdjust="spacingAndGlyphs" textLength="9" x="237" y="701.3125">9</text>
        <text fill="#000000" font-family="sans-serif" font-size="13" lengthAdjust="spacingAndGlyphs" textLength="333" x="250" y="701.3125">lstCandOrd = seriarListaCandidatos(lstCand,tipoReg)</text>
        <rect fill="none" height="252.5293" style="stroke: #000000; stroke-width: 2.0;" width="3289.5" x="83" y="751.0547"/>
        <polygon fill="#EEEEEE" points="83,751.0547,157,751.0547,157,758.0547,147,768.0547,83,768.0547,83,751.0547" style="stroke: #000000; stroke-width: 2.0;"/>
        <text fill="#000000" font-family="sans-serif" font-size="13" font-weight="bold" lengthAdjust="spacingAndGlyphs" textLength="29" x="98" y="764.623">loop</text>
        <a target="_top" xlink:actuate="onRequest" xlink:href="" xlink:show="new" xlink:title="" xlink:type="simple">
            <text fill="#0000FF" font-family="sans-serif" font-size="11" font-weight="bold" lengthAdjust="spacingAndGlyphs" text-decoration="underline" textLength="377" x="172" y="763.6895">até que a lista de candidaturas ordenada tenha sido toda percorrida</text>
            <line style="stroke: #0000FF; stroke-width: 1.0;" x1="172" x2="549" y1="765.6895" y2="765.6895"/>
        </a>
        <polygon fill="#A80036" points="1577,785.3652,1587,789.3652,1577,793.3652,1581,789.3652" style="stroke: #A80036; stroke-width: 1.0;"/>
        <line style="stroke: #A80036; stroke-width: 1.0;" x1="230" x2="1583" y1="789.3652" y2="789.3652"/>
        <text fill="#000000" font-family="sans-serif" font-size="13" font-weight="bold" lengthAdjust="spacingAndGlyphs" textLength="18" x="237" y="784.9336">10</text>
        <text fill="#000000" font-family="sans-serif" font-size="13" lengthAdjust="spacingAndGlyphs" textLength="80" x="259" y="784.9336">cand = get(i)</text>
        <polygon fill="#A80036" points="3014.5,844.6758,3024.5,848.6758,3014.5,852.6758,3018.5,848.6758" style="stroke: #A80036; stroke-width: 1.0;"/>
        <line style="stroke: #A80036; stroke-width: 1.0;" x1="230" x2="3020.5" y1="848.6758" y2="848.6758"/>
        <text fill="#000000" font-family="sans-serif" font-size="13" font-weight="bold" lengthAdjust="spacingAndGlyphs" textLength="18" x="237" y="844.2441">11</text>
        <text fill="#000000" font-family="sans-serif" font-size="13" lengthAdjust="spacingAndGlyphs" textLength="188" x="259" y="844.2441">addClassificacao(cand,ordem)</text>
        <polygon fill="#A80036" points="3240.5,873.9863,3250.5,877.9863,3240.5,881.9863,3244.5,877.9863" style="stroke: #A80036; stroke-width: 1.0;"/>
        <line style="stroke: #A80036; stroke-width: 1.0; stroke-dasharray: 2.0,2.0;" x1="3036.5" x2="3246.5" y1="877.9863" y2="877.9863"/>
        <text fill="#000000" font-family="sans-serif" font-size="13" font-weight="bold" lengthAdjust="spacingAndGlyphs" textLength="18" x="3043.5" y="873.5547">12</text>
        <text fill="#000000" font-family="sans-serif" font-size="13" lengthAdjust="spacingAndGlyphs" textLength="170" x="3065.5" y="873.5547">class = create(cand,ordem)</text>
        <rect fill="#FEFECE" filter="url(#fepgqf4emwz02)" height="46.9766" style="stroke: #A80036; stroke-width: 1.5;" width="106" x="3252.5" y="856.9863"/>
        <text fill="#000000" font-family="sans-serif" font-size="14" lengthAdjust="spacingAndGlyphs" textLength="33" x="3289" y="877.5215">class</text>
        <text fill="#000000" font-family="sans-serif" font-size="14" lengthAdjust="spacingAndGlyphs" textLength="92" x="3259.5" y="894.0098">:Classificacao</text>
        <line style="stroke: #A80036; stroke-width: 1.0;" x1="3036.5" x2="3078.5" y1="940.2734" y2="940.2734"/>
        <line style="stroke: #A80036; stroke-width: 1.0;" x1="3078.5" x2="3078.5" y1="940.2734" y2="953.2734"/>
        <line style="stroke: #A80036; stroke-width: 1.0;" x1="3037.5" x2="3078.5" y1="953.2734" y2="953.2734"/>
        <polygon fill="#A80036" points="3047.5,949.2734,3037.5,953.2734,3047.5,957.2734,3043.5,953.2734" style="stroke: #A80036; stroke-width: 1.0;"/>
        <text fill="#000000" font-family="sans-serif" font-size="13" font-weight="bold" lengthAdjust="spacingAndGlyphs" textLength="18" x="3043.5" y="935.5313">13</text>
        <text fill="#000000" font-family="sans-serif" font-size="13" lengthAdjust="spacingAndGlyphs" textLength="160" x="3065.5" y="935.5313">validaClassificacao(class)</text>
        <line style="stroke: #A80036; stroke-width: 1.0;" x1="3036.5" x2="3078.5" y1="987.584" y2="987.584"/>
        <line style="stroke: #A80036; stroke-width: 1.0;" x1="3078.5" x2="3078.5" y1="987.584" y2="1000.584"/>
        <line style="stroke: #A80036; stroke-width: 1.0;" x1="3031.5" x2="3078.5" y1="1000.584" y2="1000.584"/>
        <polygon fill="#A80036" points="3041.5,996.584,3031.5,1000.584,3041.5,1004.584,3037.5,1000.584" style="stroke: #A80036; stroke-width: 1.0;"/>
        <text fill="#000000" font-family="sans-serif" font-size="13" font-weight="bold" lengthAdjust="spacingAndGlyphs" textLength="18" x="3043.5" y="982.8418">14</text>
        <text fill="#000000" font-family="sans-serif" font-size="13" lengthAdjust="spacingAndGlyphs" textLength="146" x="3065.5" y="982.8418">addClassificacao(class)</text>
        <polygon fill="#A80036" points="566,1027.584,576,1031.584,566,1035.584,570,1031.584" style="stroke: #A80036; stroke-width: 1.0;"/>
        <line style="stroke: #A80036; stroke-width: 1.0;" x1="230" x2="572" y1="1031.584" y2="1031.584"/>
        <text fill="#000000" font-family="sans-serif" font-size="13" font-weight="bold" lengthAdjust="spacingAndGlyphs" textLength="18" x="237" y="1027.1523">15</text>
        <text fill="#000000" font-family="sans-serif" font-size="13" lengthAdjust="spacingAndGlyphs" textLength="174" x="259" y="1027.1523">registaProcessoSeriacao(ps)</text>
        <line style="stroke: #A80036; stroke-width: 1.0;" x1="588" x2="630" y1="1061.2051" y2="1061.2051"/>
        <line style="stroke: #A80036; stroke-width: 1.0;" x1="630" x2="630" y1="1061.2051" y2="1074.2051"/>
        <line style="stroke: #A80036; stroke-width: 1.0;" x1="589" x2="630" y1="1074.2051" y2="1074.2051"/>
        <polygon fill="#A80036" points="599,1070.2051,589,1074.2051,599,1078.2051,595,1074.2051" style="stroke: #A80036; stroke-width: 1.0;"/>
        <text fill="#000000" font-family="sans-serif" font-size="13" font-weight="bold" lengthAdjust="spacingAndGlyphs" textLength="18" x="595" y="1056.4629">16</text>
        <text fill="#000000" font-family="sans-serif" font-size="13" lengthAdjust="spacingAndGlyphs" textLength="168" x="617" y="1056.4629">validaProcessoSeriacao(ps)</text>
        <polygon fill="#A80036" points="3014.5,1099.2051,3024.5,1103.2051,3014.5,1107.2051,3018.5,1103.2051" style="stroke: #A80036; stroke-width: 1.0;"/>
        <line style="stroke: #A80036; stroke-width: 1.0;" x1="588" x2="3020.5" y1="1103.2051" y2="1103.2051"/>
        <text fill="#000000" font-family="sans-serif" font-size="13" font-weight="bold" lengthAdjust="spacingAndGlyphs" textLength="18" x="595" y="1098.7734">17</text>
        <text fill="#000000" font-family="sans-serif" font-size="13" lengthAdjust="spacingAndGlyphs" textLength="45" x="617" y="1098.7734">valida()</text>
        <line style="stroke: #A80036; stroke-width: 1.0;" x1="588" x2="630" y1="1167.8262" y2="1167.8262"/>
        <line style="stroke: #A80036; stroke-width: 1.0;" x1="630" x2="630" y1="1167.8262" y2="1180.8262"/>
        <line style="stroke: #A80036; stroke-width: 1.0;" x1="583" x2="630" y1="1180.8262" y2="1180.8262"/>
        <polygon fill="#A80036" points="593,1176.8262,583,1180.8262,593,1184.8262,589,1180.8262" style="stroke: #A80036; stroke-width: 1.0;"/>
        <text fill="#000000" font-family="sans-serif" font-size="13" font-weight="bold" lengthAdjust="spacingAndGlyphs" textLength="18" x="595" y="1163.084">18</text>
        <text fill="#000000" font-family="sans-serif" font-size="13" lengthAdjust="spacingAndGlyphs" textLength="150" x="617" y="1163.084">setProcessoSeriacao(ps)</text>
        <polygon fill="#A80036" points="566,1200.8262,576,1204.8262,566,1208.8262,570,1204.8262" style="stroke: #A80036; stroke-width: 1.0;"/>
        <line style="stroke: #A80036; stroke-width: 1.0;" x1="230" x2="572" y1="1204.8262" y2="1204.8262"/>
        <text fill="#000000" font-family="sans-serif" font-size="13" font-weight="bold" lengthAdjust="spacingAndGlyphs" textLength="18" x="237" y="1200.3945">19</text>
        <text fill="#000000" font-family="sans-serif" font-size="13" lengthAdjust="spacingAndGlyphs" textLength="307" x="259" y="1200.3945">atribuicaoObrigatoria = isAtribuicaoObrigatoria()</text>
        <rect fill="none" height="870.9453" style="stroke: #000000; stroke-width: 2.0;" width="2870" x="83" y="1250.1367"/>
        <polygon fill="#EEEEEE" points="83,1250.1367,150,1250.1367,150,1257.1367,140,1267.1367,83,1267.1367,83,1250.1367" style="stroke: #000000; stroke-width: 2.0;"/>
        <text fill="#000000" font-family="sans-serif" font-size="13" font-weight="bold" lengthAdjust="spacingAndGlyphs" textLength="22" x="98" y="1263.7051">opt</text>
        <a target="_top" xlink:actuate="onRequest" xlink:href="" xlink:show="new" xlink:title="" xlink:type="simple">
            <text fill="#0000FF" font-family="sans-serif" font-size="11" font-weight="bold" lengthAdjust="spacingAndGlyphs" text-decoration="underline" textLength="168" x="165" y="1262.7715">atribuicaoObrigatoria == true</text>
            <line style="stroke: #0000FF; stroke-width: 1.0;" x1="165" x2="333" y1="1264.7715" y2="1264.7715"/>
        </a>
        <polygon fill="#A80036" points="566,1284.4473,576,1288.4473,566,1292.4473,570,1288.4473" style="stroke: #A80036; stroke-width: 1.0;"/>
        <line style="stroke: #A80036; stroke-width: 1.0;" x1="230" x2="572" y1="1288.4473" y2="1288.4473"/>
        <text fill="#000000" font-family="sans-serif" font-size="13" font-weight="bold" lengthAdjust="spacingAndGlyphs" textLength="18" x="237" y="1284.0156">20</text>
        <text fill="#000000" font-family="sans-serif" font-size="13" lengthAdjust="spacingAndGlyphs" textLength="102" x="259" y="1284.0156">tar = getTarefa()</text>
        <polygon fill="#A80036" points="1288,1343.7578,1298,1347.7578,1288,1351.7578,1292,1347.7578" style="stroke: #A80036; stroke-width: 1.0;"/>
        <line style="stroke: #A80036; stroke-width: 1.0;" x1="230" x2="1294" y1="1347.7578" y2="1347.7578"/>
        <text fill="#000000" font-family="sans-serif" font-size="13" font-weight="bold" lengthAdjust="spacingAndGlyphs" textLength="18" x="237" y="1343.3262">21</text>
        <text fill="#000000" font-family="sans-serif" font-size="13" lengthAdjust="spacingAndGlyphs" textLength="204" x="259" y="1343.3262">rorg = getRegistoOrganizacoes()</text>
        <polygon fill="#A80036" points="1926.5,1403.0684,1936.5,1407.0684,1926.5,1411.0684,1930.5,1407.0684" style="stroke: #A80036; stroke-width: 1.0;"/>
        <line style="stroke: #A80036; stroke-width: 1.0;" x1="230" x2="1932.5" y1="1407.0684" y2="1407.0684"/>
        <text fill="#000000" font-family="sans-serif" font-size="13" font-weight="bold" lengthAdjust="spacingAndGlyphs" textLength="18" x="237" y="1402.6367">22</text>
        <text fill="#000000" font-family="sans-serif" font-size="13" lengthAdjust="spacingAndGlyphs" textLength="216" x="259" y="1402.6367">org = getOrganizacaobyTarefa(tar)</text>
        <polygon fill="#A80036" points="1696,1462.3789,1706,1466.3789,1696,1470.3789,1700,1466.3789" style="stroke: #A80036; stroke-width: 1.0;"/>
        <line style="stroke: #A80036; stroke-width: 1.0;" x1="230" x2="1702" y1="1466.3789" y2="1466.3789"/>
        <text fill="#000000" font-family="sans-serif" font-size="13" font-weight="bold" lengthAdjust="spacingAndGlyphs" textLength="18" x="237" y="1461.9473">23</text>
        <text fill="#000000" font-family="sans-serif" font-size="13" lengthAdjust="spacingAndGlyphs" textLength="176" x="259" y="1461.9473">descTarefa = getDescricao()</text>
        <polygon fill="#A80036" points="566,1521.6895,576,1525.6895,566,1529.6895,570,1525.6895" style="stroke: #A80036; stroke-width: 1.0;"/>
        <line style="stroke: #A80036; stroke-width: 1.0;" x1="230" x2="572" y1="1525.6895" y2="1525.6895"/>
        <text fill="#000000" font-family="sans-serif" font-size="13" font-weight="bold" lengthAdjust="spacingAndGlyphs" textLength="18" x="237" y="1521.2578">24</text>
        <text fill="#000000" font-family="sans-serif" font-size="13" lengthAdjust="spacingAndGlyphs" textLength="262" x="259" y="1521.2578">primeiroClass = getPrimeiroClassificado()</text>
        <polygon fill="#A80036" points="780,1581,790,1585,780,1589,784,1585" style="stroke: #A80036; stroke-width: 1.0;"/>
        <line style="stroke: #A80036; stroke-width: 1.0;" x1="230" x2="786" y1="1585" y2="1585"/>
        <text fill="#000000" font-family="sans-serif" font-size="13" font-weight="bold" lengthAdjust="spacingAndGlyphs" textLength="18" x="237" y="1580.5684">25</text>
        <text fill="#000000" font-family="sans-serif" font-size="13" lengthAdjust="spacingAndGlyphs" textLength="134" x="259" y="1580.5684">free = getFreelancer()</text>
        <polygon fill="#A80036" points="780,1640.3105,790,1644.3105,780,1648.3105,784,1644.3105" style="stroke: #A80036; stroke-width: 1.0;"/>
        <line style="stroke: #A80036; stroke-width: 1.0;" x1="230" x2="786" y1="1644.3105" y2="1644.3105"/>
        <text fill="#000000" font-family="sans-serif" font-size="13" font-weight="bold" lengthAdjust="spacingAndGlyphs" textLength="18" x="237" y="1639.8789">26</text>
        <text fill="#000000" font-family="sans-serif" font-size="13" lengthAdjust="spacingAndGlyphs" textLength="167" x="259" y="1639.8789">periodoReali = getNrDias()</text>
        <polygon fill="#A80036" points="1786,1699.6211,1796,1703.6211,1786,1707.6211,1790,1703.6211" style="stroke: #A80036; stroke-width: 1.0;"/>
        <line style="stroke: #A80036; stroke-width: 1.0;" x1="230" x2="1792" y1="1703.6211" y2="1703.6211"/>
        <text fill="#000000" font-family="sans-serif" font-size="13" font-weight="bold" lengthAdjust="spacingAndGlyphs" textLength="18" x="237" y="1699.1895">27</text>
        <text fill="#000000" font-family="sans-serif" font-size="13" lengthAdjust="spacingAndGlyphs" textLength="144" x="259" y="1699.1895">valorRemu = getValor()</text>
        <polygon fill="#A80036" points="566,1758.9316,576,1762.9316,566,1766.9316,570,1762.9316" style="stroke: #A80036; stroke-width: 1.0;"/>
        <line style="stroke: #A80036; stroke-width: 1.0;" x1="230" x2="572" y1="1762.9316" y2="1762.9316"/>
        <text fill="#000000" font-family="sans-serif" font-size="13" font-weight="bold" lengthAdjust="spacingAndGlyphs" textLength="18" x="237" y="1758.5">28</text>
        <text fill="#000000" font-family="sans-serif" font-size="13" lengthAdjust="spacingAndGlyphs" textLength="205" x="259" y="1758.5">refAnu = getReferenciaAnuncio()</text>
        <polygon fill="#A80036" points="1288,1818.2422,1298,1822.2422,1288,1826.2422,1292,1822.2422" style="stroke: #A80036; stroke-width: 1.0;"/>
        <line style="stroke: #A80036; stroke-width: 1.0;" x1="230" x2="1294" y1="1822.2422" y2="1822.2422"/>
        <text fill="#000000" font-family="sans-serif" font-size="13" font-weight="bold" lengthAdjust="spacingAndGlyphs" textLength="18" x="237" y="1817.8105">29</text>
        <text fill="#000000" font-family="sans-serif" font-size="13" lengthAdjust="spacingAndGlyphs" textLength="221" x="259" y="1817.8105">radjudi = getRegistoAdjudicacoes()</text>
        <polygon fill="#A80036" points="2221,1877.5527,2231,1881.5527,2221,1885.5527,2225,1881.5527" style="stroke: #A80036; stroke-width: 1.0;"/>
        <line style="stroke: #A80036; stroke-width: 1.0;" x1="230" x2="2227" y1="1881.5527" y2="1881.5527"/>
        <text fill="#000000" font-family="sans-serif" font-size="13" font-weight="bold" lengthAdjust="spacingAndGlyphs" textLength="18" x="237" y="1877.1211">30</text>
        <text fill="#000000" font-family="sans-serif" font-size="13" lengthAdjust="spacingAndGlyphs" textLength="434" x="259" y="1877.1211">novaAdjudicacao(org,free,descTarefa,periodoReali,valorRemu,refAnu)</text>
        <line style="stroke: #A80036; stroke-width: 1.0;" x1="2243" x2="2285" y1="1911.1738" y2="1911.1738"/>
        <line style="stroke: #A80036; stroke-width: 1.0;" x1="2285" x2="2285" y1="1911.1738" y2="1924.1738"/>
        <line style="stroke: #A80036; stroke-width: 1.0;" x1="2244" x2="2285" y1="1924.1738" y2="1924.1738"/>
        <polygon fill="#A80036" points="2254,1920.1738,2244,1924.1738,2254,1928.1738,2250,1924.1738" style="stroke: #A80036; stroke-width: 1.0;"/>
        <text fill="#000000" font-family="sans-serif" font-size="13" font-weight="bold" lengthAdjust="spacingAndGlyphs" textLength="18" x="2250" y="1906.4316">31</text>
        <text fill="#000000" font-family="sans-serif" font-size="13" lengthAdjust="spacingAndGlyphs" textLength="178" x="2272" y="1906.4316">numSeq = geraNumPorAno()</text>
        <line style="stroke: #A80036; stroke-width: 1.0;" x1="2243" x2="2285" y1="1953.4844" y2="1953.4844"/>
        <line style="stroke: #A80036; stroke-width: 1.0;" x1="2285" x2="2285" y1="1953.4844" y2="1966.4844"/>
        <line style="stroke: #A80036; stroke-width: 1.0;" x1="2244" x2="2285" y1="1966.4844" y2="1966.4844"/>
        <polygon fill="#A80036" points="2254,1962.4844,2244,1966.4844,2254,1970.4844,2250,1966.4844" style="stroke: #A80036; stroke-width: 1.0;"/>
        <text fill="#000000" font-family="sans-serif" font-size="13" font-weight="bold" lengthAdjust="spacingAndGlyphs" textLength="18" x="2250" y="1948.7422">32</text>
        <text fill="#000000" font-family="sans-serif" font-size="13" lengthAdjust="spacingAndGlyphs" textLength="184" x="2272" y="1948.7422">dataAdjudi = getDataAdjudi()</text>
        <polygon fill="#A80036" points="2825,1991.4844,2835,1995.4844,2825,1999.4844,2829,1995.4844" style="stroke: #A80036; stroke-width: 1.0;"/>
        <line style="stroke: #A80036; stroke-width: 1.0; stroke-dasharray: 2.0,2.0;" x1="2243" x2="2831" y1="1995.4844" y2="1995.4844"/>
        <text fill="#000000" font-family="sans-serif" font-size="13" font-weight="bold" lengthAdjust="spacingAndGlyphs" textLength="18" x="2250" y="1991.0527">33</text>
        <text fill="#000000" font-family="sans-serif" font-size="13" lengthAdjust="spacingAndGlyphs" textLength="548" x="2272" y="1991.0527">adjudi = create(numSeq,dataAdjudi,org,free,descTarefa,periodoReali,valorRemu,refAnu)</text>
        <rect fill="#FEFECE" filter="url(#fepgqf4emwz02)" height="46.9766" style="stroke: #A80036; stroke-width: 1.5;" width="102" x="2837" y="1974.4844"/>
        <text fill="#000000" font-family="sans-serif" font-size="14" lengthAdjust="spacingAndGlyphs" textLength="43" x="2866.5" y="1995.0195">adjudi</text>
        <text fill="#000000" font-family="sans-serif" font-size="14" lengthAdjust="spacingAndGlyphs" textLength="88" x="2844" y="2011.5078">:Adjudicacao</text>
        <line style="stroke: #A80036; stroke-width: 1.0;" x1="2243" x2="2285" y1="2057.7715" y2="2057.7715"/>
        <line style="stroke: #A80036; stroke-width: 1.0;" x1="2285" x2="2285" y1="2057.7715" y2="2070.7715"/>
        <line style="stroke: #A80036; stroke-width: 1.0;" x1="2244" x2="2285" y1="2070.7715" y2="2070.7715"/>
        <polygon fill="#A80036" points="2254,2066.7715,2244,2070.7715,2254,2074.7715,2250,2070.7715" style="stroke: #A80036; stroke-width: 1.0;"/>
        <text fill="#000000" font-family="sans-serif" font-size="13" font-weight="bold" lengthAdjust="spacingAndGlyphs" textLength="18" x="2250" y="2053.0293">34</text>
        <text fill="#000000" font-family="sans-serif" font-size="13" lengthAdjust="spacingAndGlyphs" textLength="161" x="2272" y="2053.0293">validaAdjudicacao(adjudi)</text>
        <line style="stroke: #A80036; stroke-width: 1.0;" x1="2243" x2="2285" y1="2105.082" y2="2105.082"/>
        <line style="stroke: #A80036; stroke-width: 1.0;" x1="2285" x2="2285" y1="2105.082" y2="2118.082"/>
        <line style="stroke: #A80036; stroke-width: 1.0;" x1="2238" x2="2285" y1="2118.082" y2="2118.082"/>
        <polygon fill="#A80036" points="2248,2114.082,2238,2118.082,2248,2122.082,2244,2118.082" style="stroke: #A80036; stroke-width: 1.0;"/>
        <text fill="#000000" font-family="sans-serif" font-size="13" font-weight="bold" lengthAdjust="spacingAndGlyphs" textLength="18" x="2250" y="2100.3398">35</text>
        <text fill="#000000" font-family="sans-serif" font-size="13" lengthAdjust="spacingAndGlyphs" textLength="147" x="2272" y="2100.3398">addAdjudicacao(adjudi)</text>
        <!--
@startuml
autonumber
'hide footbox
title UC13_SD_SeriarCandidaturaSubmetida
participant "task:SeriarCandidaturaAnuncioTask" as TSK
participant "anu:Anuncio" as ANU
participant "cand:Candidatura" as CND
participant "lc:ListaCandidaturas" as LC
participant "lstCand:List<Candidatura>" as LSTC
participant ":Plataforma" as PLAT
participant "<<interface>>\n tp:TipoRegimento" as TP
participant "lstCandOrd\n:List<Candidatura>" as LCO
participant "tar\n:Tarefa" as TRF
participant "free\n:Freelancer" as FREE
participant "rorg\n:RegistoOrganizacoes" as RORG
participant "org\n:Organizacao" as ORG
participant "radjudi\n:RegistoAdjudicacoes" as RADJ
participant "adjudi\n:Adjudicacao" as ADJ
participant "ps:ProcessoSeriacao" as PS
participant "class\n:Classificacao" as CLSS

note over LCO: lista de candidaturas\n ordenada pelo tipo\n de regimento do anuncio

note over TP: É uma instância de\n qualquer classe que\n implemente esta interface

[-> TSK: SeriarCandidaturaSubmetida()
activate TSK
TSK -> ANU: primeiraSeriacao = isPrimeiraSeriacao()
activate ANU
deactivate ANU
OPT [ primeiraSeriacao == true ]
TSK -> ANU: lc = getListaCandidaturas()
activate ANU
deactivate ANU
TSK -> LC: lstCand = getListaCandidaturas()
activate LC
deactivate LC
TSK -> ANU:ps = novoProcessoSeriacao()
activate ANU
ANU - -> PS **: create(tipoReg)
deactivate ANU
note right
"tipoReg" refere-se a uma instância
de TipoRegimento, aquela pelo qual
se que rege o Anúncio
end note
TSK -> ANU: tipoReg = getTipoRegimento()
activate ANU
deactivate ANU
TSK -> PLAT : tp = getAlgoritmoSeriacao()
activate PLAT
deactivate PLAT
TSK -> TP:lstCandOrd = seriarListaCandidatos(lstCand,tipoReg)
activate TP
deactivate TP
loop [ até que a lista de candidaturas ordenada tenha sido toda percorrida]
TSK -> LCO: cand = get(i)
activate LCO
deactivate LCO
TSK -> PS: addClassificacao(cand,ordem)
activate PS
PS - -> CLSS **:class = create(cand,ordem)
PS -> PS: validaClassificacao(class)
PS -> PS: addClassificacao(class)
deactivate PS
end loop
TSK -> ANU: registaProcessoSeriacao(ps)
activate ANU
ANU -> ANU: validaProcessoSeriacao(ps)
ANU -> PS: valida()
activate PS
deactivate PS
ANU -> ANU: setProcessoSeriacao(ps)
deactivate ANU
TSK -> ANU: atribuicaoObrigatoria = isAtribuicaoObrigatoria()
activate ANU
deactivate ANU
OPT [ atribuicaoObrigatoria == true ]
TSK -> ANU: tar = getTarefa()
activate ANU
deactivate ANU
TSK -> PLAT: rorg = getRegistoOrganizacoes()
activate PLAT
deactivate PLAT
TSK -> RORG: org = getOrganizacaobyTarefa(tar)
activate RORG
deactivate RORG
TSK -> TRF: descTarefa = getDescricao()
activate TRF
deactivate TRF
TSK -> ANU: primeiroClass = getPrimeiroClassificado()
activate ANU
deactivate ANU
TSK -> CND: free = getFreelancer()
activate CND
deactivate CND
TSK -> CND: periodoReali = getNrDias()
activate CND
deactivate CND
TSK -> FREE: valorRemu = getValor()
activate FREE
deactivate FREE
TSK -> ANU: refAnu = getReferenciaAnuncio()
activate ANU
deactivate ANU
TSK -> PLAT: radjudi = getRegistoAdjudicacoes()
activate PLAT
deactivate PLAT
TSK -> RADJ:novaAdjudicacao(org,free,descTarefa,periodoReali,valorRemu,refAnu)
activate RADJ
RADJ -> RADJ:numSeq = geraNumPorAno()
RADJ -> RADJ:dataAdjudi = getDataAdjudi()
RADJ - -> ADJ**:adjudi = create(numSeq,dataAdjudi,org,free,descTarefa,periodoReali,valorRemu,refAnu)
RADJ -> RADJ: validaAdjudicacao(adjudi)
RADJ -> RADJ: addAdjudicacao(adjudi)
deactivate RADJ
end OPT
end OPT

deactivate TSK

@enduml

PlantUML version 2017.11(Wed Apr 19 17:18:59 WEST 2017)
(GPL source distribution)
Java Runtime: Java(TM) SE Runtime Environment
JVM: Java HotSpot(TM) 64-Bit Server VM
Java Version: 1.8.0_111-b14
Operating System: Mac OS X
OS Version: 10.15
Default Encoding: UTF-8
Language: pt
Country: PT
-->
    </g>
</svg>
