<?xml version="1.0" encoding="UTF-8"?><svg xmlns="http://www.w3.org/2000/svg" xmlns:xlink="http://www.w3.org/1999/xlink" contentScriptType="application/ecmascript" contentStyleType="text/css" height="1392px" preserveAspectRatio="none" style="width:1958px;height:1392px;" version="1.1" viewBox="0 0 1958 1392" width="1958px" zoomAndPan="magnify">
    <defs>
        <filter height="300%" id="fq5xa0u1misaq" width="300%" x="-1" y="-1">
            <feGaussianBlur result="blurOut" stdDeviation="2.0"/>
            <feColorMatrix in="blurOut" result="blurOut2" type="matrix" values="0 0 0 0 0 0 0 0 0 0 0 0 0 0 0 0 0 0 .4 0"/>
            <feOffset dx="4.0" dy="4.0" in="blurOut2" result="blurOut3"/>
            <feBlend in="SourceGraphic" in2="blurOut3" mode="normal"/>
        </filter>
    </defs>
    <g>
        <text fill="#000000" font-family="sans-serif" font-size="14" font-weight="bold" lengthAdjust="spacingAndGlyphs" textLength="275" x="843.5" y="23.5352">UC13_SD_SeriarCandidaturaSubmetida</text>
        <rect fill="#FFFFFF" filter="url(#fq5xa0u1misaq)" height="1070.7402" style="stroke: #A80036; stroke-width: 1.0;" width="10" x="220" y="256.3281"/>
        <rect fill="#FFFFFF" filter="url(#fq5xa0u1misaq)" height="30" style="stroke: #A80036; stroke-width: 1.0;" width="10" x="578" y="285.6387"/>
        <rect fill="#FFFFFF" filter="url(#fq5xa0u1misaq)" height="30" style="stroke: #A80036; stroke-width: 1.0;" width="10" x="578" y="369.2598"/>
        <rect fill="#FFFFFF" filter="url(#fq5xa0u1misaq)" height="29.3105" style="stroke: #A80036; stroke-width: 1.0;" width="10" x="578" y="487.8809"/>
        <rect fill="#FFFFFF" filter="url(#fq5xa0u1misaq)" height="30" style="stroke: #A80036; stroke-width: 1.0;" width="10" x="578" y="587.123"/>
        <rect fill="#FFFFFF" filter="url(#fq5xa0u1misaq)" height="136.9316" style="stroke: #A80036; stroke-width: 1.0;" width="10" x="578" y="1031.584"/>
        <rect fill="#FFFFFF" filter="url(#fq5xa0u1misaq)" height="30" style="stroke: #A80036; stroke-width: 1.0;" width="10" x="578" y="1204.8262"/>
        <rect fill="#FFFFFF" filter="url(#fq5xa0u1misaq)" height="30" style="stroke: #A80036; stroke-width: 1.0;" width="10" x="792" y="428.5703"/>
        <rect fill="#FFFFFF" filter="url(#fq5xa0u1misaq)" height="30" style="stroke: #A80036; stroke-width: 1.0;" width="10" x="1142" y="646.4336"/>
        <rect fill="#FFFFFF" filter="url(#fq5xa0u1misaq)" height="30" style="stroke: #A80036; stroke-width: 1.0;" width="10" x="1272.5" y="705.7441"/>
        <rect fill="#FFFFFF" filter="url(#fq5xa0u1misaq)" height="30" style="stroke: #A80036; stroke-width: 1.0;" width="10" x="1431" y="789.3652"/>
        <rect fill="#FFFFFF" filter="url(#fq5xa0u1misaq)" height="139.5977" style="stroke: #A80036; stroke-width: 1.0;" width="10" x="1595.5" y="848.6758"/>
        <rect fill="#FFFFFF" filter="url(#fq5xa0u1misaq)" height="30" style="stroke: #A80036; stroke-width: 1.0;" width="10" x="1595.5" y="1103.2051"/>
        <rect fill="#FFFFFF" filter="url(#fq5xa0u1misaq)" height="989.1191" style="stroke: #000000; stroke-width: 2.0;" width="1876" x="73" y="330.9492"/>
        <rect fill="#FEFECE" filter="url(#fq5xa0u1misaq)" height="30.4883" style="stroke: #A80036; stroke-width: 1.5;" width="153" x="1522" y="508.4131"/>
        <text fill="#000000" font-family="sans-serif" font-size="14" lengthAdjust="spacingAndGlyphs" textLength="139" x="1529" y="528.9482">ps:ProcessoSeriacao</text>
        <rect fill="#FFFFFF" filter="url(#fq5xa0u1misaq)" height="252.5293" style="stroke: #000000; stroke-width: 2.0;" width="1858.5" x="83" y="751.0547"/>
        <rect fill="#FEFECE" filter="url(#fq5xa0u1misaq)" height="46.9766" style="stroke: #A80036; stroke-width: 1.5;" width="106" x="1821.5" y="856.9863"/>
        <text fill="#000000" font-family="sans-serif" font-size="14" lengthAdjust="spacingAndGlyphs" textLength="33" x="1858" y="877.5215">class</text>
        <text fill="#000000" font-family="sans-serif" font-size="14" lengthAdjust="spacingAndGlyphs" textLength="92" x="1828.5" y="894.0098">:Classificacao</text>
        <rect fill="#FFFFFF" filter="url(#fq5xa0u1misaq)" height="62.9316" style="stroke: #000000; stroke-width: 2.0;" width="284" x="83" y="1250.1367"/>
        <line style="stroke: #A80036; stroke-width: 1.0; stroke-dasharray: 5.0,5.0;" x1="225" x2="225" y1="85.4648" y2="1337.0684"/>
        <line style="stroke: #A80036; stroke-width: 1.0; stroke-dasharray: 5.0,5.0;" x1="582.5" x2="582.5" y1="85.4648" y2="1337.0684"/>
        <line style="stroke: #A80036; stroke-width: 1.0; stroke-dasharray: 5.0,5.0;" x1="797" x2="797" y1="85.4648" y2="1337.0684"/>
        <line style="stroke: #A80036; stroke-width: 1.0; stroke-dasharray: 5.0,5.0;" x1="987" x2="987" y1="85.4648" y2="1337.0684"/>
        <line style="stroke: #A80036; stroke-width: 1.0; stroke-dasharray: 5.0,5.0;" x1="1147" x2="1147" y1="85.4648" y2="1337.0684"/>
        <line style="stroke: #A80036; stroke-width: 1.0; stroke-dasharray: 5.0,5.0;" x1="1277" x2="1277" y1="85.4648" y2="1337.0684"/>
        <line style="stroke: #A80036; stroke-width: 1.0; stroke-dasharray: 5.0,5.0;" x1="1436" x2="1436" y1="85.4648" y2="1337.0684"/>
        <line style="stroke: #A80036; stroke-width: 1.0; stroke-dasharray: 5.0,5.0;" x1="1600" x2="1600" y1="541.1572" y2="1337.0684"/>
        <line style="stroke: #A80036; stroke-width: 1.0; stroke-dasharray: 5.0,5.0;" x1="1876.5" x2="1876.5" y1="897.9746" y2="1337.0684"/>
        <rect fill="#FEFECE" filter="url(#fq5xa0u1misaq)" height="30.4883" style="stroke: #A80036; stroke-width: 1.5;" width="260" x="93" y="49.9766"/>
        <text fill="#000000" font-family="sans-serif" font-size="14" lengthAdjust="spacingAndGlyphs" textLength="246" x="100" y="70.5117">task:SeriarCandidaturaAnuncioTask</text>
        <rect fill="#FEFECE" filter="url(#fq5xa0u1misaq)" height="30.4883" style="stroke: #A80036; stroke-width: 1.5;" width="260" x="93" y="1336.0684"/>
        <text fill="#000000" font-family="sans-serif" font-size="14" lengthAdjust="spacingAndGlyphs" textLength="246" x="100" y="1356.6035">task:SeriarCandidaturaAnuncioTask</text>
        <rect fill="#FEFECE" filter="url(#fq5xa0u1misaq)" height="30.4883" style="stroke: #A80036; stroke-width: 1.5;" width="101" x="530.5" y="49.9766"/>
        <text fill="#000000" font-family="sans-serif" font-size="14" lengthAdjust="spacingAndGlyphs" textLength="87" x="537.5" y="70.5117">anu:Anuncio</text>
        <rect fill="#FEFECE" filter="url(#fq5xa0u1misaq)" height="30.4883" style="stroke: #A80036; stroke-width: 1.5;" width="101" x="530.5" y="1336.0684"/>
        <text fill="#000000" font-family="sans-serif" font-size="14" lengthAdjust="spacingAndGlyphs" textLength="87" x="537.5" y="1356.6035">anu:Anuncio</text>
        <rect fill="#FEFECE" filter="url(#fq5xa0u1misaq)" height="30.4883" style="stroke: #A80036; stroke-width: 1.5;" width="152" x="719" y="49.9766"/>
        <text fill="#000000" font-family="sans-serif" font-size="14" lengthAdjust="spacingAndGlyphs" textLength="138" x="726" y="70.5117">lc:ListaCandidaturas</text>
        <rect fill="#FEFECE" filter="url(#fq5xa0u1misaq)" height="30.4883" style="stroke: #A80036; stroke-width: 1.5;" width="152" x="719" y="1336.0684"/>
        <text fill="#000000" font-family="sans-serif" font-size="14" lengthAdjust="spacingAndGlyphs" textLength="138" x="726" y="1356.6035">lc:ListaCandidaturas</text>
        <rect fill="#FEFECE" filter="url(#fq5xa0u1misaq)" height="30.4883" style="stroke: #A80036; stroke-width: 1.5;" width="200" x="885" y="49.9766"/>
        <text fill="#000000" font-family="sans-serif" font-size="14" lengthAdjust="spacingAndGlyphs" textLength="186" x="892" y="70.5117">lstCand:List&lt;Candidatura&gt;</text>
        <rect fill="#FEFECE" filter="url(#fq5xa0u1misaq)" height="30.4883" style="stroke: #A80036; stroke-width: 1.5;" width="200" x="885" y="1336.0684"/>
        <text fill="#000000" font-family="sans-serif" font-size="14" lengthAdjust="spacingAndGlyphs" textLength="186" x="892" y="1356.6035">lstCand:List&lt;Candidatura&gt;</text>
        <rect fill="#FEFECE" filter="url(#fq5xa0u1misaq)" height="30.4883" style="stroke: #A80036; stroke-width: 1.5;" width="92" x="1099" y="49.9766"/>
        <text fill="#000000" font-family="sans-serif" font-size="14" lengthAdjust="spacingAndGlyphs" textLength="78" x="1106" y="70.5117">:Plataforma</text>
        <rect fill="#FEFECE" filter="url(#fq5xa0u1misaq)" height="30.4883" style="stroke: #A80036; stroke-width: 1.5;" width="92" x="1099" y="1336.0684"/>
        <text fill="#000000" font-family="sans-serif" font-size="14" lengthAdjust="spacingAndGlyphs" textLength="78" x="1106" y="1356.6035">:Plataforma</text>
        <rect fill="#FEFECE" filter="url(#fq5xa0u1misaq)" height="46.9766" style="stroke: #A80036; stroke-width: 1.5;" width="141" x="1205" y="33.4883"/>
        <text fill="#000000" font-family="sans-serif" font-size="14" lengthAdjust="spacingAndGlyphs" textLength="104" x="1223.5" y="54.0234">&lt;&lt;interface&gt;&gt;</text>
        <text fill="#000000" font-family="sans-serif" font-size="14" lengthAdjust="spacingAndGlyphs" textLength="123" x="1216" y="70.5117">tp:TipoRegimento</text>
        <rect fill="#FEFECE" filter="url(#fq5xa0u1misaq)" height="46.9766" style="stroke: #A80036; stroke-width: 1.5;" width="141" x="1205" y="1336.0684"/>
        <text fill="#000000" font-family="sans-serif" font-size="14" lengthAdjust="spacingAndGlyphs" textLength="104" x="1223.5" y="1356.6035">&lt;&lt;interface&gt;&gt;</text>
        <text fill="#000000" font-family="sans-serif" font-size="14" lengthAdjust="spacingAndGlyphs" textLength="123" x="1216" y="1373.0918">tp:TipoRegimento</text>
        <rect fill="#FEFECE" filter="url(#fq5xa0u1misaq)" height="46.9766" style="stroke: #A80036; stroke-width: 1.5;" width="148" x="1360" y="33.4883"/>
        <text fill="#000000" font-family="sans-serif" font-size="14" lengthAdjust="spacingAndGlyphs" textLength="78" x="1395" y="54.0234">lstCandOrd</text>
        <text fill="#000000" font-family="sans-serif" font-size="14" lengthAdjust="spacingAndGlyphs" textLength="134" x="1367" y="70.5117">:List&lt;Candidatura&gt;</text>
        <rect fill="#FEFECE" filter="url(#fq5xa0u1misaq)" height="46.9766" style="stroke: #A80036; stroke-width: 1.5;" width="148" x="1360" y="1336.0684"/>
        <text fill="#000000" font-family="sans-serif" font-size="14" lengthAdjust="spacingAndGlyphs" textLength="78" x="1395" y="1356.6035">lstCandOrd</text>
        <text fill="#000000" font-family="sans-serif" font-size="14" lengthAdjust="spacingAndGlyphs" textLength="134" x="1367" y="1373.0918">:List&lt;Candidatura&gt;</text>
        <rect fill="#FEFECE" filter="url(#fq5xa0u1misaq)" height="30.4883" style="stroke: #A80036; stroke-width: 1.5;" width="153" x="1522" y="1336.0684"/>
        <text fill="#000000" font-family="sans-serif" font-size="14" lengthAdjust="spacingAndGlyphs" textLength="139" x="1529" y="1356.6035">ps:ProcessoSeriacao</text>
        <rect fill="#FEFECE" filter="url(#fq5xa0u1misaq)" height="46.9766" style="stroke: #A80036; stroke-width: 1.5;" width="106" x="1821.5" y="1336.0684"/>
        <text fill="#000000" font-family="sans-serif" font-size="14" lengthAdjust="spacingAndGlyphs" textLength="33" x="1858" y="1356.6035">class</text>
        <text fill="#000000" font-family="sans-serif" font-size="14" lengthAdjust="spacingAndGlyphs" textLength="92" x="1828.5" y="1373.0918">:Classificacao</text>
        <rect fill="#FFFFFF" filter="url(#fq5xa0u1misaq)" height="1070.7402" style="stroke: #A80036; stroke-width: 1.0;" width="10" x="220" y="256.3281"/>
        <rect fill="#FFFFFF" filter="url(#fq5xa0u1misaq)" height="30" style="stroke: #A80036; stroke-width: 1.0;" width="10" x="578" y="285.6387"/>
        <rect fill="#FFFFFF" filter="url(#fq5xa0u1misaq)" height="30" style="stroke: #A80036; stroke-width: 1.0;" width="10" x="578" y="369.2598"/>
        <rect fill="#FFFFFF" filter="url(#fq5xa0u1misaq)" height="29.3105" style="stroke: #A80036; stroke-width: 1.0;" width="10" x="578" y="487.8809"/>
        <rect fill="#FFFFFF" filter="url(#fq5xa0u1misaq)" height="30" style="stroke: #A80036; stroke-width: 1.0;" width="10" x="578" y="587.123"/>
        <rect fill="#FFFFFF" filter="url(#fq5xa0u1misaq)" height="136.9316" style="stroke: #A80036; stroke-width: 1.0;" width="10" x="578" y="1031.584"/>
        <rect fill="#FFFFFF" filter="url(#fq5xa0u1misaq)" height="30" style="stroke: #A80036; stroke-width: 1.0;" width="10" x="578" y="1204.8262"/>
        <rect fill="#FFFFFF" filter="url(#fq5xa0u1misaq)" height="30" style="stroke: #A80036; stroke-width: 1.0;" width="10" x="792" y="428.5703"/>
        <rect fill="#FFFFFF" filter="url(#fq5xa0u1misaq)" height="30" style="stroke: #A80036; stroke-width: 1.0;" width="10" x="1142" y="646.4336"/>
        <rect fill="#FFFFFF" filter="url(#fq5xa0u1misaq)" height="30" style="stroke: #A80036; stroke-width: 1.0;" width="10" x="1272.5" y="705.7441"/>
        <rect fill="#FFFFFF" filter="url(#fq5xa0u1misaq)" height="30" style="stroke: #A80036; stroke-width: 1.0;" width="10" x="1431" y="789.3652"/>
        <rect fill="#FFFFFF" filter="url(#fq5xa0u1misaq)" height="139.5977" style="stroke: #A80036; stroke-width: 1.0;" width="10" x="1595.5" y="848.6758"/>
        <rect fill="#FFFFFF" filter="url(#fq5xa0u1misaq)" height="30" style="stroke: #A80036; stroke-width: 1.0;" width="10" x="1595.5" y="1103.2051"/>
        <polygon fill="#FBFB77" filter="url(#fq5xa0u1misaq)" points="1343,100.4648,1343,155.4648,1525,155.4648,1525,110.4648,1515,100.4648,1343,100.4648" style="stroke: #A80036; stroke-width: 1.0;"/>
        <line style="stroke: #A80036; stroke-width: 1.0;" x1="1515" x2="1515" y1="100.4648" y2="110.4648"/>
        <line style="stroke: #A80036; stroke-width: 1.0;" x1="1525" x2="1515" y1="110.4648" y2="110.4648"/>
        <text fill="#000000" font-family="sans-serif" font-size="13" lengthAdjust="spacingAndGlyphs" textLength="131" x="1349" y="118.0332">lista de candidaturas</text>
        <text fill="#000000" font-family="sans-serif" font-size="13" lengthAdjust="spacingAndGlyphs" textLength="118" x="1353" y="133.3438">ordenada pelo tipo</text>
        <text fill="#000000" font-family="sans-serif" font-size="13" lengthAdjust="spacingAndGlyphs" textLength="157" x="1353" y="148.6543">de regimento do anuncio</text>
        <polygon fill="#FBFB77" filter="url(#fq5xa0u1misaq)" points="1181,170.3965,1181,225.3965,1369,225.3965,1369,180.3965,1359,170.3965,1181,170.3965" style="stroke: #A80036; stroke-width: 1.0;"/>
        <line style="stroke: #A80036; stroke-width: 1.0;" x1="1359" x2="1359" y1="170.3965" y2="180.3965"/>
        <line style="stroke: #A80036; stroke-width: 1.0;" x1="1369" x2="1359" y1="180.3965" y2="180.3965"/>
        <text fill="#000000" font-family="sans-serif" font-size="13" lengthAdjust="spacingAndGlyphs" textLength="118" x="1187" y="187.9648">É uma instância de</text>
        <text fill="#000000" font-family="sans-serif" font-size="13" lengthAdjust="spacingAndGlyphs" textLength="125" x="1191" y="203.2754">qualquer classe que</text>
        <text fill="#000000" font-family="sans-serif" font-size="13" lengthAdjust="spacingAndGlyphs" textLength="163" x="1191" y="218.5859">implemente esta interface</text>
        <polygon fill="#A80036" points="208,252.3281,218,256.3281,208,260.3281,212,256.3281" style="stroke: #A80036; stroke-width: 1.0;"/>
        <line style="stroke: #A80036; stroke-width: 1.0;" x1="3" x2="214" y1="256.3281" y2="256.3281"/>
        <text fill="#000000" font-family="sans-serif" font-size="13" font-weight="bold" lengthAdjust="spacingAndGlyphs" textLength="9" x="10" y="251.8965">1</text>
        <text fill="#000000" font-family="sans-serif" font-size="13" lengthAdjust="spacingAndGlyphs" textLength="185" x="23" y="251.8965">SeriarCandidaturaSubmetida()</text>
        <polygon fill="#A80036" points="566,281.6387,576,285.6387,566,289.6387,570,285.6387" style="stroke: #A80036; stroke-width: 1.0;"/>
        <line style="stroke: #A80036; stroke-width: 1.0;" x1="230" x2="572" y1="285.6387" y2="285.6387"/>
        <text fill="#000000" font-family="sans-serif" font-size="13" font-weight="bold" lengthAdjust="spacingAndGlyphs" textLength="9" x="237" y="281.207">2</text>
        <text fill="#000000" font-family="sans-serif" font-size="13" lengthAdjust="spacingAndGlyphs" textLength="244" x="250" y="281.207">primeiraSeriacao = isPrimeiraSeriacao()</text>
        <rect fill="none" height="989.1191" style="stroke: #000000; stroke-width: 2.0;" width="1876" x="73" y="330.9492"/>
        <polygon fill="#EEEEEE" points="73,330.9492,140,330.9492,140,337.9492,130,347.9492,73,347.9492,73,330.9492" style="stroke: #000000; stroke-width: 2.0;"/>
        <text fill="#000000" font-family="sans-serif" font-size="13" font-weight="bold" lengthAdjust="spacingAndGlyphs" textLength="22" x="88" y="344.5176">opt</text>
        <a target="_top" xlink:actuate="onRequest" xlink:href="" xlink:show="new" xlink:title="" xlink:type="simple">
            <text fill="#0000FF" font-family="sans-serif" font-size="11" font-weight="bold" lengthAdjust="spacingAndGlyphs" text-decoration="underline" textLength="142" x="155" y="343.584">primeiraSeriacao == true</text>
            <line style="stroke: #0000FF; stroke-width: 1.0;" x1="155" x2="297" y1="345.584" y2="345.584"/>
        </a>
        <polygon fill="#A80036" points="566,365.2598,576,369.2598,566,373.2598,570,369.2598" style="stroke: #A80036; stroke-width: 1.0;"/>
        <line style="stroke: #A80036; stroke-width: 1.0;" x1="230" x2="572" y1="369.2598" y2="369.2598"/>
        <text fill="#000000" font-family="sans-serif" font-size="13" font-weight="bold" lengthAdjust="spacingAndGlyphs" textLength="9" x="237" y="364.8281">3</text>
        <text fill="#000000" font-family="sans-serif" font-size="13" lengthAdjust="spacingAndGlyphs" textLength="170" x="250" y="364.8281">lc = getListaCandidaturas()</text>
        <polygon fill="#A80036" points="780,424.5703,790,428.5703,780,432.5703,784,428.5703" style="stroke: #A80036; stroke-width: 1.0;"/>
        <line style="stroke: #A80036; stroke-width: 1.0;" x1="230" x2="786" y1="428.5703" y2="428.5703"/>
        <text fill="#000000" font-family="sans-serif" font-size="13" font-weight="bold" lengthAdjust="spacingAndGlyphs" textLength="9" x="237" y="424.1387">4</text>
        <text fill="#000000" font-family="sans-serif" font-size="13" lengthAdjust="spacingAndGlyphs" textLength="207" x="250" y="424.1387">lstCand = getListaCandidaturas()</text>
        <polygon fill="#A80036" points="566,483.8809,576,487.8809,566,491.8809,570,487.8809" style="stroke: #A80036; stroke-width: 1.0;"/>
        <line style="stroke: #A80036; stroke-width: 1.0;" x1="230" x2="572" y1="487.8809" y2="487.8809"/>
        <text fill="#000000" font-family="sans-serif" font-size="13" font-weight="bold" lengthAdjust="spacingAndGlyphs" textLength="9" x="237" y="483.4492">5</text>
        <text fill="#000000" font-family="sans-serif" font-size="13" lengthAdjust="spacingAndGlyphs" textLength="180" x="250" y="483.4492">ps = novoProcessoSeriacao()</text>
        <polygon fill="#A80036" points="1510,513.1914,1520,517.1914,1510,521.1914,1514,517.1914" style="stroke: #A80036; stroke-width: 1.0;"/>
        <line style="stroke: #A80036; stroke-width: 1.0; stroke-dasharray: 2.0,2.0;" x1="583" x2="1516" y1="517.1914" y2="517.1914"/>
        <text fill="#000000" font-family="sans-serif" font-size="13" font-weight="bold" lengthAdjust="spacingAndGlyphs" textLength="9" x="590" y="512.7598">6</text>
        <text fill="#000000" font-family="sans-serif" font-size="13" lengthAdjust="spacingAndGlyphs" textLength="94" x="603" y="512.7598">create(tipoReg)</text>
        <rect fill="#FEFECE" filter="url(#fq5xa0u1misaq)" height="30.4883" style="stroke: #A80036; stroke-width: 1.5;" width="153" x="1522" y="508.4131"/>
        <text fill="#000000" font-family="sans-serif" font-size="14" lengthAdjust="spacingAndGlyphs" textLength="139" x="1529" y="528.9482">ps:ProcessoSeriacao</text>
        <polygon fill="#FBFB77" filter="url(#fq5xa0u1misaq)" points="1683.5,501.1914,1683.5,556.1914,1929.5,556.1914,1929.5,511.1914,1919.5,501.1914,1683.5,501.1914" style="stroke: #A80036; stroke-width: 1.0;"/>
        <line style="stroke: #A80036; stroke-width: 1.0;" x1="1919.5" x2="1919.5" y1="501.1914" y2="511.1914"/>
        <line style="stroke: #A80036; stroke-width: 1.0;" x1="1929.5" x2="1919.5" y1="511.1914" y2="511.1914"/>
        <text fill="#000000" font-family="sans-serif" font-size="13" lengthAdjust="spacingAndGlyphs" textLength="223" x="1689.5" y="518.7598">"tipoReg" refere-se a uma instância</text>
        <text fill="#000000" font-family="sans-serif" font-size="13" lengthAdjust="spacingAndGlyphs" textLength="225" x="1689.5" y="534.0703">de TipoRegimento, aquela pelo qual</text>
        <text fill="#000000" font-family="sans-serif" font-size="13" lengthAdjust="spacingAndGlyphs" textLength="140" x="1689.5" y="549.3809">se que rege o Anúncio</text>
        <polygon fill="#A80036" points="566,583.123,576,587.123,566,591.123,570,587.123" style="stroke: #A80036; stroke-width: 1.0;"/>
        <line style="stroke: #A80036; stroke-width: 1.0;" x1="230" x2="572" y1="587.123" y2="587.123"/>
        <text fill="#000000" font-family="sans-serif" font-size="13" font-weight="bold" lengthAdjust="spacingAndGlyphs" textLength="9" x="237" y="582.6914">7</text>
        <text fill="#000000" font-family="sans-serif" font-size="13" lengthAdjust="spacingAndGlyphs" textLength="189" x="250" y="582.6914">tipoReg = getTipoRegimento()</text>
        <polygon fill="#A80036" points="1130,642.4336,1140,646.4336,1130,650.4336,1134,646.4336" style="stroke: #A80036; stroke-width: 1.0;"/>
        <line style="stroke: #A80036; stroke-width: 1.0;" x1="230" x2="1136" y1="646.4336" y2="646.4336"/>
        <text fill="#000000" font-family="sans-serif" font-size="13" font-weight="bold" lengthAdjust="spacingAndGlyphs" textLength="9" x="237" y="642.002">8</text>
        <text fill="#000000" font-family="sans-serif" font-size="13" lengthAdjust="spacingAndGlyphs" textLength="174" x="250" y="642.002">tp = getAlgoritmoSeriacao()</text>
        <polygon fill="#A80036" points="1260.5,701.7441,1270.5,705.7441,1260.5,709.7441,1264.5,705.7441" style="stroke: #A80036; stroke-width: 1.0;"/>
        <line style="stroke: #A80036; stroke-width: 1.0;" x1="230" x2="1266.5" y1="705.7441" y2="705.7441"/>
        <text fill="#000000" font-family="sans-serif" font-size="13" font-weight="bold" lengthAdjust="spacingAndGlyphs" textLength="9" x="237" y="701.3125">9</text>
        <text fill="#000000" font-family="sans-serif" font-size="13" lengthAdjust="spacingAndGlyphs" textLength="333" x="250" y="701.3125">lstCandOrd = seriarListaCandidatos(lstCand,tipoReg)</text>
        <rect fill="none" height="252.5293" style="stroke: #000000; stroke-width: 2.0;" width="1858.5" x="83" y="751.0547"/>
        <polygon fill="#EEEEEE" points="83,751.0547,157,751.0547,157,758.0547,147,768.0547,83,768.0547,83,751.0547" style="stroke: #000000; stroke-width: 2.0;"/>
        <text fill="#000000" font-family="sans-serif" font-size="13" font-weight="bold" lengthAdjust="spacingAndGlyphs" textLength="29" x="98" y="764.623">loop</text>
        <a target="_top" xlink:actuate="onRequest" xlink:href="" xlink:show="new" xlink:title="" xlink:type="simple">
            <text fill="#0000FF" font-family="sans-serif" font-size="11" font-weight="bold" lengthAdjust="spacingAndGlyphs" text-decoration="underline" textLength="377" x="172" y="763.6895">até que a lista de candidaturas ordenada tenha sido toda percorrida</text>
            <line style="stroke: #0000FF; stroke-width: 1.0;" x1="172" x2="549" y1="765.6895" y2="765.6895"/>
        </a>
        <polygon fill="#A80036" points="1419,785.3652,1429,789.3652,1419,793.3652,1423,789.3652" style="stroke: #A80036; stroke-width: 1.0;"/>
        <line style="stroke: #A80036; stroke-width: 1.0;" x1="230" x2="1425" y1="789.3652" y2="789.3652"/>
        <text fill="#000000" font-family="sans-serif" font-size="13" font-weight="bold" lengthAdjust="spacingAndGlyphs" textLength="18" x="237" y="784.9336">10</text>
        <text fill="#000000" font-family="sans-serif" font-size="13" lengthAdjust="spacingAndGlyphs" textLength="80" x="259" y="784.9336">cand = get(i)</text>
        <polygon fill="#A80036" points="1583.5,844.6758,1593.5,848.6758,1583.5,852.6758,1587.5,848.6758" style="stroke: #A80036; stroke-width: 1.0;"/>
        <line style="stroke: #A80036; stroke-width: 1.0;" x1="230" x2="1589.5" y1="848.6758" y2="848.6758"/>
        <text fill="#000000" font-family="sans-serif" font-size="13" font-weight="bold" lengthAdjust="spacingAndGlyphs" textLength="18" x="237" y="844.2441">11</text>
        <text fill="#000000" font-family="sans-serif" font-size="13" lengthAdjust="spacingAndGlyphs" textLength="188" x="259" y="844.2441">addClassificacao(cand,ordem)</text>
        <polygon fill="#A80036" points="1809.5,873.9863,1819.5,877.9863,1809.5,881.9863,1813.5,877.9863" style="stroke: #A80036; stroke-width: 1.0;"/>
        <line style="stroke: #A80036; stroke-width: 1.0; stroke-dasharray: 2.0,2.0;" x1="1605.5" x2="1815.5" y1="877.9863" y2="877.9863"/>
        <text fill="#000000" font-family="sans-serif" font-size="13" font-weight="bold" lengthAdjust="spacingAndGlyphs" textLength="18" x="1612.5" y="873.5547">12</text>
        <text fill="#000000" font-family="sans-serif" font-size="13" lengthAdjust="spacingAndGlyphs" textLength="170" x="1634.5" y="873.5547">class = create(cand,ordem)</text>
        <rect fill="#FEFECE" filter="url(#fq5xa0u1misaq)" height="46.9766" style="stroke: #A80036; stroke-width: 1.5;" width="106" x="1821.5" y="856.9863"/>
        <text fill="#000000" font-family="sans-serif" font-size="14" lengthAdjust="spacingAndGlyphs" textLength="33" x="1858" y="877.5215">class</text>
        <text fill="#000000" font-family="sans-serif" font-size="14" lengthAdjust="spacingAndGlyphs" textLength="92" x="1828.5" y="894.0098">:Classificacao</text>
        <line style="stroke: #A80036; stroke-width: 1.0;" x1="1605.5" x2="1647.5" y1="940.2734" y2="940.2734"/>
        <line style="stroke: #A80036; stroke-width: 1.0;" x1="1647.5" x2="1647.5" y1="940.2734" y2="953.2734"/>
        <line style="stroke: #A80036; stroke-width: 1.0;" x1="1606.5" x2="1647.5" y1="953.2734" y2="953.2734"/>
        <polygon fill="#A80036" points="1616.5,949.2734,1606.5,953.2734,1616.5,957.2734,1612.5,953.2734" style="stroke: #A80036; stroke-width: 1.0;"/>
        <text fill="#000000" font-family="sans-serif" font-size="13" font-weight="bold" lengthAdjust="spacingAndGlyphs" textLength="18" x="1612.5" y="935.5313">13</text>
        <text fill="#000000" font-family="sans-serif" font-size="13" lengthAdjust="spacingAndGlyphs" textLength="160" x="1634.5" y="935.5313">validaClassificacao(class)</text>
        <line style="stroke: #A80036; stroke-width: 1.0;" x1="1605.5" x2="1647.5" y1="987.584" y2="987.584"/>
        <line style="stroke: #A80036; stroke-width: 1.0;" x1="1647.5" x2="1647.5" y1="987.584" y2="1000.584"/>
        <line style="stroke: #A80036; stroke-width: 1.0;" x1="1600.5" x2="1647.5" y1="1000.584" y2="1000.584"/>
        <polygon fill="#A80036" points="1610.5,996.584,1600.5,1000.584,1610.5,1004.584,1606.5,1000.584" style="stroke: #A80036; stroke-width: 1.0;"/>
        <text fill="#000000" font-family="sans-serif" font-size="13" font-weight="bold" lengthAdjust="spacingAndGlyphs" textLength="18" x="1612.5" y="982.8418">14</text>
        <text fill="#000000" font-family="sans-serif" font-size="13" lengthAdjust="spacingAndGlyphs" textLength="146" x="1634.5" y="982.8418">addClassificacao(class)</text>
        <polygon fill="#A80036" points="566,1027.584,576,1031.584,566,1035.584,570,1031.584" style="stroke: #A80036; stroke-width: 1.0;"/>
        <line style="stroke: #A80036; stroke-width: 1.0;" x1="230" x2="572" y1="1031.584" y2="1031.584"/>
        <text fill="#000000" font-family="sans-serif" font-size="13" font-weight="bold" lengthAdjust="spacingAndGlyphs" textLength="18" x="237" y="1027.1523">15</text>
        <text fill="#000000" font-family="sans-serif" font-size="13" lengthAdjust="spacingAndGlyphs" textLength="174" x="259" y="1027.1523">registaProcessoSeriacao(ps)</text>
        <line style="stroke: #A80036; stroke-width: 1.0;" x1="588" x2="630" y1="1061.2051" y2="1061.2051"/>
        <line style="stroke: #A80036; stroke-width: 1.0;" x1="630" x2="630" y1="1061.2051" y2="1074.2051"/>
        <line style="stroke: #A80036; stroke-width: 1.0;" x1="589" x2="630" y1="1074.2051" y2="1074.2051"/>
        <polygon fill="#A80036" points="599,1070.2051,589,1074.2051,599,1078.2051,595,1074.2051" style="stroke: #A80036; stroke-width: 1.0;"/>
        <text fill="#000000" font-family="sans-serif" font-size="13" font-weight="bold" lengthAdjust="spacingAndGlyphs" textLength="18" x="595" y="1056.4629">16</text>
        <text fill="#000000" font-family="sans-serif" font-size="13" lengthAdjust="spacingAndGlyphs" textLength="168" x="617" y="1056.4629">validaProcessoSeriacao(ps)</text>
        <polygon fill="#A80036" points="1583.5,1099.2051,1593.5,1103.2051,1583.5,1107.2051,1587.5,1103.2051" style="stroke: #A80036; stroke-width: 1.0;"/>
        <line style="stroke: #A80036; stroke-width: 1.0;" x1="588" x2="1589.5" y1="1103.2051" y2="1103.2051"/>
        <text fill="#000000" font-family="sans-serif" font-size="13" font-weight="bold" lengthAdjust="spacingAndGlyphs" textLength="18" x="595" y="1098.7734">17</text>
        <text fill="#000000" font-family="sans-serif" font-size="13" lengthAdjust="spacingAndGlyphs" textLength="45" x="617" y="1098.7734">valida()</text>
        <line style="stroke: #A80036; stroke-width: 1.0;" x1="588" x2="630" y1="1167.8262" y2="1167.8262"/>
        <line style="stroke: #A80036; stroke-width: 1.0;" x1="630" x2="630" y1="1167.8262" y2="1180.8262"/>
        <line style="stroke: #A80036; stroke-width: 1.0;" x1="583" x2="630" y1="1180.8262" y2="1180.8262"/>
        <polygon fill="#A80036" points="593,1176.8262,583,1180.8262,593,1184.8262,589,1180.8262" style="stroke: #A80036; stroke-width: 1.0;"/>
        <text fill="#000000" font-family="sans-serif" font-size="13" font-weight="bold" lengthAdjust="spacingAndGlyphs" textLength="18" x="595" y="1163.084">18</text>
        <text fill="#000000" font-family="sans-serif" font-size="13" lengthAdjust="spacingAndGlyphs" textLength="150" x="617" y="1163.084">setProcessoSeriacao(ps)</text>
        <polygon fill="#A80036" points="566,1200.8262,576,1204.8262,566,1208.8262,570,1204.8262" style="stroke: #A80036; stroke-width: 1.0;"/>
        <line style="stroke: #A80036; stroke-width: 1.0;" x1="230" x2="572" y1="1204.8262" y2="1204.8262"/>
        <text fill="#000000" font-family="sans-serif" font-size="13" font-weight="bold" lengthAdjust="spacingAndGlyphs" textLength="18" x="237" y="1200.3945">19</text>
        <text fill="#000000" font-family="sans-serif" font-size="13" lengthAdjust="spacingAndGlyphs" textLength="307" x="259" y="1200.3945">atribuicaoObrigatoria = isAtribuicaoObrigatoria()</text>
        <rect fill="none" height="62.9316" style="stroke: #000000; stroke-width: 2.0;" width="284" x="83" y="1250.1367"/>
        <polygon fill="#EEEEEE" points="83,1250.1367,150,1250.1367,150,1257.1367,140,1267.1367,83,1267.1367,83,1250.1367" style="stroke: #000000; stroke-width: 2.0;"/>
        <text fill="#000000" font-family="sans-serif" font-size="13" font-weight="bold" lengthAdjust="spacingAndGlyphs" textLength="22" x="98" y="1263.7051">opt</text>
        <a target="_top" xlink:actuate="onRequest" xlink:href="" xlink:show="new" xlink:title="" xlink:type="simple">
            <text fill="#0000FF" font-family="sans-serif" font-size="11" font-weight="bold" lengthAdjust="spacingAndGlyphs" text-decoration="underline" textLength="168" x="165" y="1262.7715">atribuicaoObrigatoria == true</text>
            <line style="stroke: #0000FF; stroke-width: 1.0;" x1="165" x2="333" y1="1264.7715" y2="1264.7715"/>
        </a>
        <rect fill="#FFFFFF" filter="url(#fq5xa0u1misaq)" height="40.6211" style="stroke: #000000; stroke-width: 2.0;" width="266" x="90" y="1267.4473"/>
        <polygon fill="#EEEEEE" points="90,1267.4473,154,1267.4473,154,1274.4473,144,1284.4473,90,1284.4473,90,1267.4473" style="stroke: #000000; stroke-width: 2.0;"/>
        <text fill="#000000" font-family="sans-serif" font-size="13" font-weight="bold" lengthAdjust="spacingAndGlyphs" textLength="19" x="103" y="1282.0156">ref</text>
        <text fill="#000000" font-family="sans-serif" font-size="13" lengthAdjust="spacingAndGlyphs" textLength="201" x="124.5" y="1301.0156">UC13_SD_AdjudicarCandidatura</text>
        <!--
@startuml
autonumber
'hide footbox
title UC13_SD_SeriarCandidaturaSubmetida
participant "task:SeriarCandidaturaAnuncioTask" as TSK
participant "anu:Anuncio" as ANU
participant "lc:ListaCandidaturas" as LC
participant "lstCand:List<Candidatura>" as LSTC
participant ":Plataforma" as PLAT
participant "<<interface>>\n tp:TipoRegimento" as TP
participant "lstCandOrd\n:List<Candidatura>" as LCO
participant "ps:ProcessoSeriacao" as PS
participant "class\n:Classificacao" as CLSS

note over LCO: lista de candidaturas\n ordenada pelo tipo\n de regimento do anuncio

note over TP: É uma instância de\n qualquer classe que\n implemente esta interface

[-> TSK: SeriarCandidaturaSubmetida()
activate TSK
TSK -> ANU: primeiraSeriacao = isPrimeiraSeriacao()
activate ANU
deactivate ANU
OPT [ primeiraSeriacao == true ]
TSK -> ANU: lc = getListaCandidaturas()
activate ANU
deactivate ANU
TSK -> LC: lstCand = getListaCandidaturas()
activate LC
deactivate LC
TSK -> ANU:ps = novoProcessoSeriacao()
activate ANU
ANU - -> PS **: create(tipoReg)
deactivate ANU
note right
"tipoReg" refere-se a uma instância
de TipoRegimento, aquela pelo qual
se que rege o Anúncio
end note
TSK -> ANU: tipoReg = getTipoRegimento()
activate ANU
deactivate ANU
TSK -> PLAT : tp = getAlgoritmoSeriacao()
activate PLAT
deactivate PLAT
TSK -> TP:lstCandOrd = seriarListaCandidatos(lstCand,tipoReg)
activate TP
deactivate TP
loop [ até que a lista de candidaturas ordenada tenha sido toda percorrida]
TSK -> LCO: cand = get(i)
activate LCO
deactivate LCO
TSK -> PS: addClassificacao(cand,ordem)
activate PS
PS - -> CLSS **:class = create(cand,ordem)
PS -> PS: validaClassificacao(class)
PS -> PS: addClassificacao(class)
deactivate PS
end loop
TSK -> ANU: registaProcessoSeriacao(ps)
activate ANU
ANU -> ANU: validaProcessoSeriacao(ps)
ANU -> PS: valida()
activate PS
deactivate PS
ANU -> ANU: setProcessoSeriacao(ps)
deactivate ANU
TSK -> ANU: atribuicaoObrigatoria = isAtribuicaoObrigatoria()
activate ANU
deactivate ANU
OPT [ atribuicaoObrigatoria == true ]
ref over TSK
 UC13_SD_AdjudicarCandidatura
end ref
end OPT
end OPT

deactivate TSK

@enduml

PlantUML version 2017.11(Wed Apr 19 17:18:59 WEST 2017)
(GPL source distribution)
Java Runtime: Java(TM) SE Runtime Environment
JVM: Java HotSpot(TM) 64-Bit Server VM
Java Version: 1.8.0_111-b14
Operating System: Mac OS X
OS Version: 10.15
Default Encoding: UTF-8
Language: pt
Country: PT
-->
    </g>
</svg>
