<?xml version="1.0" encoding="UTF-8"?><svg xmlns="http://www.w3.org/2000/svg" xmlns:xlink="http://www.w3.org/1999/xlink" contentScriptType="application/ecmascript" contentStyleType="text/css" height="338px" preserveAspectRatio="none" style="width:1391px;height:338px;" version="1.1" viewBox="0 0 1391 338" width="1391px" zoomAndPan="magnify">
    <defs>
        <filter height="300%" id="fevts8w8gdae4" width="300%" x="-1" y="-1">
            <feGaussianBlur result="blurOut" stdDeviation="2.0"/>
            <feColorMatrix in="blurOut" result="blurOut2" type="matrix" values="0 0 0 0 0 0 0 0 0 0 0 0 0 0 0 0 0 0 .4 0"/>
            <feOffset dx="4.0" dy="4.0" in="blurOut2" result="blurOut3"/>
            <feBlend in="SourceGraphic" in2="blurOut3" mode="normal"/>
        </filter>
    </defs>
    <g>
        <text fill="#000000" font-family="sans-serif" font-size="14" font-weight="bold" lengthAdjust="spacingAndGlyphs" textLength="352" x="521" y="23.5352">UC13_SD_OrdenaCandidaturaPeloTipoRegimento</text>
        <rect fill="#FFFFFF" filter="url(#fevts8w8gdae4)" height="178.9316" style="stroke: #A80036; stroke-width: 1.0;" width="10" x="137" y="95.4648"/>
        <rect fill="#FFFFFF" filter="url(#fevts8w8gdae4)" height="30" style="stroke: #A80036; stroke-width: 1.0;" width="10" x="472" y="175.7754"/>
        <rect fill="#FFFFFF" filter="url(#fevts8w8gdae4)" height="30" style="stroke: #A80036; stroke-width: 1.0;" width="10" x="582.5" y="116.4648"/>
        <rect fill="#FFFFFF" filter="url(#fevts8w8gdae4)" height="30" style="stroke: #A80036; stroke-width: 1.0;" width="10" x="1083.5" y="235.0859"/>
        <line style="stroke: #A80036; stroke-width: 1.0; stroke-dasharray: 5.0,5.0;" x1="142" x2="142" y1="85.4648" y2="283.3965"/>
        <line style="stroke: #A80036; stroke-width: 1.0; stroke-dasharray: 5.0,5.0;" x1="477" x2="477" y1="85.4648" y2="283.3965"/>
        <line style="stroke: #A80036; stroke-width: 1.0; stroke-dasharray: 5.0,5.0;" x1="587" x2="587" y1="85.4648" y2="283.3965"/>
        <line style="stroke: #A80036; stroke-width: 1.0; stroke-dasharray: 5.0,5.0;" x1="720" x2="720" y1="85.4648" y2="283.3965"/>
        <line style="stroke: #A80036; stroke-width: 1.0; stroke-dasharray: 5.0,5.0;" x1="902" x2="902" y1="85.4648" y2="283.3965"/>
        <line style="stroke: #A80036; stroke-width: 1.0; stroke-dasharray: 5.0,5.0;" x1="1088" x2="1088" y1="85.4648" y2="283.3965"/>
        <line style="stroke: #A80036; stroke-width: 1.0; stroke-dasharray: 5.0,5.0;" x1="1279" x2="1279" y1="85.4648" y2="283.3965"/>
        <rect fill="#FEFECE" filter="url(#fevts8w8gdae4)" height="30.4883" style="stroke: #A80036; stroke-width: 1.5;" width="264" x="8" y="49.9766"/>
        <text fill="#000000" font-family="sans-serif" font-size="14" lengthAdjust="spacingAndGlyphs" textLength="250" x="15" y="70.5117">task: SeriarCandidaturaAnuncioTask</text>
        <rect fill="#FEFECE" filter="url(#fevts8w8gdae4)" height="30.4883" style="stroke: #A80036; stroke-width: 1.5;" width="264" x="8" y="282.3965"/>
        <text fill="#000000" font-family="sans-serif" font-size="14" lengthAdjust="spacingAndGlyphs" textLength="250" x="15" y="302.9316">task: SeriarCandidaturaAnuncioTask</text>
        <rect fill="#FEFECE" filter="url(#fevts8w8gdae4)" height="30.4883" style="stroke: #A80036; stroke-width: 1.5;" width="92" x="429" y="49.9766"/>
        <text fill="#000000" font-family="sans-serif" font-size="14" lengthAdjust="spacingAndGlyphs" textLength="78" x="436" y="70.5117">:Plataforma</text>
        <rect fill="#FEFECE" filter="url(#fevts8w8gdae4)" height="30.4883" style="stroke: #A80036; stroke-width: 1.5;" width="92" x="429" y="282.3965"/>
        <text fill="#000000" font-family="sans-serif" font-size="14" lengthAdjust="spacingAndGlyphs" textLength="78" x="436" y="302.9316">:Plataforma</text>
        <rect fill="#FEFECE" filter="url(#fevts8w8gdae4)" height="30.4883" style="stroke: #A80036; stroke-width: 1.5;" width="101" x="535" y="49.9766"/>
        <text fill="#000000" font-family="sans-serif" font-size="14" lengthAdjust="spacingAndGlyphs" textLength="87" x="542" y="70.5117">anu:Anuncio</text>
        <rect fill="#FEFECE" filter="url(#fevts8w8gdae4)" height="30.4883" style="stroke: #A80036; stroke-width: 1.5;" width="101" x="535" y="282.3965"/>
        <text fill="#000000" font-family="sans-serif" font-size="14" lengthAdjust="spacingAndGlyphs" textLength="87" x="542" y="302.9316">anu:Anuncio</text>
        <rect fill="#FEFECE" filter="url(#fevts8w8gdae4)" height="30.4883" style="stroke: #A80036; stroke-width: 1.5;" width="136" x="650" y="49.9766"/>
        <text fill="#000000" font-family="sans-serif" font-size="14" lengthAdjust="spacingAndGlyphs" textLength="122" x="657" y="70.5117">cand:Candidatura</text>
        <rect fill="#FEFECE" filter="url(#fevts8w8gdae4)" height="30.4883" style="stroke: #A80036; stroke-width: 1.5;" width="136" x="650" y="282.3965"/>
        <text fill="#000000" font-family="sans-serif" font-size="14" lengthAdjust="spacingAndGlyphs" textLength="122" x="657" y="302.9316">cand:Candidatura</text>
        <rect fill="#FEFECE" filter="url(#fevts8w8gdae4)" height="30.4883" style="stroke: #A80036; stroke-width: 1.5;" width="200" x="800" y="49.9766"/>
        <text fill="#000000" font-family="sans-serif" font-size="14" lengthAdjust="spacingAndGlyphs" textLength="186" x="807" y="70.5117">lstCand:List&lt;Candidatura&gt;</text>
        <rect fill="#FEFECE" filter="url(#fevts8w8gdae4)" height="30.4883" style="stroke: #A80036; stroke-width: 1.5;" width="200" x="800" y="282.3965"/>
        <text fill="#000000" font-family="sans-serif" font-size="14" lengthAdjust="spacingAndGlyphs" textLength="186" x="807" y="302.9316">lstCand:List&lt;Candidatura&gt;</text>
        <rect fill="#FEFECE" filter="url(#fevts8w8gdae4)" height="46.9766" style="stroke: #A80036; stroke-width: 1.5;" width="145" x="1014" y="33.4883"/>
        <text fill="#000000" font-family="sans-serif" font-size="14" lengthAdjust="spacingAndGlyphs" textLength="104" x="1034.5" y="54.0234">&lt;&lt;interface&gt;&gt;</text>
        <text fill="#000000" font-family="sans-serif" font-size="14" lengthAdjust="spacingAndGlyphs" textLength="127" x="1025" y="70.5117">tp: TipoRegimento</text>
        <rect fill="#FEFECE" filter="url(#fevts8w8gdae4)" height="46.9766" style="stroke: #A80036; stroke-width: 1.5;" width="145" x="1014" y="282.3965"/>
        <text fill="#000000" font-family="sans-serif" font-size="14" lengthAdjust="spacingAndGlyphs" textLength="104" x="1034.5" y="302.9316">&lt;&lt;interface&gt;&gt;</text>
        <text fill="#000000" font-family="sans-serif" font-size="14" lengthAdjust="spacingAndGlyphs" textLength="127" x="1025" y="319.4199">tp: TipoRegimento</text>
        <rect fill="#FEFECE" filter="url(#fevts8w8gdae4)" height="46.9766" style="stroke: #A80036; stroke-width: 1.5;" width="209" x="1173" y="33.4883"/>
        <text fill="#000000" font-family="sans-serif" font-size="14" lengthAdjust="spacingAndGlyphs" textLength="78" x="1238.5" y="54.0234">lstCandOrd</text>
        <text fill="#000000" font-family="sans-serif" font-size="14" lengthAdjust="spacingAndGlyphs" textLength="195" x="1180" y="70.5117">:ListaCandidaturasOrdenada</text>
        <rect fill="#FEFECE" filter="url(#fevts8w8gdae4)" height="46.9766" style="stroke: #A80036; stroke-width: 1.5;" width="209" x="1173" y="282.3965"/>
        <text fill="#000000" font-family="sans-serif" font-size="14" lengthAdjust="spacingAndGlyphs" textLength="78" x="1238.5" y="302.9316">lstCandOrd</text>
        <text fill="#000000" font-family="sans-serif" font-size="14" lengthAdjust="spacingAndGlyphs" textLength="195" x="1180" y="319.4199">:ListaCandidaturasOrdenada</text>
        <rect fill="#FFFFFF" filter="url(#fevts8w8gdae4)" height="178.9316" style="stroke: #A80036; stroke-width: 1.0;" width="10" x="137" y="95.4648"/>
        <rect fill="#FFFFFF" filter="url(#fevts8w8gdae4)" height="30" style="stroke: #A80036; stroke-width: 1.0;" width="10" x="472" y="175.7754"/>
        <rect fill="#FFFFFF" filter="url(#fevts8w8gdae4)" height="30" style="stroke: #A80036; stroke-width: 1.0;" width="10" x="582.5" y="116.4648"/>
        <rect fill="#FFFFFF" filter="url(#fevts8w8gdae4)" height="30" style="stroke: #A80036; stroke-width: 1.0;" width="10" x="1083.5" y="235.0859"/>
        <polygon fill="#A80036" points="570.5,112.4648,580.5,116.4648,570.5,120.4648,574.5,116.4648" style="stroke: #A80036; stroke-width: 1.0;"/>
        <line style="stroke: #A80036; stroke-width: 1.0;" x1="147" x2="576.5" y1="116.4648" y2="116.4648"/>
        <text fill="#000000" font-family="sans-serif" font-size="13" font-weight="bold" lengthAdjust="spacingAndGlyphs" textLength="9" x="154" y="112.0332">1</text>
        <text fill="#000000" font-family="sans-serif" font-size="13" lengthAdjust="spacingAndGlyphs" textLength="151" x="167" y="112.0332">tr = getTipoRegimento()</text>
        <polygon fill="#A80036" points="460,171.7754,470,175.7754,460,179.7754,464,175.7754" style="stroke: #A80036; stroke-width: 1.0;"/>
        <line style="stroke: #A80036; stroke-width: 1.0;" x1="147" x2="466" y1="175.7754" y2="175.7754"/>
        <text fill="#000000" font-family="sans-serif" font-size="13" font-weight="bold" lengthAdjust="spacingAndGlyphs" textLength="9" x="154" y="171.3438">2</text>
        <text fill="#000000" font-family="sans-serif" font-size="13" lengthAdjust="spacingAndGlyphs" textLength="293" x="167" y="171.3438">tp = getAlgoritmoSeriacaoByTipoRegimento(tr)</text>
        <polygon fill="#A80036" points="1071.5,231.0859,1081.5,235.0859,1071.5,239.0859,1075.5,235.0859" style="stroke: #A80036; stroke-width: 1.0;"/>
        <line style="stroke: #A80036; stroke-width: 1.0;" x1="147" x2="1077.5" y1="235.0859" y2="235.0859"/>
        <text fill="#000000" font-family="sans-serif" font-size="13" font-weight="bold" lengthAdjust="spacingAndGlyphs" textLength="9" x="154" y="230.6543">3</text>
        <text fill="#000000" font-family="sans-serif" font-size="13" lengthAdjust="spacingAndGlyphs" textLength="210" x="167" y="230.6543">lstCandOrd = SeriarLista(lstCand)</text>
        <!--
@startuml
autonumber
title UC13_SD_OrdenaCandidaturaPeloTipoRegimento
participant "task: SeriarCandidaturaAnuncioTask" as TSK
participant ":Plataforma" as PLAT

participant "anu:Anuncio" as ANU
participant "cand:Candidatura" as CND
participant "lstCand:List<Candidatura>" as LSTC
participant "<<interface>>\n tp: TipoRegimento" as TP
participant "lstCandOrd\n:ListaCandidaturasOrdenada" as LCO

activate TSK

TSK -> ANU: tr = getTipoRegimento()
activate ANU
deactivate ANU

TSK -> PLAT: tp = getAlgoritmoSeriacaoByTipoRegimento(tr)
activate PLAT
deactivate PLAT

TSK -> TP:lstCandOrd = SeriarLista(lstCand)
activate TP
deactivate TP


@enduml

PlantUML version 2017.11(Wed Apr 19 17:18:59 WEST 2017)
(GPL source distribution)
Java Runtime: Java(TM) SE Runtime Environment
JVM: Java HotSpot(TM) 64-Bit Server VM
Java Version: 1.8.0_111-b14
Operating System: Mac OS X
OS Version: 10.15
Default Encoding: UTF-8
Language: pt
Country: PT
-->
    </g>
</svg>
