<?xml version="1.0" encoding="UTF-8"?><svg xmlns="http://www.w3.org/2000/svg" xmlns:xlink="http://www.w3.org/1999/xlink" contentScriptType="application/ecmascript" contentStyleType="text/css" height="1813px" preserveAspectRatio="none" style="width:2962px;height:1813px;" version="1.1" viewBox="0 0 2962 1813" width="2962px" zoomAndPan="magnify">
    <defs>
        <filter height="300%" id="f1bfaiaxtoa2lg" width="300%" x="-1" y="-1">
            <feGaussianBlur result="blurOut" stdDeviation="2.0"/>
            <feColorMatrix in="blurOut" result="blurOut2" type="matrix" values="0 0 0 0 0 0 0 0 0 0 0 0 0 0 0 0 0 0 .4 0"/>
            <feOffset dx="4.0" dy="4.0" in="blurOut2" result="blurOut3"/>
            <feBlend in="SourceGraphic" in2="blurOut3" mode="normal"/>
        </filter>
    </defs>
    <g>
        <rect fill="#FFFFFF" filter="url(#f1bfaiaxtoa2lg)" height="1613.8008" style="stroke: #A80036; stroke-width: 1.0;" width="10" x="42" y="96.4883"/>
        <rect fill="#FFFFFF" filter="url(#f1bfaiaxtoa2lg)" height="770.3477" style="stroke: #A80036; stroke-width: 1.0;" width="10" x="447" y="117.4883"/>
        <rect fill="#FFFFFF" filter="url(#f1bfaiaxtoa2lg)" height="224.2188" style="stroke: #A80036; stroke-width: 1.0;" width="10" x="447" y="917.1465"/>
        <rect fill="#FFFFFF" filter="url(#f1bfaiaxtoa2lg)" height="223.5078" style="stroke: #A80036; stroke-width: 1.0;" width="10" x="447" y="1170.9863"/>
        <rect fill="#FFFFFF" filter="url(#f1bfaiaxtoa2lg)" height="286.4844" style="stroke: #A80036; stroke-width: 1.0;" width="10" x="447" y="1423.8047"/>
        <rect fill="#FFFFFF" filter="url(#f1bfaiaxtoa2lg)" height="711.7266" style="stroke: #A80036; stroke-width: 1.0;" width="10" x="775" y="146.7988"/>
        <rect fill="#FFFFFF" filter="url(#f1bfaiaxtoa2lg)" height="194.9082" style="stroke: #A80036; stroke-width: 1.0;" width="10" x="775" y="946.457"/>
        <rect fill="#FFFFFF" filter="url(#f1bfaiaxtoa2lg)" height="173.1973" style="stroke: #A80036; stroke-width: 1.0;" width="10" x="775" y="1200.2969"/>
        <rect fill="#FFFFFF" filter="url(#f1bfaiaxtoa2lg)" height="220.8633" style="stroke: #A80036; stroke-width: 1.0;" width="10" x="775" y="1453.1152"/>
        <rect fill="#FFFFFF" filter="url(#f1bfaiaxtoa2lg)" height="30" style="stroke: #A80036; stroke-width: 1.0;" width="10" x="954" y="354.041"/>
        <rect fill="#FFFFFF" filter="url(#f1bfaiaxtoa2lg)" height="30" style="stroke: #A80036; stroke-width: 1.0;" width="10" x="1078" y="413.3516"/>
        <rect fill="#FFFFFF" filter="url(#f1bfaiaxtoa2lg)" height="30" style="stroke: #A80036; stroke-width: 1.0;" width="10" x="1214" y="472.6621"/>
        <rect fill="#FFFFFF" filter="url(#f1bfaiaxtoa2lg)" height="30" style="stroke: #A80036; stroke-width: 1.0;" width="10" x="1340" y="176.1094"/>
        <rect fill="#FFFFFF" filter="url(#f1bfaiaxtoa2lg)" height="30" style="stroke: #A80036; stroke-width: 1.0;" width="10" x="1340" y="235.4199"/>
        <rect fill="#FFFFFF" filter="url(#f1bfaiaxtoa2lg)" height="30" style="stroke: #A80036; stroke-width: 1.0;" width="10" x="1340" y="294.7305"/>
        <rect fill="#FFFFFF" filter="url(#f1bfaiaxtoa2lg)" height="30" style="stroke: #A80036; stroke-width: 1.0;" width="10" x="1340" y="769.2148"/>
        <rect fill="#FFFFFF" filter="url(#f1bfaiaxtoa2lg)" height="30" style="stroke: #A80036; stroke-width: 1.0;" width="10" x="1470.5" y="531.9727"/>
        <rect fill="#FFFFFF" filter="url(#f1bfaiaxtoa2lg)" height="30" style="stroke: #A80036; stroke-width: 1.0;" width="10" x="1600" y="591.2832"/>
        <rect fill="#FFFFFF" filter="url(#f1bfaiaxtoa2lg)" height="30" style="stroke: #A80036; stroke-width: 1.0;" width="10" x="1749" y="650.5938"/>
        <rect fill="#FFFFFF" filter="url(#f1bfaiaxtoa2lg)" height="30" style="stroke: #A80036; stroke-width: 1.0;" width="10" x="1909.5" y="709.9043"/>
        <rect fill="#FFFFFF" filter="url(#f1bfaiaxtoa2lg)" height="30" style="stroke: #A80036; stroke-width: 1.0;" width="10" x="2043" y="828.5254"/>
        <rect fill="#FFFFFF" filter="url(#f1bfaiaxtoa2lg)" height="30" style="stroke: #A80036; stroke-width: 1.0;" width="10" x="2043" y="975.7676"/>
        <rect fill="#FFFFFF" filter="url(#f1bfaiaxtoa2lg)" height="29.3105" style="stroke: #A80036; stroke-width: 1.0;" width="10" x="2197" y="1035.0781"/>
        <rect fill="#FFFFFF" filter="url(#f1bfaiaxtoa2lg)" height="77.6211" style="stroke: #A80036; stroke-width: 1.0;" width="10" x="2197" y="1596.3574"/>
        <rect fill="#FFFFFF" filter="url(#f1bfaiaxtoa2lg)" height="30" style="stroke: #A80036; stroke-width: 1.0;" width="10" x="2558" y="1253.918"/>
        <rect fill="#FFFFFF" filter="url(#f1bfaiaxtoa2lg)" height="30" style="stroke: #A80036; stroke-width: 1.0;" width="10" x="2558" y="1328.1836"/>
        <rect fill="#FFFFFF" filter="url(#f1bfaiaxtoa2lg)" height="77.6211" style="stroke: #A80036; stroke-width: 1.0;" width="10" x="2661" y="1482.4258"/>
        <rect fill="#FEFECE" filter="url(#f1bfaiaxtoa2lg)" height="46.9766" style="stroke: #A80036; stroke-width: 1.5;" width="103" x="2509.5" y="1043.3887"/>
        <text fill="#000000" font-family="sans-serif" font-size="14" lengthAdjust="spacingAndGlyphs" textLength="24" x="2549" y="1063.9238">can</text>
        <text fill="#000000" font-family="sans-serif" font-size="14" lengthAdjust="spacingAndGlyphs" textLength="89" x="2516.5" y="1080.4121">:Candidatura</text>
        <rect fill="#FFFFFF" filter="url(#f1bfaiaxtoa2lg)" height="150.8867" style="stroke: #000000; stroke-width: 2.0;" width="1969.5" x="657" y="1215.6074"/>
        <rect fill="#FFFFFF" height="74.2656" style="stroke: none; stroke-width: 1.0;" width="1969.5" x="657" y="1292.2285"/>
        <line style="stroke: #A80036; stroke-width: 1.0; stroke-dasharray: 5.0,5.0;" x1="47" x2="47" y1="86.4883" y2="1728.5996"/>
        <line style="stroke: #A80036; stroke-width: 1.0; stroke-dasharray: 5.0,5.0;" x1="452" x2="452" y1="86.4883" y2="1728.5996"/>
        <line style="stroke: #A80036; stroke-width: 1.0; stroke-dasharray: 5.0,5.0;" x1="780" x2="780" y1="86.4883" y2="1728.5996"/>
        <line style="stroke: #A80036; stroke-width: 1.0; stroke-dasharray: 5.0,5.0;" x1="959" x2="959" y1="86.4883" y2="1728.5996"/>
        <line style="stroke: #A80036; stroke-width: 1.0; stroke-dasharray: 5.0,5.0;" x1="1083" x2="1083" y1="86.4883" y2="1728.5996"/>
        <line style="stroke: #A80036; stroke-width: 1.0; stroke-dasharray: 5.0,5.0;" x1="1219" x2="1219" y1="86.4883" y2="1728.5996"/>
        <line style="stroke: #A80036; stroke-width: 1.0; stroke-dasharray: 5.0,5.0;" x1="1345" x2="1345" y1="86.4883" y2="1728.5996"/>
        <line style="stroke: #A80036; stroke-width: 1.0; stroke-dasharray: 5.0,5.0;" x1="1475" x2="1475" y1="86.4883" y2="1728.5996"/>
        <line style="stroke: #A80036; stroke-width: 1.0; stroke-dasharray: 5.0,5.0;" x1="1605" x2="1605" y1="86.4883" y2="1728.5996"/>
        <line style="stroke: #A80036; stroke-width: 1.0; stroke-dasharray: 5.0,5.0;" x1="1754" x2="1754" y1="86.4883" y2="1728.5996"/>
        <line style="stroke: #A80036; stroke-width: 1.0; stroke-dasharray: 5.0,5.0;" x1="1914" x2="1914" y1="86.4883" y2="1728.5996"/>
        <line style="stroke: #A80036; stroke-width: 1.0; stroke-dasharray: 5.0,5.0;" x1="2048" x2="2048" y1="86.4883" y2="1728.5996"/>
        <line style="stroke: #A80036; stroke-width: 1.0; stroke-dasharray: 5.0,5.0;" x1="2202" x2="2202" y1="86.4883" y2="1728.5996"/>
        <line style="stroke: #A80036; stroke-width: 1.0; stroke-dasharray: 5.0,5.0;" x1="2562.5" x2="2562.5" y1="1084.377" y2="1728.5996"/>
        <line style="stroke: #A80036; stroke-width: 1.0; stroke-dasharray: 5.0,5.0;" x1="2665.5" x2="2665.5" y1="86.4883" y2="1728.5996"/>
        <text fill="#000000" font-family="sans-serif" font-size="14" lengthAdjust="spacingAndGlyphs" textLength="72" x="8" y="83.5352">Freelancer</text>
        <ellipse cx="47" cy="13" fill="#FEFECE" filter="url(#f1bfaiaxtoa2lg)" rx="8" ry="8" style="stroke: #A80036; stroke-width: 2.0;"/>
        <path d="M47,21 L47,48 M34,29 L60,29 M47,48 L34,63 M47,48 L60,63 " fill="#FEFECE" filter="url(#f1bfaiaxtoa2lg)" style="stroke: #A80036; stroke-width: 2.0;"/>
        <text fill="#000000" font-family="sans-serif" font-size="14" lengthAdjust="spacingAndGlyphs" textLength="72" x="8" y="1741.1348">Freelancer</text>
        <ellipse cx="47" cy="1754.0879" fill="#FEFECE" filter="url(#f1bfaiaxtoa2lg)" rx="8" ry="8" style="stroke: #A80036; stroke-width: 2.0;"/>
        <path d="M47,1762.0879 L47,1789.0879 M34,1770.0879 L60,1770.0879 M47,1789.0879 L34,1804.0879 M47,1789.0879 L60,1804.0879 " fill="#FEFECE" filter="url(#f1bfaiaxtoa2lg)" style="stroke: #A80036; stroke-width: 2.0;"/>
        <rect fill="#FEFECE" filter="url(#f1bfaiaxtoa2lg)" height="30.4883" style="stroke: #A80036; stroke-width: 1.5;" width="166" x="367" y="51"/>
        <text fill="#000000" font-family="sans-serif" font-size="14" lengthAdjust="spacingAndGlyphs" textLength="152" x="374" y="71.5352">:EfetuarCandidaturaUI</text>
        <rect fill="#FEFECE" filter="url(#f1bfaiaxtoa2lg)" height="30.4883" style="stroke: #A80036; stroke-width: 1.5;" width="166" x="367" y="1727.5996"/>
        <text fill="#000000" font-family="sans-serif" font-size="14" lengthAdjust="spacingAndGlyphs" textLength="152" x="374" y="1748.1348">:EfetuarCandidaturaUI</text>
        <rect fill="#FEFECE" filter="url(#f1bfaiaxtoa2lg)" height="30.4883" style="stroke: #A80036; stroke-width: 1.5;" width="222" x="667" y="51"/>
        <text fill="#000000" font-family="sans-serif" font-size="14" lengthAdjust="spacingAndGlyphs" textLength="208" x="674" y="71.5352">:EfetuarCandidaturaController</text>
        <rect fill="#FEFECE" filter="url(#f1bfaiaxtoa2lg)" height="30.4883" style="stroke: #A80036; stroke-width: 1.5;" width="222" x="667" y="1727.5996"/>
        <text fill="#000000" font-family="sans-serif" font-size="14" lengthAdjust="spacingAndGlyphs" textLength="208" x="674" y="1748.1348">:EfetuarCandidaturaController</text>
        <rect fill="#FEFECE" filter="url(#f1bfaiaxtoa2lg)" height="30.4883" style="stroke: #A80036; stroke-width: 1.5;" width="108" x="903" y="51"/>
        <text fill="#000000" font-family="sans-serif" font-size="14" lengthAdjust="spacingAndGlyphs" textLength="94" x="910" y="71.5352">AplicacaoPOT</text>
        <rect fill="#FEFECE" filter="url(#f1bfaiaxtoa2lg)" height="30.4883" style="stroke: #A80036; stroke-width: 1.5;" width="108" x="903" y="1727.5996"/>
        <text fill="#000000" font-family="sans-serif" font-size="14" lengthAdjust="spacingAndGlyphs" textLength="94" x="910" y="1748.1348">AplicacaoPOT</text>
        <rect fill="#FEFECE" filter="url(#f1bfaiaxtoa2lg)" height="46.9766" style="stroke: #A80036; stroke-width: 1.5;" width="112" x="1025" y="34.5117"/>
        <text fill="#000000" font-family="sans-serif" font-size="14" lengthAdjust="spacingAndGlyphs" textLength="26" x="1068" y="55.0469">app</text>
        <text fill="#000000" font-family="sans-serif" font-size="14" lengthAdjust="spacingAndGlyphs" textLength="98" x="1032" y="71.5352">:AplicacaoPOT</text>
        <rect fill="#FEFECE" filter="url(#f1bfaiaxtoa2lg)" height="46.9766" style="stroke: #A80036; stroke-width: 1.5;" width="112" x="1025" y="1727.5996"/>
        <text fill="#000000" font-family="sans-serif" font-size="14" lengthAdjust="spacingAndGlyphs" textLength="26" x="1068" y="1748.1348">app</text>
        <text fill="#000000" font-family="sans-serif" font-size="14" lengthAdjust="spacingAndGlyphs" textLength="98" x="1032" y="1764.623">:AplicacaoPOT</text>
        <rect fill="#FEFECE" filter="url(#f1bfaiaxtoa2lg)" height="46.9766" style="stroke: #A80036; stroke-width: 1.5;" width="132" x="1151" y="34.5117"/>
        <text fill="#000000" font-family="sans-serif" font-size="14" lengthAdjust="spacingAndGlyphs" textLength="46" x="1194" y="55.0469">sessao</text>
        <text fill="#000000" font-family="sans-serif" font-size="14" lengthAdjust="spacingAndGlyphs" textLength="118" x="1158" y="71.5352">:SessaoUtilizador</text>
        <rect fill="#FEFECE" filter="url(#f1bfaiaxtoa2lg)" height="46.9766" style="stroke: #A80036; stroke-width: 1.5;" width="132" x="1151" y="1727.5996"/>
        <text fill="#000000" font-family="sans-serif" font-size="14" lengthAdjust="spacingAndGlyphs" textLength="46" x="1194" y="1748.1348">sessao</text>
        <text fill="#000000" font-family="sans-serif" font-size="14" lengthAdjust="spacingAndGlyphs" textLength="118" x="1158" y="1764.623">:SessaoUtilizador</text>
        <rect fill="#FEFECE" filter="url(#f1bfaiaxtoa2lg)" height="30.4883" style="stroke: #A80036; stroke-width: 1.5;" width="92" x="1297" y="51"/>
        <text fill="#000000" font-family="sans-serif" font-size="14" lengthAdjust="spacingAndGlyphs" textLength="78" x="1304" y="71.5352">:Plataforma</text>
        <rect fill="#FEFECE" filter="url(#f1bfaiaxtoa2lg)" height="30.4883" style="stroke: #A80036; stroke-width: 1.5;" width="92" x="1297" y="1727.5996"/>
        <text fill="#000000" font-family="sans-serif" font-size="14" lengthAdjust="spacingAndGlyphs" textLength="78" x="1304" y="1748.1348">:Plataforma</text>
        <rect fill="#FEFECE" filter="url(#f1bfaiaxtoa2lg)" height="46.9766" style="stroke: #A80036; stroke-width: 1.5;" width="141" x="1403" y="34.5117"/>
        <text fill="#000000" font-family="sans-serif" font-size="14" lengthAdjust="spacingAndGlyphs" textLength="11" x="1468" y="55.0469">rf</text>
        <text fill="#000000" font-family="sans-serif" font-size="14" lengthAdjust="spacingAndGlyphs" textLength="127" x="1410" y="71.5352">:RegistoFreelancer</text>
        <rect fill="#FEFECE" filter="url(#f1bfaiaxtoa2lg)" height="46.9766" style="stroke: #A80036; stroke-width: 1.5;" width="141" x="1403" y="1727.5996"/>
        <text fill="#000000" font-family="sans-serif" font-size="14" lengthAdjust="spacingAndGlyphs" textLength="11" x="1468" y="1748.1348">rf</text>
        <text fill="#000000" font-family="sans-serif" font-size="14" lengthAdjust="spacingAndGlyphs" textLength="127" x="1410" y="1764.623">:RegistoFreelancer</text>
        <rect fill="#FEFECE" filter="url(#f1bfaiaxtoa2lg)" height="30.4883" style="stroke: #A80036; stroke-width: 1.5;" width="90" x="1558" y="51"/>
        <text fill="#000000" font-family="sans-serif" font-size="14" lengthAdjust="spacingAndGlyphs" textLength="76" x="1565" y="71.5352">:Freelancer</text>
        <rect fill="#FEFECE" filter="url(#f1bfaiaxtoa2lg)" height="30.4883" style="stroke: #A80036; stroke-width: 1.5;" width="90" x="1558" y="1727.5996"/>
        <text fill="#000000" font-family="sans-serif" font-size="14" lengthAdjust="spacingAndGlyphs" textLength="76" x="1565" y="1748.1348">:Freelancer</text>
        <rect fill="#FEFECE" filter="url(#f1bfaiaxtoa2lg)" height="46.9766" style="stroke: #A80036; stroke-width: 1.5;" width="180" x="1662" y="34.5117"/>
        <text fill="#000000" font-family="sans-serif" font-size="14" lengthAdjust="spacingAndGlyphs" textLength="18" x="1743" y="55.0469">rct</text>
        <text fill="#000000" font-family="sans-serif" font-size="14" lengthAdjust="spacingAndGlyphs" textLength="166" x="1669" y="71.5352">:RegistoCategoriaTarefa</text>
        <rect fill="#FEFECE" filter="url(#f1bfaiaxtoa2lg)" height="46.9766" style="stroke: #A80036; stroke-width: 1.5;" width="180" x="1662" y="1727.5996"/>
        <text fill="#000000" font-family="sans-serif" font-size="14" lengthAdjust="spacingAndGlyphs" textLength="18" x="1743" y="1748.1348">rct</text>
        <text fill="#000000" font-family="sans-serif" font-size="14" lengthAdjust="spacingAndGlyphs" textLength="166" x="1669" y="1764.623">:RegistoCategoriaTarefa</text>
        <rect fill="#FEFECE" filter="url(#f1bfaiaxtoa2lg)" height="46.9766" style="stroke: #A80036; stroke-width: 1.5;" width="113" x="1856" y="34.5117"/>
        <text fill="#000000" font-family="sans-serif" font-size="14" lengthAdjust="spacingAndGlyphs" textLength="11" x="1907" y="55.0469">rt</text>
        <text fill="#000000" font-family="sans-serif" font-size="14" lengthAdjust="spacingAndGlyphs" textLength="99" x="1863" y="71.5352">:RegistoTarefa</text>
        <rect fill="#FEFECE" filter="url(#f1bfaiaxtoa2lg)" height="46.9766" style="stroke: #A80036; stroke-width: 1.5;" width="113" x="1856" y="1727.5996"/>
        <text fill="#000000" font-family="sans-serif" font-size="14" lengthAdjust="spacingAndGlyphs" textLength="11" x="1907" y="1748.1348">rt</text>
        <text fill="#000000" font-family="sans-serif" font-size="14" lengthAdjust="spacingAndGlyphs" textLength="99" x="1863" y="1764.623">:RegistoTarefa</text>
        <rect fill="#FEFECE" filter="url(#f1bfaiaxtoa2lg)" height="46.9766" style="stroke: #A80036; stroke-width: 1.5;" width="126" x="1983" y="34.5117"/>
        <text fill="#000000" font-family="sans-serif" font-size="14" lengthAdjust="spacingAndGlyphs" textLength="14" x="2039" y="55.0469">ra</text>
        <text fill="#000000" font-family="sans-serif" font-size="14" lengthAdjust="spacingAndGlyphs" textLength="112" x="1990" y="71.5352">:RegistoAnuncio</text>
        <rect fill="#FEFECE" filter="url(#f1bfaiaxtoa2lg)" height="46.9766" style="stroke: #A80036; stroke-width: 1.5;" width="126" x="1983" y="1727.5996"/>
        <text fill="#000000" font-family="sans-serif" font-size="14" lengthAdjust="spacingAndGlyphs" textLength="14" x="2039" y="1748.1348">ra</text>
        <text fill="#000000" font-family="sans-serif" font-size="14" lengthAdjust="spacingAndGlyphs" textLength="112" x="1990" y="1764.623">:RegistoAnuncio</text>
        <rect fill="#FEFECE" filter="url(#f1bfaiaxtoa2lg)" height="46.9766" style="stroke: #A80036; stroke-width: 1.5;" width="154" x="2123" y="34.5117"/>
        <text fill="#000000" font-family="sans-serif" font-size="14" lengthAdjust="spacingAndGlyphs" textLength="13" x="2193.5" y="55.0469">rc</text>
        <text fill="#000000" font-family="sans-serif" font-size="14" lengthAdjust="spacingAndGlyphs" textLength="140" x="2130" y="71.5352">:RegistoCandidatura</text>
        <rect fill="#FEFECE" filter="url(#f1bfaiaxtoa2lg)" height="46.9766" style="stroke: #A80036; stroke-width: 1.5;" width="154" x="2123" y="1727.5996"/>
        <text fill="#000000" font-family="sans-serif" font-size="14" lengthAdjust="spacingAndGlyphs" textLength="13" x="2193.5" y="1748.1348">rc</text>
        <text fill="#000000" font-family="sans-serif" font-size="14" lengthAdjust="spacingAndGlyphs" textLength="140" x="2130" y="1764.623">:RegistoCandidatura</text>
        <rect fill="#FEFECE" filter="url(#f1bfaiaxtoa2lg)" height="46.9766" style="stroke: #A80036; stroke-width: 1.5;" width="103" x="2509.5" y="1727.5996"/>
        <text fill="#000000" font-family="sans-serif" font-size="14" lengthAdjust="spacingAndGlyphs" textLength="24" x="2549" y="1748.1348">can</text>
        <text fill="#000000" font-family="sans-serif" font-size="14" lengthAdjust="spacingAndGlyphs" textLength="89" x="2516.5" y="1764.623">:Candidatura</text>
        <rect fill="#FEFECE" filter="url(#f1bfaiaxtoa2lg)" height="46.9766" style="stroke: #A80036; stroke-width: 1.5;" width="75" x="2626.5" y="34.5117"/>
        <text fill="#000000" font-family="sans-serif" font-size="14" lengthAdjust="spacingAndGlyphs" textLength="26" x="2651" y="55.0469">anu</text>
        <text fill="#000000" font-family="sans-serif" font-size="14" lengthAdjust="spacingAndGlyphs" textLength="61" x="2633.5" y="71.5352">:Anuncio</text>
        <rect fill="#FEFECE" filter="url(#f1bfaiaxtoa2lg)" height="46.9766" style="stroke: #A80036; stroke-width: 1.5;" width="75" x="2626.5" y="1727.5996"/>
        <text fill="#000000" font-family="sans-serif" font-size="14" lengthAdjust="spacingAndGlyphs" textLength="26" x="2651" y="1748.1348">anu</text>
        <text fill="#000000" font-family="sans-serif" font-size="14" lengthAdjust="spacingAndGlyphs" textLength="61" x="2633.5" y="1764.623">:Anuncio</text>
        <rect fill="#FFFFFF" filter="url(#f1bfaiaxtoa2lg)" height="1613.8008" style="stroke: #A80036; stroke-width: 1.0;" width="10" x="42" y="96.4883"/>
        <rect fill="#FFFFFF" filter="url(#f1bfaiaxtoa2lg)" height="770.3477" style="stroke: #A80036; stroke-width: 1.0;" width="10" x="447" y="117.4883"/>
        <rect fill="#FFFFFF" filter="url(#f1bfaiaxtoa2lg)" height="224.2188" style="stroke: #A80036; stroke-width: 1.0;" width="10" x="447" y="917.1465"/>
        <rect fill="#FFFFFF" filter="url(#f1bfaiaxtoa2lg)" height="223.5078" style="stroke: #A80036; stroke-width: 1.0;" width="10" x="447" y="1170.9863"/>
        <rect fill="#FFFFFF" filter="url(#f1bfaiaxtoa2lg)" height="286.4844" style="stroke: #A80036; stroke-width: 1.0;" width="10" x="447" y="1423.8047"/>
        <rect fill="#FFFFFF" filter="url(#f1bfaiaxtoa2lg)" height="711.7266" style="stroke: #A80036; stroke-width: 1.0;" width="10" x="775" y="146.7988"/>
        <rect fill="#FFFFFF" filter="url(#f1bfaiaxtoa2lg)" height="194.9082" style="stroke: #A80036; stroke-width: 1.0;" width="10" x="775" y="946.457"/>
        <rect fill="#FFFFFF" filter="url(#f1bfaiaxtoa2lg)" height="173.1973" style="stroke: #A80036; stroke-width: 1.0;" width="10" x="775" y="1200.2969"/>
        <rect fill="#FFFFFF" filter="url(#f1bfaiaxtoa2lg)" height="220.8633" style="stroke: #A80036; stroke-width: 1.0;" width="10" x="775" y="1453.1152"/>
        <rect fill="#FFFFFF" filter="url(#f1bfaiaxtoa2lg)" height="30" style="stroke: #A80036; stroke-width: 1.0;" width="10" x="954" y="354.041"/>
        <rect fill="#FFFFFF" filter="url(#f1bfaiaxtoa2lg)" height="30" style="stroke: #A80036; stroke-width: 1.0;" width="10" x="1078" y="413.3516"/>
        <rect fill="#FFFFFF" filter="url(#f1bfaiaxtoa2lg)" height="30" style="stroke: #A80036; stroke-width: 1.0;" width="10" x="1214" y="472.6621"/>
        <rect fill="#FFFFFF" filter="url(#f1bfaiaxtoa2lg)" height="30" style="stroke: #A80036; stroke-width: 1.0;" width="10" x="1340" y="176.1094"/>
        <rect fill="#FFFFFF" filter="url(#f1bfaiaxtoa2lg)" height="30" style="stroke: #A80036; stroke-width: 1.0;" width="10" x="1340" y="235.4199"/>
        <rect fill="#FFFFFF" filter="url(#f1bfaiaxtoa2lg)" height="30" style="stroke: #A80036; stroke-width: 1.0;" width="10" x="1340" y="294.7305"/>
        <rect fill="#FFFFFF" filter="url(#f1bfaiaxtoa2lg)" height="30" style="stroke: #A80036; stroke-width: 1.0;" width="10" x="1340" y="769.2148"/>
        <rect fill="#FFFFFF" filter="url(#f1bfaiaxtoa2lg)" height="30" style="stroke: #A80036; stroke-width: 1.0;" width="10" x="1470.5" y="531.9727"/>
        <rect fill="#FFFFFF" filter="url(#f1bfaiaxtoa2lg)" height="30" style="stroke: #A80036; stroke-width: 1.0;" width="10" x="1600" y="591.2832"/>
        <rect fill="#FFFFFF" filter="url(#f1bfaiaxtoa2lg)" height="30" style="stroke: #A80036; stroke-width: 1.0;" width="10" x="1749" y="650.5938"/>
        <rect fill="#FFFFFF" filter="url(#f1bfaiaxtoa2lg)" height="30" style="stroke: #A80036; stroke-width: 1.0;" width="10" x="1909.5" y="709.9043"/>
        <rect fill="#FFFFFF" filter="url(#f1bfaiaxtoa2lg)" height="30" style="stroke: #A80036; stroke-width: 1.0;" width="10" x="2043" y="828.5254"/>
        <rect fill="#FFFFFF" filter="url(#f1bfaiaxtoa2lg)" height="30" style="stroke: #A80036; stroke-width: 1.0;" width="10" x="2043" y="975.7676"/>
        <rect fill="#FFFFFF" filter="url(#f1bfaiaxtoa2lg)" height="29.3105" style="stroke: #A80036; stroke-width: 1.0;" width="10" x="2197" y="1035.0781"/>
        <rect fill="#FFFFFF" filter="url(#f1bfaiaxtoa2lg)" height="77.6211" style="stroke: #A80036; stroke-width: 1.0;" width="10" x="2197" y="1596.3574"/>
        <rect fill="#FFFFFF" filter="url(#f1bfaiaxtoa2lg)" height="30" style="stroke: #A80036; stroke-width: 1.0;" width="10" x="2558" y="1253.918"/>
        <rect fill="#FFFFFF" filter="url(#f1bfaiaxtoa2lg)" height="30" style="stroke: #A80036; stroke-width: 1.0;" width="10" x="2558" y="1328.1836"/>
        <rect fill="#FFFFFF" filter="url(#f1bfaiaxtoa2lg)" height="77.6211" style="stroke: #A80036; stroke-width: 1.0;" width="10" x="2661" y="1482.4258"/>
        <polygon fill="#A80036" points="435,113.4883,445,117.4883,435,121.4883,439,117.4883" style="stroke: #A80036; stroke-width: 1.0;"/>
        <line style="stroke: #A80036; stroke-width: 1.0;" x1="52" x2="441" y1="117.4883" y2="117.4883"/>
        <text fill="#000000" font-family="sans-serif" font-size="13" font-weight="bold" lengthAdjust="spacingAndGlyphs" textLength="9" x="59" y="113.0566">1</text>
        <text fill="#000000" font-family="sans-serif" font-size="13" lengthAdjust="spacingAndGlyphs" textLength="204" x="72" y="113.0566">Inicia o processo de candidatura</text>
        <polygon fill="#A80036" points="763,142.7988,773,146.7988,763,150.7988,767,146.7988" style="stroke: #A80036; stroke-width: 1.0;"/>
        <line style="stroke: #A80036; stroke-width: 1.0;" x1="457" x2="769" y1="146.7988" y2="146.7988"/>
        <text fill="#000000" font-family="sans-serif" font-size="13" font-weight="bold" lengthAdjust="spacingAndGlyphs" textLength="9" x="464" y="142.3672">2</text>
        <text fill="#000000" font-family="sans-serif" font-size="13" lengthAdjust="spacingAndGlyphs" textLength="194" x="477" y="142.3672">lAnElegiveis = getAnElegiveis()</text>
        <polygon fill="#A80036" points="1328,172.1094,1338,176.1094,1328,180.1094,1332,176.1094" style="stroke: #A80036; stroke-width: 1.0;"/>
        <line style="stroke: #A80036; stroke-width: 1.0;" x1="785" x2="1334" y1="176.1094" y2="176.1094"/>
        <text fill="#000000" font-family="sans-serif" font-size="13" font-weight="bold" lengthAdjust="spacingAndGlyphs" textLength="9" x="792" y="171.6777">3</text>
        <text fill="#000000" font-family="sans-serif" font-size="13" lengthAdjust="spacingAndGlyphs" textLength="167" x="805" y="171.6777">rf = getRegistoFreelancer()</text>
        <polygon fill="#A80036" points="1328,231.4199,1338,235.4199,1328,239.4199,1332,235.4199" style="stroke: #A80036; stroke-width: 1.0;"/>
        <line style="stroke: #A80036; stroke-width: 1.0;" x1="785" x2="1334" y1="235.4199" y2="235.4199"/>
        <text fill="#000000" font-family="sans-serif" font-size="13" font-weight="bold" lengthAdjust="spacingAndGlyphs" textLength="9" x="792" y="230.9883">4</text>
        <text fill="#000000" font-family="sans-serif" font-size="13" lengthAdjust="spacingAndGlyphs" textLength="142" x="805" y="230.9883">rt = getRegistoTarefa()</text>
        <polygon fill="#A80036" points="1328,290.7305,1338,294.7305,1328,298.7305,1332,294.7305" style="stroke: #A80036; stroke-width: 1.0;"/>
        <line style="stroke: #A80036; stroke-width: 1.0;" x1="785" x2="1334" y1="294.7305" y2="294.7305"/>
        <text fill="#000000" font-family="sans-serif" font-size="13" font-weight="bold" lengthAdjust="spacingAndGlyphs" textLength="9" x="792" y="290.2988">5</text>
        <text fill="#000000" font-family="sans-serif" font-size="13" lengthAdjust="spacingAndGlyphs" textLength="209" x="805" y="290.2988">rct = getRegistoCategoriaTarefa()</text>
        <polygon fill="#A80036" points="942,350.041,952,354.041,942,358.041,946,354.041" style="stroke: #A80036; stroke-width: 1.0;"/>
        <line style="stroke: #A80036; stroke-width: 1.0;" x1="785" x2="948" y1="354.041" y2="354.041"/>
        <text fill="#000000" font-family="sans-serif" font-size="13" font-weight="bold" lengthAdjust="spacingAndGlyphs" textLength="9" x="792" y="349.6094">6</text>
        <text fill="#000000" font-family="sans-serif" font-size="13" lengthAdjust="spacingAndGlyphs" textLength="122" x="805" y="349.6094">app = getInstance()</text>
        <polygon fill="#A80036" points="1066,409.3516,1076,413.3516,1066,417.3516,1070,413.3516" style="stroke: #A80036; stroke-width: 1.0;"/>
        <line style="stroke: #A80036; stroke-width: 1.0;" x1="785" x2="1072" y1="413.3516" y2="413.3516"/>
        <text fill="#000000" font-family="sans-serif" font-size="13" font-weight="bold" lengthAdjust="spacingAndGlyphs" textLength="9" x="792" y="408.9199">7</text>
        <text fill="#000000" font-family="sans-serif" font-size="13" lengthAdjust="spacingAndGlyphs" textLength="165" x="805" y="408.9199">sessao = getSessaoAtual()</text>
        <polygon fill="#A80036" points="1202,468.6621,1212,472.6621,1202,476.6621,1206,472.6621" style="stroke: #A80036; stroke-width: 1.0;"/>
        <line style="stroke: #A80036; stroke-width: 1.0;" x1="785" x2="1208" y1="472.6621" y2="472.6621"/>
        <text fill="#000000" font-family="sans-serif" font-size="13" font-weight="bold" lengthAdjust="spacingAndGlyphs" textLength="9" x="792" y="468.2305">8</text>
        <text fill="#000000" font-family="sans-serif" font-size="13" lengthAdjust="spacingAndGlyphs" textLength="175" x="805" y="468.2305">email = getEmailUtilizador()</text>
        <polygon fill="#A80036" points="1458.5,527.9727,1468.5,531.9727,1458.5,535.9727,1462.5,531.9727" style="stroke: #A80036; stroke-width: 1.0;"/>
        <line style="stroke: #A80036; stroke-width: 1.0;" x1="785" x2="1464.5" y1="531.9727" y2="531.9727"/>
        <text fill="#000000" font-family="sans-serif" font-size="13" font-weight="bold" lengthAdjust="spacingAndGlyphs" textLength="9" x="792" y="527.541">9</text>
        <text fill="#000000" font-family="sans-serif" font-size="13" lengthAdjust="spacingAndGlyphs" textLength="254" x="805" y="527.541">freelancer = getFreelancerByEmail(email)</text>
        <polygon fill="#A80036" points="1588,587.2832,1598,591.2832,1588,595.2832,1592,591.2832" style="stroke: #A80036; stroke-width: 1.0;"/>
        <line style="stroke: #A80036; stroke-width: 1.0;" x1="785" x2="1594" y1="591.2832" y2="591.2832"/>
        <text fill="#000000" font-family="sans-serif" font-size="13" font-weight="bold" lengthAdjust="spacingAndGlyphs" textLength="18" x="792" y="586.8516">10</text>
        <text fill="#000000" font-family="sans-serif" font-size="13" lengthAdjust="spacingAndGlyphs" textLength="232" x="814" y="586.8516">lct = getListaCompetenciaTecnica(fr)</text>
        <polygon fill="#A80036" points="1737,646.5938,1747,650.5938,1737,654.5938,1741,650.5938" style="stroke: #A80036; stroke-width: 1.0;"/>
        <line style="stroke: #A80036; stroke-width: 1.0;" x1="785" x2="1743" y1="650.5938" y2="650.5938"/>
        <text fill="#000000" font-family="sans-serif" font-size="13" font-weight="bold" lengthAdjust="spacingAndGlyphs" textLength="18" x="792" y="646.1621">11</text>
        <text fill="#000000" font-family="sans-serif" font-size="13" lengthAdjust="spacingAndGlyphs" textLength="232" x="814" y="646.1621">ctgE = procuraCategoriasElegivel(lct)</text>
        <polygon fill="#A80036" points="1897.5,705.9043,1907.5,709.9043,1897.5,713.9043,1901.5,709.9043" style="stroke: #A80036; stroke-width: 1.0;"/>
        <line style="stroke: #A80036; stroke-width: 1.0;" x1="785" x2="1903.5" y1="709.9043" y2="709.9043"/>
        <text fill="#000000" font-family="sans-serif" font-size="13" font-weight="bold" lengthAdjust="spacingAndGlyphs" textLength="18" x="792" y="705.4727">12</text>
        <text fill="#000000" font-family="sans-serif" font-size="13" lengthAdjust="spacingAndGlyphs" textLength="207" x="814" y="705.4727">tE = procuraTarefasElegivel(ctgE)</text>
        <polygon fill="#A80036" points="1328,765.2148,1338,769.2148,1328,773.2148,1332,769.2148" style="stroke: #A80036; stroke-width: 1.0;"/>
        <line style="stroke: #A80036; stroke-width: 1.0;" x1="785" x2="1334" y1="769.2148" y2="769.2148"/>
        <text fill="#000000" font-family="sans-serif" font-size="13" font-weight="bold" lengthAdjust="spacingAndGlyphs" textLength="18" x="792" y="764.7832">13</text>
        <text fill="#000000" font-family="sans-serif" font-size="13" lengthAdjust="spacingAndGlyphs" textLength="157" x="814" y="764.7832">ra = getRegistoAnuncio()</text>
        <polygon fill="#A80036" points="2031,824.5254,2041,828.5254,2031,832.5254,2035,828.5254" style="stroke: #A80036; stroke-width: 1.0;"/>
        <line style="stroke: #A80036; stroke-width: 1.0;" x1="785" x2="2037" y1="828.5254" y2="828.5254"/>
        <text fill="#000000" font-family="sans-serif" font-size="13" font-weight="bold" lengthAdjust="spacingAndGlyphs" textLength="18" x="792" y="824.0938">14</text>
        <text fill="#000000" font-family="sans-serif" font-size="13" lengthAdjust="spacingAndGlyphs" textLength="207" x="814" y="824.0938">aE = procuraAnunciosElegivel(tE)</text>
        <polygon fill="#A80036" points="63,883.8359,53,887.8359,63,891.8359,59,887.8359" style="stroke: #A80036; stroke-width: 1.0;"/>
        <line style="stroke: #A80036; stroke-width: 1.0; stroke-dasharray: 2.0,2.0;" x1="57" x2="451" y1="887.8359" y2="887.8359"/>
        <text fill="#000000" font-family="sans-serif" font-size="13" font-weight="bold" lengthAdjust="spacingAndGlyphs" textLength="18" x="69" y="883.4043">15</text>
        <text fill="#000000" font-family="sans-serif" font-size="13" lengthAdjust="spacingAndGlyphs" textLength="242" x="91" y="883.4043">Apresenta todos os anúncios elegiveís</text>
        <polygon fill="#A80036" points="435,913.1465,445,917.1465,435,921.1465,439,917.1465" style="stroke: #A80036; stroke-width: 1.0;"/>
        <line style="stroke: #A80036; stroke-width: 1.0;" x1="52" x2="441" y1="917.1465" y2="917.1465"/>
        <text fill="#000000" font-family="sans-serif" font-size="13" font-weight="bold" lengthAdjust="spacingAndGlyphs" textLength="18" x="59" y="912.7148">16</text>
        <text fill="#000000" font-family="sans-serif" font-size="13" lengthAdjust="spacingAndGlyphs" textLength="354" x="81" y="912.7148">Seleciona o anúncio pretendido para efetuar candidatura</text>
        <polygon fill="#A80036" points="763,942.457,773,946.457,763,950.457,767,946.457" style="stroke: #A80036; stroke-width: 1.0;"/>
        <line style="stroke: #A80036; stroke-width: 1.0;" x1="457" x2="769" y1="946.457" y2="946.457"/>
        <text fill="#000000" font-family="sans-serif" font-size="13" font-weight="bold" lengthAdjust="spacingAndGlyphs" textLength="18" x="464" y="942.0254">17</text>
        <text fill="#000000" font-family="sans-serif" font-size="13" lengthAdjust="spacingAndGlyphs" textLength="176" x="486" y="942.0254">novaCandidatura(anuncioId)</text>
        <polygon fill="#A80036" points="2031,971.7676,2041,975.7676,2031,979.7676,2035,975.7676" style="stroke: #A80036; stroke-width: 1.0;"/>
        <line style="stroke: #A80036; stroke-width: 1.0;" x1="785" x2="2037" y1="975.7676" y2="975.7676"/>
        <text fill="#000000" font-family="sans-serif" font-size="13" font-weight="bold" lengthAdjust="spacingAndGlyphs" textLength="18" x="792" y="971.3359">18</text>
        <text fill="#000000" font-family="sans-serif" font-size="13" lengthAdjust="spacingAndGlyphs" textLength="236" x="814" y="971.3359">anuncio = getAnuncioById(anuncioId)</text>
        <polygon fill="#A80036" points="2185,1031.0781,2195,1035.0781,2185,1039.0781,2189,1035.0781" style="stroke: #A80036; stroke-width: 1.0;"/>
        <line style="stroke: #A80036; stroke-width: 1.0;" x1="785" x2="2191" y1="1035.0781" y2="1035.0781"/>
        <text fill="#000000" font-family="sans-serif" font-size="13" font-weight="bold" lengthAdjust="spacingAndGlyphs" textLength="18" x="792" y="1030.6465">19</text>
        <text fill="#000000" font-family="sans-serif" font-size="13" lengthAdjust="spacingAndGlyphs" textLength="176" x="814" y="1030.6465">candi = novaCandidatura(fr)</text>
        <polygon fill="#A80036" points="2497.5,1060.3887,2507.5,1064.3887,2497.5,1068.3887,2501.5,1064.3887" style="stroke: #A80036; stroke-width: 1.0;"/>
        <line style="stroke: #A80036; stroke-width: 1.0; stroke-dasharray: 2.0,2.0;" x1="2202" x2="2503.5" y1="1064.3887" y2="1064.3887"/>
        <text fill="#000000" font-family="sans-serif" font-size="13" font-weight="bold" lengthAdjust="spacingAndGlyphs" textLength="18" x="2209" y="1059.957">20</text>
        <text fill="#000000" font-family="sans-serif" font-size="13" lengthAdjust="spacingAndGlyphs" textLength="80" x="2231" y="1059.957">create(candi)</text>
        <rect fill="#FEFECE" filter="url(#f1bfaiaxtoa2lg)" height="46.9766" style="stroke: #A80036; stroke-width: 1.5;" width="103" x="2509.5" y="1043.3887"/>
        <text fill="#000000" font-family="sans-serif" font-size="14" lengthAdjust="spacingAndGlyphs" textLength="24" x="2549" y="1063.9238">can</text>
        <text fill="#000000" font-family="sans-serif" font-size="14" lengthAdjust="spacingAndGlyphs" textLength="89" x="2516.5" y="1080.4121">:Candidatura</text>
        <polygon fill="#A80036" points="63,1137.3652,53,1141.3652,63,1145.3652,59,1141.3652" style="stroke: #A80036; stroke-width: 1.0;"/>
        <line style="stroke: #A80036; stroke-width: 1.0;" x1="57" x2="451" y1="1141.3652" y2="1141.3652"/>
        <text fill="#000000" font-family="sans-serif" font-size="13" font-weight="bold" lengthAdjust="spacingAndGlyphs" textLength="18" x="69" y="1129.5889">21</text>
        <text fill="#000000" font-family="sans-serif" font-size="13" lengthAdjust="spacingAndGlyphs" textLength="323" x="91" y="1121.9336">solicita os dados necessários (i.e. valor pretendido,</text>
        <text fill="#000000" font-family="sans-serif" font-size="13" lengthAdjust="spacingAndGlyphs" textLength="225" x="95" y="1137.2441">nº de dias e texto de apresentação).</text>
        <polygon fill="#A80036" points="435,1166.9863,445,1170.9863,435,1174.9863,439,1170.9863" style="stroke: #A80036; stroke-width: 1.0;"/>
        <line style="stroke: #A80036; stroke-width: 1.0;" x1="52" x2="441" y1="1170.9863" y2="1170.9863"/>
        <text fill="#000000" font-family="sans-serif" font-size="13" font-weight="bold" lengthAdjust="spacingAndGlyphs" textLength="18" x="59" y="1166.5547">22</text>
        <text fill="#000000" font-family="sans-serif" font-size="13" lengthAdjust="spacingAndGlyphs" textLength="187" x="81" y="1166.5547">Introduz os dados solicitados</text>
        <polygon fill="#A80036" points="763,1196.2969,773,1200.2969,763,1204.2969,767,1200.2969" style="stroke: #A80036; stroke-width: 1.0;"/>
        <line style="stroke: #A80036; stroke-width: 1.0;" x1="457" x2="769" y1="1200.2969" y2="1200.2969"/>
        <text fill="#000000" font-family="sans-serif" font-size="13" font-weight="bold" lengthAdjust="spacingAndGlyphs" textLength="18" x="464" y="1195.8652">23</text>
        <text fill="#000000" font-family="sans-serif" font-size="13" lengthAdjust="spacingAndGlyphs" textLength="277" x="486" y="1195.8652">addInfo(valorReceber, diasRealizacao, texto)</text>
        <rect fill="none" height="150.8867" style="stroke: #000000; stroke-width: 2.0;" width="1969.5" x="657" y="1215.6074"/>
        <polygon fill="#EEEEEE" points="657,1215.6074,719,1215.6074,719,1222.6074,709,1232.6074,657,1232.6074,657,1215.6074" style="stroke: #000000; stroke-width: 2.0;"/>
        <text fill="#000000" font-family="sans-serif" font-size="13" font-weight="bold" lengthAdjust="spacingAndGlyphs" textLength="17" x="672" y="1229.1758">alt</text>
        <text fill="#000000" font-family="sans-serif" font-size="11" font-weight="bold" lengthAdjust="spacingAndGlyphs" textLength="77" x="734" y="1228.2422">[texto != null]</text>
        <polygon fill="#A80036" points="2546,1249.918,2556,1253.918,2546,1257.918,2550,1253.918" style="stroke: #A80036; stroke-width: 1.0;"/>
        <line style="stroke: #A80036; stroke-width: 1.0;" x1="785" x2="2552" y1="1253.918" y2="1253.918"/>
        <text fill="#000000" font-family="sans-serif" font-size="13" font-weight="bold" lengthAdjust="spacingAndGlyphs" textLength="18" x="792" y="1249.4863">24</text>
        <text fill="#000000" font-family="sans-serif" font-size="13" lengthAdjust="spacingAndGlyphs" textLength="273" x="814" y="1249.4863">setInfo(valorReceber, diasRealizacao, texto)</text>
        <line style="stroke: #000000; stroke-width: 1.0; stroke-dasharray: 2.0,2.0;" x1="657" x2="2626.5" y1="1293.2285" y2="1293.2285"/>
        <text fill="#000000" font-family="sans-serif" font-size="11" font-weight="bold" lengthAdjust="spacingAndGlyphs" textLength="83" x="662" y="1303.8633">[texto == null]</text>
        <polygon fill="#A80036" points="2546,1324.1836,2556,1328.1836,2546,1332.1836,2550,1328.1836" style="stroke: #A80036; stroke-width: 1.0;"/>
        <line style="stroke: #A80036; stroke-width: 1.0;" x1="785" x2="2552" y1="1328.1836" y2="1328.1836"/>
        <text fill="#000000" font-family="sans-serif" font-size="13" font-weight="bold" lengthAdjust="spacingAndGlyphs" textLength="18" x="792" y="1323.752">25</text>
        <text fill="#000000" font-family="sans-serif" font-size="13" lengthAdjust="spacingAndGlyphs" textLength="229" x="814" y="1323.752">setInfo(valorReceber,dataRealizacao)</text>
        <polygon fill="#A80036" points="63,1390.4941,53,1394.4941,63,1398.4941,59,1394.4941" style="stroke: #A80036; stroke-width: 1.0;"/>
        <line style="stroke: #A80036; stroke-width: 1.0; stroke-dasharray: 2.0,2.0;" x1="57" x2="451" y1="1394.4941" y2="1394.4941"/>
        <text fill="#000000" font-family="sans-serif" font-size="13" font-weight="bold" lengthAdjust="spacingAndGlyphs" textLength="18" x="69" y="1390.0625">26</text>
        <text fill="#000000" font-family="sans-serif" font-size="13" lengthAdjust="spacingAndGlyphs" textLength="307" x="91" y="1390.0625">Apresenta todos os dados e solicita confirmação</text>
        <polygon fill="#A80036" points="435,1419.8047,445,1423.8047,435,1427.8047,439,1423.8047" style="stroke: #A80036; stroke-width: 1.0;"/>
        <line style="stroke: #A80036; stroke-width: 1.0;" x1="52" x2="441" y1="1423.8047" y2="1423.8047"/>
        <text fill="#000000" font-family="sans-serif" font-size="13" font-weight="bold" lengthAdjust="spacingAndGlyphs" textLength="18" x="59" y="1419.373">27</text>
        <text fill="#000000" font-family="sans-serif" font-size="13" lengthAdjust="spacingAndGlyphs" textLength="56" x="81" y="1419.373">confirma</text>
        <polygon fill="#A80036" points="763,1449.1152,773,1453.1152,763,1457.1152,767,1453.1152" style="stroke: #A80036; stroke-width: 1.0;"/>
        <line style="stroke: #A80036; stroke-width: 1.0;" x1="457" x2="769" y1="1453.1152" y2="1453.1152"/>
        <text fill="#000000" font-family="sans-serif" font-size="13" font-weight="bold" lengthAdjust="spacingAndGlyphs" textLength="18" x="464" y="1448.6836">28</text>
        <text fill="#000000" font-family="sans-serif" font-size="13" lengthAdjust="spacingAndGlyphs" textLength="127" x="486" y="1448.6836">registaCandidatura()</text>
        <polygon fill="#A80036" points="2649,1478.4258,2659,1482.4258,2649,1486.4258,2653,1482.4258" style="stroke: #A80036; stroke-width: 1.0;"/>
        <line style="stroke: #A80036; stroke-width: 1.0;" x1="785" x2="2655" y1="1482.4258" y2="1482.4258"/>
        <text fill="#000000" font-family="sans-serif" font-size="13" font-weight="bold" lengthAdjust="spacingAndGlyphs" textLength="18" x="792" y="1477.9941">29</text>
        <text fill="#000000" font-family="sans-serif" font-size="13" lengthAdjust="spacingAndGlyphs" textLength="326" x="814" y="1477.9941">registaCandidatura_Anuncio(freelancer,candidatura)</text>
        <line style="stroke: #A80036; stroke-width: 1.0;" x1="2671" x2="2713" y1="1512.0469" y2="1512.0469"/>
        <line style="stroke: #A80036; stroke-width: 1.0;" x1="2713" x2="2713" y1="1512.0469" y2="1525.0469"/>
        <line style="stroke: #A80036; stroke-width: 1.0;" x1="2672" x2="2713" y1="1525.0469" y2="1525.0469"/>
        <polygon fill="#A80036" points="2682,1521.0469,2672,1525.0469,2682,1529.0469,2678,1525.0469" style="stroke: #A80036; stroke-width: 1.0;"/>
        <text fill="#000000" font-family="sans-serif" font-size="13" font-weight="bold" lengthAdjust="spacingAndGlyphs" textLength="18" x="2678" y="1507.3047">30</text>
        <text fill="#000000" font-family="sans-serif" font-size="13" lengthAdjust="spacingAndGlyphs" textLength="261" x="2700" y="1507.3047">validaCandidatura(freelancer,candidatura)</text>
        <line style="stroke: #A80036; stroke-width: 1.0;" x1="2671" x2="2713" y1="1559.3574" y2="1559.3574"/>
        <line style="stroke: #A80036; stroke-width: 1.0;" x1="2713" x2="2713" y1="1559.3574" y2="1572.3574"/>
        <line style="stroke: #A80036; stroke-width: 1.0;" x1="2666" x2="2713" y1="1572.3574" y2="1572.3574"/>
        <polygon fill="#A80036" points="2676,1568.3574,2666,1572.3574,2676,1576.3574,2672,1572.3574" style="stroke: #A80036; stroke-width: 1.0;"/>
        <text fill="#000000" font-family="sans-serif" font-size="13" font-weight="bold" lengthAdjust="spacingAndGlyphs" textLength="18" x="2678" y="1554.6152">31</text>
        <text fill="#000000" font-family="sans-serif" font-size="13" lengthAdjust="spacingAndGlyphs" textLength="247" x="2700" y="1554.6152">addCandidatura(freelancer,candidatura)</text>
        <polygon fill="#A80036" points="2185,1592.3574,2195,1596.3574,2185,1600.3574,2189,1596.3574" style="stroke: #A80036; stroke-width: 1.0;"/>
        <line style="stroke: #A80036; stroke-width: 1.0;" x1="785" x2="2191" y1="1596.3574" y2="1596.3574"/>
        <text fill="#000000" font-family="sans-serif" font-size="13" font-weight="bold" lengthAdjust="spacingAndGlyphs" textLength="18" x="792" y="1591.9258">32</text>
        <text fill="#000000" font-family="sans-serif" font-size="13" lengthAdjust="spacingAndGlyphs" textLength="451" x="814" y="1591.9258">registaCandidatura_RegistoCandidatura(freelancer,candidatura,anuncio)</text>
        <line style="stroke: #A80036; stroke-width: 1.0;" x1="2207" x2="2249" y1="1625.9785" y2="1625.9785"/>
        <line style="stroke: #A80036; stroke-width: 1.0;" x1="2249" x2="2249" y1="1625.9785" y2="1638.9785"/>
        <line style="stroke: #A80036; stroke-width: 1.0;" x1="2208" x2="2249" y1="1638.9785" y2="1638.9785"/>
        <polygon fill="#A80036" points="2218,1634.9785,2208,1638.9785,2218,1642.9785,2214,1638.9785" style="stroke: #A80036; stroke-width: 1.0;"/>
        <text fill="#000000" font-family="sans-serif" font-size="13" font-weight="bold" lengthAdjust="spacingAndGlyphs" textLength="18" x="2214" y="1621.2363">33</text>
        <text fill="#000000" font-family="sans-serif" font-size="13" lengthAdjust="spacingAndGlyphs" textLength="315" x="2236" y="1621.2363">validaCandidatura(freelancer,candidatura,anuncio)</text>
        <line style="stroke: #A80036; stroke-width: 1.0;" x1="2207" x2="2249" y1="1673.2891" y2="1673.2891"/>
        <line style="stroke: #A80036; stroke-width: 1.0;" x1="2249" x2="2249" y1="1673.2891" y2="1686.2891"/>
        <line style="stroke: #A80036; stroke-width: 1.0;" x1="2202" x2="2249" y1="1686.2891" y2="1686.2891"/>
        <polygon fill="#A80036" points="2212,1682.2891,2202,1686.2891,2212,1690.2891,2208,1686.2891" style="stroke: #A80036; stroke-width: 1.0;"/>
        <text fill="#000000" font-family="sans-serif" font-size="13" font-weight="bold" lengthAdjust="spacingAndGlyphs" textLength="18" x="2214" y="1668.5469">34</text>
        <text fill="#000000" font-family="sans-serif" font-size="13" lengthAdjust="spacingAndGlyphs" textLength="301" x="2236" y="1668.5469">addCandidatura(freelancer,candidatura,anuncio)</text>
        <polygon fill="#A80036" points="58,1706.2891,48,1710.2891,58,1714.2891,54,1710.2891" style="stroke: #A80036; stroke-width: 1.0;"/>
        <line style="stroke: #A80036; stroke-width: 1.0; stroke-dasharray: 2.0,2.0;" x1="52" x2="451" y1="1710.2891" y2="1710.2891"/>
        <text fill="#000000" font-family="sans-serif" font-size="13" font-weight="bold" lengthAdjust="spacingAndGlyphs" textLength="18" x="64" y="1705.8574">35</text>
        <text fill="#000000" font-family="sans-serif" font-size="13" lengthAdjust="spacingAndGlyphs" textLength="196" x="86" y="1705.8574">informa o sucesso da operação</text>
        <!--
@startuml
autonumber
actor "Freelancer" as FL

participant ":EfetuarCandidaturaUI" as UI
participant ":EfetuarCandidaturaController" as CTRL
participant "AplicacaoPOT" as POT
participant "app\n:AplicacaoPOT" as APP
participant "sessao\n:SessaoUtilizador" as SESSAO
participant ":Plataforma" as PLAT
participant "rf\n:RegistoFreelancer" as RF
participant ":Freelancer" as FR
participant "rct\n:RegistoCategoriaTarefa" as RCT
participant "rt\n:RegistoTarefa" as RT
participant "ra\n:RegistoAnuncio" as RA
participant "rc\n:RegistoCandidatura" as RC
participant "can\n:Candidatura" as CAN
participant "anu\n:Anuncio" as AN


activate FL
FL -> UI : Inicia o processo de candidatura
activate UI

UI -> CTRL : lAnElegiveis = getAnElegiveis()
activate CTRL

CTRL -> PLAT : rf = getRegistoFreelancer()
activate PLAT
deactivate PLAT

CTRL -> PLAT : rt = getRegistoTarefa()
activate PLAT
deactivate PLAT

CTRL -> PLAT : rct = getRegistoCategoriaTarefa()
activate PLAT
deactivate PLAT

CTRL -> POT : app = getInstance()
activate POT
deactivate POT
CTRL -> APP : sessao = getSessaoAtual()
activate APP
deactivate APP
CTRL -> SESSAO : email = getEmailUtilizador()
activate SESSAO
deactivate SESSAO


CTRL -> RF : freelancer = getFreelancerByEmail(email)
activate RF
deactivate RF

CTRL -> FR : lct = getListaCompetenciaTecnica(fr)
activate FR
deactivate FR


CTRL -> RCT : ctgE = procuraCategoriasElegivel(lct)
activate RCT
deactivate RCT


CTRL -> RT : tE = procuraTarefasElegivel(ctgE)
activate RT
deactivate RT

CTRL -> PLAT : ra = getRegistoAnuncio()
activate PLAT
deactivate PLAT

CTRL -> RA : aE = procuraAnunciosElegivel(tE)
activate RA
deactivate RA

deactivate CTRL

UI - -> FL : Apresenta todos os anúncios elegiveís
deactivate UI

FL -> UI : Seleciona o anúncio pretendido para efetuar candidatura
activate UI

UI -> CTRL : novaCandidatura(anuncioId)
activate CTRL

CTRL -> RA : anuncio = getAnuncioById(anuncioId)
activate RA
deactivate RA


CTRL -> RC : candi = novaCandidatura(fr)
activate RC
RC - -> CAN** : create(candi)
deactivate RC

UI -> FL : solicita os dados necessários (i.e. valor pretendido,\n nº de dias e texto de apresentação).
deactivate UI
deactivate CTRL

FL -> UI : Introduz os dados solicitados
activate UI

UI -> CTRL : addInfo(valorReceber, diasRealizacao, texto)
activate CTRL


alt texto != null

CTRL -> CAN : setInfo(valorReceber, diasRealizacao, texto)
activate CAN
deactivate CAN

else texto == null
CTRL -> CAN : setInfo(valorReceber,dataRealizacao)
activate CAN
deactivate CAN

end

deactivate CTRL


UI - -> FL : Apresenta todos os dados e solicita confirmação
deactivate UI

FL -> UI : confirma
activate UI

UI -> CTRL: registaCandidatura()
activate CTRL

CTRL -> AN: registaCandidatura_Anuncio(freelancer,candidatura)
activate AN

AN -> AN : validaCandidatura(freelancer,candidatura)
AN -> AN : addCandidatura(freelancer,candidatura)
deactivate AN

CTRL -> RC : registaCandidatura_RegistoCandidatura(freelancer,candidatura,anuncio)

activate RC

RC -> RC : validaCandidatura(freelancer,candidatura,anuncio)
RC -> RC : addCandidatura(freelancer,candidatura,anuncio)

deactivate RC

deactivate CTRL

UI - -> FL : informa o sucesso da operação

deactivate UI

deactivate FL






@enduml

PlantUML version 2017.11(Wed Apr 19 17:18:59 WEST 2017)
(GPL source distribution)
Java Runtime: Java(TM) SE Runtime Environment
JVM: Java HotSpot(TM) 64-Bit Server VM
Java Version: 1.8.0_191-b12
Operating System: Mac OS X
OS Version: 10.15.4
Default Encoding: UTF-8
Language: pt
Country: PT
-->
    </g>
</svg>
