<?xml version="1.0" encoding="UTF-8"?><svg xmlns="http://www.w3.org/2000/svg" xmlns:xlink="http://www.w3.org/1999/xlink" contentScriptType="application/ecmascript" contentStyleType="text/css" height="1314px" preserveAspectRatio="none" style="width:691px;height:1314px;" version="1.1" viewBox="0 0 691 1314" width="691px" zoomAndPan="magnify">
    <defs>
        <filter height="300%" id="fjwm2yic4venv" width="300%" x="-1" y="-1">
            <feGaussianBlur result="blurOut" stdDeviation="2.0"/>
            <feColorMatrix in="blurOut" result="blurOut2" type="matrix" values="0 0 0 0 0 0 0 0 0 0 0 0 0 0 0 0 0 0 .4 0"/>
            <feOffset dx="4.0" dy="4.0" in="blurOut2" result="blurOut3"/>
            <feBlend in="SourceGraphic" in2="blurOut3" mode="normal"/>
        </filter>
    </defs>
    <g>
        <ellipse cx="474.4756" cy="1274.3951" fill="#FEFECE" filter="url(#fjwm2yic4venv)" rx="107.4756" ry="23.8951" style="stroke: #A80036; stroke-width: 1.5;"/>
        <text fill="#000000" font-family="sans-serif" font-size="14" lengthAdjust="spacingAndGlyphs" textLength="192" x="378.4756" y="1279.1393">UC1 - Registar Organização</text>
        <ellipse cx="474.5991" cy="918.6198" fill="#FEFECE" filter="url(#fjwm2yic4venv)" rx="118.5991" ry="26.1198" style="stroke: #A80036; stroke-width: 1.5;"/>
        <text fill="#000000" font-family="sans-serif" font-size="14" lengthAdjust="spacingAndGlyphs" textLength="216" x="366.5991" y="923.364">UC2 - Definir Área de Atividade</text>
        <ellipse cx="474.3554" cy="1008.4711" fill="#FEFECE" filter="url(#fjwm2yic4venv)" rx="130.3554" ry="28.4711" style="stroke: #A80036; stroke-width: 1.5;"/>
        <text fill="#000000" font-family="sans-serif" font-size="14" lengthAdjust="spacingAndGlyphs" textLength="241" x="353.8554" y="1013.2152">UC3 - Definir Categoria (de Tarefa)</text>
        <ellipse cx="474.6968" cy="1103.5394" fill="#FEFECE" filter="url(#fjwm2yic4venv)" rx="143.1968" ry="31.0394" style="stroke: #A80036; stroke-width: 1.5;"/>
        <text fill="#000000" font-family="sans-serif" font-size="14" lengthAdjust="spacingAndGlyphs" textLength="268" x="340.6968" y="1108.2835">UC4 - Especificar Competência Técnica</text>
        <ellipse cx="474.7088" cy="821.6418" fill="#FEFECE" filter="url(#fjwm2yic4venv)" rx="168.7088" ry="36.1418" style="stroke: #A80036; stroke-width: 1.5;"/>
        <text fill="#000000" font-family="sans-serif" font-size="14" lengthAdjust="spacingAndGlyphs" textLength="321" x="314.2088" y="826.3859">UC5 - Especificar Colaborador de Organização</text>
        <ellipse cx="474.6723" cy="433.5345" fill="#FEFECE" filter="url(#fjwm2yic4venv)" rx="95.6723" ry="21.5345" style="stroke: #A80036; stroke-width: 1.5;"/>
        <text fill="#000000" font-family="sans-serif" font-size="14" lengthAdjust="spacingAndGlyphs" textLength="166" x="391.6723" y="438.2786">UC6 - Especificar Tarefa</text>
        <ellipse cx="474.6289" cy="1192.5258" fill="#FEFECE" filter="url(#fjwm2yic4venv)" rx="100.6289" ry="22.5258" style="stroke: #A80036; stroke-width: 1.5;"/>
        <text fill="#000000" font-family="sans-serif" font-size="14" lengthAdjust="spacingAndGlyphs" textLength="177" x="386.1289" y="1197.2699">UC7 - Registar Freelancer</text>
        <ellipse cx="474.7062" cy="510.4412" fill="#FEFECE" filter="url(#fjwm2yic4venv)" rx="87.7062" ry="19.9412" style="stroke: #A80036; stroke-width: 1.5;"/>
        <text fill="#000000" font-family="sans-serif" font-size="14" lengthAdjust="spacingAndGlyphs" textLength="148" x="400.7062" y="515.1854">UC8 - Publicar Tarefa</text>
        <ellipse cx="474.3563" cy="155.5713" fill="#FEFECE" filter="url(#fjwm2yic4venv)" rx="103.3563" ry="23.0713" style="stroke: #A80036; stroke-width: 1.5;"/>
        <text fill="#000000" font-family="sans-serif" font-size="14" lengthAdjust="spacingAndGlyphs" textLength="183" x="382.8563" y="160.3154">UC9 - Efetuar Candidatura</text>
        <ellipse cx="474.42" cy="607.384" fill="#FEFECE" filter="url(#fjwm2yic4venv)" rx="197.42" ry="41.884" style="stroke: #A80036; stroke-width: 1.5;"/>
        <text fill="#000000" font-family="sans-serif" font-size="14" lengthAdjust="spacingAndGlyphs" textLength="380" x="284.42" y="612.1281">UC10 - Seriar (manualmente) Candidaturas de Anúncio</text>
        <ellipse cx="474.4018" cy="246.3804" fill="#FEFECE" filter="url(#fjwm2yic4venv)" rx="149.9018" ry="32.3804" style="stroke: #A80036; stroke-width: 1.5;"/>
        <text fill="#000000" font-family="sans-serif" font-size="14" lengthAdjust="spacingAndGlyphs" textLength="282" x="333.4018" y="251.1245">UC11 - Atualizar Candidatura Submetida</text>
        <ellipse cx="474.7413" cy="345.3483" fill="#FEFECE" filter="url(#fjwm2yic4venv)" rx="142.2413" ry="30.8483" style="stroke: #A80036; stroke-width: 1.5;"/>
        <text fill="#000000" font-family="sans-serif" font-size="14" lengthAdjust="spacingAndGlyphs" textLength="266" x="341.7413" y="350.0924">UC12 - Retirar Candidatura Submetida</text>
        <ellipse cx="474.6528" cy="52.3306" fill="#FEFECE" filter="url(#fjwm2yic4venv)" rx="209.6528" ry="44.3306" style="stroke: #A80036; stroke-width: 1.5;"/>
        <text fill="#000000" font-family="sans-serif" font-size="14" lengthAdjust="spacingAndGlyphs" textLength="405" x="272.1528" y="57.0747">UC13 - Seriar (automaticamente) Candidaturas de Anúncio</text>
        <ellipse cx="474.2644" cy="717.5529" fill="#FEFECE" filter="url(#fjwm2yic4venv)" rx="153.2644" ry="33.0529" style="stroke: #A80036; stroke-width: 1.5;"/>
        <text fill="#000000" font-family="sans-serif" font-size="14" lengthAdjust="spacingAndGlyphs" textLength="289" x="329.7644" y="722.297">UC14 - Adjudicar (manualmente) Anúncio</text>
        <!--entity UNR-->
        <ellipse cx="105.5" cy="1243" fill="#FEFECE" filter="url(#fjwm2yic4venv)" rx="8" ry="8" style="stroke: #A80036; stroke-width: 2.0;"/>
        <path d="M105.5,1251 L105.5,1278 M92.5,1259 L118.5,1259 M105.5,1278 L92.5,1293 M105.5,1278 L118.5,1293 " fill="#FEFECE" filter="url(#fjwm2yic4venv)" style="stroke: #A80036; stroke-width: 2.0;"/>
        <text fill="#000000" font-family="sans-serif" font-size="14" lengthAdjust="spacingAndGlyphs" textLength="170" x="20.5" y="1313.5352">Utilizador Não Registado</text>
        <!--entity ADM-->
        <ellipse cx="105.5" cy="1025" fill="#FEFECE" filter="url(#fjwm2yic4venv)" rx="8" ry="8" style="stroke: #A80036; stroke-width: 2.0;"/>
        <path d="M105.5,1033 L105.5,1060 M92.5,1041 L118.5,1041 M105.5,1060 L92.5,1075 M105.5,1060 L118.5,1075 " fill="#FEFECE" filter="url(#fjwm2yic4venv)" style="stroke: #A80036; stroke-width: 2.0;"/>
        <text fill="#000000" font-family="sans-serif" font-size="14" lengthAdjust="spacingAndGlyphs" textLength="100" x="55.5" y="1095.5352">Administrativo</text>
        <!--entity GO-->
        <ellipse cx="105.5" cy="790" fill="#FEFECE" filter="url(#fjwm2yic4venv)" rx="8" ry="8" style="stroke: #A80036; stroke-width: 2.0;"/>
        <path d="M105.5,798 L105.5,825 M92.5,806 L118.5,806 M105.5,825 L92.5,840 M105.5,825 L118.5,840 " fill="#FEFECE" filter="url(#fjwm2yic4venv)" style="stroke: #A80036; stroke-width: 2.0;"/>
        <text fill="#000000" font-family="sans-serif" font-size="14" lengthAdjust="spacingAndGlyphs" textLength="157" x="27" y="860.5352">Gestor de Organização</text>
        <!--entity CO-->
        <ellipse cx="105.5" cy="528" fill="#FEFECE" filter="url(#fjwm2yic4venv)" rx="8" ry="8" style="stroke: #A80036; stroke-width: 2.0;"/>
        <path d="M105.5,536 L105.5,563 M92.5,544 L118.5,544 M105.5,563 L92.5,578 M105.5,563 L118.5,578 " fill="#FEFECE" filter="url(#fjwm2yic4venv)" style="stroke: #A80036; stroke-width: 2.0;"/>
        <text fill="#000000" font-family="sans-serif" font-size="14" lengthAdjust="spacingAndGlyphs" textLength="199" x="6" y="598.5352">Colaborador de Organização</text>
        <!--entity FRL-->
        <ellipse cx="105.5" cy="215" fill="#FEFECE" filter="url(#fjwm2yic4venv)" rx="8" ry="8" style="stroke: #A80036; stroke-width: 2.0;"/>
        <path d="M105.5,223 L105.5,250 M92.5,231 L118.5,231 M105.5,250 L92.5,265 M105.5,250 L118.5,265 " fill="#FEFECE" filter="url(#fjwm2yic4venv)" style="stroke: #A80036; stroke-width: 2.0;"/>
        <text fill="#000000" font-family="sans-serif" font-size="14" lengthAdjust="spacingAndGlyphs" textLength="72" x="69.5" y="285.5352">Freelancer</text>
        <!--entity STM-->
        <ellipse cx="105.5" cy="21" fill="#FEFECE" filter="url(#fjwm2yic4venv)" rx="8" ry="8" style="stroke: #A80036; stroke-width: 2.0;"/>
        <path d="M105.5,29 L105.5,56 M92.5,37 L118.5,37 M105.5,56 L92.5,71 M105.5,56 L118.5,71 " fill="#FEFECE" filter="url(#fjwm2yic4venv)" style="stroke: #A80036; stroke-width: 2.0;"/>
        <text fill="#000000" font-family="sans-serif" font-size="14" lengthAdjust="spacingAndGlyphs" textLength="53" x="79" y="91.5352">Sistema</text>
        <path d="M190.7,1274.5 C241.44,1274.5 306.67,1274.5 361.7,1274.5 " fill="none" style="stroke: #A80036; stroke-width: 1.0;"/>
        <polygon fill="#A80036" points="366.99,1274.5,357.99,1270.5,361.99,1274.5,357.99,1278.5,366.99,1274.5" style="stroke: #A80036; stroke-width: 1.0;"/>
        <path d="M155.73,1021.58 C185.98,1001.61 226.25,977.6 265,962.5 C298.02,949.63 335.52,940.23 369.52,933.51 " fill="none" style="stroke: #A80036; stroke-width: 1.0;"/>
        <polygon fill="#A80036" points="374.52,932.54,364.9213,930.3344,369.6122,933.4959,366.4507,938.1868,374.52,932.54" style="stroke: #A80036; stroke-width: 1.0;"/>
        <path d="M155.61,1050.08 C206.82,1043.38 288.94,1032.64 356.88,1023.75 " fill="none" style="stroke: #A80036; stroke-width: 1.0;"/>
        <polygon fill="#A80036" points="362.16,1023.06,352.7124,1020.2774,357.2034,1023.7171,353.7637,1028.208,362.16,1023.06" style="stroke: #A80036; stroke-width: 1.0;"/>
        <path d="M155.61,1062.79 C204.06,1068.99 280.17,1078.74 345.78,1087.14 " fill="none" style="stroke: #A80036; stroke-width: 1.0;"/>
        <polygon fill="#A80036" points="350.88,1087.8,342.4547,1082.6996,345.9197,1087.171,341.4483,1090.6361,350.88,1087.8" style="stroke: #A80036; stroke-width: 1.0;"/>
        <path d="M155.52,1092.47 C185.7,1112.97 225.96,1137.49 265,1152.5 C301.07,1166.37 342.57,1175.59 378.99,1181.64 " fill="none" style="stroke: #A80036; stroke-width: 1.0;"/>
        <polygon fill="#A80036" points="384.33,1182.51,376.1024,1177.0964,379.3969,1181.695,374.7983,1184.9894,384.33,1182.51" style="stroke: #A80036; stroke-width: 1.0;"/>
        <path d="M184.33,821.5 C218.36,821.5 259.75,821.5 300.45,821.5 " fill="none" style="stroke: #A80036; stroke-width: 1.0;"/>
        <polygon fill="#A80036" points="305.93,821.5,296.93,817.5,300.93,821.5,296.93,825.5,305.93,821.5" style="stroke: #A80036; stroke-width: 1.0;"/>
        <path d="M172.25,517.92 C199.98,501.97 233.16,484.88 265,473.5 C303.2,459.84 347.09,450.54 384.72,444.36 " fill="none" style="stroke: #A80036; stroke-width: 1.0;"/>
        <polygon fill="#A80036" points="389.75,443.55,380.2265,441.0393,384.8142,444.3489,381.5047,448.9366,389.75,443.55" style="stroke: #A80036; stroke-width: 1.0;"/>
        <path d="M205.33,546.3 C264.26,538.44 338.1,528.58 393.37,521.2 " fill="none" style="stroke: #A80036; stroke-width: 1.0;"/>
        <polygon fill="#A80036" points="398.66,520.49,389.2046,517.7342,393.7052,521.1611,390.2783,525.6618,398.66,520.49" style="stroke: #A80036; stroke-width: 1.0;"/>
        <path d="M205.33,572.43 C234.75,576.27 267.9,580.61 300.59,584.88 " fill="none" style="stroke: #A80036; stroke-width: 1.0;"/>
        <polygon fill="#A80036" points="305.83,585.57,297.4192,580.4458,300.8715,584.927,296.3903,588.3793,305.83,585.57" style="stroke: #A80036; stroke-width: 1.0;"/>
        <path d="M157.22,601.09 C187.02,623.67 226.33,650.38 265,667.5 C291.55,679.25 321.27,688.48 349.77,695.64 " fill="none" style="stroke: #A80036; stroke-width: 1.0;"/>
        <polygon fill="#A80036" points="354.7,696.86,346.9221,690.8181,349.8459,695.6608,345.0033,698.5846,354.7,696.86" style="stroke: #A80036; stroke-width: 1.0;"/>
        <path d="M141.74,234.14 C173.65,223.25 222.08,207.45 265,196.5 C304.68,186.37 349.16,177.32 386.81,170.31 " fill="none" style="stroke: #A80036; stroke-width: 1.0;"/>
        <polygon fill="#A80036" points="391.84,169.38,382.2602,167.0937,386.9243,170.2945,383.7235,174.9587,391.84,169.38" style="stroke: #A80036; stroke-width: 1.0;"/>
        <path d="M141.69,246.5 C182.78,246.5 253.51,246.5 319.13,246.5 " fill="none" style="stroke: #A80036; stroke-width: 1.0;"/>
        <polygon fill="#A80036" points="324.25,246.5,315.25,242.5,319.25,246.5,315.25,250.5,324.25,246.5" style="stroke: #A80036; stroke-width: 1.0;"/>
        <path d="M141.53,258.38 C173.5,269.02 222.15,284.72 265,296.5 C298.58,305.73 335.49,314.76 368.8,322.51 " fill="none" style="stroke: #A80036; stroke-width: 1.0;"/>
        <polygon fill="#A80036" points="373.69,323.64,365.825,317.712,368.819,322.5115,364.0194,325.5055,373.69,323.64" style="stroke: #A80036; stroke-width: 1.0;"/>
        <path d="M132.02,52.5 C160.15,52.5 208.27,52.5 259.67,52.5 " fill="none" style="stroke: #A80036; stroke-width: 1.0;"/>
        <polygon fill="#A80036" points="264.97,52.5,255.97,48.5,259.97,52.5,255.97,56.5,264.97,52.5" style="stroke: #A80036; stroke-width: 1.0;"/>
        <!--
@startuml

usecase UC1 as "UC1 - Registar Organização"
usecase UC2 as "UC2 - Definir Área de Atividade"
usecase UC3 as "UC3 - Definir Categoria (de Tarefa)"
usecase UC4 as "UC4 - Especificar Competência Técnica"
usecase UC5 as "UC5 - Especificar Colaborador de Organização"
usecase UC6 as "UC6 - Especificar Tarefa"

usecase UC7 as "UC7 - Registar Freelancer"
usecase UC8 as "UC8 - Publicar Tarefa"
usecase UC9 as "UC9 - Efetuar Candidatura"
usecase UC10 as "UC10 - Seriar (manualmente) Candidaturas de Anúncio "

usecase UC11 as "UC11 - Atualizar Candidatura Submetida"
usecase UC12 as "UC12 - Retirar Candidatura Submetida"
usecase UC13 as "UC13 - Seriar (automaticamente) Candidaturas de Anúncio"
usecase UC14 as "UC14 - Adjudicar (manualmente) Anúncio"


actor "Utilizador Não Registado" as UNR
actor "Administrativo" as ADM
actor "Gestor de Organização" as GO
actor "Colaborador de Organização" as CO
actor "Freelancer" as FRL
actor "Sistema" as STM

left to right direction
UNR - ->(UC1)

ADM - ->(UC2)
ADM - ->(UC3)
ADM - ->(UC4)
ADM - ->(UC7)

GO - ->(UC5)

CO - -> (UC6)
CO - -> (UC8)
CO - -> (UC10)
CO - -> (UC14)

FRL - -> (UC9)
FRL - -> (UC11)
FRL - -> (UC12)

STM - -> (UC13)
@enduml

PlantUML version 2017.11(Wed Apr 19 17:18:59 WEST 2017)
(GPL source distribution)
Java Runtime: Java(TM) SE Runtime Environment
JVM: Java HotSpot(TM) 64-Bit Server VM
Java Version: 1.8.0_191-b12
Operating System: Mac OS X
OS Version: 10.15.4
Default Encoding: UTF-8
Language: pt
Country: PT
-->
    </g>
</svg>
