@startuml
autonumber
'hide footbox
actor "Colaborador de Organização" as CDO

participant ":EspecificarTarefaUI" as UI
participant ":EspecificarTarefaController" as CTRL
participant "AplicacaoPOT" as _APP
participant "app\n:AplicacaoPOT" as APP
participant "sessao\n:SessaoUtilizador" as SESSAO
participant "rct\n:RegistoCategoriaTarefa" as RCT
participant ":Plataforma" as PLAT
participant "ro\n:RegistoOrganizacao" as RO
participant "rt\n:RegistoTarefa" as RT
participant "tarefa\n:Tarefa" as TAREFA
participant "org\n:Organizacao" as ORG
participant "cat\n:CategoriaTarefa" as CAT
participant "lc\n:List<CategoriaTarefa" as LC



activate CDO
CDO -> UI : inicia a especificação de uma tarefa
activate UI
UI --> CDO : solicita os dados \n(i.e. referência única por organização, designação, descrição informal e de caráter técnico, estimativa de duração e custo)
deactivate UI

CDO -> UI : introduz os dados solicitados
activate UI

UI -> CTRL : lc=getCategorias()
activate CTRL

CTRL -> PLAT : rct = getRegistoCategoriaTarefa()
activate PLAT
deactivate PLAT

CTRL -> RCT : lc=getCategorias()
activate RCT
|||
deactivate RCT
deactivate CTRL

UI --> CDO : mostra a lista de categorias e pede para selecionar uma
deactivate UI

CDO -> UI : seleciona uma categoria
activate UI

UI -> CTRL : novaTarefa(ref,dsig,dsInf,dsTec,duracEst,custoEst,catId)
activate CTRL

CTRL -> PLAT : ro = getRegistoOrganizacao()
activate PLAT
|||
deactivate PLAT

CTRL -> PLAT : rt = getRegistoTarefa()
activate PLAT 
|||
deactivate PLAT


CTRL -> RCT : cat=getCategoriaById(catId)
activate RCT
|||
deactivate RCT

CTRL -> _APP: app = getInstance()
activate _APP
|||
deactivate _APP

CTRL -> APP: sessao = getSessaoAtual()
activate APP
|||
deactivate APP

CTRL -> SESSAO: emailUtilizador = getEmailUtilizador()
activate SESSAO
|||
deactivate SESSAO

CTRL -> RO: org = getOrganizacaoByEmailUtilizador(emailUtilizador)
activate RO
|||
deactivate RO


CTRL -> RT: tarefa=novaTarefa(ref,dsig,dsInf,dsTec,duracEst,custoEst,cat,org,emailUtilizador)
activate RT




RT --> TAREFA**: create(ref,dsig,dsInf,dsTec,duracEst,custoEst,cat,org,emailUtilizador)

RT -> RT: validaTarefa(tarefa)






UI --> CDO: apresenta os dados e solicita confirmação
deactivate RT
deactivate CTRL
deactivate UI

CDO -> UI : confirma os dados
activate UI
UI -> CTRL : registaTarefa()
activate CTRL

CTRL -> RT : registaTarefa(tarefa)
activate RT

RT -> RT: validaTarefa(tarefa)
RT -> RT: addTarefa(tarefa)

UI --> CDO : informa do sucesso da operação
deactivate RT
deactivate CTRL
deactivate UI

deactivate CDO

@enduml
