    @startuml
skinparam classAttributeIconSize 0
hide methods
left to right direction

class Plataforma {
  -String designacao
}

class Candidatura {
  -Integer valorReceber
  -DataHora diasRealizacao
  -Freelancer candidato
  -String texto
}

class Anuncio{
  -DateTime pPublicInicial
  -DateTime pPublicFinal
  -DateTime pApreseInicial
  -DateTime pApreseFinal
  -DateTime pSeriaInicial
  -DateTime pSeriaFinal 
}

class Freelancer {
  -String nome
  -String NIF
  -String contacto
  -String email
}

class Colaborador{
  -String nome
  -String funcao
  -String telefone
  -String email
}

class TipoRegimento{
}

class Organizacao{
  -String nome
  -String NIF
  -String website
  -String telefone
  -String email
}

class Utilizador {
  -String nome
  -String email
  -String password
}

class Tarefa {
  -String referencia
  -String designacao
  -String descInformal
  -String descTecnica
  -Integer duracaoEst
  -Double custoEst
}

class CompetenciaTecnica {
  -String codigo
  -String descBreve
  -String descDetalhada
}

class GrauProficiencia {
  -Integer valor
  -String designacao
}

class Utilizador {
  -String nome
  -String email
  -String password
}

class Reconhecimento {
   -Data data
}

Plataforma "1" -- "*" Freelancer : possui >
Plataforma "1" -- "*" CompetenciaTecnica : possui >
Plataforma "1" -- "*" Organizacao : tem registadas >
Plataforma "1" -- "*" TipoRegimento : possui >
Plataforma "1" -- "*" Tarefa : possui >

Colaborador "0..1" -- "1" Utilizador : atua como >
Colaborador "1" -- "*" Anuncio : especifica >

Freelancer "0..1" -- "1" Utilizador: atua como >
Freelancer "1" -- "*" Candidatura: efetua >
Freelancer "1" -- "0..*" Reconhecimento: tem >

Tarefa "*" -- "1" Colaborador : publicada por >
Tarefa "*" -- "1" Colaborador : especificada por >
Tarefa "1" -- "0..*" Anuncio : resulta >

CompetenciaTecnica "1" -- "0..*" GrauProficiencia : aplica >

Organizacao "1" -- "1..*" Colaborador : tem >


Anuncio "1" -- "0..*" Candidatura : tem >
Anuncio "0..*" -- "1" TipoRegimento : possui >

Reconhecimento "1" -- "1" CompetenciaTecnica: tem >
Reconhecimento "1" -- "1" GrauProficiencia: tem >
@enduml