@startuml
autonumber
actor "Freelancer"

activate "Freelancer"

"Freelancer" -> ":Sistema": Inicia o processo de candidatura
Activate ":Sistema"
":Sistema"--> "Freelancer": Apresenta todos os anúncios elegiveís com o GP mínimo às CT obrigatórias para o freelancer
deactivate ":Sistema"

"Freelancer" -> ":Sistema": Seleciona o anúncio pretendido para efetuar candidatura
Activate ":Sistema"
":Sistema"--> "Freelancer": Solicita dados necessários (valor pretendido pela realização da tarefa,\n nº de dias para realização da mesma e texto de apresentação)
deactivate ":Sistema"

"Freelancer" -> ":Sistema": Introduz dados solicitados
Activate ":Sistema"
":Sistema"--> "Freelancer": Apresenta todos os dados e solicita confirmação
deactivate ":Sistema"

"Freelancer" -> ":Sistema": Confirma
Activate ":Sistema"
":Sistema"--> "Freelancer": Operação bem sucedida
deactivate ":Sistema"

deactivate "Freelancer"
@enduml