<?xml version="1.0" encoding="UTF-8"?><svg xmlns="http://www.w3.org/2000/svg" xmlns:xlink="http://www.w3.org/1999/xlink" contentScriptType="application/ecmascript" contentStyleType="text/css" height="333px" preserveAspectRatio="none" style="width:1226px;height:333px;" version="1.1" viewBox="0 0 1226 333" width="1226px" zoomAndPan="magnify">
    <defs>
        <filter height="300%" id="f13dkyiafqtm8k" width="300%" x="-1" y="-1">
            <feGaussianBlur result="blurOut" stdDeviation="2.0"/>
            <feColorMatrix in="blurOut" result="blurOut2" type="matrix" values="0 0 0 0 0 0 0 0 0 0 0 0 0 0 0 0 0 0 .4 0"/>
            <feOffset dx="4.0" dy="4.0" in="blurOut2" result="blurOut3"/>
            <feBlend in="SourceGraphic" in2="blurOut3" mode="normal"/>
        </filter>
    </defs>
    <g>
        <!--class Plataforma-->
        <rect fill="#FEFECE" filter="url(#f13dkyiafqtm8k)" height="52.9551" style="stroke: #A80036; stroke-width: 1.5;" width="114" x="6" y="181.5"/>
        <ellipse cx="30" cy="197.5" fill="#ADD1B2" rx="11" ry="11" style="stroke: #A80036; stroke-width: 1.0;"/>
        <path d="M32.4731,203.6431 Q31.8921,203.9419 31.2529,204.0913 Q30.6138,204.2407 29.9082,204.2407 Q27.4014,204.2407 26.0815,202.5889 Q24.7617,200.937 24.7617,197.8159 Q24.7617,194.6865 26.0815,193.0347 Q27.4014,191.3828 29.9082,191.3828 Q30.6138,191.3828 31.2612,191.5322 Q31.9087,191.6816 32.4731,191.9805 L32.4731,194.7031 Q31.8423,194.1221 31.2488,193.8523 Q30.6553,193.5825 30.0244,193.5825 Q28.6797,193.5825 27.9949,194.6492 Q27.3101,195.7158 27.3101,197.8159 Q27.3101,199.9077 27.9949,200.9744 Q28.6797,202.041 30.0244,202.041 Q30.6553,202.041 31.2488,201.7712 Q31.8423,201.5015 32.4731,200.9204 Z "/>
        <text fill="#000000" font-family="sans-serif" font-size="12" lengthAdjust="spacingAndGlyphs" textLength="62" x="46" y="202.0352">Plataforma</text>
        <line style="stroke: #A80036; stroke-width: 1.5;" x1="7" x2="119" y1="213.5" y2="213.5"/>
        <text fill="#000000" font-family="sans-serif" font-size="11" lengthAdjust="spacingAndGlyphs" textLength="102" x="12" y="228.1348">-String designacao</text>
        <!--class Colaborador-->
        <rect fill="#FEFECE" filter="url(#f13dkyiafqtm8k)" height="91.8203" style="stroke: #A80036; stroke-width: 1.5;" width="104" x="589" y="72"/>
        <ellipse cx="604" cy="88" fill="#ADD1B2" rx="11" ry="11" style="stroke: #A80036; stroke-width: 1.0;"/>
        <path d="M606.4731,94.1431 Q605.8921,94.4419 605.2529,94.5913 Q604.6138,94.7407 603.9082,94.7407 Q601.4014,94.7407 600.0815,93.0889 Q598.7617,91.437 598.7617,88.3159 Q598.7617,85.1865 600.0815,83.5347 Q601.4014,81.8828 603.9082,81.8828 Q604.6138,81.8828 605.2612,82.0322 Q605.9087,82.1816 606.4731,82.4805 L606.4731,85.2031 Q605.8423,84.6221 605.2488,84.3523 Q604.6553,84.0825 604.0244,84.0825 Q602.6797,84.0825 601.9949,85.1492 Q601.3101,86.2158 601.3101,88.3159 Q601.3101,90.4077 601.9949,91.4744 Q602.6797,92.541 604.0244,92.541 Q604.6553,92.541 605.2488,92.2712 Q605.8423,92.0015 606.4731,91.4204 Z "/>
        <text fill="#000000" font-family="sans-serif" font-size="12" lengthAdjust="spacingAndGlyphs" textLength="72" x="618" y="92.5352">Colaborador</text>
        <line style="stroke: #A80036; stroke-width: 1.5;" x1="590" x2="692" y1="104" y2="104"/>
        <text fill="#000000" font-family="sans-serif" font-size="11" lengthAdjust="spacingAndGlyphs" textLength="71" x="595" y="118.6348">-String nome</text>
        <text fill="#000000" font-family="sans-serif" font-size="11" lengthAdjust="spacingAndGlyphs" textLength="78" x="595" y="131.5898">-String funcao</text>
        <text fill="#000000" font-family="sans-serif" font-size="11" lengthAdjust="spacingAndGlyphs" textLength="84" x="595" y="144.5449">-String telefone</text>
        <text fill="#000000" font-family="sans-serif" font-size="11" lengthAdjust="spacingAndGlyphs" textLength="69" x="595" y="157.5">-String email</text>
        <!--class Tarefa-->
        <rect fill="#FEFECE" filter="url(#f13dkyiafqtm8k)" height="117.7305" style="stroke: #A80036; stroke-width: 1.5;" width="123" x="288" y="149"/>
        <ellipse cx="326.85" cy="165" fill="#ADD1B2" rx="11" ry="11" style="stroke: #A80036; stroke-width: 1.0;"/>
        <path d="M329.3231,171.1431 Q328.7421,171.4419 328.1029,171.5913 Q327.4638,171.7407 326.7582,171.7407 Q324.2514,171.7407 322.9315,170.0889 Q321.6117,168.437 321.6117,165.3159 Q321.6117,162.1865 322.9315,160.5347 Q324.2514,158.8828 326.7582,158.8828 Q327.4638,158.8828 328.1112,159.0322 Q328.7587,159.1816 329.3231,159.4805 L329.3231,162.2031 Q328.6923,161.6221 328.0988,161.3523 Q327.5053,161.0825 326.8744,161.0825 Q325.5297,161.0825 324.8449,162.1492 Q324.1601,163.2158 324.1601,165.3159 Q324.1601,167.4077 324.8449,168.4744 Q325.5297,169.541 326.8744,169.541 Q327.5053,169.541 328.0988,169.2712 Q328.6923,169.0015 329.3231,168.4204 Z "/>
        <text fill="#000000" font-family="sans-serif" font-size="12" lengthAdjust="spacingAndGlyphs" textLength="38" x="346.15" y="169.5352">Tarefa</text>
        <line style="stroke: #A80036; stroke-width: 1.5;" x1="289" x2="410" y1="181" y2="181"/>
        <text fill="#000000" font-family="sans-serif" font-size="11" lengthAdjust="spacingAndGlyphs" textLength="95" x="294" y="195.6348">-String referencia</text>
        <text fill="#000000" font-family="sans-serif" font-size="11" lengthAdjust="spacingAndGlyphs" textLength="102" x="294" y="208.5898">-String designacao</text>
        <text fill="#000000" font-family="sans-serif" font-size="11" lengthAdjust="spacingAndGlyphs" textLength="111" x="294" y="221.5449">-String descInformal</text>
        <text fill="#000000" font-family="sans-serif" font-size="11" lengthAdjust="spacingAndGlyphs" textLength="107" x="294" y="234.5">-String descTecnica</text>
        <text fill="#000000" font-family="sans-serif" font-size="11" lengthAdjust="spacingAndGlyphs" textLength="107" x="294" y="247.4551">-Integer duracaoEst</text>
        <text fill="#000000" font-family="sans-serif" font-size="11" lengthAdjust="spacingAndGlyphs" textLength="93" x="294" y="260.4102">-Double custoEst</text>
        <!--class Anuncio-->
        <rect fill="#FEFECE" filter="url(#f13dkyiafqtm8k)" height="117.7305" style="stroke: #A80036; stroke-width: 1.5;" width="147" x="834" y="162"/>
        <ellipse cx="880.75" cy="178" fill="#ADD1B2" rx="11" ry="11" style="stroke: #A80036; stroke-width: 1.0;"/>
        <path d="M883.2231,184.1431 Q882.6421,184.4419 882.0029,184.5913 Q881.3638,184.7407 880.6582,184.7407 Q878.1514,184.7407 876.8315,183.0889 Q875.5117,181.437 875.5117,178.3159 Q875.5117,175.1865 876.8315,173.5347 Q878.1514,171.8828 880.6582,171.8828 Q881.3638,171.8828 882.0112,172.0322 Q882.6587,172.1816 883.2231,172.4805 L883.2231,175.2031 Q882.5923,174.6221 881.9988,174.3523 Q881.4053,174.0825 880.7744,174.0825 Q879.4297,174.0825 878.7449,175.1492 Q878.0601,176.2158 878.0601,178.3159 Q878.0601,180.4077 878.7449,181.4744 Q879.4297,182.541 880.7744,182.541 Q881.4053,182.541 881.9988,182.2712 Q882.5923,182.0015 883.2231,181.4204 Z "/>
        <text fill="#000000" font-family="sans-serif" font-size="12" lengthAdjust="spacingAndGlyphs" textLength="45" x="901.25" y="182.5352">Anuncio</text>
        <line style="stroke: #A80036; stroke-width: 1.5;" x1="835" x2="980" y1="194" y2="194"/>
        <text fill="#000000" font-family="sans-serif" font-size="11" lengthAdjust="spacingAndGlyphs" textLength="129" x="840" y="208.6348">-DateTime pPublicInicial</text>
        <text fill="#000000" font-family="sans-serif" font-size="11" lengthAdjust="spacingAndGlyphs" textLength="123" x="840" y="221.5898">-DateTime pPublicFinal</text>
        <text fill="#000000" font-family="sans-serif" font-size="11" lengthAdjust="spacingAndGlyphs" textLength="135" x="840" y="234.5449">-DateTime pApreseInicial</text>
        <text fill="#000000" font-family="sans-serif" font-size="11" lengthAdjust="spacingAndGlyphs" textLength="129" x="840" y="247.5">-DateTime pApreseFinal</text>
        <text fill="#000000" font-family="sans-serif" font-size="11" lengthAdjust="spacingAndGlyphs" textLength="123" x="840" y="260.4551">-DateTime pSeriaInicial</text>
        <text fill="#000000" font-family="sans-serif" font-size="11" lengthAdjust="spacingAndGlyphs" textLength="117" x="840" y="273.4102">-DateTime pSeriaFinal</text>
        <!--class TipoRegimento-->
        <rect fill="#FEFECE" filter="url(#f13dkyiafqtm8k)" height="40" style="stroke: #A80036; stroke-width: 1.5;" width="119" x="1098" y="284"/>
        <ellipse cx="1113" cy="300" fill="#ADD1B2" rx="11" ry="11" style="stroke: #A80036; stroke-width: 1.0;"/>
        <path d="M1115.4731,306.1431 Q1114.8921,306.4419 1114.2529,306.5913 Q1113.6138,306.7407 1112.9082,306.7407 Q1110.4014,306.7407 1109.0815,305.0889 Q1107.7617,303.437 1107.7617,300.3159 Q1107.7617,297.1865 1109.0815,295.5347 Q1110.4014,293.8828 1112.9082,293.8828 Q1113.6138,293.8828 1114.2612,294.0322 Q1114.9087,294.1816 1115.4731,294.4805 L1115.4731,297.2031 Q1114.8423,296.6221 1114.2488,296.3523 Q1113.6553,296.0825 1113.0244,296.0825 Q1111.6797,296.0825 1110.9949,297.1492 Q1110.3101,298.2158 1110.3101,300.3159 Q1110.3101,302.4077 1110.9949,303.4744 Q1111.6797,304.541 1113.0244,304.541 Q1113.6553,304.541 1114.2488,304.2712 Q1114.8423,304.0015 1115.4731,303.4204 Z "/>
        <text fill="#000000" font-family="sans-serif" font-size="12" lengthAdjust="spacingAndGlyphs" textLength="87" x="1127" y="304.5352">TipoRegimento</text>
        <line style="stroke: #A80036; stroke-width: 1.5;" x1="1099" x2="1216" y1="316" y2="316"/>
        <!--class Utilizador-->
        <rect fill="#FEFECE" filter="url(#f13dkyiafqtm8k)" height="78.8652" style="stroke: #A80036; stroke-width: 1.5;" width="105" x="855" y="47.5"/>
        <ellipse cx="878.1" cy="63.5" fill="#ADD1B2" rx="11" ry="11" style="stroke: #A80036; stroke-width: 1.0;"/>
        <path d="M880.5731,69.6431 Q879.9921,69.9419 879.3529,70.0913 Q878.7138,70.2407 878.0082,70.2407 Q875.5014,70.2407 874.1815,68.5889 Q872.8617,66.937 872.8617,63.8159 Q872.8617,60.6865 874.1815,59.0347 Q875.5014,57.3828 878.0082,57.3828 Q878.7138,57.3828 879.3612,57.5322 Q880.0087,57.6816 880.5731,57.9805 L880.5731,60.7031 Q879.9423,60.1221 879.3488,59.8523 Q878.7553,59.5825 878.1244,59.5825 Q876.7797,59.5825 876.0949,60.6492 Q875.4101,61.7158 875.4101,63.8159 Q875.4101,65.9077 876.0949,66.9744 Q876.7797,68.041 878.1244,68.041 Q878.7553,68.041 879.3488,67.7712 Q879.9423,67.5015 880.5731,66.9204 Z "/>
        <text fill="#000000" font-family="sans-serif" font-size="12" lengthAdjust="spacingAndGlyphs" textLength="55" x="893.9" y="68.0352">Utilizador</text>
        <line style="stroke: #A80036; stroke-width: 1.5;" x1="856" x2="959" y1="79.5" y2="79.5"/>
        <text fill="#000000" font-family="sans-serif" font-size="11" lengthAdjust="spacingAndGlyphs" textLength="71" x="861" y="94.1348">-String nome</text>
        <text fill="#000000" font-family="sans-serif" font-size="11" lengthAdjust="spacingAndGlyphs" textLength="69" x="861" y="107.0898">-String email</text>
        <text fill="#000000" font-family="sans-serif" font-size="11" lengthAdjust="spacingAndGlyphs" textLength="93" x="861" y="120.0449">-String password</text>
        <!--class Organizacao-->
        <rect fill="#FEFECE" filter="url(#f13dkyiafqtm8k)" height="104.7754" style="stroke: #A80036; stroke-width: 1.5;" width="104" x="297.5" y="8.5"/>
        <ellipse cx="312.5" cy="24.5" fill="#ADD1B2" rx="11" ry="11" style="stroke: #A80036; stroke-width: 1.0;"/>
        <path d="M314.9731,30.6431 Q314.3921,30.9419 313.7529,31.0913 Q313.1138,31.2407 312.4082,31.2407 Q309.9014,31.2407 308.5815,29.5889 Q307.2617,27.937 307.2617,24.8159 Q307.2617,21.6865 308.5815,20.0347 Q309.9014,18.3828 312.4082,18.3828 Q313.1138,18.3828 313.7612,18.5322 Q314.4087,18.6816 314.9731,18.9805 L314.9731,21.7031 Q314.3423,21.1221 313.7488,20.8523 Q313.1553,20.5825 312.5244,20.5825 Q311.1797,20.5825 310.4949,21.6492 Q309.8101,22.7158 309.8101,24.8159 Q309.8101,26.9077 310.4949,27.9744 Q311.1797,29.041 312.5244,29.041 Q313.1553,29.041 313.7488,28.7712 Q314.3423,28.5015 314.9731,27.9204 Z "/>
        <text fill="#000000" font-family="sans-serif" font-size="12" lengthAdjust="spacingAndGlyphs" textLength="72" x="326.5" y="29.0352">Organizacao</text>
        <line style="stroke: #A80036; stroke-width: 1.5;" x1="298.5" x2="400.5" y1="40.5" y2="40.5"/>
        <text fill="#000000" font-family="sans-serif" font-size="11" lengthAdjust="spacingAndGlyphs" textLength="71" x="303.5" y="55.1348">-String nome</text>
        <text fill="#000000" font-family="sans-serif" font-size="11" lengthAdjust="spacingAndGlyphs" textLength="58" x="303.5" y="68.0898">-String NIF</text>
        <text fill="#000000" font-family="sans-serif" font-size="11" lengthAdjust="spacingAndGlyphs" textLength="81" x="303.5" y="81.0449">-String website</text>
        <text fill="#000000" font-family="sans-serif" font-size="11" lengthAdjust="spacingAndGlyphs" textLength="84" x="303.5" y="94">-String telefone</text>
        <text fill="#000000" font-family="sans-serif" font-size="11" lengthAdjust="spacingAndGlyphs" textLength="69" x="303.5" y="106.9551">-String email</text>
        <path d="M115.52,181.38 C167.08,154.74 245.94,113.99 297.36,87.42 " fill="none" style="stroke: #A80036; stroke-width: 1.0;"/>
        <text fill="#000000" font-family="sans-serif" font-size="13" lengthAdjust="spacingAndGlyphs" textLength="93" x="151" y="104.5684">tem registadas</text>
        <polygon fill="#000000" points="247,98.1553,253,101.1553,247,104.1553,247,98.1553" style="stroke: #000000; stroke-width: 1.0;"/>
        <text fill="#000000" font-family="sans-serif" font-size="13" lengthAdjust="spacingAndGlyphs" textLength="8" x="119.3468" y="170.6749">1</text>
        <text fill="#000000" font-family="sans-serif" font-size="13" lengthAdjust="spacingAndGlyphs" textLength="6" x="283.6059" y="104.796">*</text>
        <path d="M98.66,234.51 C150.19,271.2 251.39,333 348.5,333 C348.5,333 348.5,333 908.5,333 C973.52,333 1047.49,323.04 1097.6,314.8 " fill="none" style="stroke: #A80036; stroke-width: 1.0;"/>
        <text fill="#000000" font-family="sans-serif" font-size="13" lengthAdjust="spacingAndGlyphs" textLength="42" x="613.5" y="329.5684">possui</text>
        <polygon fill="#000000" points="658.5,323.1553,664.5,326.1553,658.5,329.1553,658.5,323.1553" style="stroke: #000000; stroke-width: 1.0;"/>
        <text fill="#000000" font-family="sans-serif" font-size="13" lengthAdjust="spacingAndGlyphs" textLength="8" x="97.9814" y="254.9843">1</text>
        <text fill="#000000" font-family="sans-serif" font-size="13" lengthAdjust="spacingAndGlyphs" textLength="6" x="1083.9341" y="329.6176">*</text>
        <path d="M120.21,208 C168.63,208 238.35,208 287.98,208 " fill="none" style="stroke: #A80036; stroke-width: 1.0;"/>
        <text fill="#000000" font-family="sans-serif" font-size="13" lengthAdjust="spacingAndGlyphs" textLength="42" x="176.5" y="204.5684">possui</text>
        <polygon fill="#000000" points="221.5,198.1553,227.5,201.1553,221.5,204.1553,221.5,198.1553" style="stroke: #000000; stroke-width: 1.0;"/>
        <text fill="#000000" font-family="sans-serif" font-size="13" lengthAdjust="spacingAndGlyphs" textLength="8" x="128.0525" y="221.5521">1</text>
        <text fill="#000000" font-family="sans-serif" font-size="13" lengthAdjust="spacingAndGlyphs" textLength="6" x="274.1166" y="221.5178">*</text>
        <path d="M411.06,170.42 C420.83,165.38 431.02,160.68 441,157 C489.56,139.09 547.96,128.89 588.9,123.45 " fill="none" style="stroke: #A80036; stroke-width: 1.0;"/>
        <text fill="#000000" font-family="sans-serif" font-size="13" lengthAdjust="spacingAndGlyphs" textLength="86" x="450.5" y="124.5684">publicada por</text>
        <polygon fill="#000000" points="539.5,118.1553,545.5,121.1553,539.5,124.1553,539.5,118.1553" style="stroke: #000000; stroke-width: 1.0;"/>
        <text fill="#000000" font-family="sans-serif" font-size="13" lengthAdjust="spacingAndGlyphs" textLength="6" x="418.9283" y="179.3577">*</text>
        <text fill="#000000" font-family="sans-serif" font-size="13" lengthAdjust="spacingAndGlyphs" textLength="8" x="573.0109" y="137.8739">1</text>
        <path d="M411.11,208.97 C453.95,207.64 511.89,201.72 559,182 C569.75,177.5 580.26,171.16 589.96,164.21 " fill="none" style="stroke: #A80036; stroke-width: 1.0;"/>
        <text fill="#000000" font-family="sans-serif" font-size="13" lengthAdjust="spacingAndGlyphs" textLength="103" x="442" y="178.5684">especificada por</text>
        <polygon fill="#000000" points="548,172.1553,554,175.1553,548,178.1553,548,172.1553" style="stroke: #000000; stroke-width: 1.0;"/>
        <text fill="#000000" font-family="sans-serif" font-size="13" lengthAdjust="spacingAndGlyphs" textLength="6" x="418.9843" y="205.7779">*</text>
        <text fill="#000000" font-family="sans-serif" font-size="13" lengthAdjust="spacingAndGlyphs" textLength="8" x="574.22" y="184.3658">1</text>
        <path d="M411.35,210.11 C421.26,210.43 431.41,210.74 441,211 C579.98,214.8 742.34,218.01 833.93,219.7 " fill="none" style="stroke: #A80036; stroke-width: 1.0;"/>
        <text fill="#000000" font-family="sans-serif" font-size="13" lengthAdjust="spacingAndGlyphs" textLength="43" x="613" y="210.5684">resulta</text>
        <polygon fill="#000000" points="659,204.1553,665,207.1553,659,210.1553,659,204.1553" style="stroke: #000000; stroke-width: 1.0;"/>
        <text fill="#000000" font-family="sans-serif" font-size="13" lengthAdjust="spacingAndGlyphs" textLength="8" x="418.9639" y="223.8231">1</text>
        <text fill="#000000" font-family="sans-serif" font-size="13" lengthAdjust="spacingAndGlyphs" textLength="24" x="802.0415" y="232.8667">0..1</text>
        <path d="M693.31,111.99 C739.88,106.53 808.21,98.52 854.88,93.05 " fill="none" style="stroke: #A80036; stroke-width: 1.0;"/>
        <text fill="#000000" font-family="sans-serif" font-size="13" lengthAdjust="spacingAndGlyphs" textLength="66" x="724" y="95.5684">atua como</text>
        <polygon fill="#000000" points="793,89.1553,799,92.1553,793,95.1553,793,89.1553" style="stroke: #000000; stroke-width: 1.0;"/>
        <text fill="#000000" font-family="sans-serif" font-size="13" lengthAdjust="spacingAndGlyphs" textLength="24" x="701.1478" y="124.7698">0..1</text>
        <text fill="#000000" font-family="sans-serif" font-size="13" lengthAdjust="spacingAndGlyphs" textLength="8" x="838.9178" y="107.5551">1</text>
        <path d="M693.31,137.98 C733.27,153.54 789.25,175.34 833.82,192.7 " fill="none" style="stroke: #A80036; stroke-width: 1.0;"/>
        <text fill="#000000" font-family="sans-serif" font-size="13" lengthAdjust="spacingAndGlyphs" textLength="63" x="725.5" y="147.5684">especifica</text>
        <polygon fill="#000000" points="791.5,141.1553,797.5,144.1553,791.5,147.1553,791.5,141.1553" style="stroke: #000000; stroke-width: 1.0;"/>
        <text fill="#000000" font-family="sans-serif" font-size="13" lengthAdjust="spacingAndGlyphs" textLength="8" x="700.8767" y="154.2739">1</text>
        <text fill="#000000" font-family="sans-serif" font-size="13" lengthAdjust="spacingAndGlyphs" textLength="6" x="819.9124" y="203.1533">*</text>
        <path d="M401.58,70.06 C443.85,77.67 505.42,89.04 559,100 C568.6,101.96 578.81,104.15 588.64,106.31 " fill="none" style="stroke: #A80036; stroke-width: 1.0;"/>
        <text fill="#000000" font-family="sans-serif" font-size="13" lengthAdjust="spacingAndGlyphs" textLength="24" x="481.5" y="74.5684">tem</text>
        <polygon fill="#000000" points="508.5,68.1553,514.5,71.1553,508.5,74.1553,508.5,68.1553" style="stroke: #000000; stroke-width: 1.0;"/>
        <text fill="#000000" font-family="sans-serif" font-size="13" lengthAdjust="spacingAndGlyphs" textLength="8" x="409.4663" y="84.9947">1</text>
        <text fill="#000000" font-family="sans-serif" font-size="13" lengthAdjust="spacingAndGlyphs" textLength="22" x="558.918" y="118.3976">1..*</text>
        <path d="M981.23,245.34 C1018.39,257.78 1063.01,272.71 1097.93,284.4 " fill="none" style="stroke: #A80036; stroke-width: 1.0;"/>
        <text fill="#000000" font-family="sans-serif" font-size="13" lengthAdjust="spacingAndGlyphs" textLength="42" x="1012" y="253.5684">possui</text>
        <polygon fill="#000000" points="1057,247.1553,1063,250.1553,1057,253.1553,1057,247.1553" style="stroke: #000000; stroke-width: 1.0;"/>
        <text fill="#000000" font-family="sans-serif" font-size="13" lengthAdjust="spacingAndGlyphs" textLength="22" x="989.041" y="260.8703">0..*</text>
        <text fill="#000000" font-family="sans-serif" font-size="13" lengthAdjust="spacingAndGlyphs" textLength="8" x="1082.1824" y="295.5126">1</text>
        <!--
@startuml
skinparam classAttributeIconSize 0
hide methods
left to right direction

class Plataforma{
  -String designacao
}

class Colaborador{
  -String nome
  -String funcao
  -String telefone
  -String email
}

class Tarefa {
  -String referencia
  -String designacao
  -String descInformal
  -String descTecnica
  -Integer duracaoEst
  -Double custoEst
}

class Anuncio{
  -DateTime pPublicInicial
  -DateTime pPublicFinal
  -DateTime pApreseInicial
  -DateTime pApreseFinal
  -DateTime pSeriaInicial
  -DateTime pSeriaFinal
}

class TipoRegimento{
}

class Utilizador{
  -String nome
  -String email
  -String password
}

class Organizacao{
  -String nome
  -String NIF
  -String website
  -String telefone
  -String email
}

Plataforma "1" - - "*" Organizacao : tem registadas >
Plataforma "1" - - "*" TipoRegimento : possui >
Plataforma "1" - - "*" Tarefa : possui >

Tarefa "*" - - "1" Colaborador : publicada por >
Tarefa "*" - - "1" Colaborador : especificada por >
Tarefa "1" - - "0..1" Anuncio : resulta >

Colaborador "0..1" - - "1" Utilizador : atua como >
Colaborador "1" - - "*" Anuncio : especifica >

Organizacao "1" - - "1..*" Colaborador : tem >


Anuncio "0..*" - - "1" TipoRegimento : possui >



@enduml

PlantUML version 2017.11(Wed Apr 19 17:18:59 WEST 2017)
(GPL source distribution)
Java Runtime: Java(TM) SE Runtime Environment
JVM: Java HotSpot(TM) 64-Bit Server VM
Java Version: 1.8.0_191-b12
Operating System: Mac OS X
OS Version: 10.15.4
Default Encoding: UTF-8
Language: pt
Country: PT
-->
    </g>
</svg>
