<?xml version="1.0" encoding="UTF-8"?><svg xmlns="http://www.w3.org/2000/svg" xmlns:xlink="http://www.w3.org/1999/xlink" contentScriptType="application/ecmascript" contentStyleType="text/css" height="688px" preserveAspectRatio="none" style="width:433px;height:688px;" version="1.1" viewBox="0 0 433 688" width="433px" zoomAndPan="magnify">
    <defs>
        <filter height="300%" id="flbiylez2qf25" width="300%" x="-1" y="-1">
            <feGaussianBlur result="blurOut" stdDeviation="2.0"/>
            <feColorMatrix in="blurOut" result="blurOut2" type="matrix" values="0 0 0 0 0 0 0 0 0 0 0 0 0 0 0 0 0 0 .4 0"/>
            <feOffset dx="4.0" dy="4.0" in="blurOut2" result="blurOut3"/>
            <feBlend in="SourceGraphic" in2="blurOut3" mode="normal"/>
        </filter>
    </defs>
    <g>
        <!--class AreaAtividade-->
        <rect fill="#FEFECE" filter="url(#flbiylez2qf25)" height="99.8203" style="stroke: #A80036; stroke-width: 1.5;" width="314" x="58" y="580"/>
        <ellipse cx="170.25" cy="596" fill="#ADD1B2" rx="11" ry="11" style="stroke: #A80036; stroke-width: 1.0;"/>
        <path d="M172.7231,602.1431 Q172.1421,602.4419 171.5029,602.5913 Q170.8638,602.7407 170.1582,602.7407 Q167.6514,602.7407 166.3315,601.0889 Q165.0117,599.437 165.0117,596.3159 Q165.0117,593.1865 166.3315,591.5347 Q167.6514,589.8828 170.1582,589.8828 Q170.8638,589.8828 171.5112,590.0322 Q172.1587,590.1816 172.7231,590.4805 L172.7231,593.2031 Q172.0923,592.6221 171.4988,592.3523 Q170.9053,592.0825 170.2744,592.0825 Q168.9297,592.0825 168.2449,593.1492 Q167.5601,594.2158 167.5601,596.3159 Q167.5601,598.4077 168.2449,599.4744 Q168.9297,600.541 170.2744,600.541 Q170.9053,600.541 171.4988,600.2712 Q172.0923,600.0015 172.7231,599.4204 Z "/>
        <text fill="#000000" font-family="sans-serif" font-size="12" lengthAdjust="spacingAndGlyphs" textLength="81" x="190.75" y="600.5352">AreaAtividade</text>
        <line style="stroke: #A80036; stroke-width: 1.5;" x1="59" x2="371" y1="612" y2="612"/>
        <text fill="#000000" font-family="sans-serif" font-size="11" lengthAdjust="spacingAndGlyphs" textLength="78" x="64" y="626.6348">-String codigo</text>
        <text fill="#000000" font-family="sans-serif" font-size="11" lengthAdjust="spacingAndGlyphs" textLength="95" x="64" y="639.5898">-String descBreve</text>
        <text fill="#000000" font-family="sans-serif" font-size="11" lengthAdjust="spacingAndGlyphs" textLength="119" x="64" y="652.5449">-String descDetalhada</text>
        <line style="stroke: #A80036; stroke-width: 1.5;" x1="59" x2="371" y1="658.8652" y2="658.8652"/>
        <text fill="#000000" font-family="sans-serif" font-size="11" lengthAdjust="spacingAndGlyphs" textLength="302" x="64" y="673.5">+AreaAtividade(String cod, String dsBreve, String dsDet)</text>
        <!--class Plataforma-->
        <rect fill="#FEFECE" filter="url(#flbiylez2qf25)" height="73.9102" style="stroke: #A80036; stroke-width: 1.5;" width="167" x="63.5" y="252"/>
        <ellipse cx="111.75" cy="268" fill="#ADD1B2" rx="11" ry="11" style="stroke: #A80036; stroke-width: 1.0;"/>
        <path d="M114.2231,274.1431 Q113.6421,274.4419 113.0029,274.5913 Q112.3638,274.7407 111.6582,274.7407 Q109.1514,274.7407 107.8315,273.0889 Q106.5117,271.437 106.5117,268.3159 Q106.5117,265.1865 107.8315,263.5347 Q109.1514,261.8828 111.6582,261.8828 Q112.3638,261.8828 113.0112,262.0322 Q113.6587,262.1816 114.2231,262.4805 L114.2231,265.2031 Q113.5923,264.6221 112.9988,264.3523 Q112.4053,264.0825 111.7744,264.0825 Q110.4297,264.0825 109.7449,265.1492 Q109.0601,266.2158 109.0601,268.3159 Q109.0601,270.4077 109.7449,271.4744 Q110.4297,272.541 111.7744,272.541 Q112.4053,272.541 112.9988,272.2712 Q113.5923,272.0015 114.2231,271.4204 Z "/>
        <text fill="#000000" font-family="sans-serif" font-size="12" lengthAdjust="spacingAndGlyphs" textLength="62" x="132.25" y="272.5352">Plataforma</text>
        <line style="stroke: #A80036; stroke-width: 1.5;" x1="64.5" x2="229.5" y1="284" y2="284"/>
        <text fill="#000000" font-family="sans-serif" font-size="11" lengthAdjust="spacingAndGlyphs" textLength="102" x="69.5" y="298.6348">-String designacao</text>
        <line style="stroke: #A80036; stroke-width: 1.5;" x1="64.5" x2="229.5" y1="304.9551" y2="304.9551"/>
        <text fill="#000000" font-family="sans-serif" font-size="11" lengthAdjust="spacingAndGlyphs" textLength="155" x="69.5" y="319.5898">+getRegistoAreasAtividade()</text>
        <!--class DefinirAreaController-->
        <rect fill="#FEFECE" filter="url(#flbiylez2qf25)" height="73.9102" style="stroke: #A80036; stroke-width: 1.5;" width="340" x="45" y="117"/>
        <ellipse cx="150.25" cy="133" fill="#ADD1B2" rx="11" ry="11" style="stroke: #A80036; stroke-width: 1.0;"/>
        <path d="M152.7231,139.1431 Q152.1421,139.4419 151.5029,139.5913 Q150.8638,139.7407 150.1582,139.7407 Q147.6514,139.7407 146.3315,138.0889 Q145.0117,136.437 145.0117,133.3159 Q145.0117,130.1865 146.3315,128.5347 Q147.6514,126.8828 150.1582,126.8828 Q150.8638,126.8828 151.5112,127.0322 Q152.1587,127.1816 152.7231,127.4805 L152.7231,130.2031 Q152.0923,129.6221 151.4988,129.3523 Q150.9053,129.0825 150.2744,129.0825 Q148.9297,129.0825 148.2449,130.1492 Q147.5601,131.2158 147.5601,133.3159 Q147.5601,135.4077 148.2449,136.4744 Q148.9297,137.541 150.2744,137.541 Q150.9053,137.541 151.4988,137.2712 Q152.0923,137.0015 152.7231,136.4204 Z "/>
        <text fill="#000000" font-family="sans-serif" font-size="12" lengthAdjust="spacingAndGlyphs" textLength="121" x="170.75" y="137.5352">DefinirAreaController</text>
        <line style="stroke: #A80036; stroke-width: 1.5;" x1="46" x2="384" y1="149" y2="149"/>
        <line style="stroke: #A80036; stroke-width: 1.5;" x1="46" x2="384" y1="157" y2="157"/>
        <text fill="#000000" font-family="sans-serif" font-size="11" lengthAdjust="spacingAndGlyphs" textLength="328" x="51" y="171.6348">+novaAreaAtividade(String cod, String dsBreve, String dsDet)</text>
        <text fill="#000000" font-family="sans-serif" font-size="11" lengthAdjust="spacingAndGlyphs" textLength="129" x="51" y="184.5898">+registaAreaAtividade()</text>
        <!--class DefinirAreaUI-->
        <rect fill="#FEFECE" filter="url(#flbiylez2qf25)" height="48" style="stroke: #A80036; stroke-width: 1.5;" width="108" x="161" y="8"/>
        <ellipse cx="176" cy="24" fill="#ADD1B2" rx="11" ry="11" style="stroke: #A80036; stroke-width: 1.0;"/>
        <path d="M178.4731,30.1431 Q177.8921,30.4419 177.2529,30.5913 Q176.6138,30.7407 175.9082,30.7407 Q173.4014,30.7407 172.0815,29.0889 Q170.7617,27.437 170.7617,24.3159 Q170.7617,21.1865 172.0815,19.5347 Q173.4014,17.8828 175.9082,17.8828 Q176.6138,17.8828 177.2612,18.0322 Q177.9087,18.1816 178.4731,18.4805 L178.4731,21.2031 Q177.8423,20.6221 177.2488,20.3523 Q176.6553,20.0825 176.0244,20.0825 Q174.6797,20.0825 173.9949,21.1492 Q173.3101,22.2158 173.3101,24.3159 Q173.3101,26.4077 173.9949,27.4744 Q174.6797,28.541 176.0244,28.541 Q176.6553,28.541 177.2488,28.2712 Q177.8423,28.0015 178.4731,27.4204 Z "/>
        <text fill="#000000" font-family="sans-serif" font-size="12" lengthAdjust="spacingAndGlyphs" textLength="76" x="190" y="28.5352">DefinirAreaUI</text>
        <line style="stroke: #A80036; stroke-width: 1.5;" x1="162" x2="268" y1="40" y2="40"/>
        <line style="stroke: #A80036; stroke-width: 1.5;" x1="162" x2="268" y1="48" y2="48"/>
        <!--class RegistoAreasAtividade-->
        <rect fill="#FEFECE" filter="url(#flbiylez2qf25)" height="99.8203" style="stroke: #A80036; stroke-width: 1.5;" width="418" x="6" y="403"/>
        <ellipse cx="146.25" cy="419" fill="#ADD1B2" rx="11" ry="11" style="stroke: #A80036; stroke-width: 1.0;"/>
        <path d="M148.7231,425.1431 Q148.1421,425.4419 147.5029,425.5913 Q146.8638,425.7407 146.1582,425.7407 Q143.6514,425.7407 142.3315,424.0889 Q141.0117,422.437 141.0117,419.3159 Q141.0117,416.1865 142.3315,414.5347 Q143.6514,412.8828 146.1582,412.8828 Q146.8638,412.8828 147.5112,413.0322 Q148.1587,413.1816 148.7231,413.4805 L148.7231,416.2031 Q148.0923,415.6221 147.4988,415.3523 Q146.9053,415.0825 146.2744,415.0825 Q144.9297,415.0825 144.2449,416.1492 Q143.5601,417.2158 143.5601,419.3159 Q143.5601,421.4077 144.2449,422.4744 Q144.9297,423.541 146.2744,423.541 Q146.9053,423.541 147.4988,423.2712 Q148.0923,423.0015 148.7231,422.4204 Z "/>
        <text fill="#000000" font-family="sans-serif" font-size="12" lengthAdjust="spacingAndGlyphs" textLength="129" x="166.75" y="423.5352">RegistoAreasAtividade</text>
        <line style="stroke: #A80036; stroke-width: 1.5;" x1="7" x2="423" y1="435" y2="435"/>
        <line style="stroke: #A80036; stroke-width: 1.5;" x1="7" x2="423" y1="443" y2="443"/>
        <text fill="#000000" font-family="sans-serif" font-size="11" lengthAdjust="spacingAndGlyphs" textLength="406" x="12" y="457.6348">+AreaAtividade novaAreaAtividade(String cod, String dsBreve, String dsDet)</text>
        <text fill="#000000" font-family="sans-serif" font-size="11" lengthAdjust="spacingAndGlyphs" textLength="224" x="12" y="470.5898">+validaAreaAtividade(AreaAtividade area)</text>
        <text fill="#000000" font-family="sans-serif" font-size="11" lengthAdjust="spacingAndGlyphs" textLength="230" x="12" y="483.5449">+registaAreaAtividade(AreaAtividade area)</text>
        <text fill="#000000" font-family="sans-serif" font-size="11" lengthAdjust="spacingAndGlyphs" textLength="210" x="12" y="496.5">-addAreaAtividade(AreaAtividade area)</text>
        <path d="M215,56.14 C215,71.83 215,93 215,111.55 " fill="none" style="stroke: #A80036; stroke-width: 1.0; stroke-dasharray: 7.0,7.0;"/>
        <polygon fill="#A80036" points="215,116.71,219,107.71,215,111.71,211,107.71,215,116.71" style="stroke: #A80036; stroke-width: 1.0;"/>
        <path d="M196.42,191.34 C187.57,208.64 176.96,229.4 167.84,247.23 " fill="none" style="stroke: #A80036; stroke-width: 1.0; stroke-dasharray: 7.0,7.0;"/>
        <polygon fill="#A80036" points="165.56,251.7,173.2342,245.5269,167.8474,247.2539,166.1204,241.8671,165.56,251.7" style="stroke: #A80036; stroke-width: 1.0;"/>
        <path d="M230.44,191.12 C237.29,209.06 244.57,231.29 248,252 C256.17,301.38 245.08,357.62 233.6,397.86 " fill="none" style="stroke: #A80036; stroke-width: 1.0; stroke-dasharray: 7.0,7.0;"/>
        <polygon fill="#A80036" points="232.2,402.68,238.56,395.16,233.6,397.88,230.88,392.92,232.2,402.68" style="stroke: #A80036; stroke-width: 1.0;"/>
        <path d="M162.26,326.36 C171.14,347.52 182.51,374.6 192.41,398.19 " fill="none" style="stroke: #A80036; stroke-width: 1.0;"/>
        <polygon fill="#A80036" points="194.37,402.86,194.5791,393.0134,192.4368,398.2489,187.2013,396.1065,194.37,402.86" style="stroke: #A80036; stroke-width: 1.0;"/>
        <text fill="#000000" font-family="sans-serif" font-size="13" lengthAdjust="spacingAndGlyphs" textLength="42" x="182" y="369.5684">possui</text>
        <text fill="#000000" font-family="sans-serif" font-size="13" lengthAdjust="spacingAndGlyphs" textLength="8" x="156.1249" y="346.3915">1</text>
        <text fill="#000000" font-family="sans-serif" font-size="13" lengthAdjust="spacingAndGlyphs" textLength="8" x="182.9064" y="392.3572">1</text>
        <path d="M215,503.21 C215,525.49 215,551.89 215,574.73 " fill="none" style="stroke: #A80036; stroke-width: 1.0;"/>
        <polygon fill="#A80036" points="215,579.85,219,570.85,215,574.85,211,570.85,215,579.85" style="stroke: #A80036; stroke-width: 1.0;"/>
        <text fill="#000000" font-family="sans-serif" font-size="13" lengthAdjust="spacingAndGlyphs" textLength="42" x="216" y="546.5684">possui</text>
        <text fill="#000000" font-family="sans-serif" font-size="13" lengthAdjust="spacingAndGlyphs" textLength="8" x="206.4625" y="523.5661">1</text>
        <text fill="#000000" font-family="sans-serif" font-size="13" lengthAdjust="spacingAndGlyphs" textLength="6" x="208.5781" y="569.3458">*</text>
        <!--
@startuml
skinparam classAttributeIconSize 0
class AreaAtividade {
  -String codigo
  -String descBreve
  -String descDetalhada
  +AreaAtividade(String cod, String dsBreve, String dsDet)
}

class Plataforma {
  -String designacao
  +getRegistoAreasAtividade()
  
}

class DefinirAreaController {
  +novaAreaAtividade(String cod, String dsBreve, String dsDet)
  +registaAreaAtividade()
}

class DefinirAreaUI {
  
}

class RegistoAreasAtividade {
  +AreaAtividade novaAreaAtividade(String cod, String dsBreve, String dsDet)
  +validaAreaAtividade(AreaAtividade area)
  +registaAreaAtividade(AreaAtividade area)
  - addAreaAtividade(AreaAtividade area) 

}

DefinirAreaUI ..> DefinirAreaController
DefinirAreaController ..> Plataforma
DefinirAreaController ..> RegistoAreasAtividade

Plataforma "1" - -> "1" RegistoAreasAtividade : possui
RegistoAreasAtividade "1" - -> "*" AreaAtividade : possui


@enduml

PlantUML version 2017.11(Wed Apr 19 17:18:59 WEST 2017)
(GPL source distribution)
Java Runtime: Java(TM) SE Runtime Environment
JVM: Java HotSpot(TM) 64-Bit Server VM
Java Version: 1.8.0_191-b12
Operating System: Mac OS X
OS Version: 10.15.4
Default Encoding: UTF-8
Language: pt
Country: PT
-->
    </g>
</svg>
