<?xml version="1.0" encoding="UTF-8"?><svg xmlns="http://www.w3.org/2000/svg" xmlns:xlink="http://www.w3.org/1999/xlink" contentScriptType="application/ecmascript" contentStyleType="text/css" height="989px" preserveAspectRatio="none" style="width:2400px;height:989px;" version="1.1" viewBox="0 0 2400 989" width="2400px" zoomAndPan="magnify">
    <defs>
        <filter height="300%" id="f9a20rihdt74t" width="300%" x="-1" y="-1">
            <feGaussianBlur result="blurOut" stdDeviation="2.0"/>
            <feColorMatrix in="blurOut" result="blurOut2" type="matrix" values="0 0 0 0 0 0 0 0 0 0 0 0 0 0 0 0 0 0 .4 0"/>
            <feOffset dx="4.0" dy="4.0" in="blurOut2" result="blurOut3"/>
            <feBlend in="SourceGraphic" in2="blurOut3" mode="normal"/>
        </filter>
    </defs>
    <g>
        <rect fill="#FFFFFF" filter="url(#f9a20rihdt74t)" height="789.9863" style="stroke: #A80036; stroke-width: 1.0;" width="10" x="91" y="96.4883"/>
        <rect fill="#FFFFFF" filter="url(#f9a20rihdt74t)" height="59.3105" style="stroke: #A80036; stroke-width: 1.0;" width="10" x="425" y="117.4883"/>
        <rect fill="#FFFFFF" filter="url(#f9a20rihdt74t)" height="432.2598" style="stroke: #A80036; stroke-width: 1.0;" width="10" x="425" y="206.7305"/>
        <rect fill="#FFFFFF" filter="url(#f9a20rihdt74t)" height="218.1738" style="stroke: #A80036; stroke-width: 1.0;" width="10" x="425" y="668.3008"/>
        <rect fill="#FFFFFF" filter="url(#f9a20rihdt74t)" height="358.6387" style="stroke: #A80036; stroke-width: 1.0;" width="10" x="817" y="251.041"/>
        <rect fill="#FFFFFF" filter="url(#f9a20rihdt74t)" height="152.5527" style="stroke: #A80036; stroke-width: 1.0;" width="10" x="817" y="697.6113"/>
        <rect fill="#FFFFFF" filter="url(#f9a20rihdt74t)" height="30" style="stroke: #A80036; stroke-width: 1.0;" width="10" x="1043" y="280.6621"/>
        <rect fill="#FFFFFF" filter="url(#f9a20rihdt74t)" height="30" style="stroke: #A80036; stroke-width: 1.0;" width="10" x="1043" y="579.6797"/>
        <rect fill="#FFFFFF" filter="url(#f9a20rihdt74t)" height="179.2188" style="stroke: #A80036; stroke-width: 1.0;" width="10" x="1224" y="354.9727"/>
        <rect fill="#FFFFFF" filter="url(#f9a20rihdt74t)" height="123.2422" style="stroke: #A80036; stroke-width: 1.0;" width="10" x="1224" y="726.9219"/>
        <rect fill="#FFFFFF" filter="url(#f9a20rihdt74t)" height="29.3105" style="stroke: #A80036; stroke-width: 1.0;" width="10" x="1635" y="384.5938"/>
        <rect fill="#FFFFFF" filter="url(#f9a20rihdt74t)" height="29.3105" style="stroke: #A80036; stroke-width: 1.0;" width="10" x="1635" y="459.3926"/>
        <rect fill="#FEFECE" filter="url(#f9a20rihdt74t)" height="30.4883" style="stroke: #A80036; stroke-width: 1.5;" width="149" x="1968" y="392.9043"/>
        <text fill="#000000" font-family="sans-serif" font-size="14" lengthAdjust="spacingAndGlyphs" textLength="135" x="1975" y="413.4395">end:EnderecoPostal</text>
        <rect fill="#FEFECE" filter="url(#f9a20rihdt74t)" height="30.4883" style="stroke: #A80036; stroke-width: 1.5;" width="142" x="2131" y="467.7031"/>
        <text fill="#000000" font-family="sans-serif" font-size="14" lengthAdjust="spacingAndGlyphs" textLength="128" x="2138" y="488.2383">colab:Colaborador</text>
        <rect fill="#FEFECE" filter="url(#f9a20rihdt74t)" height="30.4883" style="stroke: #A80036; stroke-width: 1.5;" width="129" x="1702.5" y="513.1914"/>
        <text fill="#000000" font-family="sans-serif" font-size="14" lengthAdjust="spacingAndGlyphs" textLength="115" x="1709.5" y="533.7266">org:Organizacao</text>
        <line style="stroke: #A80036; stroke-width: 1.0; stroke-dasharray: 5.0,5.0;" x1="96" x2="96" y1="86.4883" y2="904.7852"/>
        <line style="stroke: #A80036; stroke-width: 1.0; stroke-dasharray: 5.0,5.0;" x1="429.5" x2="429.5" y1="86.4883" y2="904.7852"/>
        <line style="stroke: #A80036; stroke-width: 1.0; stroke-dasharray: 5.0,5.0;" x1="821.5" x2="821.5" y1="86.4883" y2="904.7852"/>
        <line style="stroke: #A80036; stroke-width: 1.0; stroke-dasharray: 5.0,5.0;" x1="1048" x2="1048" y1="86.4883" y2="904.7852"/>
        <line style="stroke: #A80036; stroke-width: 1.0; stroke-dasharray: 5.0,5.0;" x1="1228.5" x2="1228.5" y1="86.4883" y2="904.7852"/>
        <line style="stroke: #A80036; stroke-width: 1.0; stroke-dasharray: 5.0,5.0;" x1="1639.5" x2="1639.5" y1="86.4883" y2="904.7852"/>
        <line style="stroke: #A80036; stroke-width: 1.0; stroke-dasharray: 5.0,5.0;" x1="1768.5" x2="1768.5" y1="545.9355" y2="904.7852"/>
        <line style="stroke: #A80036; stroke-width: 1.0; stroke-dasharray: 5.0,5.0;" x1="2044" x2="2044" y1="425.6484" y2="904.7852"/>
        <line style="stroke: #A80036; stroke-width: 1.0; stroke-dasharray: 5.0,5.0;" x1="2204" x2="2204" y1="500.4473" y2="904.7852"/>
        <line style="stroke: #A80036; stroke-width: 1.0; stroke-dasharray: 5.0,5.0;" x1="2339" x2="2339" y1="86.4883" y2="904.7852"/>
        <text fill="#000000" font-family="sans-serif" font-size="14" lengthAdjust="spacingAndGlyphs" textLength="170" x="8" y="83.5352">Utilizador Não Registado</text>
        <ellipse cx="96" cy="13" fill="#FEFECE" filter="url(#f9a20rihdt74t)" rx="8" ry="8" style="stroke: #A80036; stroke-width: 2.0;"/>
        <path d="M96,21 L96,48 M83,29 L109,29 M96,48 L83,63 M96,48 L109,63 " fill="#FEFECE" filter="url(#f9a20rihdt74t)" style="stroke: #A80036; stroke-width: 2.0;"/>
        <text fill="#000000" font-family="sans-serif" font-size="14" lengthAdjust="spacingAndGlyphs" textLength="170" x="8" y="917.3203">Utilizador Não Registado</text>
        <ellipse cx="96" cy="930.2734" fill="#FEFECE" filter="url(#f9a20rihdt74t)" rx="8" ry="8" style="stroke: #A80036; stroke-width: 2.0;"/>
        <path d="M96,938.2734 L96,965.2734 M83,946.2734 L109,946.2734 M96,965.2734 L83,980.2734 M96,965.2734 L109,980.2734 " fill="#FEFECE" filter="url(#f9a20rihdt74t)" style="stroke: #A80036; stroke-width: 2.0;"/>
        <rect fill="#FEFECE" filter="url(#f9a20rihdt74t)" height="46.9766" style="stroke: #A80036; stroke-width: 1.5;" width="115" x="370.5" y="34.5117"/>
        <text fill="#000000" font-family="sans-serif" font-size="14" lengthAdjust="spacingAndGlyphs" textLength="60" x="398" y="55.0469">:Registar</text>
        <text fill="#000000" font-family="sans-serif" font-size="14" lengthAdjust="spacingAndGlyphs" textLength="101" x="377.5" y="71.5352">OrganizacaoUI</text>
        <rect fill="#FEFECE" filter="url(#f9a20rihdt74t)" height="46.9766" style="stroke: #A80036; stroke-width: 1.5;" width="115" x="370.5" y="903.7852"/>
        <text fill="#000000" font-family="sans-serif" font-size="14" lengthAdjust="spacingAndGlyphs" textLength="60" x="398" y="924.3203">:Registar</text>
        <text fill="#000000" font-family="sans-serif" font-size="14" lengthAdjust="spacingAndGlyphs" textLength="101" x="377.5" y="940.8086">OrganizacaoUI</text>
        <rect fill="#FEFECE" filter="url(#f9a20rihdt74t)" height="46.9766" style="stroke: #A80036; stroke-width: 1.5;" width="161" x="739.5" y="34.5117"/>
        <text fill="#000000" font-family="sans-serif" font-size="14" lengthAdjust="spacingAndGlyphs" textLength="147" x="746.5" y="55.0469">:RegistarOrganizacao</text>
        <text fill="#000000" font-family="sans-serif" font-size="14" lengthAdjust="spacingAndGlyphs" textLength="70" x="785" y="71.5352">Controller</text>
        <rect fill="#FEFECE" filter="url(#f9a20rihdt74t)" height="46.9766" style="stroke: #A80036; stroke-width: 1.5;" width="161" x="739.5" y="903.7852"/>
        <text fill="#000000" font-family="sans-serif" font-size="14" lengthAdjust="spacingAndGlyphs" textLength="147" x="746.5" y="924.3203">:RegistarOrganizacao</text>
        <text fill="#000000" font-family="sans-serif" font-size="14" lengthAdjust="spacingAndGlyphs" textLength="70" x="785" y="940.8086">Controller</text>
        <rect fill="#FEFECE" filter="url(#f9a20rihdt74t)" height="30.4883" style="stroke: #A80036; stroke-width: 1.5;" width="92" x="1000" y="51"/>
        <text fill="#000000" font-family="sans-serif" font-size="14" lengthAdjust="spacingAndGlyphs" textLength="78" x="1007" y="71.5352">:Plataforma</text>
        <rect fill="#FEFECE" filter="url(#f9a20rihdt74t)" height="30.4883" style="stroke: #A80036; stroke-width: 1.5;" width="92" x="1000" y="903.7852"/>
        <text fill="#000000" font-family="sans-serif" font-size="14" lengthAdjust="spacingAndGlyphs" textLength="78" x="1007" y="924.3203">:Plataforma</text>
        <rect fill="#FEFECE" filter="url(#f9a20rihdt74t)" height="30.4883" style="stroke: #A80036; stroke-width: 1.5;" width="171" x="1141.5" y="51"/>
        <text fill="#000000" font-family="sans-serif" font-size="14" lengthAdjust="spacingAndGlyphs" textLength="157" x="1148.5" y="71.5352">ro:RegistoOrganizacao</text>
        <rect fill="#FEFECE" filter="url(#f9a20rihdt74t)" height="30.4883" style="stroke: #A80036; stroke-width: 1.5;" width="171" x="1141.5" y="903.7852"/>
        <text fill="#000000" font-family="sans-serif" font-size="14" lengthAdjust="spacingAndGlyphs" textLength="157" x="1148.5" y="924.3203">ro:RegistoOrganizacao</text>
        <rect fill="#FEFECE" filter="url(#f9a20rihdt74t)" height="30.4883" style="stroke: #A80036; stroke-width: 1.5;" width="101" x="1587.5" y="51"/>
        <text fill="#000000" font-family="sans-serif" font-size="14" lengthAdjust="spacingAndGlyphs" textLength="87" x="1594.5" y="71.5352">Organizacao</text>
        <rect fill="#FEFECE" filter="url(#f9a20rihdt74t)" height="30.4883" style="stroke: #A80036; stroke-width: 1.5;" width="101" x="1587.5" y="903.7852"/>
        <text fill="#000000" font-family="sans-serif" font-size="14" lengthAdjust="spacingAndGlyphs" textLength="87" x="1594.5" y="924.3203">Organizacao</text>
        <rect fill="#FEFECE" filter="url(#f9a20rihdt74t)" height="30.4883" style="stroke: #A80036; stroke-width: 1.5;" width="129" x="1702.5" y="903.7852"/>
        <text fill="#000000" font-family="sans-serif" font-size="14" lengthAdjust="spacingAndGlyphs" textLength="115" x="1709.5" y="924.3203">org:Organizacao</text>
        <rect fill="#FEFECE" filter="url(#f9a20rihdt74t)" height="30.4883" style="stroke: #A80036; stroke-width: 1.5;" width="149" x="1968" y="903.7852"/>
        <text fill="#000000" font-family="sans-serif" font-size="14" lengthAdjust="spacingAndGlyphs" textLength="135" x="1975" y="924.3203">end:EnderecoPostal</text>
        <rect fill="#FEFECE" filter="url(#f9a20rihdt74t)" height="30.4883" style="stroke: #A80036; stroke-width: 1.5;" width="142" x="2131" y="903.7852"/>
        <text fill="#000000" font-family="sans-serif" font-size="14" lengthAdjust="spacingAndGlyphs" textLength="128" x="2138" y="924.3203">colab:Colaborador</text>
        <rect fill="#FEFECE" filter="url(#f9a20rihdt74t)" height="46.9766" style="stroke: #A80036; stroke-width: 1.5;" width="101" x="2287" y="34.5117"/>
        <text fill="#000000" font-family="sans-serif" font-size="14" lengthAdjust="spacingAndGlyphs" textLength="87" x="2294" y="55.0469">:Autorizacao</text>
        <text fill="#000000" font-family="sans-serif" font-size="14" lengthAdjust="spacingAndGlyphs" textLength="48" x="2313.5" y="71.5352">Facade</text>
        <rect fill="#FEFECE" filter="url(#f9a20rihdt74t)" height="46.9766" style="stroke: #A80036; stroke-width: 1.5;" width="101" x="2287" y="903.7852"/>
        <text fill="#000000" font-family="sans-serif" font-size="14" lengthAdjust="spacingAndGlyphs" textLength="87" x="2294" y="924.3203">:Autorizacao</text>
        <text fill="#000000" font-family="sans-serif" font-size="14" lengthAdjust="spacingAndGlyphs" textLength="48" x="2313.5" y="940.8086">Facade</text>
        <rect fill="#FFFFFF" filter="url(#f9a20rihdt74t)" height="789.9863" style="stroke: #A80036; stroke-width: 1.0;" width="10" x="91" y="96.4883"/>
        <rect fill="#FFFFFF" filter="url(#f9a20rihdt74t)" height="59.3105" style="stroke: #A80036; stroke-width: 1.0;" width="10" x="425" y="117.4883"/>
        <rect fill="#FFFFFF" filter="url(#f9a20rihdt74t)" height="432.2598" style="stroke: #A80036; stroke-width: 1.0;" width="10" x="425" y="206.7305"/>
        <rect fill="#FFFFFF" filter="url(#f9a20rihdt74t)" height="218.1738" style="stroke: #A80036; stroke-width: 1.0;" width="10" x="425" y="668.3008"/>
        <rect fill="#FFFFFF" filter="url(#f9a20rihdt74t)" height="358.6387" style="stroke: #A80036; stroke-width: 1.0;" width="10" x="817" y="251.041"/>
        <rect fill="#FFFFFF" filter="url(#f9a20rihdt74t)" height="152.5527" style="stroke: #A80036; stroke-width: 1.0;" width="10" x="817" y="697.6113"/>
        <rect fill="#FFFFFF" filter="url(#f9a20rihdt74t)" height="30" style="stroke: #A80036; stroke-width: 1.0;" width="10" x="1043" y="280.6621"/>
        <rect fill="#FFFFFF" filter="url(#f9a20rihdt74t)" height="30" style="stroke: #A80036; stroke-width: 1.0;" width="10" x="1043" y="579.6797"/>
        <rect fill="#FFFFFF" filter="url(#f9a20rihdt74t)" height="179.2188" style="stroke: #A80036; stroke-width: 1.0;" width="10" x="1224" y="354.9727"/>
        <rect fill="#FFFFFF" filter="url(#f9a20rihdt74t)" height="123.2422" style="stroke: #A80036; stroke-width: 1.0;" width="10" x="1224" y="726.9219"/>
        <rect fill="#FFFFFF" filter="url(#f9a20rihdt74t)" height="29.3105" style="stroke: #A80036; stroke-width: 1.0;" width="10" x="1635" y="384.5938"/>
        <rect fill="#FFFFFF" filter="url(#f9a20rihdt74t)" height="29.3105" style="stroke: #A80036; stroke-width: 1.0;" width="10" x="1635" y="459.3926"/>
        <polygon fill="#A80036" points="413,113.4883,423,117.4883,413,121.4883,417,117.4883" style="stroke: #A80036; stroke-width: 1.0;"/>
        <line style="stroke: #A80036; stroke-width: 1.0;" x1="101" x2="419" y1="117.4883" y2="117.4883"/>
        <text fill="#000000" font-family="sans-serif" font-size="13" font-weight="bold" lengthAdjust="spacingAndGlyphs" textLength="9" x="108" y="113.0566">1</text>
        <text fill="#000000" font-family="sans-serif" font-size="13" lengthAdjust="spacingAndGlyphs" textLength="128" x="121" y="113.0566">registar organização</text>
        <polygon fill="#A80036" points="112,172.7988,102,176.7988,112,180.7988,108,176.7988" style="stroke: #A80036; stroke-width: 1.0;"/>
        <line style="stroke: #A80036; stroke-width: 1.0; stroke-dasharray: 2.0,2.0;" x1="106" x2="429" y1="176.7988" y2="176.7988"/>
        <text fill="#000000" font-family="sans-serif" font-size="13" font-weight="bold" lengthAdjust="spacingAndGlyphs" textLength="9" x="118" y="157.6777">2</text>
        <text fill="#000000" font-family="sans-serif" font-size="13" lengthAdjust="spacingAndGlyphs" textLength="168" x="131" y="142.3672">solicita dados organização</text>
        <text fill="#000000" font-family="sans-serif" font-size="13" lengthAdjust="spacingAndGlyphs" textLength="212" x="131" y="157.6777">(nome,NIF,endereço,tlf,site,email)</text>
        <text fill="#000000" font-family="sans-serif" font-size="13" lengthAdjust="spacingAndGlyphs" textLength="283" x="135" y="172.9883">e sobre o gestor (nomeG,função,tlfG, emailG)</text>
        <polygon fill="#A80036" points="413,202.7305,423,206.7305,413,210.7305,417,206.7305" style="stroke: #A80036; stroke-width: 1.0;"/>
        <line style="stroke: #A80036; stroke-width: 1.0;" x1="101" x2="419" y1="206.7305" y2="206.7305"/>
        <text fill="#000000" font-family="sans-serif" font-size="13" font-weight="bold" lengthAdjust="spacingAndGlyphs" textLength="9" x="108" y="202.2988">3</text>
        <text fill="#000000" font-family="sans-serif" font-size="13" lengthAdjust="spacingAndGlyphs" textLength="187" x="121" y="202.2988">introduz os dados solicitados</text>
        <polygon fill="#A80036" points="805,247.041,815,251.041,805,255.041,809,251.041" style="stroke: #A80036; stroke-width: 1.0;"/>
        <line style="stroke: #A80036; stroke-width: 1.0;" x1="435" x2="811" y1="251.041" y2="251.041"/>
        <text fill="#000000" font-family="sans-serif" font-size="13" font-weight="bold" lengthAdjust="spacingAndGlyphs" textLength="9" x="442" y="239.2646">4</text>
        <text fill="#000000" font-family="sans-serif" font-size="13" lengthAdjust="spacingAndGlyphs" textLength="326" x="455" y="231.6094">novaOrganizacao(nome,NIF,endLocal,endCodPostal,</text>
        <text fill="#000000" font-family="sans-serif" font-size="13" lengthAdjust="spacingAndGlyphs" textLength="350" x="455" y="246.9199">endLocalidade,tlf,site,email,nomeG,função,tlfG, emailG)</text>
        <polygon fill="#A80036" points="1031,276.6621,1041,280.6621,1031,284.6621,1035,280.6621" style="stroke: #A80036; stroke-width: 1.0;"/>
        <line style="stroke: #A80036; stroke-width: 1.0;" x1="827" x2="1037" y1="280.6621" y2="280.6621"/>
        <text fill="#000000" font-family="sans-serif" font-size="13" font-weight="bold" lengthAdjust="spacingAndGlyphs" textLength="9" x="834" y="276.2305">5</text>
        <text fill="#000000" font-family="sans-serif" font-size="13" lengthAdjust="spacingAndGlyphs" textLength="184" x="847" y="276.2305">ro = getRegistoOrganizacao()</text>
        <polygon fill="#A80036" points="1212,350.9727,1222,354.9727,1212,358.9727,1216,354.9727" style="stroke: #A80036; stroke-width: 1.0;"/>
        <line style="stroke: #A80036; stroke-width: 1.0;" x1="827" x2="1218" y1="354.9727" y2="354.9727"/>
        <text fill="#000000" font-family="sans-serif" font-size="13" font-weight="bold" lengthAdjust="spacingAndGlyphs" textLength="9" x="834" y="343.1963">6</text>
        <text fill="#000000" font-family="sans-serif" font-size="13" lengthAdjust="spacingAndGlyphs" textLength="365" x="847" y="335.541">org = novaOrganizacao(nome,NIF,endLocal,endCodPostal,</text>
        <text fill="#000000" font-family="sans-serif" font-size="13" lengthAdjust="spacingAndGlyphs" textLength="350" x="847" y="350.8516">endLocalidade,tlf,site,email,nomeG,função,tlfG, emailG)</text>
        <polygon fill="#A80036" points="1623,380.5938,1633,384.5938,1623,388.5938,1627,384.5938" style="stroke: #A80036; stroke-width: 1.0;"/>
        <line style="stroke: #A80036; stroke-width: 1.0;" x1="1234" x2="1629" y1="384.5938" y2="384.5938"/>
        <text fill="#000000" font-family="sans-serif" font-size="13" font-weight="bold" lengthAdjust="spacingAndGlyphs" textLength="9" x="1241" y="380.1621">7</text>
        <text fill="#000000" font-family="sans-serif" font-size="13" lengthAdjust="spacingAndGlyphs" textLength="369" x="1254" y="380.1621">end=novoEndereco(endLocal,endCodPostal,endLocalidade)</text>
        <polygon fill="#A80036" points="1956,409.9043,1966,413.9043,1956,417.9043,1960,413.9043" style="stroke: #A80036; stroke-width: 1.0;"/>
        <line style="stroke: #A80036; stroke-width: 1.0; stroke-dasharray: 2.0,2.0;" x1="1640" x2="1962" y1="413.9043" y2="413.9043"/>
        <text fill="#000000" font-family="sans-serif" font-size="13" font-weight="bold" lengthAdjust="spacingAndGlyphs" textLength="9" x="1647" y="409.4727">8</text>
        <text fill="#000000" font-family="sans-serif" font-size="13" lengthAdjust="spacingAndGlyphs" textLength="286" x="1660" y="409.4727">create(endLocal,endCodPostal,endLocalidade)</text>
        <rect fill="#FEFECE" filter="url(#f9a20rihdt74t)" height="30.4883" style="stroke: #A80036; stroke-width: 1.5;" width="149" x="1968" y="392.9043"/>
        <text fill="#000000" font-family="sans-serif" font-size="14" lengthAdjust="spacingAndGlyphs" textLength="135" x="1975" y="413.4395">end:EnderecoPostal</text>
        <polygon fill="#A80036" points="1623,455.3926,1633,459.3926,1623,463.3926,1627,459.3926" style="stroke: #A80036; stroke-width: 1.0;"/>
        <line style="stroke: #A80036; stroke-width: 1.0;" x1="1234" x2="1629" y1="459.3926" y2="459.3926"/>
        <text fill="#000000" font-family="sans-serif" font-size="13" font-weight="bold" lengthAdjust="spacingAndGlyphs" textLength="9" x="1241" y="454.9609">9</text>
        <text fill="#000000" font-family="sans-serif" font-size="13" lengthAdjust="spacingAndGlyphs" textLength="329" x="1254" y="454.9609">colab=novoColaborador(nomeG,função,tlfG, emailG)</text>
        <polygon fill="#A80036" points="2119,484.7031,2129,488.7031,2119,492.7031,2123,488.7031" style="stroke: #A80036; stroke-width: 1.0;"/>
        <line style="stroke: #A80036; stroke-width: 1.0; stroke-dasharray: 2.0,2.0;" x1="1640" x2="2125" y1="488.7031" y2="488.7031"/>
        <text fill="#000000" font-family="sans-serif" font-size="13" font-weight="bold" lengthAdjust="spacingAndGlyphs" textLength="18" x="1647" y="484.2715">10</text>
        <text fill="#000000" font-family="sans-serif" font-size="13" lengthAdjust="spacingAndGlyphs" textLength="215" x="1669" y="484.2715">create(nomeG,função,tlfG, emailG)</text>
        <rect fill="#FEFECE" filter="url(#f9a20rihdt74t)" height="30.4883" style="stroke: #A80036; stroke-width: 1.5;" width="142" x="2131" y="467.7031"/>
        <text fill="#000000" font-family="sans-serif" font-size="14" lengthAdjust="spacingAndGlyphs" textLength="128" x="2138" y="488.2383">colab:Colaborador</text>
        <polygon fill="#A80036" points="1690.5,530.1914,1700.5,534.1914,1690.5,538.1914,1694.5,534.1914" style="stroke: #A80036; stroke-width: 1.0;"/>
        <line style="stroke: #A80036; stroke-width: 1.0; stroke-dasharray: 2.0,2.0;" x1="1229" x2="1696.5" y1="534.1914" y2="534.1914"/>
        <text fill="#000000" font-family="sans-serif" font-size="13" font-weight="bold" lengthAdjust="spacingAndGlyphs" textLength="18" x="1236" y="529.7598">11</text>
        <text fill="#000000" font-family="sans-serif" font-size="13" lengthAdjust="spacingAndGlyphs" textLength="254" x="1258" y="529.7598">create(nome,NIF,end,tlf,site,email,colab)</text>
        <rect fill="#FEFECE" filter="url(#f9a20rihdt74t)" height="30.4883" style="stroke: #A80036; stroke-width: 1.5;" width="129" x="1702.5" y="513.1914"/>
        <text fill="#000000" font-family="sans-serif" font-size="14" lengthAdjust="spacingAndGlyphs" textLength="115" x="1709.5" y="533.7266">org:Organizacao</text>
        <polygon fill="#A80036" points="1031,575.6797,1041,579.6797,1031,583.6797,1035,579.6797" style="stroke: #A80036; stroke-width: 1.0;"/>
        <line style="stroke: #A80036; stroke-width: 1.0;" x1="827" x2="1037" y1="579.6797" y2="579.6797"/>
        <text fill="#000000" font-family="sans-serif" font-size="13" font-weight="bold" lengthAdjust="spacingAndGlyphs" textLength="18" x="834" y="575.248">12</text>
        <text fill="#000000" font-family="sans-serif" font-size="13" lengthAdjust="spacingAndGlyphs" textLength="144" x="856" y="575.248">validaOrganizacao(org)</text>
        <polygon fill="#A80036" points="112,634.9902,102,638.9902,112,642.9902,108,638.9902" style="stroke: #A80036; stroke-width: 1.0;"/>
        <line style="stroke: #A80036; stroke-width: 1.0; stroke-dasharray: 2.0,2.0;" x1="106" x2="429" y1="638.9902" y2="638.9902"/>
        <text fill="#000000" font-family="sans-serif" font-size="13" font-weight="bold" lengthAdjust="spacingAndGlyphs" textLength="18" x="118" y="634.5586">13</text>
        <text fill="#000000" font-family="sans-serif" font-size="13" lengthAdjust="spacingAndGlyphs" textLength="246" x="140" y="634.5586">apresenta dados e solicita confirmação</text>
        <polygon fill="#A80036" points="413,664.3008,423,668.3008,413,672.3008,417,668.3008" style="stroke: #A80036; stroke-width: 1.0;"/>
        <line style="stroke: #A80036; stroke-width: 1.0;" x1="101" x2="419" y1="668.3008" y2="668.3008"/>
        <text fill="#000000" font-family="sans-serif" font-size="13" font-weight="bold" lengthAdjust="spacingAndGlyphs" textLength="18" x="108" y="663.8691">14</text>
        <text fill="#000000" font-family="sans-serif" font-size="13" lengthAdjust="spacingAndGlyphs" textLength="56" x="130" y="663.8691">confirma</text>
        <polygon fill="#A80036" points="805,693.6113,815,697.6113,805,701.6113,809,697.6113" style="stroke: #A80036; stroke-width: 1.0;"/>
        <line style="stroke: #A80036; stroke-width: 1.0;" x1="435" x2="811" y1="697.6113" y2="697.6113"/>
        <text fill="#000000" font-family="sans-serif" font-size="13" font-weight="bold" lengthAdjust="spacingAndGlyphs" textLength="18" x="442" y="693.1797">15</text>
        <text fill="#000000" font-family="sans-serif" font-size="13" lengthAdjust="spacingAndGlyphs" textLength="129" x="464" y="693.1797">registaOrganizacao()</text>
        <polygon fill="#A80036" points="1212,722.9219,1222,726.9219,1212,730.9219,1216,726.9219" style="stroke: #A80036; stroke-width: 1.0;"/>
        <line style="stroke: #A80036; stroke-width: 1.0;" x1="827" x2="1218" y1="726.9219" y2="726.9219"/>
        <text fill="#000000" font-family="sans-serif" font-size="13" font-weight="bold" lengthAdjust="spacingAndGlyphs" textLength="18" x="834" y="722.4902">16</text>
        <text fill="#000000" font-family="sans-serif" font-size="13" lengthAdjust="spacingAndGlyphs" textLength="150" x="856" y="722.4902">registaOrganizacao(org)</text>
        <line style="stroke: #A80036; stroke-width: 1.0;" x1="1234" x2="1276" y1="756.543" y2="756.543"/>
        <line style="stroke: #A80036; stroke-width: 1.0;" x1="1276" x2="1276" y1="756.543" y2="769.543"/>
        <line style="stroke: #A80036; stroke-width: 1.0;" x1="1235" x2="1276" y1="769.543" y2="769.543"/>
        <polygon fill="#A80036" points="1245,765.543,1235,769.543,1245,773.543,1241,769.543" style="stroke: #A80036; stroke-width: 1.0;"/>
        <text fill="#000000" font-family="sans-serif" font-size="13" font-weight="bold" lengthAdjust="spacingAndGlyphs" textLength="18" x="1241" y="751.8008">17</text>
        <text fill="#000000" font-family="sans-serif" font-size="13" lengthAdjust="spacingAndGlyphs" textLength="130" x="1263" y="751.8008">validaOrganizao(org)</text>
        <rect fill="#FFFFFF" filter="url(#f9a20rihdt74t)" height="40.6211" style="stroke: #000000; stroke-width: 2.0;" width="1252.5" x="1138.5" y="777.543"/>
        <polygon fill="#EEEEEE" points="1138.5,777.543,1202.5,777.543,1202.5,784.543,1192.5,794.543,1138.5,794.543,1138.5,777.543" style="stroke: #000000; stroke-width: 2.0;"/>
        <text fill="#000000" font-family="sans-serif" font-size="13" font-weight="bold" lengthAdjust="spacingAndGlyphs" textLength="19" x="1151.5" y="792.1113">ref</text>
        <text fill="#000000" font-family="sans-serif" font-size="13" lengthAdjust="spacingAndGlyphs" textLength="214" x="1659.75" y="811.1113">SD_RegistarGestorComoUtilizador</text>
        <line style="stroke: #A80036; stroke-width: 1.0;" x1="1234" x2="1276" y1="849.4746" y2="849.4746"/>
        <line style="stroke: #A80036; stroke-width: 1.0;" x1="1276" x2="1276" y1="849.4746" y2="862.4746"/>
        <line style="stroke: #A80036; stroke-width: 1.0;" x1="1229" x2="1276" y1="862.4746" y2="862.4746"/>
        <polygon fill="#A80036" points="1239,858.4746,1229,862.4746,1239,866.4746,1235,862.4746" style="stroke: #A80036; stroke-width: 1.0;"/>
        <text fill="#000000" font-family="sans-serif" font-size="13" font-weight="bold" lengthAdjust="spacingAndGlyphs" textLength="18" x="1241" y="844.7324">18</text>
        <text fill="#000000" font-family="sans-serif" font-size="13" lengthAdjust="spacingAndGlyphs" textLength="116" x="1263" y="844.7324">addOrganizao(org)</text>
        <polygon fill="#A80036" points="107,882.4746,97,886.4746,107,890.4746,103,886.4746" style="stroke: #A80036; stroke-width: 1.0;"/>
        <line style="stroke: #A80036; stroke-width: 1.0; stroke-dasharray: 2.0,2.0;" x1="101" x2="429" y1="886.4746" y2="886.4746"/>
        <text fill="#000000" font-family="sans-serif" font-size="13" font-weight="bold" lengthAdjust="spacingAndGlyphs" textLength="18" x="113" y="882.043">19</text>
        <text fill="#000000" font-family="sans-serif" font-size="13" lengthAdjust="spacingAndGlyphs" textLength="148" x="135" y="882.043">operação bem sucedida</text>
        <!--
@startuml
autonumber

actor "Utilizador Não Registado" as UNR
participant ":Registar\nOrganizacaoUI" as UI
participant ":RegistarOrganizacao\nController" as CTRL
participant ":Plataforma" as PLAT
participant "ro:RegistoOrganizacao" as RO
participant "Organizacao" as _ORG
participant "org:Organizacao" as ORG
participant "end:EnderecoPostal" as END
participant "colab:Colaborador" as COLAB
participant ":Autorizacao\nFacade" as AUT


activate UNR
UNR -> UI : registar organização
activate UI
UI - -> UNR : solicita dados organização \n(nome,NIF,endereço,tlf,site,email)\n e sobre o gestor (nomeG,função,tlfG, emailG)
deactivate UI

UNR -> UI : introduz os dados solicitados
activate UI

UI -> CTRL : novaOrganizacao(nome,NIF,endLocal,endCodPostal,\nendLocalidade,tlf,site,email,nomeG,função,tlfG, emailG)
activate CTRL

CTRL -> PLAT: ro = getRegistoOrganizacao()
activate PLAT
deactivate PLAT

CTRL -> RO : org = novaOrganizacao(nome,NIF,endLocal,endCodPostal,\nendLocalidade,tlf,site,email,nomeG,função,tlfG, emailG)
activate RO

RO -> _ORG: end=novoEndereco(endLocal,endCodPostal,endLocalidade)
activate _ORG
_ORG - -> END ** : create(endLocal,endCodPostal,endLocalidade)
deactivate _ORG

RO -> _ORG: colab=novoColaborador(nomeG,função,tlfG, emailG)
activate _ORG
_ORG - -> COLAB ** : create(nomeG,função,tlfG, emailG)
deactivate _ORG

RO - -> ORG ** : create(nome,NIF,end,tlf,site,email,colab)
deactivate RO

CTRL -> PLAT : validaOrganizacao(org)
activate PLAT
deactivate PLAT

deactivate CTRL
UI - -> UNR : apresenta dados e solicita confirmação
deactivate UI

UNR -> UI : confirma
activate UI

UI -> CTRL: registaOrganizacao()
activate CTRL
CTRL -> RO: registaOrganizacao(org)
activate RO

RO -> RO: validaOrganizao(org)

ref over RO, AUT : SD_RegistarGestorComoUtilizador

RO-> RO: addOrganizao(org)


deactivate RO
deactivate CTRL
UI - -> UNR : operação bem sucedida
deactivate UI

deactivate UNR
@enduml

PlantUML version 2017.11(Wed Apr 19 17:18:59 WEST 2017)
(GPL source distribution)
Java Runtime: Java(TM) SE Runtime Environment
JVM: Java HotSpot(TM) 64-Bit Server VM
Java Version: 1.8.0_111-b14
Operating System: Mac OS X
OS Version: 10.15
Default Encoding: UTF-8
Language: pt
Country: PT
-->
    </g>
</svg>
