<?xml version="1.0" encoding="UTF-8"?><svg xmlns="http://www.w3.org/2000/svg" xmlns:xlink="http://www.w3.org/1999/xlink" contentScriptType="application/ecmascript" contentStyleType="text/css" height="1570px" preserveAspectRatio="none" style="width:913px;height:1570px;" version="1.1" viewBox="0 0 913 1570" width="913px" zoomAndPan="magnify">
    <defs>
        <filter height="300%" id="f1g5uh4cmozumv" width="300%" x="-1" y="-1">
            <feGaussianBlur result="blurOut" stdDeviation="2.0"/>
            <feColorMatrix in="blurOut" result="blurOut2" type="matrix" values="0 0 0 0 0 0 0 0 0 0 0 0 0 0 0 0 0 0 .4 0"/>
            <feOffset dx="4.0" dy="4.0" in="blurOut2" result="blurOut3"/>
            <feBlend in="SourceGraphic" in2="blurOut3" mode="normal"/>
        </filter>
    </defs>
    <g>
        <!--cluster UI-->
        <polygon fill="#FFFFFF" filter="url(#f1g5uh4cmozumv)" points="161.18,24,182.18,24,189.18,46.4883,321.18,46.4883,321.18,123,161.18,123,161.18,24" style="stroke: #000000; stroke-width: 2.0;"/>
        <line style="stroke: #000000; stroke-width: 2.0;" x1="161.18" x2="189.18" y1="46.4883" y2="46.4883"/>
        <text fill="#000000" font-family="sans-serif" font-size="14" font-weight="bold" lengthAdjust="spacingAndGlyphs" textLength="15" x="165.18" y="39.5352">UI</text>
        <!--cluster Controladores-->
        <polygon fill="#FFFFFF" filter="url(#f1g5uh4cmozumv)" points="48.18,156,156.18,156,163.18,178.4883,434.18,178.4883,434.18,320,48.18,320,48.18,156" style="stroke: #000000; stroke-width: 2.0;"/>
        <line style="stroke: #000000; stroke-width: 2.0;" x1="48.18" x2="163.18" y1="178.4883" y2="178.4883"/>
        <text fill="#000000" font-family="sans-serif" font-size="14" font-weight="bold" lengthAdjust="spacingAndGlyphs" textLength="102" x="52.18" y="171.5352">Controladores</text>
        <!--cluster Domínio-->
        <polygon fill="#FFFFFF" filter="url(#f1g5uh4cmozumv)" points="49.18,353,117.18,353,124.18,375.4883,905.18,375.4883,905.18,1563,49.18,1563,49.18,353" style="stroke: #000000; stroke-width: 2.0;"/>
        <line style="stroke: #000000; stroke-width: 2.0;" x1="49.18" x2="124.18" y1="375.4883" y2="375.4883"/>
        <text fill="#000000" font-family="sans-serif" font-size="14" font-weight="bold" lengthAdjust="spacingAndGlyphs" textLength="62" x="53.18" y="368.5352">Domínio</text>
        <!--class PublicarTarefaUI-->
        <rect fill="#FEFECE" filter="url(#f1g5uh4cmozumv)" height="48" style="stroke: #A80036; stroke-width: 1.5;" width="127" x="177.68" y="59"/>
        <ellipse cx="192.68" cy="75" fill="#ADD1B2" rx="11" ry="11" style="stroke: #A80036; stroke-width: 1.0;"/>
        <path d="M195.1531,81.1431 Q194.5721,81.4419 193.9329,81.5913 Q193.2938,81.7407 192.5882,81.7407 Q190.0814,81.7407 188.7615,80.0889 Q187.4417,78.437 187.4417,75.3159 Q187.4417,72.1865 188.7615,70.5347 Q190.0814,68.8828 192.5882,68.8828 Q193.2938,68.8828 193.9412,69.0322 Q194.5887,69.1816 195.1531,69.4805 L195.1531,72.2031 Q194.5223,71.6221 193.9288,71.3523 Q193.3353,71.0825 192.7044,71.0825 Q191.3597,71.0825 190.6749,72.1492 Q189.9901,73.2158 189.9901,75.3159 Q189.9901,77.4077 190.6749,78.4744 Q191.3597,79.541 192.7044,79.541 Q193.3353,79.541 193.9288,79.2712 Q194.5223,79.0015 195.1531,78.4204 Z "/>
        <text fill="#000000" font-family="sans-serif" font-size="12" lengthAdjust="spacingAndGlyphs" textLength="95" x="206.68" y="79.5352">PublicarTarefaUI</text>
        <line style="stroke: #A80036; stroke-width: 1.5;" x1="178.68" x2="303.68" y1="91" y2="91"/>
        <line style="stroke: #A80036; stroke-width: 1.5;" x1="178.68" x2="303.68" y1="99" y2="99"/>
        <!--class PublicarTarefaController-->
        <rect fill="#FEFECE" filter="url(#f1g5uh4cmozumv)" height="112.7754" style="stroke: #A80036; stroke-width: 1.5;" width="354" x="64.18" y="191"/>
        <ellipse cx="166.93" cy="207" fill="#ADD1B2" rx="11" ry="11" style="stroke: #A80036; stroke-width: 1.0;"/>
        <path d="M169.4031,213.1431 Q168.8221,213.4419 168.1829,213.5913 Q167.5438,213.7407 166.8382,213.7407 Q164.3314,213.7407 163.0115,212.0889 Q161.6917,210.437 161.6917,207.3159 Q161.6917,204.1865 163.0115,202.5347 Q164.3314,200.8828 166.8382,200.8828 Q167.5438,200.8828 168.1912,201.0322 Q168.8387,201.1816 169.4031,201.4805 L169.4031,204.2031 Q168.7723,203.6221 168.1788,203.3523 Q167.5853,203.0825 166.9544,203.0825 Q165.6097,203.0825 164.9249,204.1492 Q164.2401,205.2158 164.2401,207.3159 Q164.2401,209.4077 164.9249,210.4744 Q165.6097,211.541 166.9544,211.541 Q167.5853,211.541 168.1788,211.2712 Q168.7723,211.0015 169.4031,210.4204 Z "/>
        <text fill="#000000" font-family="sans-serif" font-size="12" lengthAdjust="spacingAndGlyphs" textLength="140" x="187.43" y="211.5352">PublicarTarefaController</text>
        <line style="stroke: #A80036; stroke-width: 1.5;" x1="65.18" x2="417.18" y1="223" y2="223"/>
        <line style="stroke: #A80036; stroke-width: 1.5;" x1="65.18" x2="417.18" y1="231" y2="231"/>
        <text fill="#000000" font-family="sans-serif" font-size="11" lengthAdjust="spacingAndGlyphs" textLength="140" x="70.18" y="245.6348">+getTarefasParaPublicar()</text>
        <text fill="#000000" font-family="sans-serif" font-size="11" lengthAdjust="spacingAndGlyphs" textLength="116" x="70.18" y="258.5898">+selecionaTarefa(ref)</text>
        <text fill="#000000" font-family="sans-serif" font-size="11" lengthAdjust="spacingAndGlyphs" textLength="121" x="70.18" y="271.5449">+getTiposRegimento()</text>
        <text fill="#000000" font-family="sans-serif" font-size="11" lengthAdjust="spacingAndGlyphs" textLength="342" x="70.18" y="284.5">+novoAnuncio(dtIniP,dtFimP,dtIniC,dtFimC,dtIniS,dtFimS,desTR)</text>
        <text fill="#000000" font-family="sans-serif" font-size="11" lengthAdjust="spacingAndGlyphs" textLength="99" x="70.18" y="297.4551">+registaAnuncio()</text>
        <!--class AplicacaoPOT-->
        <rect fill="#FEFECE" filter="url(#f1g5uh4cmozumv)" height="73.9102" style="stroke: #A80036; stroke-width: 1.5;" width="123" x="65.68" y="565"/>
        <ellipse cx="86.08" cy="581" fill="#ADD1B2" rx="11" ry="11" style="stroke: #A80036; stroke-width: 1.0;"/>
        <path d="M88.5531,587.1431 Q87.9721,587.4419 87.3329,587.5913 Q86.6938,587.7407 85.9882,587.7407 Q83.4814,587.7407 82.1615,586.0889 Q80.8417,584.437 80.8417,581.3159 Q80.8417,578.1865 82.1615,576.5347 Q83.4814,574.8828 85.9882,574.8828 Q86.6938,574.8828 87.3412,575.0322 Q87.9887,575.1816 88.5531,575.4805 L88.5531,578.2031 Q87.9223,577.6221 87.3288,577.3523 Q86.7353,577.0825 86.1044,577.0825 Q84.7597,577.0825 84.0749,578.1492 Q83.3901,579.2158 83.3901,581.3159 Q83.3901,583.4077 84.0749,584.4744 Q84.7597,585.541 86.1044,585.541 Q86.7353,585.541 87.3288,585.2712 Q87.9223,585.0015 88.5531,584.4204 Z "/>
        <text fill="#000000" font-family="sans-serif" font-size="12" lengthAdjust="spacingAndGlyphs" textLength="79" x="101.28" y="585.5352">AplicacaoPOT</text>
        <line style="stroke: #A80036; stroke-width: 1.5;" x1="66.68" x2="187.68" y1="597" y2="597"/>
        <line style="stroke: #A80036; stroke-width: 1.5;" x1="66.68" x2="187.68" y1="605" y2="605"/>
        <text fill="#000000" font-family="sans-serif" font-size="11" lengthAdjust="spacingAndGlyphs" textLength="111" x="71.68" y="619.6348">+static getInstance()</text>
        <text fill="#000000" font-family="sans-serif" font-size="11" lengthAdjust="spacingAndGlyphs" textLength="99" x="71.68" y="632.5898">+getSessaoAtual()</text>
        <!--class SessaoUtilizador-->
        <rect fill="#FEFECE" filter="url(#f1g5uh4cmozumv)" height="60.9551" style="stroke: #A80036; stroke-width: 1.5;" width="126" x="564.18" y="571.5"/>
        <ellipse cx="579.18" cy="587.5" fill="#ADD1B2" rx="11" ry="11" style="stroke: #A80036; stroke-width: 1.0;"/>
        <path d="M581.6531,593.6431 Q581.0721,593.9419 580.4329,594.0913 Q579.7938,594.2407 579.0882,594.2407 Q576.5814,594.2407 575.2615,592.5889 Q573.9417,590.937 573.9417,587.8159 Q573.9417,584.6865 575.2615,583.0347 Q576.5814,581.3828 579.0882,581.3828 Q579.7938,581.3828 580.4412,581.5322 Q581.0887,581.6816 581.6531,581.9805 L581.6531,584.7031 Q581.0223,584.1221 580.4288,583.8523 Q579.8353,583.5825 579.2044,583.5825 Q577.8597,583.5825 577.1749,584.6492 Q576.4901,585.7158 576.4901,587.8159 Q576.4901,589.9077 577.1749,590.9744 Q577.8597,592.041 579.2044,592.041 Q579.8353,592.041 580.4288,591.7712 Q581.0223,591.5015 581.6531,590.9204 Z "/>
        <text fill="#000000" font-family="sans-serif" font-size="12" lengthAdjust="spacingAndGlyphs" textLength="94" x="593.18" y="592.0352">SessaoUtilizador</text>
        <line style="stroke: #A80036; stroke-width: 1.5;" x1="565.18" x2="689.18" y1="603.5" y2="603.5"/>
        <line style="stroke: #A80036; stroke-width: 1.5;" x1="565.18" x2="689.18" y1="611.5" y2="611.5"/>
        <text fill="#000000" font-family="sans-serif" font-size="11" lengthAdjust="spacingAndGlyphs" textLength="114" x="570.18" y="626.1348">+getEmailUtilizador()</text>
        <!--class Organizacao-->
        <rect fill="#FEFECE" filter="url(#f1g5uh4cmozumv)" height="138.6855" style="stroke: #A80036; stroke-width: 1.5;" width="253" x="65.68" y="825"/>
        <ellipse cx="151.93" cy="841" fill="#ADD1B2" rx="11" ry="11" style="stroke: #A80036; stroke-width: 1.0;"/>
        <path d="M154.4031,847.1431 Q153.8221,847.4419 153.1829,847.5913 Q152.5438,847.7407 151.8382,847.7407 Q149.3314,847.7407 148.0115,846.0889 Q146.6917,844.437 146.6917,841.3159 Q146.6917,838.1865 148.0115,836.5347 Q149.3314,834.8828 151.8382,834.8828 Q152.5438,834.8828 153.1912,835.0322 Q153.8387,835.1816 154.4031,835.4805 L154.4031,838.2031 Q153.7723,837.6221 153.1788,837.3523 Q152.5853,837.0825 151.9544,837.0825 Q150.6097,837.0825 149.9249,838.1492 Q149.2401,839.2158 149.2401,841.3159 Q149.2401,843.4077 149.9249,844.4744 Q150.6097,845.541 151.9544,845.541 Q152.5853,845.541 153.1788,845.2712 Q153.7723,845.0015 154.4031,844.4204 Z "/>
        <text fill="#000000" font-family="sans-serif" font-size="12" lengthAdjust="spacingAndGlyphs" textLength="72" x="172.43" y="845.5352">Organizacao</text>
        <line style="stroke: #A80036; stroke-width: 1.5;" x1="66.68" x2="317.68" y1="857" y2="857"/>
        <text fill="#000000" font-family="sans-serif" font-size="11" lengthAdjust="spacingAndGlyphs" textLength="71" x="71.68" y="871.6348">-String nome</text>
        <text fill="#000000" font-family="sans-serif" font-size="11" lengthAdjust="spacingAndGlyphs" textLength="58" x="71.68" y="884.5898">-String NIF</text>
        <text fill="#000000" font-family="sans-serif" font-size="11" lengthAdjust="spacingAndGlyphs" textLength="81" x="71.68" y="897.5449">-String website</text>
        <text fill="#000000" font-family="sans-serif" font-size="11" lengthAdjust="spacingAndGlyphs" textLength="84" x="71.68" y="910.5">-String telefone</text>
        <text fill="#000000" font-family="sans-serif" font-size="11" lengthAdjust="spacingAndGlyphs" textLength="69" x="71.68" y="923.4551">-String email</text>
        <line style="stroke: #A80036; stroke-width: 1.5;" x1="66.68" x2="317.68" y1="929.7754" y2="929.7754"/>
        <text fill="#000000" font-family="sans-serif" font-size="11" lengthAdjust="spacingAndGlyphs" textLength="167" x="71.68" y="944.4102">+ListaTarefas getListaTarefas()</text>
        <text fill="#000000" font-family="sans-serif" font-size="11" lengthAdjust="spacingAndGlyphs" textLength="241" x="71.68" y="957.3652">+Colaborador getColaboradorByEmail(email)</text>
        <!--class ListaTarefas-->
        <rect fill="#FEFECE" filter="url(#f1g5uh4cmozumv)" height="73.9102" style="stroke: #A80036; stroke-width: 1.5;" width="239" x="65.68" y="1080"/>
        <ellipse cx="145.93" cy="1096" fill="#ADD1B2" rx="11" ry="11" style="stroke: #A80036; stroke-width: 1.0;"/>
        <path d="M148.4031,1102.1431 Q147.8221,1102.4419 147.1829,1102.5913 Q146.5438,1102.7407 145.8382,1102.7407 Q143.3314,1102.7407 142.0115,1101.0889 Q140.6917,1099.437 140.6917,1096.3159 Q140.6917,1093.1865 142.0115,1091.5347 Q143.3314,1089.8828 145.8382,1089.8828 Q146.5438,1089.8828 147.1912,1090.0322 Q147.8387,1090.1816 148.4031,1090.4805 L148.4031,1093.2031 Q147.7723,1092.6221 147.1788,1092.3523 Q146.5853,1092.0825 145.9544,1092.0825 Q144.6097,1092.0825 143.9249,1093.1492 Q143.2401,1094.2158 143.2401,1096.3159 Q143.2401,1098.4077 143.9249,1099.4744 Q144.6097,1100.541 145.9544,1100.541 Q146.5853,1100.541 147.1788,1100.2712 Q147.7723,1100.0015 148.4031,1099.4204 Z "/>
        <text fill="#000000" font-family="sans-serif" font-size="12" lengthAdjust="spacingAndGlyphs" textLength="70" x="166.43" y="1100.5352">ListaTarefas</text>
        <line style="stroke: #A80036; stroke-width: 1.5;" x1="66.68" x2="303.68" y1="1112" y2="1112"/>
        <line style="stroke: #A80036; stroke-width: 1.5;" x1="66.68" x2="303.68" y1="1120" y2="1120"/>
        <text fill="#000000" font-family="sans-serif" font-size="11" lengthAdjust="spacingAndGlyphs" textLength="214" x="71.68" y="1134.6348">+List&lt;Tarefa&gt; getTarefaParaPublicar(c)</text>
        <text fill="#000000" font-family="sans-serif" font-size="11" lengthAdjust="spacingAndGlyphs" textLength="227" x="71.68" y="1147.5898">+Tarefa getTarefaParaPublicarByRef(ref, c)</text>
        <!--class Tarefa-->
        <rect fill="#FEFECE" filter="url(#f1g5uh4cmozumv)" height="138.6855" style="stroke: #A80036; stroke-width: 1.5;" width="123" x="148.68" y="1270"/>
        <ellipse cx="187.53" cy="1286" fill="#ADD1B2" rx="11" ry="11" style="stroke: #A80036; stroke-width: 1.0;"/>
        <path d="M190.0031,1292.1431 Q189.4221,1292.4419 188.7829,1292.5913 Q188.1438,1292.7407 187.4382,1292.7407 Q184.9314,1292.7407 183.6115,1291.0889 Q182.2917,1289.437 182.2917,1286.3159 Q182.2917,1283.1865 183.6115,1281.5347 Q184.9314,1279.8828 187.4382,1279.8828 Q188.1438,1279.8828 188.7912,1280.0322 Q189.4387,1280.1816 190.0031,1280.4805 L190.0031,1283.2031 Q189.3723,1282.6221 188.7788,1282.3523 Q188.1853,1282.0825 187.5544,1282.0825 Q186.2097,1282.0825 185.5249,1283.1492 Q184.8401,1284.2158 184.8401,1286.3159 Q184.8401,1288.4077 185.5249,1289.4744 Q186.2097,1290.541 187.5544,1290.541 Q188.1853,1290.541 188.7788,1290.2712 Q189.3723,1290.0015 190.0031,1289.4204 Z "/>
        <text fill="#000000" font-family="sans-serif" font-size="12" lengthAdjust="spacingAndGlyphs" textLength="38" x="206.83" y="1290.5352">Tarefa</text>
        <line style="stroke: #A80036; stroke-width: 1.5;" x1="149.68" x2="270.68" y1="1302" y2="1302"/>
        <text fill="#000000" font-family="sans-serif" font-size="11" lengthAdjust="spacingAndGlyphs" textLength="95" x="154.68" y="1316.6348">-String referencia</text>
        <text fill="#000000" font-family="sans-serif" font-size="11" lengthAdjust="spacingAndGlyphs" textLength="102" x="154.68" y="1329.5898">-String designacao</text>
        <text fill="#000000" font-family="sans-serif" font-size="11" lengthAdjust="spacingAndGlyphs" textLength="111" x="154.68" y="1342.5449">-String descInformal</text>
        <text fill="#000000" font-family="sans-serif" font-size="11" lengthAdjust="spacingAndGlyphs" textLength="107" x="154.68" y="1355.5">-String descTecnica</text>
        <text fill="#000000" font-family="sans-serif" font-size="11" lengthAdjust="spacingAndGlyphs" textLength="107" x="154.68" y="1368.4551">-Integer duracaoEst</text>
        <text fill="#000000" font-family="sans-serif" font-size="11" lengthAdjust="spacingAndGlyphs" textLength="93" x="154.68" y="1381.4102">-Double custoEst</text>
        <line style="stroke: #A80036; stroke-width: 1.5;" x1="149.68" x2="270.68" y1="1387.7305" y2="1387.7305"/>
        <text fill="#000000" font-family="sans-serif" font-size="11" lengthAdjust="spacingAndGlyphs" textLength="81" x="154.68" y="1402.3652">+publicar(anu)</text>
        <!--class Plataforma-->
        <rect fill="#FEFECE" filter="url(#f1g5uh4cmozumv)" height="99.8203" style="stroke: #A80036; stroke-width: 1.5;" width="297" x="365.68" y="388"/>
        <ellipse cx="478.93" cy="404" fill="#ADD1B2" rx="11" ry="11" style="stroke: #A80036; stroke-width: 1.0;"/>
        <path d="M481.4031,410.1431 Q480.8221,410.4419 480.1829,410.5913 Q479.5438,410.7407 478.8382,410.7407 Q476.3314,410.7407 475.0115,409.0889 Q473.6917,407.437 473.6917,404.3159 Q473.6917,401.1865 475.0115,399.5347 Q476.3314,397.8828 478.8382,397.8828 Q479.5438,397.8828 480.1912,398.0322 Q480.8387,398.1816 481.4031,398.4805 L481.4031,401.2031 Q480.7723,400.6221 480.1788,400.3523 Q479.5853,400.0825 478.9544,400.0825 Q477.6097,400.0825 476.9249,401.1492 Q476.2401,402.2158 476.2401,404.3159 Q476.2401,406.4077 476.9249,407.4744 Q477.6097,408.541 478.9544,408.541 Q479.5853,408.541 480.1788,408.2712 Q480.7723,408.0015 481.4031,407.4204 Z "/>
        <text fill="#000000" font-family="sans-serif" font-size="12" lengthAdjust="spacingAndGlyphs" textLength="62" x="499.43" y="408.5352">Plataforma</text>
        <line style="stroke: #A80036; stroke-width: 1.5;" x1="366.68" x2="661.68" y1="420" y2="420"/>
        <text fill="#000000" font-family="sans-serif" font-size="11" lengthAdjust="spacingAndGlyphs" textLength="102" x="371.68" y="434.6348">-String designacao</text>
        <line style="stroke: #A80036; stroke-width: 1.5;" x1="366.68" x2="661.68" y1="440.9551" y2="440.9551"/>
        <text fill="#000000" font-family="sans-serif" font-size="11" lengthAdjust="spacingAndGlyphs" textLength="265" x="371.68" y="455.5898">+RegistoOrganizacoes getRegistoOrganizacoes()</text>
        <text fill="#000000" font-family="sans-serif" font-size="11" lengthAdjust="spacingAndGlyphs" textLength="285" x="371.68" y="468.5449">+RegistoTipoRegimento getRegistoTiposRegimento()</text>
        <text fill="#000000" font-family="sans-serif" font-size="11" lengthAdjust="spacingAndGlyphs" textLength="219" x="371.68" y="481.5">+RegistoAnuncios getRegistoAnuncios()</text>
        <!--class RegistoTiposRegimento-->
        <rect fill="#FEFECE" filter="url(#f1g5uh4cmozumv)" height="73.9102" style="stroke: #A80036; stroke-width: 1.5;" width="282" x="607.18" y="695"/>
        <ellipse cx="676.43" cy="711" fill="#ADD1B2" rx="11" ry="11" style="stroke: #A80036; stroke-width: 1.0;"/>
        <path d="M678.9031,717.1431 Q678.3221,717.4419 677.6829,717.5913 Q677.0438,717.7407 676.3382,717.7407 Q673.8314,717.7407 672.5115,716.0889 Q671.1917,714.437 671.1917,711.3159 Q671.1917,708.1865 672.5115,706.5347 Q673.8314,704.8828 676.3382,704.8828 Q677.0438,704.8828 677.6912,705.0322 Q678.3387,705.1816 678.9031,705.4805 L678.9031,708.2031 Q678.2723,707.6221 677.6788,707.3523 Q677.0853,707.0825 676.4544,707.0825 Q675.1097,707.0825 674.4249,708.1492 Q673.7401,709.2158 673.7401,711.3159 Q673.7401,713.4077 674.4249,714.4744 Q675.1097,715.541 676.4544,715.541 Q677.0853,715.541 677.6788,715.2712 Q678.2723,715.0015 678.9031,714.4204 Z "/>
        <text fill="#000000" font-family="sans-serif" font-size="12" lengthAdjust="spacingAndGlyphs" textLength="135" x="696.93" y="715.5352">RegistoTiposRegimento</text>
        <line style="stroke: #A80036; stroke-width: 1.5;" x1="608.18" x2="888.18" y1="727" y2="727"/>
        <line style="stroke: #A80036; stroke-width: 1.5;" x1="608.18" x2="888.18" y1="735" y2="735"/>
        <text fill="#000000" font-family="sans-serif" font-size="11" lengthAdjust="spacingAndGlyphs" textLength="242" x="613.18" y="749.6348">+List&lt;TipoRegimento&gt; getTiposRegimento()</text>
        <text fill="#000000" font-family="sans-serif" font-size="11" lengthAdjust="spacingAndGlyphs" textLength="270" x="613.18" y="762.5898">+TipoRegimento getTipoRegimentoByDesc(desTR)</text>
        <!--class RegistoOrganizacoes-->
        <rect fill="#FEFECE" filter="url(#f1g5uh4cmozumv)" height="60.9551" style="stroke: #A80036; stroke-width: 1.5;" width="305" x="223.68" y="571.5"/>
        <ellipse cx="311.93" cy="587.5" fill="#ADD1B2" rx="11" ry="11" style="stroke: #A80036; stroke-width: 1.0;"/>
        <path d="M314.4031,593.6431 Q313.8221,593.9419 313.1829,594.0913 Q312.5438,594.2407 311.8382,594.2407 Q309.3314,594.2407 308.0115,592.5889 Q306.6917,590.937 306.6917,587.8159 Q306.6917,584.6865 308.0115,583.0347 Q309.3314,581.3828 311.8382,581.3828 Q312.5438,581.3828 313.1912,581.5322 Q313.8387,581.6816 314.4031,581.9805 L314.4031,584.7031 Q313.7723,584.1221 313.1788,583.8523 Q312.5853,583.5825 311.9544,583.5825 Q310.6097,583.5825 309.9249,584.6492 Q309.2401,585.7158 309.2401,587.8159 Q309.2401,589.9077 309.9249,590.9744 Q310.6097,592.041 311.9544,592.041 Q312.5853,592.041 313.1788,591.7712 Q313.7723,591.5015 314.4031,590.9204 Z "/>
        <text fill="#000000" font-family="sans-serif" font-size="12" lengthAdjust="spacingAndGlyphs" textLength="120" x="332.43" y="592.0352">RegistoOrganizacoes</text>
        <line style="stroke: #A80036; stroke-width: 1.5;" x1="224.68" x2="527.68" y1="603.5" y2="603.5"/>
        <line style="stroke: #A80036; stroke-width: 1.5;" x1="224.68" x2="527.68" y1="611.5" y2="611.5"/>
        <text fill="#000000" font-family="sans-serif" font-size="11" lengthAdjust="spacingAndGlyphs" textLength="293" x="229.68" y="626.1348">+Organizacao getOrganizacaoByEmailUtilizador(email)</text>
        <!--class RegistoAnuncios-->
        <rect fill="#FEFECE" filter="url(#f1g5uh4cmozumv)" height="125.7305" style="stroke: #A80036; stroke-width: 1.5;" width="401" x="200.68" y="669"/>
        <ellipse cx="350.43" cy="685" fill="#ADD1B2" rx="11" ry="11" style="stroke: #A80036; stroke-width: 1.0;"/>
        <path d="M352.9031,691.1431 Q352.3221,691.4419 351.6829,691.5913 Q351.0438,691.7407 350.3382,691.7407 Q347.8314,691.7407 346.5115,690.0889 Q345.1917,688.437 345.1917,685.3159 Q345.1917,682.1865 346.5115,680.5347 Q347.8314,678.8828 350.3382,678.8828 Q351.0438,678.8828 351.6912,679.0322 Q352.3387,679.1816 352.9031,679.4805 L352.9031,682.2031 Q352.2723,681.6221 351.6788,681.3523 Q351.0853,681.0825 350.4544,681.0825 Q349.1097,681.0825 348.4249,682.1492 Q347.7401,683.2158 347.7401,685.3159 Q347.7401,687.4077 348.4249,688.4744 Q349.1097,689.541 350.4544,689.541 Q351.0853,689.541 351.6788,689.2712 Q352.2723,689.0015 352.9031,688.4204 Z "/>
        <text fill="#000000" font-family="sans-serif" font-size="12" lengthAdjust="spacingAndGlyphs" textLength="93" x="370.93" y="689.5352">RegistoAnuncios</text>
        <line style="stroke: #A80036; stroke-width: 1.5;" x1="201.68" x2="600.68" y1="701" y2="701"/>
        <line style="stroke: #A80036; stroke-width: 1.5;" x1="201.68" x2="600.68" y1="709" y2="709"/>
        <text fill="#000000" font-family="sans-serif" font-size="11" lengthAdjust="spacingAndGlyphs" textLength="312" x="206.68" y="723.6348">+validaPeriodos(dtIniP,dtFimP,dtIniC,dtFimC,dtIniS,dtFimS)</text>
        <text fill="#000000" font-family="sans-serif" font-size="11" lengthAdjust="spacingAndGlyphs" textLength="389" x="206.68" y="736.5898">+novoAnuncio(c,tarefa,anunId,dtIniP,dtFimP,dtIniC,dtFimC,dtIniS,dtFimS)</text>
        <text fill="#000000" font-family="sans-serif" font-size="11" lengthAdjust="spacingAndGlyphs" textLength="113" x="206.68" y="749.5449">+validaAnuncio(anu)</text>
        <text fill="#000000" font-family="sans-serif" font-size="11" lengthAdjust="spacingAndGlyphs" textLength="93" x="206.68" y="762.5">-geraAnuncioId()</text>
        <text fill="#000000" font-family="sans-serif" font-size="11" lengthAdjust="spacingAndGlyphs" textLength="119" x="206.68" y="775.4551">+registaAnuncio(anu)</text>
        <text fill="#000000" font-family="sans-serif" font-size="11" lengthAdjust="spacingAndGlyphs" textLength="99" x="206.68" y="788.4102">-addAnuncio(anu)</text>
        <!--class Anuncio-->
        <rect fill="#FEFECE" filter="url(#f1g5uh4cmozumv)" height="151.6406" style="stroke: #A80036; stroke-width: 1.5;" width="365" x="339.68" y="1041"/>
        <ellipse cx="495.43" cy="1057" fill="#ADD1B2" rx="11" ry="11" style="stroke: #A80036; stroke-width: 1.0;"/>
        <path d="M497.9031,1063.1431 Q497.3221,1063.4419 496.6829,1063.5913 Q496.0438,1063.7407 495.3382,1063.7407 Q492.8314,1063.7407 491.5115,1062.0889 Q490.1917,1060.437 490.1917,1057.3159 Q490.1917,1054.1865 491.5115,1052.5347 Q492.8314,1050.8828 495.3382,1050.8828 Q496.0438,1050.8828 496.6912,1051.0322 Q497.3387,1051.1816 497.9031,1051.4805 L497.9031,1054.2031 Q497.2723,1053.6221 496.6788,1053.3523 Q496.0853,1053.0825 495.4544,1053.0825 Q494.1097,1053.0825 493.4249,1054.1492 Q492.7401,1055.2158 492.7401,1057.3159 Q492.7401,1059.4077 493.4249,1060.4744 Q494.1097,1061.541 495.4544,1061.541 Q496.0853,1061.541 496.6788,1061.2712 Q497.2723,1061.0015 497.9031,1060.4204 Z "/>
        <text fill="#000000" font-family="sans-serif" font-size="12" lengthAdjust="spacingAndGlyphs" textLength="45" x="515.93" y="1061.5352">Anuncio</text>
        <line style="stroke: #A80036; stroke-width: 1.5;" x1="340.68" x2="703.68" y1="1073" y2="1073"/>
        <text fill="#000000" font-family="sans-serif" font-size="11" lengthAdjust="spacingAndGlyphs" textLength="94" x="345.68" y="1087.6348">-String anuncioId</text>
        <text fill="#000000" font-family="sans-serif" font-size="11" lengthAdjust="spacingAndGlyphs" textLength="137" x="345.68" y="1100.5898">-Date dtInicioPublicitacao</text>
        <text fill="#000000" font-family="sans-serif" font-size="11" lengthAdjust="spacingAndGlyphs" textLength="127" x="345.68" y="1113.5449">-Date dtFimPublicitacao</text>
        <text fill="#000000" font-family="sans-serif" font-size="11" lengthAdjust="spacingAndGlyphs" textLength="139" x="345.68" y="1126.5">-Date dtInicioCandidatura</text>
        <text fill="#000000" font-family="sans-serif" font-size="11" lengthAdjust="spacingAndGlyphs" textLength="129" x="345.68" y="1139.4551">-Date dtFimCandidatura</text>
        <text fill="#000000" font-family="sans-serif" font-size="11" lengthAdjust="spacingAndGlyphs" textLength="118" x="345.68" y="1152.4102">-Date dtInicioSeriacao</text>
        <text fill="#000000" font-family="sans-serif" font-size="11" lengthAdjust="spacingAndGlyphs" textLength="108" x="345.68" y="1165.3652">-Date dtFimSeriacao</text>
        <line style="stroke: #A80036; stroke-width: 1.5;" x1="340.68" x2="703.68" y1="1171.6855" y2="1171.6855"/>
        <text fill="#000000" font-family="sans-serif" font-size="11" lengthAdjust="spacingAndGlyphs" textLength="353" x="345.68" y="1186.3203">+Anuncio(c, tarefa,dtIniP,dtFimP,dtIniC,dtFimC,dtIniS,dtFimS,regT)</text>
        <!--class TipoRegimento-->
        <rect fill="#FEFECE" filter="url(#f1g5uh4cmozumv)" height="48" style="stroke: #A80036; stroke-width: 1.5;" width="119" x="769.68" y="1315.5"/>
        <ellipse cx="784.68" cy="1331.5" fill="#ADD1B2" rx="11" ry="11" style="stroke: #A80036; stroke-width: 1.0;"/>
        <path d="M787.1531,1337.6431 Q786.5721,1337.9419 785.9329,1338.0913 Q785.2938,1338.2407 784.5882,1338.2407 Q782.0814,1338.2407 780.7615,1336.5889 Q779.4417,1334.937 779.4417,1331.8159 Q779.4417,1328.6865 780.7615,1327.0347 Q782.0814,1325.3828 784.5882,1325.3828 Q785.2938,1325.3828 785.9412,1325.5322 Q786.5887,1325.6816 787.1531,1325.9805 L787.1531,1328.7031 Q786.5223,1328.1221 785.9288,1327.8523 Q785.3353,1327.5825 784.7044,1327.5825 Q783.3597,1327.5825 782.6749,1328.6492 Q781.9901,1329.7158 781.9901,1331.8159 Q781.9901,1333.9077 782.6749,1334.9744 Q783.3597,1336.041 784.7044,1336.041 Q785.3353,1336.041 785.9288,1335.7712 Q786.5223,1335.5015 787.1531,1334.9204 Z "/>
        <text fill="#000000" font-family="sans-serif" font-size="12" lengthAdjust="spacingAndGlyphs" textLength="87" x="798.68" y="1336.0352">TipoRegimento</text>
        <line style="stroke: #A80036; stroke-width: 1.5;" x1="770.68" x2="887.68" y1="1347.5" y2="1347.5"/>
        <line style="stroke: #A80036; stroke-width: 1.5;" x1="770.68" x2="887.68" y1="1355.5" y2="1355.5"/>
        <!--class SeriaCandidaturaAnuncioTask-->
        <rect fill="#FEFECE" filter="url(#f1g5uh4cmozumv)" height="60.9551" style="stroke: #A80036; stroke-width: 1.5;" width="268" x="466.18" y="1309"/>
        <ellipse cx="509.98" cy="1325" fill="#ADD1B2" rx="11" ry="11" style="stroke: #A80036; stroke-width: 1.0;"/>
        <path d="M512.4531,1331.1431 Q511.8721,1331.4419 511.2329,1331.5913 Q510.5938,1331.7407 509.8882,1331.7407 Q507.3814,1331.7407 506.0615,1330.0889 Q504.7417,1328.437 504.7417,1325.3159 Q504.7417,1322.1865 506.0615,1320.5347 Q507.3814,1318.8828 509.8882,1318.8828 Q510.5938,1318.8828 511.2412,1319.0322 Q511.8887,1319.1816 512.4531,1319.4805 L512.4531,1322.2031 Q511.8223,1321.6221 511.2288,1321.3523 Q510.6353,1321.0825 510.0044,1321.0825 Q508.6597,1321.0825 507.9749,1322.1492 Q507.2901,1323.2158 507.2901,1325.3159 Q507.2901,1327.4077 507.9749,1328.4744 Q508.6597,1329.541 510.0044,1329.541 Q510.6353,1329.541 511.2288,1329.2712 Q511.8223,1329.0015 512.4531,1328.4204 Z "/>
        <text fill="#000000" font-family="sans-serif" font-size="12" lengthAdjust="spacingAndGlyphs" textLength="172" x="530.38" y="1329.5352">SeriaCandidaturaAnuncioTask</text>
        <line style="stroke: #A80036; stroke-width: 1.5;" x1="467.18" x2="733.18" y1="1341" y2="1341"/>
        <line style="stroke: #A80036; stroke-width: 1.5;" x1="467.18" x2="733.18" y1="1349" y2="1349"/>
        <text fill="#000000" font-family="sans-serif" font-size="11" lengthAdjust="spacingAndGlyphs" textLength="256" x="472.18" y="1363.6348">+SeriaraCandidaturaAnuncio(Anuncio anuncio)</text>
        <!--class TimerTask-->
        <rect fill="#FEFECE" filter="url(#f1g5uh4cmozumv)" height="60.9551" style="stroke: #A80036; stroke-width: 1.5;" width="144" x="528.18" y="1486"/>
        <ellipse cx="565.68" cy="1502" fill="#ADD1B2" rx="11" ry="11" style="stroke: #A80036; stroke-width: 1.0;"/>
        <path d="M568.1531,1508.1431 Q567.5721,1508.4419 566.9329,1508.5913 Q566.2938,1508.7407 565.5882,1508.7407 Q563.0814,1508.7407 561.7615,1507.0889 Q560.4417,1505.437 560.4417,1502.3159 Q560.4417,1499.1865 561.7615,1497.5347 Q563.0814,1495.8828 565.5882,1495.8828 Q566.2938,1495.8828 566.9412,1496.0322 Q567.5887,1496.1816 568.1531,1496.4805 L568.1531,1499.2031 Q567.5223,1498.6221 566.9288,1498.3523 Q566.3353,1498.0825 565.7044,1498.0825 Q564.3597,1498.0825 563.6749,1499.1492 Q562.9901,1500.2158 562.9901,1502.3159 Q562.9901,1504.4077 563.6749,1505.4744 Q564.3597,1506.541 565.7044,1506.541 Q566.3353,1506.541 566.9288,1506.2712 Q567.5223,1506.0015 568.1531,1505.4204 Z "/>
        <text fill="#000000" font-family="sans-serif" font-size="12" lengthAdjust="spacingAndGlyphs" textLength="62" x="584.68" y="1506.5352">TimerTask</text>
        <line style="stroke: #A80036; stroke-width: 1.5;" x1="529.18" x2="671.18" y1="1518" y2="1518"/>
        <line style="stroke: #A80036; stroke-width: 1.5;" x1="529.18" x2="671.18" y1="1526" y2="1526"/>
        <text fill="#000000" font-family="sans-serif" font-size="11" lengthAdjust="spacingAndGlyphs" textLength="132" x="534.18" y="1540.6348">+schedule(task,periodo)</text>
        <!--class Colaborador-->
        <rect fill="#FEFECE" filter="url(#f1g5uh4cmozumv)" height="48" style="stroke: #A80036; stroke-width: 1.5;" width="104" x="224.18" y="1492.5"/>
        <ellipse cx="239.18" cy="1508.5" fill="#ADD1B2" rx="11" ry="11" style="stroke: #A80036; stroke-width: 1.0;"/>
        <path d="M241.6531,1514.6431 Q241.0721,1514.9419 240.4329,1515.0913 Q239.7938,1515.2407 239.0882,1515.2407 Q236.5814,1515.2407 235.2615,1513.5889 Q233.9417,1511.937 233.9417,1508.8159 Q233.9417,1505.6865 235.2615,1504.0347 Q236.5814,1502.3828 239.0882,1502.3828 Q239.7938,1502.3828 240.4412,1502.5322 Q241.0887,1502.6816 241.6531,1502.9805 L241.6531,1505.7031 Q241.0223,1505.1221 240.4288,1504.8523 Q239.8353,1504.5825 239.2044,1504.5825 Q237.8597,1504.5825 237.1749,1505.6492 Q236.4901,1506.7158 236.4901,1508.8159 Q236.4901,1510.9077 237.1749,1511.9744 Q237.8597,1513.041 239.2044,1513.041 Q239.8353,1513.041 240.4288,1512.7712 Q241.0223,1512.5015 241.6531,1511.9204 Z "/>
        <text fill="#000000" font-family="sans-serif" font-size="12" lengthAdjust="spacingAndGlyphs" textLength="72" x="253.18" y="1513.0352">Colaborador</text>
        <line style="stroke: #A80036; stroke-width: 1.5;" x1="225.18" x2="327.18" y1="1524.5" y2="1524.5"/>
        <line style="stroke: #A80036; stroke-width: 1.5;" x1="225.18" x2="327.18" y1="1532.5" y2="1532.5"/>
        <!--class RegistoTipoRegimento-->
        <rect fill="#FEFECE" filter="url(#f1g5uh4cmozumv)" height="48" style="stroke: #A80036; stroke-width: 1.5;" width="161" x="697.68" y="414"/>
        <ellipse cx="712.68" cy="430" fill="#ADD1B2" rx="11" ry="11" style="stroke: #A80036; stroke-width: 1.0;"/>
        <path d="M715.1531,436.1431 Q714.5721,436.4419 713.9329,436.5913 Q713.2938,436.7407 712.5882,436.7407 Q710.0814,436.7407 708.7615,435.0889 Q707.4417,433.437 707.4417,430.3159 Q707.4417,427.1865 708.7615,425.5347 Q710.0814,423.8828 712.5882,423.8828 Q713.2938,423.8828 713.9412,424.0322 Q714.5887,424.1816 715.1531,424.4805 L715.1531,427.2031 Q714.5223,426.6221 713.9288,426.3523 Q713.3353,426.0825 712.7044,426.0825 Q711.3597,426.0825 710.6749,427.1492 Q709.9901,428.2158 709.9901,430.3159 Q709.9901,432.4077 710.6749,433.4744 Q711.3597,434.541 712.7044,434.541 Q713.3353,434.541 713.9288,434.2712 Q714.5223,434.0015 715.1531,433.4204 Z "/>
        <text fill="#000000" font-family="sans-serif" font-size="12" lengthAdjust="spacingAndGlyphs" textLength="129" x="726.68" y="434.5352">RegistoTipoRegimento</text>
        <line style="stroke: #A80036; stroke-width: 1.5;" x1="698.68" x2="857.68" y1="446" y2="446"/>
        <line style="stroke: #A80036; stroke-width: 1.5;" x1="698.68" x2="857.68" y1="454" y2="454"/>
        <path d="M241.18,107.28 C241.18,127.77 241.18,158.52 241.18,185.92 " fill="none" style="stroke: #A80036; stroke-width: 1.0; stroke-dasharray: 7.0,7.0;"/>
        <polygon fill="#A80036" points="241.18,190.99,245.18,181.99,241.18,185.99,237.18,181.99,241.18,190.99" style="stroke: #A80036; stroke-width: 1.0;"/>
        <path d="M321.61,304.04 C358.64,329.6 402.33,359.77 438.73,384.9 " fill="none" style="stroke: #A80036; stroke-width: 1.0; stroke-dasharray: 7.0,7.0;"/>
        <polygon fill="#A80036" points="443.13,387.94,437.9995,379.533,439.0165,385.0977,433.4518,386.1146,443.13,387.94" style="stroke: #A80036; stroke-width: 1.0;"/>
        <path d="M223.11,304.35 C200.11,375.49 160.89,496.76 140.45,559.96 " fill="none" style="stroke: #A80036; stroke-width: 1.0; stroke-dasharray: 7.0,7.0;"/>
        <polygon fill="#A80036" points="138.89,564.78,145.4714,557.453,140.4325,560.0239,137.8617,554.985,138.89,564.78" style="stroke: #A80036; stroke-width: 1.0;"/>
        <path d="M261.93,304.2 C266.74,317.52 271.75,331.73 276.18,345 C304.13,428.75 267.08,477.61 334.18,535 C406.49,596.85 454.71,538.76 546.18,565 C550.95,566.37 555.8,567.96 560.64,569.71 " fill="none" style="stroke: #A80036; stroke-width: 1.0; stroke-dasharray: 7.0,7.0;"/>
        <polygon fill="#A80036" points="565.47,571.5,558.4106,564.6323,560.779,569.7695,555.6418,572.1379,565.47,571.5" style="stroke: #A80036; stroke-width: 1.0;"/>
        <path d="M237.82,304.19 C236.75,365.24 242.91,463.93 286.18,535 C293.96,547.79 305.25,558.87 317.21,568.11 " fill="none" style="stroke: #A80036; stroke-width: 1.0; stroke-dasharray: 7.0,7.0;"/>
        <polygon fill="#A80036" points="321.29,571.17,316.49,562.57,317.29,568.17,311.69,568.97,321.29,571.17" style="stroke: #A80036; stroke-width: 1.0;"/>
        <path d="M71.59,304.11 C55.21,315.38 40.51,328.87 29.18,345 C-15.15,408.13 19.93,441.01 15.18,518 C7.5,642.42 -12.24,692.83 59.18,795 C65.73,804.38 73.46,813.22 81.85,821.47 " fill="none" style="stroke: #A80036; stroke-width: 1.0; stroke-dasharray: 7.0,7.0;"/>
        <polygon fill="#A80036" points="85.48,824.96,81.7599,815.8407,81.8739,821.4965,76.2182,821.6105,85.48,824.96" style="stroke: #A80036; stroke-width: 1.0;"/>
        <path d="M418.46,255.89 C581.25,266.09 807.31,289.96 876.18,345 C910.47,372.41 912.18,393.09 912.18,437 C912.18,437 912.18,437 912.18,895.5 C912.18,955.53 893.61,980.05 842.18,1011 C743,1070.69 433.44,1009.1 322.18,1041 C294.45,1048.95 266.11,1063.24 242.45,1077.24 " fill="none" style="stroke: #A80036; stroke-width: 1.0; stroke-dasharray: 7.0,7.0;"/>
        <polygon fill="#A80036" points="238.09,1079.84,247.8654,1078.6395,242.3775,1077.2675,243.7495,1071.7796,238.09,1079.84" style="stroke: #A80036; stroke-width: 1.0;"/>
        <path d="M418.27,265.43 C501.4,278.76 599.67,302.56 680.18,345 C710.49,360.98 738.28,388.9 756.46,409.81 " fill="none" style="stroke: #A80036; stroke-width: 1.0; stroke-dasharray: 7.0,7.0;"/>
        <polygon fill="#A80036" points="759.74,413.62,756.9199,404.1835,756.486,409.8237,750.8459,409.3899,759.74,413.62" style="stroke: #A80036; stroke-width: 1.0;"/>
        <path d="M176.85,304.04 C91.92,384.03 -37.39,533.62 48.18,639 C89.11,689.41 128.21,653.13 191.18,669 C192.65,669.37 194.12,669.74 195.6,670.12 " fill="none" style="stroke: #A80036; stroke-width: 1.0; stroke-dasharray: 7.0,7.0;"/>
        <polygon fill="#A80036" points="200.64,671.42,192.9168,665.3083,195.7969,670.1771,190.9282,673.0572,200.64,671.42" style="stroke: #A80036; stroke-width: 1.0;"/>
        <path d="M616.7,488.12 C683.08,526.72 749.98,583.13 708.18,639 C680.81,675.58 653.34,656.85 606.75,668.92 " fill="none" style="stroke: #A80036; stroke-width: 1.0;"/>
        <polygon fill="#A80036" points="601.88,670.28,611.6238,671.7148,606.6962,668.9366,609.4744,664.009,601.88,670.28" style="stroke: #A80036; stroke-width: 1.0;"/>
        <text fill="#000000" font-family="sans-serif" font-size="13" lengthAdjust="spacingAndGlyphs" textLength="24" x="681.18" y="531.5684">tem</text>
        <text fill="#000000" font-family="sans-serif" font-size="13" lengthAdjust="spacingAndGlyphs" textLength="8" x="621.9386" y="508.464">1</text>
        <text fill="#000000" font-family="sans-serif" font-size="13" lengthAdjust="spacingAndGlyphs" textLength="8" x="609.8761" y="665.1558">1</text>
        <path d="M662.82,486.94 C686.3,497.02 705.66,507.72 714.18,518 C754.29,566.41 756.41,642.93 753.12,689.87 " fill="none" style="stroke: #A80036; stroke-width: 1.0;"/>
        <polygon fill="#A80036" points="752.74,694.88,757.4223,686.2153,753.1257,689.8949,749.4461,685.5983,752.74,694.88" style="stroke: #A80036; stroke-width: 1.0;"/>
        <text fill="#000000" font-family="sans-serif" font-size="13" lengthAdjust="spacingAndGlyphs" textLength="24" x="726.18" y="531.5684">tem</text>
        <text fill="#000000" font-family="sans-serif" font-size="13" lengthAdjust="spacingAndGlyphs" textLength="8" x="670.6905" y="486.6577">1</text>
        <text fill="#000000" font-family="sans-serif" font-size="13" lengthAdjust="spacingAndGlyphs" textLength="8" x="744.8433" y="684.2585">1</text>
        <path d="M479.85,488.49 C468.64,503.79 455.81,520.44 443.18,535 C433.55,546.09 422.41,557.54 412.02,567.72 " fill="none" style="stroke: #A80036; stroke-width: 1.0;"/>
        <polygon fill="#A80036" points="408.23,571.41,417.4715,568.0048,411.8152,567.9248,411.8952,562.2685,408.23,571.41" style="stroke: #A80036; stroke-width: 1.0;"/>
        <text fill="#000000" font-family="sans-serif" font-size="13" lengthAdjust="spacingAndGlyphs" textLength="24" x="456.18" y="531.5684">tem</text>
        <text fill="#000000" font-family="sans-serif" font-size="13" lengthAdjust="spacingAndGlyphs" textLength="8" x="466.939" y="508.5197">1</text>
        <text fill="#000000" font-family="sans-serif" font-size="13" lengthAdjust="spacingAndGlyphs" textLength="8" x="406.3659" y="560.6851">1</text>
        <path d="M391.19,488.03 C334.62,510.9 266.77,538.81 206.18,565 C202.01,566.8 197.73,568.68 193.42,570.58 " fill="none" style="stroke: #A80036; stroke-width: 1.0;"/>
        <polygon fill="#A80036" points="188.74,572.66,198.5889,572.6657,193.3102,570.632,195.344,565.3533,188.74,572.66" style="stroke: #A80036; stroke-width: 1.0;"/>
        <text fill="#000000" font-family="sans-serif" font-size="13" lengthAdjust="spacingAndGlyphs" textLength="24" x="316.18" y="531.5684">tem</text>
        <text fill="#000000" font-family="sans-serif" font-size="13" lengthAdjust="spacingAndGlyphs" textLength="8" x="366.1257" y="508.3619">1</text>
        <text fill="#000000" font-family="sans-serif" font-size="13" lengthAdjust="spacingAndGlyphs" textLength="8" x="196.7301" y="565.7629">1</text>
        <path d="M548.39,488.04 C566.24,513.64 587.64,544.32 603.62,567.23 " fill="none" style="stroke: #A80036; stroke-width: 1.0;"/>
        <polygon fill="#A80036" points="606.54,571.42,604.6761,561.7491,603.6813,567.3178,598.1126,566.323,606.54,571.42" style="stroke: #A80036; stroke-width: 1.0;"/>
        <text fill="#000000" font-family="sans-serif" font-size="13" lengthAdjust="spacingAndGlyphs" textLength="24" x="581.18" y="531.5684">tem</text>
        <text fill="#000000" font-family="sans-serif" font-size="13" lengthAdjust="spacingAndGlyphs" textLength="8" x="544.4495" y="508.3732">1</text>
        <text fill="#000000" font-family="sans-serif" font-size="13" lengthAdjust="spacingAndGlyphs" textLength="8" x="593.15" y="560.6972">1</text>
        <path d="M420.89,795.39 C441.58,860.9 474.21,964.16 496.81,1035.71 " fill="none" style="stroke: #A80036; stroke-width: 1.0;"/>
        <polygon fill="#A80036" points="498.42,1040.81,499.5017,1031.0207,496.9034,1036.0456,491.8786,1033.4473,498.42,1040.81" style="stroke: #A80036; stroke-width: 1.0;"/>
        <text fill="#000000" font-family="sans-serif" font-size="13" lengthAdjust="spacingAndGlyphs" textLength="55" x="472.18" y="899.5684">publicita</text>
        <text fill="#000000" font-family="sans-serif" font-size="13" lengthAdjust="spacingAndGlyphs" textLength="8" x="414.5101" y="815.2988">1</text>
        <text fill="#000000" font-family="sans-serif" font-size="13" lengthAdjust="spacingAndGlyphs" textLength="6" x="489.7858" y="1030.1731">*</text>
        <path d="M753,769.06 C767.77,879.49 812.18,1211.48 825.42,1310.39 " fill="none" style="stroke: #A80036; stroke-width: 1.0;"/>
        <polygon fill="#A80036" points="826.1,1315.48,828.8826,1306.0324,825.4429,1310.5234,820.952,1307.0837,826.1,1315.48" style="stroke: #A80036; stroke-width: 1.0;"/>
        <text fill="#000000" font-family="sans-serif" font-size="13" lengthAdjust="spacingAndGlyphs" textLength="48" x="785.18" y="1007.5684">suporta</text>
        <text fill="#000000" font-family="sans-serif" font-size="13" lengthAdjust="spacingAndGlyphs" textLength="8" x="745.1461" y="789.6013">1</text>
        <text fill="#000000" font-family="sans-serif" font-size="13" lengthAdjust="spacingAndGlyphs" textLength="6" x="818.466" y="1304.6191">*</text>
        <path d="M238.69,632.58 C165.86,648.58 90.79,665.72 88.18,669 C53.28,712.8 66.05,743.56 88.18,795 C92.03,803.96 97.15,812.49 103.05,820.51 " fill="none" style="stroke: #A80036; stroke-width: 1.0;"/>
        <polygon fill="#A80036" points="106.41,824.91,104.128,815.3292,103.3759,820.9358,97.7693,820.1837,106.41,824.91" style="stroke: #A80036; stroke-width: 1.0;"/>
        <text fill="#000000" font-family="sans-serif" font-size="13" lengthAdjust="spacingAndGlyphs" textLength="93" x="89.18" y="737.0684">tem registadas</text>
        <text fill="#000000" font-family="sans-serif" font-size="13" lengthAdjust="spacingAndGlyphs" textLength="8" x="207.2557" y="651.4848">1</text>
        <text fill="#000000" font-family="sans-serif" font-size="13" lengthAdjust="spacingAndGlyphs" textLength="6" x="90.7008" y="814.0808">*</text>
        <path d="M190,964.06 C188.85,1000.27 187.48,1043.52 186.49,1074.6 " fill="none" style="stroke: #A80036; stroke-width: 1.0;"/>
        <polygon fill="#A80036" points="186.32,1079.86,190.6007,1070.9901,186.4771,1074.8625,182.6047,1070.7388,186.32,1079.86" style="stroke: #A80036; stroke-width: 1.0;"/>
        <text fill="#000000" font-family="sans-serif" font-size="13" lengthAdjust="spacingAndGlyphs" textLength="24" x="189.18" y="1007.5684">tem</text>
        <text fill="#000000" font-family="sans-serif" font-size="13" lengthAdjust="spacingAndGlyphs" textLength="8" x="181.3917" y="984.2447">1</text>
        <text fill="#000000" font-family="sans-serif" font-size="13" lengthAdjust="spacingAndGlyphs" textLength="8" x="177.7927" y="1069.2348">1</text>
        <path d="M148.89,1154.16 C129.56,1177.95 111.87,1210.11 123.18,1240 C128.33,1253.61 136.31,1266.56 145.4,1278.32 " fill="none" style="stroke: #A80036; stroke-width: 1.0;"/>
        <polygon fill="#A80036" points="148.52,1282.26,146.0681,1272.7212,145.4158,1278.3404,139.7966,1277.688,148.52,1282.26" style="stroke: #A80036; stroke-width: 1.0;"/>
        <text fill="#000000" font-family="sans-serif" font-size="13" lengthAdjust="spacingAndGlyphs" textLength="42" x="124.18" y="1236.5684">possui</text>
        <text fill="#000000" font-family="sans-serif" font-size="13" lengthAdjust="spacingAndGlyphs" textLength="8" x="133.9652" y="1174.4387">1</text>
        <text fill="#000000" font-family="sans-serif" font-size="13" lengthAdjust="spacingAndGlyphs" textLength="6" x="134.6396" y="1271.9763">*</text>
        <path d="M214.84,1409.07 C217.54,1424.94 221.73,1441.43 228.18,1456 C233.3,1467.58 241.27,1478.78 249.25,1488.29 " fill="none" style="stroke: #A80036; stroke-width: 1.0;"/>
        <polygon fill="#A80036" points="252.66,1492.26,249.8223,1482.8288,249.399,1488.4698,243.758,1488.0464,252.66,1492.26" style="stroke: #A80036; stroke-width: 1.0;"/>
        <text fill="#000000" font-family="sans-serif" font-size="13" lengthAdjust="spacingAndGlyphs" textLength="103" x="229.18" y="1452.5684">especificada por</text>
        <text fill="#000000" font-family="sans-serif" font-size="13" lengthAdjust="spacingAndGlyphs" textLength="6" x="209.0034" y="1429.2557">*</text>
        <text fill="#000000" font-family="sans-serif" font-size="13" lengthAdjust="spacingAndGlyphs" textLength="8" x="237.608" y="1481.7348">1</text>
        <path d="M339.61,1187.34 C333.74,1189.29 327.92,1191.18 322.18,1193 C271.82,1208.96 239.47,1181.2 207.18,1223 C197.98,1234.91 194.43,1249.76 194,1264.8 " fill="none" style="stroke: #A80036; stroke-width: 1.0;"/>
        <polygon fill="#A80036" points="193.98,1269.9,198.0314,1260.923,194.0086,1264.9001,190.0315,1260.8773,193.98,1269.9" style="stroke: #A80036; stroke-width: 1.0;"/>
        <text fill="#000000" font-family="sans-serif" font-size="13" lengthAdjust="spacingAndGlyphs" textLength="55" x="208.18" y="1236.5684">publicita</text>
        <text fill="#000000" font-family="sans-serif" font-size="13" lengthAdjust="spacingAndGlyphs" textLength="24" x="307.4016" y="1187.5736">0..1</text>
        <text fill="#000000" font-family="sans-serif" font-size="13" lengthAdjust="spacingAndGlyphs" textLength="8" x="183.7706" y="1259.0697">1</text>
        <path d="M343.73,1195.65 C329.88,1204.14 316.5,1213.27 304.18,1223 C287.33,1236.3 271.53,1253.11 257.87,1269.77 " fill="none" style="stroke: #A80036; stroke-width: 1.0;"/>
        <polygon fill="#A80036" points="348.05,1193.03,338.2824,1194.2927,343.779,1195.6297,342.442,1201.1263,348.05,1193.03" style="stroke: #A80036; stroke-width: 1.0;"/>
        <text fill="#000000" font-family="sans-serif" font-size="13" lengthAdjust="spacingAndGlyphs" textLength="63" x="305.18" y="1236.5684">dá origem</text>
        <text fill="#000000" font-family="sans-serif" font-size="13" lengthAdjust="spacingAndGlyphs" textLength="24" x="307.4728" y="1213.0676">0..1</text>
        <text fill="#000000" font-family="sans-serif" font-size="13" lengthAdjust="spacingAndGlyphs" textLength="8" x="254.3755" y="1259.4062">1</text>
        <path d="M625.25,1193.29 C648.25,1209.24 672.77,1225.59 696.18,1240 C720.22,1254.8 729.02,1253.84 752.18,1270 C769.88,1282.36 788,1298.28 802.21,1311.67 " fill="none" style="stroke: #A80036; stroke-width: 1.0;"/>
        <polygon fill="#A80036" points="806.11,1315.37,802.3344,1306.2736,802.4829,1311.9285,796.828,1312.077,806.11,1315.37" style="stroke: #A80036; stroke-width: 1.0;"/>
        <text fill="#000000" font-family="sans-serif" font-size="13" lengthAdjust="spacingAndGlyphs" textLength="74" x="697.18" y="1236.5684">rege-se por</text>
        <text fill="#000000" font-family="sans-serif" font-size="13" lengthAdjust="spacingAndGlyphs" textLength="6" x="627.8498" y="1213.0878">*</text>
        <text fill="#000000" font-family="sans-serif" font-size="13" lengthAdjust="spacingAndGlyphs" textLength="8" x="791.1733" y="1304.873">1</text>
        <path d="M420.09,1193.33 C396.8,1215.45 374.68,1241.46 360.18,1270 C322.44,1344.26 374.19,1381.38 337.18,1456 C331.08,1468.29 321.4,1479.47 311.54,1488.75 " fill="none" style="stroke: #A80036; stroke-width: 1.0;"/>
        <polygon fill="#A80036" points="307.6,1492.34,316.9406,1489.2169,311.2893,1488.9653,311.541,1483.314,307.6,1492.34" style="stroke: #A80036; stroke-width: 1.0;"/>
        <text fill="#000000" font-family="sans-serif" font-size="13" lengthAdjust="spacingAndGlyphs" textLength="87" x="361.18" y="1344.5684">publicado por</text>
        <text fill="#000000" font-family="sans-serif" font-size="13" lengthAdjust="spacingAndGlyphs" textLength="6" x="405.0588" y="1213.1313">*</text>
        <text fill="#000000" font-family="sans-serif" font-size="13" lengthAdjust="spacingAndGlyphs" textLength="8" x="306.6264" y="1481.8353">1</text>
        <path d="M548.8,1193.27 C562.07,1230.77 577.47,1274.3 587.92,1303.85 " fill="none" style="stroke: #A80036; stroke-width: 1.0;"/>
        <polygon fill="#A80036" points="589.68,1308.84,590.4426,1299.0207,588.0092,1304.1274,582.9025,1301.694,589.68,1308.84" style="stroke: #A80036; stroke-width: 1.0;"/>
        <text fill="#000000" font-family="sans-serif" font-size="13" lengthAdjust="spacingAndGlyphs" textLength="45" x="564.18" y="1236.5684">agenda</text>
        <text fill="#000000" font-family="sans-serif" font-size="13" lengthAdjust="spacingAndGlyphs" textLength="8" x="542.8146" y="1213.329">1</text>
        <text fill="#000000" font-family="sans-serif" font-size="13" lengthAdjust="spacingAndGlyphs" textLength="8" x="578.5081" y="1298.0997">1</text>
        <path d="M600.18,1370.19 C600.18,1396.29 600.18,1434.81 600.18,1465.63 " fill="none" style="stroke: #A80036; stroke-width: 1.0;"/>
        <polygon fill="none" points="607.18,1465.96,600.18,1485.96,593.18,1465.96,607.18,1465.96" style="stroke: #A80036; stroke-width: 1.0;"/>
        <text fill="#000000" font-family="sans-serif" font-size="13" lengthAdjust="spacingAndGlyphs" textLength="50" x="601.18" y="1452.5684">extende</text>
        <text fill="#000000" font-family="sans-serif" font-size="13" lengthAdjust="spacingAndGlyphs" textLength="8" x="591.355" y="1390.6717">1</text>
        <text fill="#000000" font-family="sans-serif" font-size="13" lengthAdjust="spacingAndGlyphs" textLength="8" x="591.305" y="1475.246">1</text>
        <!--
@startuml
skinparam classAttributeIconSize 0

package UI <<Folder>> {

class PublicarTarefaUI {
}

}

package Controladores <<Folder>> {

class PublicarTarefaController {
  +getTarefasParaPublicar()
  +selecionaTarefa(ref)
  +getTiposRegimento()
  +novoAnuncio(dtIniP,dtFimP,dtIniC,dtFimC,dtIniS,dtFimS,desTR)
  +registaAnuncio()
}

}

package Domínio <<Folder>> {

class AplicacaoPOT {
 +static getInstance()
  +getSessaoAtual()
}

class SessaoUtilizador{
  +getEmailUtilizador()
}

class Organizacao {
  -String nome
  -String NIF
  -String website
  -String telefone
  -String email
  +ListaTarefas getListaTarefas()
  +Colaborador getColaboradorByEmail(email)
}

class ListaTarefas {
  +List<Tarefa> getTarefaParaPublicar(c)
  +Tarefa getTarefaParaPublicarByRef(ref, c)
}

class Tarefa {
  -String referencia
  -String designacao
  -String descInformal
  -String descTecnica
  -Integer duracaoEst
  -Double custoEst
  +publicar(anu)
}

class Plataforma {
  -String designacao
  +RegistoOrganizacoes getRegistoOrganizacoes()
  +RegistoTipoRegimento getRegistoTiposRegimento()
  +RegistoAnuncios getRegistoAnuncios()
}

class RegistoTiposRegimento {
  +List<TipoRegimento> getTiposRegimento()
  +TipoRegimento getTipoRegimentoByDesc(desTR)
}

class RegistoOrganizacoes {
  +Organizacao getOrganizacaoByEmailUtilizador(email)
}

class RegistoAnuncios {
  +validaPeriodos(dtIniP,dtFimP,dtIniC,dtFimC,dtIniS,dtFimS)
  +novoAnuncio(c,tarefa,anunId,dtIniP,dtFimP,dtIniC,dtFimC,dtIniS,dtFimS)
  +validaAnuncio(anu)
  -geraAnuncioId()
  +registaAnuncio(anu)
  -addAnuncio(anu)
}

class Anuncio {
  -String anuncioId
  -Date dtInicioPublicitacao
  -Date dtFimPublicitacao
  -Date dtInicioCandidatura
  -Date dtFimCandidatura
  -Date dtInicioSeriacao
  -Date dtFimSeriacao
  +Anuncio(c, tarefa,dtIniP,dtFimP,dtIniC,dtFimC,dtIniS,dtFimS,regT)
}

class TipoRegimento {

}


class SeriaCandidaturaAnuncioTask {
   +SeriaraCandidaturaAnuncio(Anuncio anuncio)
}

class TimerTask {
   +schedule(task,periodo)
}

class Colaborador {
}

class RegistoTipoRegimento{
}

}




PublicarTarefaUI ..> PublicarTarefaController

PublicarTarefaController ..> Plataforma
PublicarTarefaController ..> AplicacaoPOT
PublicarTarefaController ..> SessaoUtilizador
PublicarTarefaController ..> RegistoOrganizacoes
PublicarTarefaController ..> Organizacao
PublicarTarefaController ..> ListaTarefas
PublicarTarefaController ..> RegistoTipoRegimento
PublicarTarefaController ..> RegistoAnuncios

Plataforma "1" - -> "1" RegistoAnuncios : tem
Plataforma "1" - -> "1" RegistoTiposRegimento : tem
Plataforma "1" - -> "1" RegistoOrganizacoes : tem
Plataforma "1" - -> "1" AplicacaoPOT : tem
Plataforma "1" - -> "1" SessaoUtilizador : tem

RegistoAnuncios "1" - -> "*" Anuncio : publicita
RegistoTiposRegimento "1" - -> "*" TipoRegimento : suporta
RegistoOrganizacoes "1" - -> "*" Organizacao : tem registadas

Organizacao "1" - -> "1" ListaTarefas: tem
ListaTarefas "1" - -> "*" Tarefa: possui

Tarefa "*" - -> "1" Colaborador: especificada por

Anuncio "0..1" - -> "1" Tarefa: publicita
Anuncio "0..1" <- - "1" Tarefa: dá origem
Anuncio "*" - -> "1" TipoRegimento: rege-se por
Anuncio "*" - -> "1" Colaborador: publicado por
Anuncio "1" - -> "1" SeriaCandidaturaAnuncioTask : agenda

SeriaCandidaturaAnuncioTask "1" - -|> "1" TimerTask : extende

@enduml

PlantUML version 2017.11(Wed Apr 19 17:18:59 WEST 2017)
(GPL source distribution)
Java Runtime: Java(TM) SE Runtime Environment
JVM: Java HotSpot(TM) 64-Bit Server VM
Java Version: 1.8.0_191-b12
Operating System: Mac OS X
OS Version: 10.15.4
Default Encoding: UTF-8
Language: pt
Country: PT
-->
    </g>
</svg>
