@startuml
@startuml
autonumber
actor "Administrativo" as ADM

participant ":DefinirAreaUI" as UI
participant ":DefinirAreaController" as CTRL
participant ":Plataforma" as PLAT
participant "rat\n:RegistoAreaAtividade" as RAT
participant "area:AreaAtividade" as AREA

activate ADM
ADM -> UI : nova área de atividade
activate UI
UI --> ADM : solicita dados \n(código, descrição breve e detalhada)
deactivate UI

ADM -> UI : introduz os dados solicitados
activate UI
UI -> CTRL : novaAreaAtividade(cod, dsBreve, dsDet)
activate CTRL
CTRL -> PLAT : rat = getRegistoAreasAtividade()
activate PLAT
deactivate PLAT
CTRL -> RAT: area=novaAreaAtividade(cod, dsBreve, dsDet)
activate RAT
RAT --> AREA ** : create(cod, dsBreve,dsDet)
deactivate RAT

CTRL -> RAT: validaAreaAtividade(area)
activate RAT
deactivate RAT

deactivate CTRL
UI --> ADM : apresenta dados e solicita confirmação
deactivate UI

ADM -> UI : confirma
activate UI

UI -> CTRL: registaAreaAtividade()
activate CTRL
CTRL ->RAT: registaAreaAtivadade(area)
activate RAT
RAT -> RAT: validaAreaAtividade(area)
RAT -> RAT: addAreaAtividade(area)

deactivate RAT
deactivate CTRL

UI --> ADM : operação bem sucedida
deactivate UI

deactivate ADM

@enduml
@enduml
