<?xml version="1.0" encoding="UTF-8"?><svg xmlns="http://www.w3.org/2000/svg" xmlns:xlink="http://www.w3.org/1999/xlink" contentScriptType="application/ecmascript" contentStyleType="text/css" height="576px" preserveAspectRatio="none" style="width:877px;height:576px;" version="1.1" viewBox="0 0 877 576" width="877px" zoomAndPan="magnify">
    <defs>
        <filter height="300%" id="fpee19tdp5uv2" width="300%" x="-1" y="-1">
            <feGaussianBlur result="blurOut" stdDeviation="2.0"/>
            <feColorMatrix in="blurOut" result="blurOut2" type="matrix" values="0 0 0 0 0 0 0 0 0 0 0 0 0 0 0 0 0 0 .4 0"/>
            <feOffset dx="4.0" dy="4.0" in="blurOut2" result="blurOut3"/>
            <feBlend in="SourceGraphic" in2="blurOut3" mode="normal"/>
        </filter>
    </defs>
    <g>
        <rect fill="#FFFFFF" filter="url(#fpee19tdp5uv2)" height="360.8633" style="stroke: #A80036; stroke-width: 1.0;" width="10" x="81" y="142.5977"/>
        <rect fill="#FFFFFF" filter="url(#fpee19tdp5uv2)" height="30" style="stroke: #A80036; stroke-width: 1.0;" width="10" x="332" y="176.9082"/>
        <rect fill="#FFFFFF" filter="url(#fpee19tdp5uv2)" height="30" style="stroke: #A80036; stroke-width: 1.0;" width="10" x="332" y="236.2188"/>
        <rect fill="#FFFFFF" filter="url(#fpee19tdp5uv2)" height="30" style="stroke: #A80036; stroke-width: 1.0;" width="10" x="450.5" y="295.5293"/>
        <rect fill="#FFFFFF" filter="url(#fpee19tdp5uv2)" height="30" style="stroke: #A80036; stroke-width: 1.0;" width="10" x="450.5" y="414.1504"/>
        <rect fill="#FFFFFF" filter="url(#fpee19tdp5uv2)" height="30" style="stroke: #A80036; stroke-width: 1.0;" width="10" x="630.5" y="354.8398"/>
        <rect fill="#FFFFFF" filter="url(#fpee19tdp5uv2)" height="30" style="stroke: #A80036; stroke-width: 1.0;" width="10" x="815" y="473.4609"/>
        <line style="stroke: #A80036; stroke-width: 1.0; stroke-dasharray: 5.0,5.0;" x1="86" x2="86" y1="54.9766" y2="521.7715"/>
        <line style="stroke: #A80036; stroke-width: 1.0; stroke-dasharray: 5.0,5.0;" x1="336.5" x2="336.5" y1="54.9766" y2="521.7715"/>
        <line style="stroke: #A80036; stroke-width: 1.0; stroke-dasharray: 5.0,5.0;" x1="455.5" x2="455.5" y1="54.9766" y2="521.7715"/>
        <line style="stroke: #A80036; stroke-width: 1.0; stroke-dasharray: 5.0,5.0;" x1="635.5" x2="635.5" y1="54.9766" y2="521.7715"/>
        <line style="stroke: #A80036; stroke-width: 1.0; stroke-dasharray: 5.0,5.0;" x1="819.5" x2="819.5" y1="54.9766" y2="521.7715"/>
        <rect fill="#FEFECE" filter="url(#fpee19tdp5uv2)" height="30.4883" style="stroke: #A80036; stroke-width: 1.5;" width="152" x="8" y="19.4883"/>
        <text fill="#000000" font-family="sans-serif" font-size="14" lengthAdjust="spacingAndGlyphs" textLength="138" x="15" y="40.0234">rf:RegistoFreelancer</text>
        <rect fill="#FEFECE" filter="url(#fpee19tdp5uv2)" height="30.4883" style="stroke: #A80036; stroke-width: 1.5;" width="152" x="8" y="520.7715"/>
        <text fill="#000000" font-family="sans-serif" font-size="14" lengthAdjust="spacingAndGlyphs" textLength="138" x="15" y="541.3066">rf:RegistoFreelancer</text>
        <rect fill="#FEFECE" filter="url(#fpee19tdp5uv2)" height="30.4883" style="stroke: #A80036; stroke-width: 1.5;" width="117" x="276.5" y="19.4883"/>
        <text fill="#000000" font-family="sans-serif" font-size="14" lengthAdjust="spacingAndGlyphs" textLength="103" x="283.5" y="40.0234">free:Freelancer</text>
        <rect fill="#FEFECE" filter="url(#fpee19tdp5uv2)" height="30.4883" style="stroke: #A80036; stroke-width: 1.5;" width="117" x="276.5" y="520.7715"/>
        <text fill="#000000" font-family="sans-serif" font-size="14" lengthAdjust="spacingAndGlyphs" textLength="103" x="283.5" y="541.3066">free:Freelancer</text>
        <rect fill="#FEFECE" filter="url(#fpee19tdp5uv2)" height="30.4883" style="stroke: #A80036; stroke-width: 1.5;" width="92" x="407.5" y="19.4883"/>
        <text fill="#000000" font-family="sans-serif" font-size="14" lengthAdjust="spacingAndGlyphs" textLength="78" x="414.5" y="40.0234">:Plataforma</text>
        <rect fill="#FEFECE" filter="url(#fpee19tdp5uv2)" height="30.4883" style="stroke: #A80036; stroke-width: 1.5;" width="92" x="407.5" y="520.7715"/>
        <text fill="#000000" font-family="sans-serif" font-size="14" lengthAdjust="spacingAndGlyphs" textLength="78" x="414.5" y="541.3066">:Plataforma</text>
        <rect fill="#FEFECE" filter="url(#fpee19tdp5uv2)" height="46.9766" style="stroke: #A80036; stroke-width: 1.5;" width="240" x="513.5" y="3"/>
        <text fill="#000000" font-family="sans-serif" font-size="14" lengthAdjust="spacingAndGlyphs" textLength="104" x="581.5" y="23.5352">&lt;&lt;interface&gt;&gt;</text>
        <text fill="#000000" font-family="sans-serif" font-size="14" lengthAdjust="spacingAndGlyphs" textLength="222" x="524.5" y="40.0234">alg:AlgoritmoGeradorPasswords</text>
        <rect fill="#FEFECE" filter="url(#fpee19tdp5uv2)" height="46.9766" style="stroke: #A80036; stroke-width: 1.5;" width="240" x="513.5" y="520.7715"/>
        <text fill="#000000" font-family="sans-serif" font-size="14" lengthAdjust="spacingAndGlyphs" textLength="104" x="581.5" y="541.3066">&lt;&lt;interface&gt;&gt;</text>
        <text fill="#000000" font-family="sans-serif" font-size="14" lengthAdjust="spacingAndGlyphs" textLength="222" x="524.5" y="557.7949">alg:AlgoritmoGeradorPasswords</text>
        <rect fill="#FEFECE" filter="url(#fpee19tdp5uv2)" height="46.9766" style="stroke: #A80036; stroke-width: 1.5;" width="101" x="767.5" y="3"/>
        <text fill="#000000" font-family="sans-serif" font-size="14" lengthAdjust="spacingAndGlyphs" textLength="87" x="774.5" y="23.5352">:Autorizacao</text>
        <text fill="#000000" font-family="sans-serif" font-size="14" lengthAdjust="spacingAndGlyphs" textLength="48" x="794" y="40.0234">Facade</text>
        <rect fill="#FEFECE" filter="url(#fpee19tdp5uv2)" height="46.9766" style="stroke: #A80036; stroke-width: 1.5;" width="101" x="767.5" y="520.7715"/>
        <text fill="#000000" font-family="sans-serif" font-size="14" lengthAdjust="spacingAndGlyphs" textLength="87" x="774.5" y="541.3066">:Autorizacao</text>
        <text fill="#000000" font-family="sans-serif" font-size="14" lengthAdjust="spacingAndGlyphs" textLength="48" x="794" y="557.7949">Facade</text>
        <rect fill="#FFFFFF" filter="url(#fpee19tdp5uv2)" height="360.8633" style="stroke: #A80036; stroke-width: 1.0;" width="10" x="81" y="142.5977"/>
        <rect fill="#FFFFFF" filter="url(#fpee19tdp5uv2)" height="30" style="stroke: #A80036; stroke-width: 1.0;" width="10" x="332" y="176.9082"/>
        <rect fill="#FFFFFF" filter="url(#fpee19tdp5uv2)" height="30" style="stroke: #A80036; stroke-width: 1.0;" width="10" x="332" y="236.2188"/>
        <rect fill="#FFFFFF" filter="url(#fpee19tdp5uv2)" height="30" style="stroke: #A80036; stroke-width: 1.0;" width="10" x="450.5" y="295.5293"/>
        <rect fill="#FFFFFF" filter="url(#fpee19tdp5uv2)" height="30" style="stroke: #A80036; stroke-width: 1.0;" width="10" x="450.5" y="414.1504"/>
        <rect fill="#FFFFFF" filter="url(#fpee19tdp5uv2)" height="30" style="stroke: #A80036; stroke-width: 1.0;" width="10" x="630.5" y="354.8398"/>
        <rect fill="#FFFFFF" filter="url(#fpee19tdp5uv2)" height="30" style="stroke: #A80036; stroke-width: 1.0;" width="10" x="815" y="473.4609"/>
        <rect fill="#FBFB77" filter="url(#fpee19tdp5uv2)" height="38" style="stroke: #A80036; stroke-width: 1.0;" width="228" x="521" y="69.9766"/>
        <text fill="#000000" font-family="sans-serif" font-size="13" lengthAdjust="spacingAndGlyphs" textLength="220" x="525" y="86.5449">É uma instância de qualquer classe</text>
        <text fill="#000000" font-family="sans-serif" font-size="13" lengthAdjust="spacingAndGlyphs" textLength="190" x="525" y="101.8555">que implementa esta interface</text>
        <line style="stroke: #A80036; stroke-width: 1.0;" x1="86" x2="133" y1="129.9082" y2="129.9082"/>
        <line style="stroke: #A80036; stroke-width: 1.0;" x1="133" x2="133" y1="129.9082" y2="142.9082"/>
        <line style="stroke: #A80036; stroke-width: 1.0;" x1="92" x2="133" y1="142.9082" y2="142.9082"/>
        <polygon fill="#A80036" points="102,138.9082,92,142.9082,102,146.9082,98,142.9082" style="stroke: #A80036; stroke-width: 1.0;"/>
        <text fill="#000000" font-family="sans-serif" font-size="13" lengthAdjust="spacingAndGlyphs" textLength="237" x="98" y="125.166">registaFreelancerComoUtilizador(free)</text>
        <polygon fill="#A80036" points="320,172.9082,330,176.9082,320,180.9082,324,176.9082" style="stroke: #A80036; stroke-width: 1.0;"/>
        <line style="stroke: #A80036; stroke-width: 1.0;" x1="91" x2="326" y1="176.9082" y2="176.9082"/>
        <text fill="#000000" font-family="sans-serif" font-size="13" lengthAdjust="spacingAndGlyphs" textLength="127" x="98" y="172.4766">nomeG = getNome()</text>
        <polygon fill="#A80036" points="320,232.2188,330,236.2188,320,240.2188,324,236.2188" style="stroke: #A80036; stroke-width: 1.0;"/>
        <line style="stroke: #A80036; stroke-width: 1.0;" x1="91" x2="326" y1="236.2188" y2="236.2188"/>
        <text fill="#000000" font-family="sans-serif" font-size="13" lengthAdjust="spacingAndGlyphs" textLength="123" x="98" y="231.7871">emailG = getEmail()</text>
        <polygon fill="#A80036" points="438.5,291.5293,448.5,295.5293,438.5,299.5293,442.5,295.5293" style="stroke: #A80036; stroke-width: 1.0;"/>
        <line style="stroke: #A80036; stroke-width: 1.0;" x1="91" x2="444.5" y1="295.5293" y2="295.5293"/>
        <text fill="#000000" font-family="sans-serif" font-size="13" lengthAdjust="spacingAndGlyphs" textLength="188" x="98" y="291.0977">alg:getAlgoritmoGeradorPwd()</text>
        <polygon fill="#A80036" points="618.5,350.8398,628.5,354.8398,618.5,358.8398,622.5,354.8398" style="stroke: #A80036; stroke-width: 1.0;"/>
        <line style="stroke: #A80036; stroke-width: 1.0;" x1="91" x2="624.5" y1="354.8398" y2="354.8398"/>
        <text fill="#000000" font-family="sans-serif" font-size="13" lengthAdjust="spacingAndGlyphs" textLength="229" x="98" y="350.4082">pwd = geraPassword(nomeG,emailG)</text>
        <polygon fill="#A80036" points="438.5,410.1504,448.5,414.1504,438.5,418.1504,442.5,414.1504" style="stroke: #A80036; stroke-width: 1.0;"/>
        <line style="stroke: #A80036; stroke-width: 1.0;" x1="91" x2="444.5" y1="414.1504" y2="414.1504"/>
        <text fill="#000000" font-family="sans-serif" font-size="13" lengthAdjust="spacingAndGlyphs" textLength="176" x="98" y="409.7188">aut = getAtorizacaoFacade()</text>
        <polygon fill="#A80036" points="803,469.4609,813,473.4609,803,477.4609,807,473.4609" style="stroke: #A80036; stroke-width: 1.0;"/>
        <line style="stroke: #A80036; stroke-width: 1.0;" x1="91" x2="809" y1="473.4609" y2="473.4609"/>
        <text fill="#000000" font-family="sans-serif" font-size="13" lengthAdjust="spacingAndGlyphs" textLength="395" x="98" y="469.0293">registaUtilizadorComPapeis(nomeG,emailG,pwd,"FREELANCER")</text>
        <!--
@startuml
participant "rf:RegistoFreelancer" as RF
participant "free:Freelancer" as FREE
participant ":Plataforma" as PLAT
participant "<<interface>>\n alg:AlgoritmoGeradorPasswords" as ALG
participant ":Autorizacao\nFacade" as AUT

rnote over ALG
 É uma instância de qualquer classe
 que implementa esta interface
endrnote

RF -> RF: registaFreelancerComoUtilizador(free)
activate RF
RF -> FREE: nomeG = getNome()
activate FREE
deactivate FREE
RF -> FREE: emailG = getEmail()
activate FREE
deactivate FREE
RF -> PLAT: alg:getAlgoritmoGeradorPwd()
activate PLAT
deactivate PLAT
RF -> ALG: pwd = geraPassword(nomeG,emailG)
activate ALG
deactivate ALG
RF -> PLAT: aut = getAtorizacaoFacade()
activate PLAT
deactivate PLAT
RF -> AUT: registaUtilizadorComPapeis(nomeG,emailG,pwd,"FREELANCER")
activate AUT
deactivate AUT
deactivate RF
@enduml

PlantUML version 2017.11(Wed Apr 19 17:18:59 WEST 2017)
(GPL source distribution)
Java Runtime: Java(TM) SE Runtime Environment
JVM: Java HotSpot(TM) 64-Bit Server VM
Java Version: 1.8.0_111-b14
Operating System: Mac OS X
OS Version: 10.15
Default Encoding: UTF-8
Language: pt
Country: PT
-->
    </g>
</svg>
