<?xml version="1.0" encoding="UTF-8"?><svg xmlns="http://www.w3.org/2000/svg" xmlns:xlink="http://www.w3.org/1999/xlink" contentScriptType="application/ecmascript" contentStyleType="text/css" height="694px" preserveAspectRatio="none" style="width:633px;height:694px;" version="1.1" viewBox="0 0 633 694" width="633px" zoomAndPan="magnify">
    <defs>
        <filter height="300%" id="fbhg6pywdjrzz" width="300%" x="-1" y="-1">
            <feGaussianBlur result="blurOut" stdDeviation="2.0"/>
            <feColorMatrix in="blurOut" result="blurOut2" type="matrix" values="0 0 0 0 0 0 0 0 0 0 0 0 0 0 0 0 0 0 .4 0"/>
            <feOffset dx="4.0" dy="4.0" in="blurOut2" result="blurOut3"/>
            <feBlend in="SourceGraphic" in2="blurOut3" mode="normal"/>
        </filter>
    </defs>
    <g>
        <rect fill="#FFFFFF" filter="url(#fbhg6pywdjrzz)" height="495.2793" style="stroke: #A80036; stroke-width: 1.0;" width="10" x="71" y="96.4883"/>
        <rect fill="#FFFFFF" filter="url(#fbhg6pywdjrzz)" height="29.3105" style="stroke: #A80036; stroke-width: 1.0;" width="10" x="572" y="117.4883"/>
        <rect fill="#FFFFFF" filter="url(#fbhg6pywdjrzz)" height="60.6211" style="stroke: #A80036; stroke-width: 1.0;" width="10" x="572" y="274.3516"/>
        <rect fill="#FFFFFF" filter="url(#fbhg6pywdjrzz)" height="44.3105" style="stroke: #A80036; stroke-width: 1.0;" width="10" x="572" y="364.2832"/>
        <rect fill="#FFFFFF" filter="url(#fbhg6pywdjrzz)" height="29.3105" style="stroke: #A80036; stroke-width: 1.0;" width="10" x="572" y="438.2148"/>
        <rect fill="#FFFFFF" filter="url(#fbhg6pywdjrzz)" height="36.3105" style="stroke: #A80036; stroke-width: 1.0;" width="10" x="572" y="496.8359"/>
        <rect fill="#FFFFFF" filter="url(#fbhg6pywdjrzz)" height="29.3105" style="stroke: #A80036; stroke-width: 1.0;" width="10" x="572" y="562.457"/>
        <rect fill="#FFFFFF" filter="url(#fbhg6pywdjrzz)" height="91.2422" style="stroke: #000000; stroke-width: 2.0;" width="611.5" x="13" y="191.4199"/>
        <rect fill="#FFFFFF" filter="url(#fbhg6pywdjrzz)" height="208.4844" style="stroke: #000000; stroke-width: 2.0;" width="611.5" x="13" y="296.6621"/>
        <line style="stroke: #A80036; stroke-width: 1.0; stroke-dasharray: 5.0,5.0;" x1="76" x2="76" y1="86.4883" y2="610.0781"/>
        <line style="stroke: #A80036; stroke-width: 1.0; stroke-dasharray: 5.0,5.0;" x1="576.5" x2="576.5" y1="86.4883" y2="610.0781"/>
        <text fill="#000000" font-family="sans-serif" font-size="14" lengthAdjust="spacingAndGlyphs" textLength="100" x="23" y="83.5352">Administrativo</text>
        <ellipse cx="76" cy="13" fill="#FEFECE" filter="url(#fbhg6pywdjrzz)" rx="8" ry="8" style="stroke: #A80036; stroke-width: 2.0;"/>
        <path d="M76,21 L76,48 M63,29 L89,29 M76,48 L63,63 M76,48 L89,63 " fill="#FEFECE" filter="url(#fbhg6pywdjrzz)" style="stroke: #A80036; stroke-width: 2.0;"/>
        <text fill="#000000" font-family="sans-serif" font-size="14" lengthAdjust="spacingAndGlyphs" textLength="100" x="23" y="622.6133">Administrativo</text>
        <ellipse cx="76" cy="635.5664" fill="#FEFECE" filter="url(#fbhg6pywdjrzz)" rx="8" ry="8" style="stroke: #A80036; stroke-width: 2.0;"/>
        <path d="M76,643.5664 L76,670.5664 M63,651.5664 L89,651.5664 M76,670.5664 L63,685.5664 M76,670.5664 L89,685.5664 " fill="#FEFECE" filter="url(#fbhg6pywdjrzz)" style="stroke: #A80036; stroke-width: 2.0;"/>
        <rect fill="#FEFECE" filter="url(#fbhg6pywdjrzz)" height="30.4883" style="stroke: #A80036; stroke-width: 1.5;" width="71" x="539.5" y="51"/>
        <text fill="#000000" font-family="sans-serif" font-size="14" lengthAdjust="spacingAndGlyphs" textLength="57" x="546.5" y="71.5352">:Sistema</text>
        <rect fill="#FEFECE" filter="url(#fbhg6pywdjrzz)" height="30.4883" style="stroke: #A80036; stroke-width: 1.5;" width="71" x="539.5" y="609.0781"/>
        <text fill="#000000" font-family="sans-serif" font-size="14" lengthAdjust="spacingAndGlyphs" textLength="57" x="546.5" y="629.6133">:Sistema</text>
        <rect fill="#FFFFFF" filter="url(#fbhg6pywdjrzz)" height="495.2793" style="stroke: #A80036; stroke-width: 1.0;" width="10" x="71" y="96.4883"/>
        <rect fill="#FFFFFF" filter="url(#fbhg6pywdjrzz)" height="29.3105" style="stroke: #A80036; stroke-width: 1.0;" width="10" x="572" y="117.4883"/>
        <rect fill="#FFFFFF" filter="url(#fbhg6pywdjrzz)" height="60.6211" style="stroke: #A80036; stroke-width: 1.0;" width="10" x="572" y="274.3516"/>
        <rect fill="#FFFFFF" filter="url(#fbhg6pywdjrzz)" height="44.3105" style="stroke: #A80036; stroke-width: 1.0;" width="10" x="572" y="364.2832"/>
        <rect fill="#FFFFFF" filter="url(#fbhg6pywdjrzz)" height="29.3105" style="stroke: #A80036; stroke-width: 1.0;" width="10" x="572" y="438.2148"/>
        <rect fill="#FFFFFF" filter="url(#fbhg6pywdjrzz)" height="36.3105" style="stroke: #A80036; stroke-width: 1.0;" width="10" x="572" y="496.8359"/>
        <rect fill="#FFFFFF" filter="url(#fbhg6pywdjrzz)" height="29.3105" style="stroke: #A80036; stroke-width: 1.0;" width="10" x="572" y="562.457"/>
        <polygon fill="#A80036" points="560,113.4883,570,117.4883,560,121.4883,564,117.4883" style="stroke: #A80036; stroke-width: 1.0;"/>
        <line style="stroke: #A80036; stroke-width: 1.0;" x1="81" x2="566" y1="117.4883" y2="117.4883"/>
        <text fill="#000000" font-family="sans-serif" font-size="13" font-weight="bold" lengthAdjust="spacingAndGlyphs" textLength="9" x="88" y="113.0566">1</text>
        <text fill="#000000" font-family="sans-serif" font-size="13" lengthAdjust="spacingAndGlyphs" textLength="238" x="101" y="113.0566">Inicia o registo de um novo freelancer</text>
        <polygon fill="#A80036" points="92,142.7988,82,146.7988,92,150.7988,88,146.7988" style="stroke: #A80036; stroke-width: 1.0;"/>
        <line style="stroke: #A80036; stroke-width: 1.0; stroke-dasharray: 2.0,2.0;" x1="86" x2="576" y1="146.7988" y2="146.7988"/>
        <text fill="#000000" font-family="sans-serif" font-size="13" font-weight="bold" lengthAdjust="spacingAndGlyphs" textLength="9" x="98" y="142.3672">2</text>
        <text fill="#000000" font-family="sans-serif" font-size="13" lengthAdjust="spacingAndGlyphs" textLength="454" x="111" y="142.3672">Solicita dados necessários(nome, nif, endereço postal, contacto e email)</text>
        <polygon fill="#A80036" points="565,172.1094,575,176.1094,565,180.1094,569,176.1094" style="stroke: #A80036; stroke-width: 1.0;"/>
        <line style="stroke: #A80036; stroke-width: 1.0;" x1="81" x2="571" y1="176.1094" y2="176.1094"/>
        <text fill="#000000" font-family="sans-serif" font-size="13" font-weight="bold" lengthAdjust="spacingAndGlyphs" textLength="9" x="88" y="171.6777">3</text>
        <text fill="#000000" font-family="sans-serif" font-size="13" lengthAdjust="spacingAndGlyphs" textLength="187" x="101" y="171.6777">Introduz os dados solicitados</text>
        <rect fill="none" height="91.2422" style="stroke: #000000; stroke-width: 2.0;" width="611.5" x="13" y="191.4199"/>
        <polygon fill="#EEEEEE" points="13,191.4199,87,191.4199,87,198.4199,77,208.4199,13,208.4199,13,191.4199" style="stroke: #000000; stroke-width: 2.0;"/>
        <text fill="#000000" font-family="sans-serif" font-size="13" font-weight="bold" lengthAdjust="spacingAndGlyphs" textLength="29" x="28" y="204.9883">loop</text>
        <text fill="#000000" font-family="sans-serif" font-size="11" font-weight="bold" lengthAdjust="spacingAndGlyphs" textLength="183" x="102" y="204.0547">[até ter introduzido todas as HA]</text>
        <polygon fill="#A80036" points="92,240.7305,82,244.7305,92,248.7305,88,244.7305" style="stroke: #A80036; stroke-width: 1.0;"/>
        <line style="stroke: #A80036; stroke-width: 1.0; stroke-dasharray: 2.0,2.0;" x1="86" x2="576" y1="244.7305" y2="244.7305"/>
        <text fill="#000000" font-family="sans-serif" font-size="13" font-weight="bold" lengthAdjust="spacingAndGlyphs" textLength="9" x="98" y="232.9541">4</text>
        <text fill="#000000" font-family="sans-serif" font-size="13" lengthAdjust="spacingAndGlyphs" textLength="402" x="111" y="225.2988">Solicita dados necessários sobre as habilitação académica(grau,</text>
        <text fill="#000000" font-family="sans-serif" font-size="13" lengthAdjust="spacingAndGlyphs" textLength="262" x="115" y="240.6094">designação do curso, instituição e média)</text>
        <polygon fill="#A80036" points="560,270.3516,570,274.3516,560,278.3516,564,274.3516" style="stroke: #A80036; stroke-width: 1.0;"/>
        <line style="stroke: #A80036; stroke-width: 1.0;" x1="81" x2="566" y1="274.3516" y2="274.3516"/>
        <text fill="#000000" font-family="sans-serif" font-size="13" font-weight="bold" lengthAdjust="spacingAndGlyphs" textLength="9" x="88" y="269.9199">5</text>
        <text fill="#000000" font-family="sans-serif" font-size="13" lengthAdjust="spacingAndGlyphs" textLength="187" x="101" y="269.9199">Introduz os dados solicitados</text>
        <rect fill="none" height="208.4844" style="stroke: #000000; stroke-width: 2.0;" width="611.5" x="13" y="296.6621"/>
        <polygon fill="#EEEEEE" points="13,296.6621,87,296.6621,87,303.6621,77,313.6621,13,313.6621,13,296.6621" style="stroke: #000000; stroke-width: 2.0;"/>
        <text fill="#000000" font-family="sans-serif" font-size="13" font-weight="bold" lengthAdjust="spacingAndGlyphs" textLength="29" x="28" y="310.2305">loop</text>
        <text fill="#000000" font-family="sans-serif" font-size="11" font-weight="bold" lengthAdjust="spacingAndGlyphs" textLength="190" x="102" y="309.2969">[até o Freelancer não ter mais CT]</text>
        <polygon fill="#A80036" points="92,330.9727,82,334.9727,92,338.9727,88,334.9727" style="stroke: #A80036; stroke-width: 1.0;"/>
        <line style="stroke: #A80036; stroke-width: 1.0; stroke-dasharray: 2.0,2.0;" x1="86" x2="576" y1="334.9727" y2="334.9727"/>
        <text fill="#000000" font-family="sans-serif" font-size="13" font-weight="bold" lengthAdjust="spacingAndGlyphs" textLength="9" x="98" y="330.541">6</text>
        <text fill="#000000" font-family="sans-serif" font-size="13" lengthAdjust="spacingAndGlyphs" textLength="454" x="111" y="330.541">Apresenta todas as CT e pede para selecionar as que o freelancer possui</text>
        <polygon fill="#A80036" points="560,360.2832,570,364.2832,560,368.2832,564,364.2832" style="stroke: #A80036; stroke-width: 1.0;"/>
        <line style="stroke: #A80036; stroke-width: 1.0;" x1="81" x2="566" y1="364.2832" y2="364.2832"/>
        <text fill="#000000" font-family="sans-serif" font-size="13" font-weight="bold" lengthAdjust="spacingAndGlyphs" textLength="9" x="88" y="359.8516">7</text>
        <text fill="#000000" font-family="sans-serif" font-size="13" lengthAdjust="spacingAndGlyphs" textLength="162" x="101" y="359.8516">Seleciona a CT pretendida</text>
        <polygon fill="#A80036" points="92,404.5938,82,408.5938,92,412.5938,88,408.5938" style="stroke: #A80036; stroke-width: 1.0;"/>
        <line style="stroke: #A80036; stroke-width: 1.0; stroke-dasharray: 2.0,2.0;" x1="86" x2="576" y1="408.5938" y2="408.5938"/>
        <text fill="#000000" font-family="sans-serif" font-size="13" font-weight="bold" lengthAdjust="spacingAndGlyphs" textLength="9" x="98" y="396.8174">8</text>
        <text fill="#000000" font-family="sans-serif" font-size="13" lengthAdjust="spacingAndGlyphs" textLength="220" x="111" y="389.1621">Sistema apresenta os GP referentes</text>
        <text fill="#000000" font-family="sans-serif" font-size="13" lengthAdjust="spacingAndGlyphs" textLength="402" x="115" y="404.4727">a CT selecionada e pede para escolher o que o freelancer possui</text>
        <polygon fill="#A80036" points="560,434.2148,570,438.2148,560,442.2148,564,438.2148" style="stroke: #A80036; stroke-width: 1.0;"/>
        <line style="stroke: #A80036; stroke-width: 1.0;" x1="81" x2="566" y1="438.2148" y2="438.2148"/>
        <text fill="#000000" font-family="sans-serif" font-size="13" font-weight="bold" lengthAdjust="spacingAndGlyphs" textLength="9" x="88" y="433.7832">9</text>
        <text fill="#000000" font-family="sans-serif" font-size="13" lengthAdjust="spacingAndGlyphs" textLength="290" x="101" y="433.7832">Seleciona o GP referente ao nível do freelancer</text>
        <polygon fill="#A80036" points="92,463.5254,82,467.5254,92,471.5254,88,467.5254" style="stroke: #A80036; stroke-width: 1.0;"/>
        <line style="stroke: #A80036; stroke-width: 1.0; stroke-dasharray: 2.0,2.0;" x1="86" x2="576" y1="467.5254" y2="467.5254"/>
        <text fill="#000000" font-family="sans-serif" font-size="13" font-weight="bold" lengthAdjust="spacingAndGlyphs" textLength="18" x="98" y="463.0938">10</text>
        <text fill="#000000" font-family="sans-serif" font-size="13" lengthAdjust="spacingAndGlyphs" textLength="299" x="120" y="463.0938">Solicita a data em que ocorre o reconhecimento</text>
        <polygon fill="#A80036" points="560,492.8359,570,496.8359,560,500.8359,564,496.8359" style="stroke: #A80036; stroke-width: 1.0;"/>
        <line style="stroke: #A80036; stroke-width: 1.0;" x1="81" x2="566" y1="496.8359" y2="496.8359"/>
        <text fill="#000000" font-family="sans-serif" font-size="13" font-weight="bold" lengthAdjust="spacingAndGlyphs" textLength="18" x="88" y="492.4043">11</text>
        <text fill="#000000" font-family="sans-serif" font-size="13" lengthAdjust="spacingAndGlyphs" textLength="220" x="110" y="492.4043">Introduz a data do reconhecimento</text>
        <polygon fill="#A80036" points="92,529.1465,82,533.1465,92,537.1465,88,533.1465" style="stroke: #A80036; stroke-width: 1.0;"/>
        <line style="stroke: #A80036; stroke-width: 1.0; stroke-dasharray: 2.0,2.0;" x1="86" x2="576" y1="533.1465" y2="533.1465"/>
        <text fill="#000000" font-family="sans-serif" font-size="13" font-weight="bold" lengthAdjust="spacingAndGlyphs" textLength="18" x="98" y="528.7148">12</text>
        <text fill="#000000" font-family="sans-serif" font-size="13" lengthAdjust="spacingAndGlyphs" textLength="307" x="120" y="528.7148">Apresenta todos os dados e solicita confirmação</text>
        <polygon fill="#A80036" points="560,558.457,570,562.457,560,566.457,564,562.457" style="stroke: #A80036; stroke-width: 1.0;"/>
        <line style="stroke: #A80036; stroke-width: 1.0;" x1="81" x2="566" y1="562.457" y2="562.457"/>
        <text fill="#000000" font-family="sans-serif" font-size="13" font-weight="bold" lengthAdjust="spacingAndGlyphs" textLength="18" x="88" y="558.0254">13</text>
        <text fill="#000000" font-family="sans-serif" font-size="13" lengthAdjust="spacingAndGlyphs" textLength="58" x="110" y="558.0254">Confirma</text>
        <polygon fill="#A80036" points="87,587.7676,77,591.7676,87,595.7676,83,591.7676" style="stroke: #A80036; stroke-width: 1.0;"/>
        <line style="stroke: #A80036; stroke-width: 1.0; stroke-dasharray: 2.0,2.0;" x1="81" x2="576" y1="591.7676" y2="591.7676"/>
        <text fill="#000000" font-family="sans-serif" font-size="13" font-weight="bold" lengthAdjust="spacingAndGlyphs" textLength="18" x="93" y="587.3359">14</text>
        <text fill="#000000" font-family="sans-serif" font-size="13" lengthAdjust="spacingAndGlyphs" textLength="150" x="115" y="587.3359">Operação bem sucedida</text>
        <!--
@startuml
autonumber
actor "Administrativo" as ADM

activate ADM
ADM -> ":Sistema" : Inicia o registo de um novo freelancer 
activate ":Sistema"
":Sistema" - -> ADM : Solicita dados necessários(nome, nif, endereço postal, contacto e email)
deactivate ":Sistema"

ADM -> ":Sistema" : Introduz os dados solicitados

loop  até ter introduzido todas as HA
":Sistema" - -> ADM : Solicita dados necessários sobre as habilitação académica(grau,\n designação do curso, instituição e média)
deactivate ":Sistema"

ADM -> ":Sistema" : Introduz os dados solicitados
activate ":Sistema"

end

loop  até o Freelancer não ter mais CT
":Sistema" - -> ADM : Apresenta todas as CT e pede para selecionar as que o freelancer possui
deactivate ":Sistema"

ADM -> ":Sistema" : Seleciona a CT pretendida
activate ":Sistema"

":Sistema" - -> ADM : Sistema apresenta os GP referentes\n a CT selecionada e pede para escolher o que o freelancer possui
deactivate ":Sistema"

ADM -> ":Sistema" : Seleciona o GP referente ao nível do freelancer
activate ":Sistema"

":Sistema" - -> ADM : Solicita a data em que ocorre o reconhecimento
deactivate ":Sistema"

ADM -> ":Sistema" : Introduz a data do reconhecimento 
activate ":Sistema"

end
":Sistema" - -> ADM : Apresenta todos os dados e solicita confirmação
deactivate ":Sistema"

ADM -> ":Sistema" : Confirma
activate ":Sistema"
":Sistema" - -> ADM : Operação bem sucedida
deactivate ":Sistema"
deactivate ADM
@enduml

PlantUML version 2017.11(Wed Apr 19 17:18:59 WEST 2017)
(GPL source distribution)
Java Runtime: Java(TM) SE Runtime Environment
JVM: Java HotSpot(TM) 64-Bit Server VM
Java Version: 1.8.0_111-b14
Operating System: Mac OS X
OS Version: 10.15
Default Encoding: UTF-8
Language: pt
Country: PT
-->
    </g>
</svg>
