@startuml
participant "rf:RegistoFreelancer" as RF
participant "free:Freelancer" as FREE
participant ":Plataforma" as PLAT
participant "<<interface>>\n alg:AlgoritmoGeradorPasswords" as ALG
participant ":Autorizacao\nFacade" as AUT

rnote over ALG
 É uma instância de qualquer classe
 que implementa esta interface
endrnote

RF -> RF: registaFreelancerComoUtilizador(free)
activate RF
RF -> FREE: nomeG = getNome()
activate FREE
deactivate FREE
RF -> FREE: emailG = getEmail()
activate FREE
deactivate FREE
RF -> PLAT: alg:getAlgoritmoGeradorPwd()
activate PLAT
deactivate PLAT
RF -> ALG: pwd = geraPassword(nomeG,emailG)
activate ALG
deactivate ALG
RF -> PLAT: aut = getAtorizacaoFacade()
activate PLAT
deactivate PLAT
RF -> AUT: registaUtilizadorComPapeis(nomeG,emailG,pwd,"FREELANCER")
activate AUT
deactivate AUT
deactivate RF
@enduml
