@startuml
autonumber
actor "Administrativo" as ADM

activate ADM
ADM -> ":Sistema" : Inicia o registo de um novo freelancer 
activate ":Sistema"
":Sistema" --> ADM : Solicita dados necessários(nome, nif, endereço postal, contacto e email)
deactivate ":Sistema"

ADM -> ":Sistema" : Introduz os dados solicitados

loop  até ter introduzido todas as HA
":Sistema" --> ADM : Solicita dados necessários sobre as habilitação académica(grau,\n designação do curso, instituição e média)
deactivate ":Sistema"

ADM -> ":Sistema" : Introduz os dados solicitados
activate ":Sistema"

end

loop  até o Freelancer não ter mais CT
":Sistema" --> ADM : Apresenta todas as CT e pede para selecionar as que o freelancer possui
deactivate ":Sistema"

ADM -> ":Sistema" : Seleciona a CT pretendida
activate ":Sistema"

":Sistema" --> ADM : Sistema apresenta os GP referentes\n a CT selecionada e pede para escolher o que o freelancer possui
deactivate ":Sistema"

ADM -> ":Sistema" : Seleciona o GP referente ao nível do freelancer
activate ":Sistema"

":Sistema" --> ADM : Solicita a data em que ocorre o reconhecimento
deactivate ":Sistema"

ADM -> ":Sistema" : Introduz a data do reconhecimento 
activate ":Sistema"

end
":Sistema" --> ADM : Apresenta todos os dados e solicita confirmação
deactivate ":Sistema"

ADM -> ":Sistema" : Confirma
activate ":Sistema"
":Sistema" --> ADM : Operação bem sucedida
deactivate ":Sistema"
deactivate ADM
@enduml
