@startuml
autonumber
'hide footbox
title UC13_SD_AdjudicarCandidatura
participant "task:SeriarCandidaturaAnuncioTask" as TSK
participant "anu:Anuncio" as ANU
participant "cand:Candidatura" as CND
participant ":Plataforma" as PLAT
participant "tar\n:Tarefa" as TRF
participant "free\n:Freelancer" as FREE
participant "rorg\n:RegistoOrganizacoes" as RORG
participant "org\n:Organizacao" as ORG
participant "radjudi\n:RegistoAdjudicacoes" as RADJ
participant "adjudi\n:Adjudicacao" as ADJ


activate TSK
TSK -> ANU: tar = getTarefa()
activate ANU
deactivate ANU
TSK -> PLAT: rorg = getRegistoOrganizacoes()
activate PLAT
deactivate PLAT
TSK -> RORG: org = getOrganizacaobyTarefa(tar)
activate RORG
deactivate RORG
TSK -> TRF: descTarefa = getDescricao()
activate TRF
deactivate TRF
TSK -> ANU: primeiroClass = getPrimeiroClassificado()
activate ANU
deactivate ANU
TSK -> CND: free = getFreelancer()
activate CND
deactivate CND
TSK -> CND: periodoReali = getNrDias()
activate CND
deactivate CND
TSK -> FREE: valorRemu = getValor()
activate FREE
deactivate FREE
TSK -> ANU: refAnu = getReferenciaAnuncio()
activate ANU
deactivate ANU
TSK -> PLAT: radjudi = getRegistoAdjudicacoes()
activate PLAT
deactivate PLAT
TSK -> RADJ:novaAdjudicacao(org,free,descTarefa,periodoReali,valorRemu,refAnu)
activate RADJ
RADJ -> RADJ:numSeq = geraNumPorAno()
RADJ -> RADJ:dataAdjudi = getDataAdjudi()
RADJ --> ADJ**:adjudi = create(numSeq,dataAdjudi,org,free,descTarefa,periodoReali,valorRemu,refAnu)
RADJ -> RADJ: validaAdjudicacao(adjudi)
RADJ -> RADJ: addAdjudicacao(adjudi)
deactivate RADJ
deactivate TSK
@enduml
