<?xml version="1.0" encoding="UTF-8"?><svg xmlns="http://www.w3.org/2000/svg" xmlns:xlink="http://www.w3.org/1999/xlink" contentScriptType="application/ecmascript" contentStyleType="text/css" height="202px" preserveAspectRatio="none" style="width:950px;height:202px;" version="1.1" viewBox="0 0 950 202" width="950px" zoomAndPan="magnify">
    <defs>
        <filter height="300%" id="f1paifavcy2vwa" width="300%" x="-1" y="-1">
            <feGaussianBlur result="blurOut" stdDeviation="2.0"/>
            <feColorMatrix in="blurOut" result="blurOut2" type="matrix" values="0 0 0 0 0 0 0 0 0 0 0 0 0 0 0 0 0 0 .4 0"/>
            <feOffset dx="4.0" dy="4.0" in="blurOut2" result="blurOut3"/>
            <feBlend in="SourceGraphic" in2="blurOut3" mode="normal"/>
        </filter>
    </defs>
    <g>
        <!--class Plataforma-->
        <rect fill="#FEFECE" filter="url(#f1paifavcy2vwa)" height="53.8359" style="stroke: #A80036; stroke-width: 1.5;" width="103" x="6" y="85"/>
        <ellipse cx="25.95" cy="101" fill="#ADD1B2" rx="11" ry="11" style="stroke: #A80036; stroke-width: 1.0;"/>
        <path d="M28.7156,96.875 Q28.8719,96.6563 29.0594,96.5469 Q29.2469,96.4375 29.4656,96.4375 Q29.8406,96.4375 30.075,96.6953 Q30.3094,96.9531 30.3094,97.5625 L30.3094,99.0156 Q30.3094,99.625 30.075,99.8906 Q29.8406,100.1563 29.4656,100.1563 Q29.1219,100.1563 28.9188,99.9531 Q28.7156,99.7656 28.6063,99.25 Q28.5594,98.8906 28.3719,98.7031 Q28.0438,98.3281 27.4344,98.1094 Q26.825,97.8906 26.2,97.8906 Q25.4344,97.8906 24.8016,98.2188 Q24.1688,98.5469 23.6766,99.2969 Q23.1844,100.0469 23.1844,101.0781 L23.1844,102.1719 Q23.1844,103.4063 24.075,104.2266 Q24.9656,105.0469 26.5594,105.0469 Q27.4969,105.0469 28.1531,104.7969 Q28.5438,104.6406 28.9656,104.2031 Q29.2313,103.9375 29.3797,103.8594 Q29.5281,103.7813 29.7313,103.7813 Q30.0594,103.7813 30.3172,104.0391 Q30.575,104.2969 30.575,104.6406 Q30.575,104.9844 30.2313,105.3906 Q29.7313,105.9688 28.9344,106.2969 Q27.8563,106.75 26.5594,106.75 Q25.0438,106.75 23.8406,106.125 Q22.8563,105.625 22.1688,104.5547 Q21.4813,103.4844 21.4813,102.2031 L21.4813,101.0469 Q21.4813,99.7188 22.0984,98.5703 Q22.7156,97.4219 23.8094,96.8047 Q24.9031,96.1875 26.1375,96.1875 Q26.8719,96.1875 27.5203,96.3516 Q28.1688,96.5156 28.7156,96.875 Z "/>
        <text fill="#000000" font-family="sans-serif" font-size="12" lengthAdjust="spacingAndGlyphs" textLength="60" x="41.05" y="105.9102">Plataforma</text>
        <line style="stroke: #A80036; stroke-width: 1.5;" x1="7" x2="108" y1="117" y2="117"/>
        <text fill="#000000" font-family="sans-serif" font-size="11" lengthAdjust="spacingAndGlyphs" textLength="91" x="12" y="132.4189">-String designacao</text>
        <!--class Organizacao-->
        <rect fill="#FEFECE" filter="url(#f1paifavcy2vwa)" height="109.1797" style="stroke: #A80036; stroke-width: 1.5;" width="101" x="319.5" y="8.5"/>
        <ellipse cx="334.5" cy="24.5" fill="#ADD1B2" rx="11" ry="11" style="stroke: #A80036; stroke-width: 1.0;"/>
        <path d="M337.2656,20.375 Q337.4219,20.1563 337.6094,20.0469 Q337.7969,19.9375 338.0156,19.9375 Q338.3906,19.9375 338.625,20.1953 Q338.8594,20.4531 338.8594,21.0625 L338.8594,22.5156 Q338.8594,23.125 338.625,23.3906 Q338.3906,23.6563 338.0156,23.6563 Q337.6719,23.6563 337.4688,23.4531 Q337.2656,23.2656 337.1563,22.75 Q337.1094,22.3906 336.9219,22.2031 Q336.5938,21.8281 335.9844,21.6094 Q335.375,21.3906 334.75,21.3906 Q333.9844,21.3906 333.3516,21.7188 Q332.7188,22.0469 332.2266,22.7969 Q331.7344,23.5469 331.7344,24.5781 L331.7344,25.6719 Q331.7344,26.9063 332.625,27.7266 Q333.5156,28.5469 335.1094,28.5469 Q336.0469,28.5469 336.7031,28.2969 Q337.0938,28.1406 337.5156,27.7031 Q337.7813,27.4375 337.9297,27.3594 Q338.0781,27.2813 338.2813,27.2813 Q338.6094,27.2813 338.8672,27.5391 Q339.125,27.7969 339.125,28.1406 Q339.125,28.4844 338.7813,28.8906 Q338.2813,29.4688 337.4844,29.7969 Q336.4063,30.25 335.1094,30.25 Q333.5938,30.25 332.3906,29.625 Q331.4063,29.125 330.7188,28.0547 Q330.0313,26.9844 330.0313,25.7031 L330.0313,24.5469 Q330.0313,23.2188 330.6484,22.0703 Q331.2656,20.9219 332.3594,20.3047 Q333.4531,19.6875 334.6875,19.6875 Q335.4219,19.6875 336.0703,19.8516 Q336.7188,20.0156 337.2656,20.375 Z "/>
        <text fill="#000000" font-family="sans-serif" font-size="12" lengthAdjust="spacingAndGlyphs" textLength="69" x="348.5" y="29.4102">Organizacao</text>
        <line style="stroke: #A80036; stroke-width: 1.5;" x1="320.5" x2="419.5" y1="40.5" y2="40.5"/>
        <text fill="#000000" font-family="sans-serif" font-size="11" lengthAdjust="spacingAndGlyphs" textLength="61" x="325.5" y="55.9189">-String nome</text>
        <text fill="#000000" font-family="sans-serif" font-size="11" lengthAdjust="spacingAndGlyphs" textLength="50" x="325.5" y="69.7549">-String NIF</text>
        <text fill="#000000" font-family="sans-serif" font-size="11" lengthAdjust="spacingAndGlyphs" textLength="74" x="325.5" y="83.5908">-String website</text>
        <text fill="#000000" font-family="sans-serif" font-size="11" lengthAdjust="spacingAndGlyphs" textLength="74" x="325.5" y="97.4268">-String telefone</text>
        <text fill="#000000" font-family="sans-serif" font-size="11" lengthAdjust="spacingAndGlyphs" textLength="59" x="325.5" y="111.2627">-String email</text>
        <!--class Colaborador-->
        <rect fill="#FEFECE" filter="url(#f1paifavcy2vwa)" height="95.3438" style="stroke: #A80036; stroke-width: 1.5;" width="101" x="607" y="67.5"/>
        <ellipse cx="622" cy="83.5" fill="#ADD1B2" rx="11" ry="11" style="stroke: #A80036; stroke-width: 1.0;"/>
        <path d="M624.7656,79.375 Q624.9219,79.1563 625.1094,79.0469 Q625.2969,78.9375 625.5156,78.9375 Q625.8906,78.9375 626.125,79.1953 Q626.3594,79.4531 626.3594,80.0625 L626.3594,81.5156 Q626.3594,82.125 626.125,82.3906 Q625.8906,82.6563 625.5156,82.6563 Q625.1719,82.6563 624.9688,82.4531 Q624.7656,82.2656 624.6563,81.75 Q624.6094,81.3906 624.4219,81.2031 Q624.0938,80.8281 623.4844,80.6094 Q622.875,80.3906 622.25,80.3906 Q621.4844,80.3906 620.8516,80.7188 Q620.2188,81.0469 619.7266,81.7969 Q619.2344,82.5469 619.2344,83.5781 L619.2344,84.6719 Q619.2344,85.9063 620.125,86.7266 Q621.0156,87.5469 622.6094,87.5469 Q623.5469,87.5469 624.2031,87.2969 Q624.5938,87.1406 625.0156,86.7031 Q625.2813,86.4375 625.4297,86.3594 Q625.5781,86.2813 625.7813,86.2813 Q626.1094,86.2813 626.3672,86.5391 Q626.625,86.7969 626.625,87.1406 Q626.625,87.4844 626.2813,87.8906 Q625.7813,88.4688 624.9844,88.7969 Q623.9063,89.25 622.6094,89.25 Q621.0938,89.25 619.8906,88.625 Q618.9063,88.125 618.2188,87.0547 Q617.5313,85.9844 617.5313,84.7031 L617.5313,83.5469 Q617.5313,82.2188 618.1484,81.0703 Q618.7656,79.9219 619.8594,79.3047 Q620.9531,78.6875 622.1875,78.6875 Q622.9219,78.6875 623.5703,78.8516 Q624.2188,79.0156 624.7656,79.375 Z "/>
        <text fill="#000000" font-family="sans-serif" font-size="12" lengthAdjust="spacingAndGlyphs" textLength="69" x="636" y="88.4102">Colaborador</text>
        <line style="stroke: #A80036; stroke-width: 1.5;" x1="608" x2="707" y1="99.5" y2="99.5"/>
        <text fill="#000000" font-family="sans-serif" font-size="11" lengthAdjust="spacingAndGlyphs" textLength="61" x="613" y="114.9189">-String nome</text>
        <text fill="#000000" font-family="sans-serif" font-size="11" lengthAdjust="spacingAndGlyphs" textLength="69" x="613" y="128.7549">-String funcao</text>
        <text fill="#000000" font-family="sans-serif" font-size="11" lengthAdjust="spacingAndGlyphs" textLength="74" x="613" y="142.5908">-String telefone</text>
        <text fill="#000000" font-family="sans-serif" font-size="11" lengthAdjust="spacingAndGlyphs" textLength="59" x="613" y="156.4268">-String email</text>
        <!--class Utilizador-->
        <rect fill="#FEFECE" filter="url(#f1paifavcy2vwa)" height="81.5078" style="stroke: #A80036; stroke-width: 1.5;" width="97" x="844" y="74"/>
        <ellipse cx="865.3" cy="90" fill="#ADD1B2" rx="11" ry="11" style="stroke: #A80036; stroke-width: 1.0;"/>
        <path d="M868.0656,85.875 Q868.2219,85.6563 868.4094,85.5469 Q868.5969,85.4375 868.8156,85.4375 Q869.1906,85.4375 869.425,85.6953 Q869.6594,85.9531 869.6594,86.5625 L869.6594,88.0156 Q869.6594,88.625 869.425,88.8906 Q869.1906,89.1563 868.8156,89.1563 Q868.4719,89.1563 868.2688,88.9531 Q868.0656,88.7656 867.9563,88.25 Q867.9094,87.8906 867.7219,87.7031 Q867.3938,87.3281 866.7844,87.1094 Q866.175,86.8906 865.55,86.8906 Q864.7844,86.8906 864.1516,87.2188 Q863.5188,87.5469 863.0266,88.2969 Q862.5344,89.0469 862.5344,90.0781 L862.5344,91.1719 Q862.5344,92.4063 863.425,93.2266 Q864.3156,94.0469 865.9094,94.0469 Q866.8469,94.0469 867.5031,93.7969 Q867.8938,93.6406 868.3156,93.2031 Q868.5813,92.9375 868.7297,92.8594 Q868.8781,92.7813 869.0813,92.7813 Q869.4094,92.7813 869.6672,93.0391 Q869.925,93.2969 869.925,93.6406 Q869.925,93.9844 869.5813,94.3906 Q869.0813,94.9688 868.2844,95.2969 Q867.2063,95.75 865.9094,95.75 Q864.3938,95.75 863.1906,95.125 Q862.2063,94.625 861.5188,93.5547 Q860.8313,92.4844 860.8313,91.2031 L860.8313,90.0469 Q860.8313,88.7188 861.4484,87.5703 Q862.0656,86.4219 863.1594,85.8047 Q864.2531,85.1875 865.4875,85.1875 Q866.2219,85.1875 866.8703,85.3516 Q867.5188,85.5156 868.0656,85.875 Z "/>
        <text fill="#000000" font-family="sans-serif" font-size="12" lengthAdjust="spacingAndGlyphs" textLength="51" x="880.7" y="94.9102">Utilizador</text>
        <line style="stroke: #A80036; stroke-width: 1.5;" x1="845" x2="940" y1="106" y2="106"/>
        <text fill="#000000" font-family="sans-serif" font-size="11" lengthAdjust="spacingAndGlyphs" textLength="61" x="850" y="121.4189">-String nome</text>
        <text fill="#000000" font-family="sans-serif" font-size="11" lengthAdjust="spacingAndGlyphs" textLength="59" x="850" y="135.2549">-String email</text>
        <text fill="#000000" font-family="sans-serif" font-size="11" lengthAdjust="spacingAndGlyphs" textLength="85" x="850" y="149.0908">-String password</text>
        <!--class AlgoritmoExternoGeracaoPWD-->
        <rect fill="#FEFECE" filter="url(#f1paifavcy2vwa)" height="40" style="stroke: #A80036; stroke-width: 1.5;" width="200" x="270" y="153"/>
        <ellipse cx="285" cy="169" fill="#ADD1B2" rx="11" ry="11" style="stroke: #A80036; stroke-width: 1.0;"/>
        <path d="M287.7656,164.875 Q287.9219,164.6563 288.1094,164.5469 Q288.2969,164.4375 288.5156,164.4375 Q288.8906,164.4375 289.125,164.6953 Q289.3594,164.9531 289.3594,165.5625 L289.3594,167.0156 Q289.3594,167.625 289.125,167.8906 Q288.8906,168.1563 288.5156,168.1563 Q288.1719,168.1563 287.9688,167.9531 Q287.7656,167.7656 287.6563,167.25 Q287.6094,166.8906 287.4219,166.7031 Q287.0938,166.3281 286.4844,166.1094 Q285.875,165.8906 285.25,165.8906 Q284.4844,165.8906 283.8516,166.2188 Q283.2188,166.5469 282.7266,167.2969 Q282.2344,168.0469 282.2344,169.0781 L282.2344,170.1719 Q282.2344,171.4063 283.125,172.2266 Q284.0156,173.0469 285.6094,173.0469 Q286.5469,173.0469 287.2031,172.7969 Q287.5938,172.6406 288.0156,172.2031 Q288.2813,171.9375 288.4297,171.8594 Q288.5781,171.7813 288.7813,171.7813 Q289.1094,171.7813 289.3672,172.0391 Q289.625,172.2969 289.625,172.6406 Q289.625,172.9844 289.2813,173.3906 Q288.7813,173.9688 287.9844,174.2969 Q286.9063,174.75 285.6094,174.75 Q284.0938,174.75 282.8906,174.125 Q281.9063,173.625 281.2188,172.5547 Q280.5313,171.4844 280.5313,170.2031 L280.5313,169.0469 Q280.5313,167.7188 281.1484,166.5703 Q281.7656,165.4219 282.8594,164.8047 Q283.9531,164.1875 285.1875,164.1875 Q285.9219,164.1875 286.5703,164.3516 Q287.2188,164.5156 287.7656,164.875 Z "/>
        <text fill="#000000" font-family="sans-serif" font-size="12" lengthAdjust="spacingAndGlyphs" textLength="168" x="299" y="173.9102">AlgoritmoExternoGeracaoPWD</text>
        <line style="stroke: #A80036; stroke-width: 1.5;" x1="271" x2="469" y1="185" y2="185"/>
        <path d="M109.078,121.9365 C152.469,130.4608 216.278,142.9966 269.813,153.514 " fill="none" style="stroke: #A80036; stroke-width: 1.0;"/>
        <text fill="#000000" font-family="sans-serif" font-size="13" lengthAdjust="spacingAndGlyphs" textLength="51" x="157.5" y="124.4951">recorre a</text>
        <polygon fill="#000000" points="211.5,117.6758,217.5,120.6758,211.5,123.6758,211.5,117.6758" style="stroke: #000000; stroke-width: 1.0;"/>
        <text fill="#000000" font-family="sans-serif" font-size="13" lengthAdjust="spacingAndGlyphs" textLength="7" x="117.1676" y="138.1039">1</text>
        <text fill="#000000" font-family="sans-serif" font-size="13" lengthAdjust="spacingAndGlyphs" textLength="7" x="254.8745" y="166.1432">1</text>
        <path d="M470.257,170.3758 C504.546,167.633 542.902,162.4859 577,153 C586.875,150.253 597.026,146.341 606.633,142.0619 " fill="none" style="stroke: #A80036; stroke-width: 1.0;"/>
        <text fill="#000000" font-family="sans-serif" font-size="13" lengthAdjust="spacingAndGlyphs" textLength="60" x="502" y="149.4951">gera PWD</text>
        <polygon fill="#000000" points="565,142.6758,571,145.6758,565,148.6758,565,142.6758" style="stroke: #000000; stroke-width: 1.0;"/>
        <text fill="#000000" font-family="sans-serif" font-size="13" lengthAdjust="spacingAndGlyphs" textLength="7" x="477.8767" y="184.2786">1</text>
        <text fill="#000000" font-family="sans-serif" font-size="13" lengthAdjust="spacingAndGlyphs" textLength="5" x="594.1283" y="160.4881">*</text>
        <path d="M109.078,104.0182 C167.161,94.8522 261.832,79.912 319.47,70.816 " fill="none" style="stroke: #A80036; stroke-width: 1.0;"/>
        <text fill="#000000" font-family="sans-serif" font-size="13" lengthAdjust="spacingAndGlyphs" textLength="86" x="140" y="80.4951">tem registadas</text>
        <polygon fill="#000000" points="229,73.6758,235,76.6758,229,79.6758,229,73.6758" style="stroke: #000000; stroke-width: 1.0;"/>
        <text fill="#000000" font-family="sans-serif" font-size="13" lengthAdjust="spacingAndGlyphs" textLength="7" x="117.1676" y="117.5539">1</text>
        <text fill="#000000" font-family="sans-serif" font-size="13" lengthAdjust="spacingAndGlyphs" textLength="5" x="306.3498" y="86.7461">*</text>
        <path d="M420.721,69.887 C462.562,75.94 523.896,85.416 577,96 C586.603,97.9138 596.805,100.1762 606.585,102.4603 " fill="none" style="stroke: #A80036; stroke-width: 1.0;"/>
        <text fill="#000000" font-family="sans-serif" font-size="13" lengthAdjust="spacingAndGlyphs" textLength="22" x="521" y="78.4951">tem</text>
        <polygon fill="#000000" points="546,71.6758,552,74.6758,546,77.6758,546,71.6758" style="stroke: #000000; stroke-width: 1.0;"/>
        <text fill="#000000" font-family="sans-serif" font-size="13" lengthAdjust="spacingAndGlyphs" textLength="7" x="428.3458" y="85.4877">1</text>
        <text fill="#000000" font-family="sans-serif" font-size="13" lengthAdjust="spacingAndGlyphs" textLength="20" x="579.161" y="115.4026">1..*</text>
        <path d="M420.72,91.805 C443.987,103.6711 472.568,116.0245 500,122 C535.211,129.67 575.897,127.5251 606.959,123.6706 " fill="none" style="stroke: #A80036; stroke-width: 1.0;"/>
        <text fill="#000000" font-family="sans-serif" font-size="13" lengthAdjust="spacingAndGlyphs" textLength="62" x="501" y="118.4951">tem gestor</text>
        <polygon fill="#000000" points="566,111.6758,572,114.6758,566,117.6758,566,111.6758" style="stroke: #000000; stroke-width: 1.0;"/>
        <text fill="#000000" font-family="sans-serif" font-size="13" lengthAdjust="spacingAndGlyphs" textLength="7" x="428.3447" y="110.4879">1</text>
        <text fill="#000000" font-family="sans-serif" font-size="13" lengthAdjust="spacingAndGlyphs" textLength="7" x="592.0217" y="139.6148">1</text>
        <path d="M708.199,115 C748.294,115 804.334,115 843.868,115 " fill="none" style="stroke: #A80036; stroke-width: 1.0;"/>
        <text fill="#000000" font-family="sans-serif" font-size="13" lengthAdjust="spacingAndGlyphs" textLength="61" x="739" y="111.4951">atua como</text>
        <polygon fill="#000000" points="803,104.6758,809,107.6758,803,110.6758,803,104.6758" style="stroke: #000000; stroke-width: 1.0;"/>
        <text fill="#000000" font-family="sans-serif" font-size="13" lengthAdjust="spacingAndGlyphs" textLength="22" x="716.1042" y="129.5206">0..1</text>
        <text fill="#000000" font-family="sans-serif" font-size="13" lengthAdjust="spacingAndGlyphs" textLength="7" x="828.8853" y="129.7847">1</text>
        <!--
@startuml
skinparam classAttributeIconSize 0

hide methods
left to right direction

class Plataforma {
  -String designacao
}

class Organizacao {
  -String nome
  -String NIF
  -String website
  -String telefone
  -String email
}

class Colaborador {
  -String nome
  -String funcao
  -String telefone
  -String email
}

class Utilizador {
  -String nome
  -String email
  -String password
}

class AlgoritmoExternoGeracaoPWD{
}

Plataforma "1" - - "1" AlgoritmoExternoGeracaoPWD : recorre a >
AlgoritmoExternoGeracaoPWD "1" - - "*" Colaborador : gera PWD >
Plataforma "1" - - "*" Organizacao : tem registadas >
Organizacao "1" - - "1..*" Colaborador: tem >
Organizacao "1" - - "1" Colaborador: tem gestor >
Colaborador "0..1" - - "1" Utilizador : atua como >
@enduml

PlantUML version 2017.11(Wed Apr 19 17:18:59 BST 2017)
(GPL source distribution)
Java Runtime: Java(TM) SE Runtime Environment
JVM: Java HotSpot(TM) 64-Bit Server VM
Java Version: 1.8.0_111-b14
Operating System: Windows 10
OS Version: 10.0
Default Encoding: UTF-8
Language: en
Country: US
-->
    </g>
</svg>
