<?xml version="1.0" encoding="UTF-8"?><svg xmlns="http://www.w3.org/2000/svg" xmlns:xlink="http://www.w3.org/1999/xlink" contentScriptType="application/ecmascript" contentStyleType="text/css" height="1034px" preserveAspectRatio="none" style="width:1096px;height:1034px;" version="1.1" viewBox="0 0 1096 1034" width="1096px" zoomAndPan="magnify">
    <defs>
        <filter height="300%" id="fvbxz8jqecybl" width="300%" x="-1" y="-1">
            <feGaussianBlur result="blurOut" stdDeviation="2.0"/>
            <feColorMatrix in="blurOut" result="blurOut2" type="matrix" values="0 0 0 0 0 0 0 0 0 0 0 0 0 0 0 0 0 0 .4 0"/>
            <feOffset dx="4.0" dy="4.0" in="blurOut2" result="blurOut3"/>
            <feBlend in="SourceGraphic" in2="blurOut3" mode="normal"/>
        </filter>
    </defs>
    <g>
        <!--class PublicarTarefaUI-->
        <rect fill="#FEFECE" filter="url(#fvbxz8jqecybl)" height="48" style="stroke: #A80036; stroke-width: 1.5;" width="127" x="386" y="8"/>
        <ellipse cx="401" cy="24" fill="#ADD1B2" rx="11" ry="11" style="stroke: #A80036; stroke-width: 1.0;"/>
        <path d="M403.4731,30.1431 Q402.8921,30.4419 402.2529,30.5913 Q401.6138,30.7407 400.9082,30.7407 Q398.4014,30.7407 397.0815,29.0889 Q395.7617,27.437 395.7617,24.3159 Q395.7617,21.1865 397.0815,19.5347 Q398.4014,17.8828 400.9082,17.8828 Q401.6138,17.8828 402.2612,18.0322 Q402.9087,18.1816 403.4731,18.4805 L403.4731,21.2031 Q402.8423,20.6221 402.2488,20.3523 Q401.6553,20.0825 401.0244,20.0825 Q399.6797,20.0825 398.9949,21.1492 Q398.3101,22.2158 398.3101,24.3159 Q398.3101,26.4077 398.9949,27.4744 Q399.6797,28.541 401.0244,28.541 Q401.6553,28.541 402.2488,28.2712 Q402.8423,28.0015 403.4731,27.4204 Z "/>
        <text fill="#000000" font-family="sans-serif" font-size="12" lengthAdjust="spacingAndGlyphs" textLength="95" x="415" y="28.5352">PublicarTarefaUI</text>
        <line style="stroke: #A80036; stroke-width: 1.5;" x1="387" x2="512" y1="40" y2="40"/>
        <line style="stroke: #A80036; stroke-width: 1.5;" x1="387" x2="512" y1="48" y2="48"/>
        <!--class PublicarTarefaController-->
        <rect fill="#FEFECE" filter="url(#fvbxz8jqecybl)" height="112.7754" style="stroke: #A80036; stroke-width: 1.5;" width="321" x="289" y="117"/>
        <ellipse cx="375.25" cy="133" fill="#ADD1B2" rx="11" ry="11" style="stroke: #A80036; stroke-width: 1.0;"/>
        <path d="M377.7231,139.1431 Q377.1421,139.4419 376.5029,139.5913 Q375.8638,139.7407 375.1582,139.7407 Q372.6514,139.7407 371.3315,138.0889 Q370.0117,136.437 370.0117,133.3159 Q370.0117,130.1865 371.3315,128.5347 Q372.6514,126.8828 375.1582,126.8828 Q375.8638,126.8828 376.5112,127.0322 Q377.1587,127.1816 377.7231,127.4805 L377.7231,130.2031 Q377.0923,129.6221 376.4988,129.3523 Q375.9053,129.0825 375.2744,129.0825 Q373.9297,129.0825 373.2449,130.1492 Q372.5601,131.2158 372.5601,133.3159 Q372.5601,135.4077 373.2449,136.4744 Q373.9297,137.541 375.2744,137.541 Q375.9053,137.541 376.4988,137.2712 Q377.0923,137.0015 377.7231,136.4204 Z "/>
        <text fill="#000000" font-family="sans-serif" font-size="12" lengthAdjust="spacingAndGlyphs" textLength="140" x="395.75" y="137.5352">PublicarTarefaController</text>
        <line style="stroke: #A80036; stroke-width: 1.5;" x1="290" x2="609" y1="149" y2="149"/>
        <line style="stroke: #A80036; stroke-width: 1.5;" x1="290" x2="609" y1="157" y2="157"/>
        <text fill="#000000" font-family="sans-serif" font-size="11" lengthAdjust="spacingAndGlyphs" textLength="151" x="295" y="171.6348">+getListaTarefasUtilizador()</text>
        <text fill="#000000" font-family="sans-serif" font-size="11" lengthAdjust="spacingAndGlyphs" textLength="134" x="295" y="184.5898">+novoAnuncio(refUnica)</text>
        <text fill="#000000" font-family="sans-serif" font-size="11" lengthAdjust="spacingAndGlyphs" textLength="309" x="295" y="197.5449">+addPeriodo(pTarIn,pTarFi,pAprIn,pAprFi,pSerIn,pSerFin)</text>
        <text fill="#000000" font-family="sans-serif" font-size="11" lengthAdjust="spacingAndGlyphs" textLength="137" x="295" y="210.5">+addTipoRegimento(trId)</text>
        <text fill="#000000" font-family="sans-serif" font-size="11" lengthAdjust="spacingAndGlyphs" textLength="93" x="295" y="223.4551">+regitaAnuncio()</text>
        <!--class AplicacaoPOT-->
        <rect fill="#FEFECE" filter="url(#fvbxz8jqecybl)" height="73.9102" style="stroke: #A80036; stroke-width: 1.5;" width="123" x="6" y="310.5"/>
        <ellipse cx="26.4" cy="326.5" fill="#ADD1B2" rx="11" ry="11" style="stroke: #A80036; stroke-width: 1.0;"/>
        <path d="M28.8731,332.6431 Q28.2921,332.9419 27.6529,333.0913 Q27.0138,333.2407 26.3082,333.2407 Q23.8014,333.2407 22.4815,331.5889 Q21.1617,329.937 21.1617,326.8159 Q21.1617,323.6865 22.4815,322.0347 Q23.8014,320.3828 26.3082,320.3828 Q27.0138,320.3828 27.6612,320.5322 Q28.3087,320.6816 28.8731,320.9805 L28.8731,323.7031 Q28.2423,323.1221 27.6488,322.8523 Q27.0553,322.5825 26.4244,322.5825 Q25.0797,322.5825 24.3949,323.6492 Q23.7101,324.7158 23.7101,326.8159 Q23.7101,328.9077 24.3949,329.9744 Q25.0797,331.041 26.4244,331.041 Q27.0553,331.041 27.6488,330.7712 Q28.2423,330.5015 28.8731,329.9204 Z "/>
        <text fill="#000000" font-family="sans-serif" font-size="12" lengthAdjust="spacingAndGlyphs" textLength="79" x="41.6" y="331.0352">AplicacaoPOT</text>
        <line style="stroke: #A80036; stroke-width: 1.5;" x1="7" x2="128" y1="342.5" y2="342.5"/>
        <line style="stroke: #A80036; stroke-width: 1.5;" x1="7" x2="128" y1="350.5" y2="350.5"/>
        <text fill="#000000" font-family="sans-serif" font-size="11" lengthAdjust="spacingAndGlyphs" textLength="111" x="12" y="365.1348">+static getInstance()</text>
        <text fill="#000000" font-family="sans-serif" font-size="11" lengthAdjust="spacingAndGlyphs" textLength="99" x="12" y="378.0898">+getSessaoAtual()</text>
        <!--class SessaoUtilizador-->
        <rect fill="#FEFECE" filter="url(#fvbxz8jqecybl)" height="60.9551" style="stroke: #A80036; stroke-width: 1.5;" width="126" x="164.5" y="317"/>
        <ellipse cx="179.5" cy="333" fill="#ADD1B2" rx="11" ry="11" style="stroke: #A80036; stroke-width: 1.0;"/>
        <path d="M181.9731,339.1431 Q181.3921,339.4419 180.7529,339.5913 Q180.1138,339.7407 179.4082,339.7407 Q176.9014,339.7407 175.5815,338.0889 Q174.2617,336.437 174.2617,333.3159 Q174.2617,330.1865 175.5815,328.5347 Q176.9014,326.8828 179.4082,326.8828 Q180.1138,326.8828 180.7612,327.0322 Q181.4087,327.1816 181.9731,327.4805 L181.9731,330.2031 Q181.3423,329.6221 180.7488,329.3523 Q180.1553,329.0825 179.5244,329.0825 Q178.1797,329.0825 177.4949,330.1492 Q176.8101,331.2158 176.8101,333.3159 Q176.8101,335.4077 177.4949,336.4744 Q178.1797,337.541 179.5244,337.541 Q180.1553,337.541 180.7488,337.2712 Q181.3423,337.0015 181.9731,336.4204 Z "/>
        <text fill="#000000" font-family="sans-serif" font-size="12" lengthAdjust="spacingAndGlyphs" textLength="94" x="193.5" y="337.5352">SessaoUtilizador</text>
        <line style="stroke: #A80036; stroke-width: 1.5;" x1="165.5" x2="289.5" y1="349" y2="349"/>
        <line style="stroke: #A80036; stroke-width: 1.5;" x1="165.5" x2="289.5" y1="357" y2="357"/>
        <text fill="#000000" font-family="sans-serif" font-size="11" lengthAdjust="spacingAndGlyphs" textLength="114" x="170.5" y="371.6348">+getEmailUtilizador()</text>
        <!--class Organizacao-->
        <rect fill="#FEFECE" filter="url(#fvbxz8jqecybl)" height="112.7754" style="stroke: #A80036; stroke-width: 1.5;" width="104" x="721.5" y="684"/>
        <ellipse cx="736.5" cy="700" fill="#ADD1B2" rx="11" ry="11" style="stroke: #A80036; stroke-width: 1.0;"/>
        <path d="M738.9731,706.1431 Q738.3921,706.4419 737.7529,706.5913 Q737.1138,706.7407 736.4082,706.7407 Q733.9014,706.7407 732.5815,705.0889 Q731.2617,703.437 731.2617,700.3159 Q731.2617,697.1865 732.5815,695.5347 Q733.9014,693.8828 736.4082,693.8828 Q737.1138,693.8828 737.7612,694.0322 Q738.4087,694.1816 738.9731,694.4805 L738.9731,697.2031 Q738.3423,696.6221 737.7488,696.3523 Q737.1553,696.0825 736.5244,696.0825 Q735.1797,696.0825 734.4949,697.1492 Q733.8101,698.2158 733.8101,700.3159 Q733.8101,702.4077 734.4949,703.4744 Q735.1797,704.541 736.5244,704.541 Q737.1553,704.541 737.7488,704.2712 Q738.3423,704.0015 738.9731,703.4204 Z "/>
        <text fill="#000000" font-family="sans-serif" font-size="12" lengthAdjust="spacingAndGlyphs" textLength="72" x="750.5" y="704.5352">Organizacao</text>
        <line style="stroke: #A80036; stroke-width: 1.5;" x1="722.5" x2="824.5" y1="716" y2="716"/>
        <text fill="#000000" font-family="sans-serif" font-size="11" lengthAdjust="spacingAndGlyphs" textLength="71" x="727.5" y="730.6348">-String nome</text>
        <text fill="#000000" font-family="sans-serif" font-size="11" lengthAdjust="spacingAndGlyphs" textLength="58" x="727.5" y="743.5898">-String NIF</text>
        <text fill="#000000" font-family="sans-serif" font-size="11" lengthAdjust="spacingAndGlyphs" textLength="81" x="727.5" y="756.5449">-String website</text>
        <text fill="#000000" font-family="sans-serif" font-size="11" lengthAdjust="spacingAndGlyphs" textLength="84" x="727.5" y="769.5">-String telefone</text>
        <text fill="#000000" font-family="sans-serif" font-size="11" lengthAdjust="spacingAndGlyphs" textLength="69" x="727.5" y="782.4551">-String email</text>
        <line style="stroke: #A80036; stroke-width: 1.5;" x1="722.5" x2="824.5" y1="788.7754" y2="788.7754"/>
        <!--class Anuncio-->
        <rect fill="#FEFECE" filter="url(#fvbxz8jqecybl)" height="164.5957" style="stroke: #A80036; stroke-width: 1.5;" width="286" x="384.5" y="658"/>
        <ellipse cx="500.75" cy="674" fill="#ADD1B2" rx="11" ry="11" style="stroke: #A80036; stroke-width: 1.0;"/>
        <path d="M503.2231,680.1431 Q502.6421,680.4419 502.0029,680.5913 Q501.3638,680.7407 500.6582,680.7407 Q498.1514,680.7407 496.8315,679.0889 Q495.5117,677.437 495.5117,674.3159 Q495.5117,671.1865 496.8315,669.5347 Q498.1514,667.8828 500.6582,667.8828 Q501.3638,667.8828 502.0112,668.0322 Q502.6587,668.1816 503.2231,668.4805 L503.2231,671.2031 Q502.5923,670.6221 501.9988,670.3523 Q501.4053,670.0825 500.7744,670.0825 Q499.4297,670.0825 498.7449,671.1492 Q498.0601,672.2158 498.0601,674.3159 Q498.0601,676.4077 498.7449,677.4744 Q499.4297,678.541 500.7744,678.541 Q501.4053,678.541 501.9988,678.2712 Q502.5923,678.0015 503.2231,677.4204 Z "/>
        <text fill="#000000" font-family="sans-serif" font-size="12" lengthAdjust="spacingAndGlyphs" textLength="45" x="521.25" y="678.5352">Anuncio</text>
        <line style="stroke: #A80036; stroke-width: 1.5;" x1="385.5" x2="669.5" y1="690" y2="690"/>
        <text fill="#000000" font-family="sans-serif" font-size="11" lengthAdjust="spacingAndGlyphs" textLength="94" x="390.5" y="704.6348">-DateTime pTarIn</text>
        <text fill="#000000" font-family="sans-serif" font-size="11" lengthAdjust="spacingAndGlyphs" textLength="93" x="390.5" y="717.5898">-DateTime pTarFi</text>
        <text fill="#000000" font-family="sans-serif" font-size="11" lengthAdjust="spacingAndGlyphs" textLength="96" x="390.5" y="730.5449">-DateTime pAprIn</text>
        <text fill="#000000" font-family="sans-serif" font-size="11" lengthAdjust="spacingAndGlyphs" textLength="95" x="390.5" y="743.5">-DateTime pAprFi</text>
        <text fill="#000000" font-family="sans-serif" font-size="11" lengthAdjust="spacingAndGlyphs" textLength="93" x="390.5" y="756.4551">-DateTime pSerIn</text>
        <text fill="#000000" font-family="sans-serif" font-size="11" lengthAdjust="spacingAndGlyphs" textLength="92" x="390.5" y="769.4102">-DateTime pSerFi</text>
        <line style="stroke: #A80036; stroke-width: 1.5;" x1="385.5" x2="669.5" y1="775.7305" y2="775.7305"/>
        <text fill="#000000" font-family="sans-serif" font-size="11" lengthAdjust="spacingAndGlyphs" textLength="77" x="390.5" y="790.3652">+Anuncio(tar)</text>
        <text fill="#000000" font-family="sans-serif" font-size="11" lengthAdjust="spacingAndGlyphs" textLength="274" x="390.5" y="803.3203">+setPer(pTarIn,pTarFi,pAprIn,pAprFi,pSerIn,pSerFi)</text>
        <text fill="#000000" font-family="sans-serif" font-size="11" lengthAdjust="spacingAndGlyphs" textLength="58" x="390.5" y="816.2754">+setTR(tp)</text>
        <!--class RegistoAnuncio-->
        <rect fill="#FEFECE" filter="url(#fvbxz8jqecybl)" height="99.8203" style="stroke: #A80036; stroke-width: 1.5;" width="154" x="467.5" y="481"/>
        <ellipse cx="498.25" cy="497" fill="#ADD1B2" rx="11" ry="11" style="stroke: #A80036; stroke-width: 1.0;"/>
        <path d="M500.7231,503.1431 Q500.1421,503.4419 499.5029,503.5913 Q498.8638,503.7407 498.1582,503.7407 Q495.6514,503.7407 494.3315,502.0889 Q493.0117,500.437 493.0117,497.3159 Q493.0117,494.1865 494.3315,492.5347 Q495.6514,490.8828 498.1582,490.8828 Q498.8638,490.8828 499.5112,491.0322 Q500.1587,491.1816 500.7231,491.4805 L500.7231,494.2031 Q500.0923,493.6221 499.4988,493.3523 Q498.9053,493.0825 498.2744,493.0825 Q496.9297,493.0825 496.2449,494.1492 Q495.5601,495.2158 495.5601,497.3159 Q495.5601,499.4077 496.2449,500.4744 Q496.9297,501.541 498.2744,501.541 Q498.9053,501.541 499.4988,501.2712 Q500.0923,501.0015 500.7231,500.4204 Z "/>
        <text fill="#000000" font-family="sans-serif" font-size="12" lengthAdjust="spacingAndGlyphs" textLength="87" x="515.75" y="501.5352">RegistoAnuncio</text>
        <line style="stroke: #A80036; stroke-width: 1.5;" x1="468.5" x2="620.5" y1="513" y2="513"/>
        <line style="stroke: #A80036; stroke-width: 1.5;" x1="468.5" x2="620.5" y1="521" y2="521"/>
        <text fill="#000000" font-family="sans-serif" font-size="11" lengthAdjust="spacingAndGlyphs" textLength="104" x="473.5" y="535.6348">+novoAnuncio(tar)</text>
        <text fill="#000000" font-family="sans-serif" font-size="11" lengthAdjust="spacingAndGlyphs" textLength="142" x="473.5" y="548.5898">+registaAnuncio(anuncio)</text>
        <text fill="#000000" font-family="sans-serif" font-size="11" lengthAdjust="spacingAndGlyphs" textLength="133" x="473.5" y="561.5449">-validaAnuncio(anuncio)</text>
        <text fill="#000000" font-family="sans-serif" font-size="11" lengthAdjust="spacingAndGlyphs" textLength="122" x="473.5" y="574.5">-addAnuncio(anuncio)</text>
        <!--class Plataforma-->
        <rect fill="#FEFECE" filter="url(#fvbxz8jqecybl)" height="112.7754" style="stroke: #A80036; stroke-width: 1.5;" width="167" x="544" y="291"/>
        <ellipse cx="592.25" cy="307" fill="#ADD1B2" rx="11" ry="11" style="stroke: #A80036; stroke-width: 1.0;"/>
        <path d="M594.7231,313.1431 Q594.1421,313.4419 593.5029,313.5913 Q592.8638,313.7407 592.1582,313.7407 Q589.6514,313.7407 588.3315,312.0889 Q587.0117,310.437 587.0117,307.3159 Q587.0117,304.1865 588.3315,302.5347 Q589.6514,300.8828 592.1582,300.8828 Q592.8638,300.8828 593.5112,301.0322 Q594.1587,301.1816 594.7231,301.4805 L594.7231,304.2031 Q594.0923,303.6221 593.4988,303.3523 Q592.9053,303.0825 592.2744,303.0825 Q590.9297,303.0825 590.2449,304.1492 Q589.5601,305.2158 589.5601,307.3159 Q589.5601,309.4077 590.2449,310.4744 Q590.9297,311.541 592.2744,311.541 Q592.9053,311.541 593.4988,311.2712 Q594.0923,311.0015 594.7231,310.4204 Z "/>
        <text fill="#000000" font-family="sans-serif" font-size="12" lengthAdjust="spacingAndGlyphs" textLength="62" x="612.75" y="311.5352">Plataforma</text>
        <line style="stroke: #A80036; stroke-width: 1.5;" x1="545" x2="710" y1="323" y2="323"/>
        <text fill="#000000" font-family="sans-serif" font-size="11" lengthAdjust="spacingAndGlyphs" textLength="102" x="550" y="337.6348">-String designacao</text>
        <line style="stroke: #A80036; stroke-width: 1.5;" x1="545" x2="710" y1="343.9551" y2="343.9551"/>
        <text fill="#000000" font-family="sans-serif" font-size="11" lengthAdjust="spacingAndGlyphs" textLength="142" x="550" y="358.5898">+getRegistoOrganizacao()</text>
        <text fill="#000000" font-family="sans-serif" font-size="11" lengthAdjust="spacingAndGlyphs" textLength="108" x="550" y="371.5449">+getRegistoTarefa()</text>
        <text fill="#000000" font-family="sans-serif" font-size="11" lengthAdjust="spacingAndGlyphs" textLength="119" x="550" y="384.5">+getRegistoAnuncio()</text>
        <text fill="#000000" font-family="sans-serif" font-size="11" lengthAdjust="spacingAndGlyphs" textLength="155" x="550" y="397.4551">+getRegistoTipoRegimento()</text>
        <!--class RegistoOrganizacao-->
        <rect fill="#FEFECE" filter="url(#fvbxz8jqecybl)" height="60.9551" style="stroke: #A80036; stroke-width: 1.5;" width="234" x="656.5" y="500.5"/>
        <ellipse cx="712.25" cy="516.5" fill="#ADD1B2" rx="11" ry="11" style="stroke: #A80036; stroke-width: 1.0;"/>
        <path d="M714.7231,522.6431 Q714.1421,522.9419 713.5029,523.0913 Q712.8638,523.2407 712.1582,523.2407 Q709.6514,523.2407 708.3315,521.5889 Q707.0117,519.937 707.0117,516.8159 Q707.0117,513.6865 708.3315,512.0347 Q709.6514,510.3828 712.1582,510.3828 Q712.8638,510.3828 713.5112,510.5322 Q714.1587,510.6816 714.7231,510.9805 L714.7231,513.7031 Q714.0923,513.1221 713.4988,512.8523 Q712.9053,512.5825 712.2744,512.5825 Q710.9297,512.5825 710.2449,513.6492 Q709.5601,514.7158 709.5601,516.8159 Q709.5601,518.9077 710.2449,519.9744 Q710.9297,521.041 712.2744,521.041 Q712.9053,521.041 713.4988,520.7712 Q714.0923,520.5015 714.7231,519.9204 Z "/>
        <text fill="#000000" font-family="sans-serif" font-size="12" lengthAdjust="spacingAndGlyphs" textLength="114" x="732.75" y="521.0352">RegistoOrganizacao</text>
        <line style="stroke: #A80036; stroke-width: 1.5;" x1="657.5" x2="889.5" y1="532.5" y2="532.5"/>
        <line style="stroke: #A80036; stroke-width: 1.5;" x1="657.5" x2="889.5" y1="540.5" y2="540.5"/>
        <text fill="#000000" font-family="sans-serif" font-size="11" lengthAdjust="spacingAndGlyphs" textLength="222" x="662.5" y="555.1348">+getOrganizacaoByEmailUtilizador(email)</text>
        <!--class RegistoTarefa-->
        <rect fill="#FEFECE" filter="url(#fvbxz8jqecybl)" height="73.9102" style="stroke: #A80036; stroke-width: 1.5;" width="206" x="155.5" y="494"/>
        <ellipse cx="214.25" cy="510" fill="#ADD1B2" rx="11" ry="11" style="stroke: #A80036; stroke-width: 1.0;"/>
        <path d="M216.7231,516.1431 Q216.1421,516.4419 215.5029,516.5913 Q214.8638,516.7407 214.1582,516.7407 Q211.6514,516.7407 210.3315,515.0889 Q209.0117,513.437 209.0117,510.3159 Q209.0117,507.1865 210.3315,505.5347 Q211.6514,503.8828 214.1582,503.8828 Q214.8638,503.8828 215.5112,504.0322 Q216.1587,504.1816 216.7231,504.4805 L216.7231,507.2031 Q216.0923,506.6221 215.4988,506.3523 Q214.9053,506.0825 214.2744,506.0825 Q212.9297,506.0825 212.2449,507.1492 Q211.5601,508.2158 211.5601,510.3159 Q211.5601,512.4077 212.2449,513.4744 Q212.9297,514.541 214.2744,514.541 Q214.9053,514.541 215.4988,514.2712 Q216.0923,514.0015 216.7231,513.4204 Z "/>
        <text fill="#000000" font-family="sans-serif" font-size="12" lengthAdjust="spacingAndGlyphs" textLength="80" x="234.75" y="514.5352">RegistoTarefa</text>
        <line style="stroke: #A80036; stroke-width: 1.5;" x1="156.5" x2="360.5" y1="526" y2="526"/>
        <line style="stroke: #A80036; stroke-width: 1.5;" x1="156.5" x2="360.5" y1="534" y2="534"/>
        <text fill="#000000" font-family="sans-serif" font-size="11" lengthAdjust="spacingAndGlyphs" textLength="194" x="161.5" y="548.6348">+getTarefasByEmailUtilizador(email)</text>
        <text fill="#000000" font-family="sans-serif" font-size="11" lengthAdjust="spacingAndGlyphs" textLength="135" x="161.5" y="561.5898">+getTarefa(refUnica,org)</text>
        <!--class RegistoTipoRegimento-->
        <rect fill="#FEFECE" filter="url(#fvbxz8jqecybl)" height="73.9102" style="stroke: #A80036; stroke-width: 1.5;" width="161" x="926" y="494"/>
        <ellipse cx="941" cy="510" fill="#ADD1B2" rx="11" ry="11" style="stroke: #A80036; stroke-width: 1.0;"/>
        <path d="M943.4731,516.1431 Q942.8921,516.4419 942.2529,516.5913 Q941.6138,516.7407 940.9082,516.7407 Q938.4014,516.7407 937.0815,515.0889 Q935.7617,513.437 935.7617,510.3159 Q935.7617,507.1865 937.0815,505.5347 Q938.4014,503.8828 940.9082,503.8828 Q941.6138,503.8828 942.2612,504.0322 Q942.9087,504.1816 943.4731,504.4805 L943.4731,507.2031 Q942.8423,506.6221 942.2488,506.3523 Q941.6553,506.0825 941.0244,506.0825 Q939.6797,506.0825 938.9949,507.1492 Q938.3101,508.2158 938.3101,510.3159 Q938.3101,512.4077 938.9949,513.4744 Q939.6797,514.541 941.0244,514.541 Q941.6553,514.541 942.2488,514.2712 Q942.8423,514.0015 943.4731,513.4204 Z "/>
        <text fill="#000000" font-family="sans-serif" font-size="12" lengthAdjust="spacingAndGlyphs" textLength="129" x="955" y="514.5352">RegistoTipoRegimento</text>
        <line style="stroke: #A80036; stroke-width: 1.5;" x1="927" x2="1086" y1="526" y2="526"/>
        <line style="stroke: #A80036; stroke-width: 1.5;" x1="927" x2="1086" y1="534" y2="534"/>
        <text fill="#000000" font-family="sans-serif" font-size="11" lengthAdjust="spacingAndGlyphs" textLength="48" x="932" y="548.6348">+getTR()</text>
        <text fill="#000000" font-family="sans-serif" font-size="11" lengthAdjust="spacingAndGlyphs" textLength="91" x="932" y="561.5898">+getTRByID(trID)</text>
        <!--class Tarefa-->
        <rect fill="#FEFECE" filter="url(#fvbxz8jqecybl)" height="125.7305" style="stroke: #A80036; stroke-width: 1.5;" width="123" x="371" y="900"/>
        <ellipse cx="409.85" cy="916" fill="#ADD1B2" rx="11" ry="11" style="stroke: #A80036; stroke-width: 1.0;"/>
        <path d="M412.3231,922.1431 Q411.7421,922.4419 411.1029,922.5913 Q410.4638,922.7407 409.7582,922.7407 Q407.2514,922.7407 405.9315,921.0889 Q404.6117,919.437 404.6117,916.3159 Q404.6117,913.1865 405.9315,911.5347 Q407.2514,909.8828 409.7582,909.8828 Q410.4638,909.8828 411.1112,910.0322 Q411.7587,910.1816 412.3231,910.4805 L412.3231,913.2031 Q411.6923,912.6221 411.0988,912.3523 Q410.5053,912.0825 409.8744,912.0825 Q408.5297,912.0825 407.8449,913.1492 Q407.1601,914.2158 407.1601,916.3159 Q407.1601,918.4077 407.8449,919.4744 Q408.5297,920.541 409.8744,920.541 Q410.5053,920.541 411.0988,920.2712 Q411.6923,920.0015 412.3231,919.4204 Z "/>
        <text fill="#000000" font-family="sans-serif" font-size="12" lengthAdjust="spacingAndGlyphs" textLength="38" x="429.15" y="920.5352">Tarefa</text>
        <line style="stroke: #A80036; stroke-width: 1.5;" x1="372" x2="493" y1="932" y2="932"/>
        <text fill="#000000" font-family="sans-serif" font-size="11" lengthAdjust="spacingAndGlyphs" textLength="95" x="377" y="946.6348">-String referencia</text>
        <text fill="#000000" font-family="sans-serif" font-size="11" lengthAdjust="spacingAndGlyphs" textLength="102" x="377" y="959.5898">-String designacao</text>
        <text fill="#000000" font-family="sans-serif" font-size="11" lengthAdjust="spacingAndGlyphs" textLength="111" x="377" y="972.5449">-String descInformal</text>
        <text fill="#000000" font-family="sans-serif" font-size="11" lengthAdjust="spacingAndGlyphs" textLength="107" x="377" y="985.5">-String descTecnica</text>
        <text fill="#000000" font-family="sans-serif" font-size="11" lengthAdjust="spacingAndGlyphs" textLength="107" x="377" y="998.4551">-Integer duracaoEst</text>
        <text fill="#000000" font-family="sans-serif" font-size="11" lengthAdjust="spacingAndGlyphs" textLength="93" x="377" y="1011.4102">-Double custoEst</text>
        <line style="stroke: #A80036; stroke-width: 1.5;" x1="372" x2="493" y1="1017.7305" y2="1017.7305"/>
        <!--class TipoRegimento-->
        <rect fill="#FEFECE" filter="url(#fvbxz8jqecybl)" height="48" style="stroke: #A80036; stroke-width: 1.5;" width="119" x="562" y="939"/>
        <ellipse cx="577" cy="955" fill="#ADD1B2" rx="11" ry="11" style="stroke: #A80036; stroke-width: 1.0;"/>
        <path d="M579.4731,961.1431 Q578.8921,961.4419 578.2529,961.5913 Q577.6138,961.7407 576.9082,961.7407 Q574.4014,961.7407 573.0815,960.0889 Q571.7617,958.437 571.7617,955.3159 Q571.7617,952.1865 573.0815,950.5347 Q574.4014,948.8828 576.9082,948.8828 Q577.6138,948.8828 578.2612,949.0322 Q578.9087,949.1816 579.4731,949.4805 L579.4731,952.2031 Q578.8423,951.6221 578.2488,951.3523 Q577.6553,951.0825 577.0244,951.0825 Q575.6797,951.0825 574.9949,952.1492 Q574.3101,953.2158 574.3101,955.3159 Q574.3101,957.4077 574.9949,958.4744 Q575.6797,959.541 577.0244,959.541 Q577.6553,959.541 578.2488,959.2712 Q578.8423,959.0015 579.4731,958.4204 Z "/>
        <text fill="#000000" font-family="sans-serif" font-size="12" lengthAdjust="spacingAndGlyphs" textLength="87" x="591" y="959.5352">TipoRegimento</text>
        <line style="stroke: #A80036; stroke-width: 1.5;" x1="563" x2="680" y1="971" y2="971"/>
        <line style="stroke: #A80036; stroke-width: 1.5;" x1="563" x2="680" y1="979" y2="979"/>
        <path d="M449.5,56.04 C449.5,71.3 449.5,92.1 449.5,111.89 " fill="none" style="stroke: #A80036; stroke-width: 1.0; stroke-dasharray: 7.0,7.0;"/>
        <polygon fill="#A80036" points="449.5,116.9,453.5,107.9,449.5,111.9,445.5,107.9,449.5,116.9" style="stroke: #A80036; stroke-width: 1.0;"/>
        <path d="M288.98,227.83 C242,245.66 191.26,267.14 146.5,291 C137.35,295.88 128,301.64 119.1,307.58 " fill="none" style="stroke: #A80036; stroke-width: 1.0; stroke-dasharray: 7.0,7.0;"/>
        <polygon fill="#A80036" points="114.76,310.5,124.4565,308.7744,118.9026,307.7002,119.9768,302.1463,114.76,310.5" style="stroke: #A80036; stroke-width: 1.0;"/>
        <path d="M358.43,230.22 C344.41,239.72 330.34,249.82 317.5,260 C296.97,276.27 275.77,296.46 259.1,313.24 " fill="none" style="stroke: #A80036; stroke-width: 1.0; stroke-dasharray: 7.0,7.0;"/>
        <polygon fill="#A80036" points="255.4,316.98,264.5708,313.3888,258.914,313.4231,258.8798,307.7664,255.4,316.98" style="stroke: #A80036; stroke-width: 1.0;"/>
        <path d="M507.29,230.34 C526.13,248.55 547.12,268.83 566.21,287.27 " fill="none" style="stroke: #A80036; stroke-width: 1.0; stroke-dasharray: 7.0,7.0;"/>
        <polygon fill="#A80036" points="570,290.94,566.2979,281.8134,566.4008,287.4693,560.7449,287.5722,570,290.94" style="stroke: #A80036; stroke-width: 1.0;"/>
        <path d="M441.61,230.31 C432.18,309.5 420.99,458.48 449.5,581 C455.2,605.5 465.26,630.58 476.29,653.34 " fill="none" style="stroke: #A80036; stroke-width: 1.0; stroke-dasharray: 7.0,7.0;"/>
        <polygon fill="#A80036" points="478.51,657.86,478.1383,648.0182,476.3083,653.3708,470.9556,651.5409,478.51,657.86" style="stroke: #A80036; stroke-width: 1.0;"/>
        <path d="M457.28,230.05 C466.09,286.61 482.56,376.33 507.5,451 C510.29,459.36 513.73,468.01 517.37,476.37 " fill="none" style="stroke: #A80036; stroke-width: 1.0; stroke-dasharray: 7.0,7.0;"/>
        <polygon fill="#A80036" points="519.41,480.99,519.4157,471.1411,517.382,476.4198,512.1033,474.386,519.41,480.99" style="stroke: #A80036; stroke-width: 1.0;"/>
        <path d="M407.74,230.16 C401.01,239.91 394.35,250.11 388.5,260 C342.34,338.02 298.8,434.91 275.69,488.85 " fill="none" style="stroke: #A80036; stroke-width: 1.0; stroke-dasharray: 7.0,7.0;"/>
        <polygon fill="#A80036" points="273.65,493.61,280.8794,486.9215,275.6248,489.0165,273.5298,483.7619,273.65,493.61" style="stroke: #A80036; stroke-width: 1.0;"/>
        <path d="M610.23,225.27 C651.08,242.43 693.32,264.2 728.5,291 C792.72,339.92 814.17,357.69 840.5,434 C848.39,456.86 834.47,479.21 817.3,496.59 " fill="none" style="stroke: #A80036; stroke-width: 1.0; stroke-dasharray: 7.0,7.0;"/>
        <polygon fill="#A80036" points="813.36,500.44,822.5876,496.9975,816.9311,496.9404,816.9882,491.2838,813.36,500.44" style="stroke: #A80036; stroke-width: 1.0;"/>
        <path d="M610.41,207.43 C674.13,225.41 745.79,252.17 803.5,291 C882.58,344.21 948.44,436.42 982.18,489.41 " fill="none" style="stroke: #A80036; stroke-width: 1.0; stroke-dasharray: 7.0,7.0;"/>
        <polygon fill="#A80036" points="984.95,493.78,983.5248,484.0348,982.2795,489.5529,976.7614,488.3076,984.95,493.78" style="stroke: #A80036; stroke-width: 1.0;"/>
        <path d="M543.77,389.69 C481.6,420.27 397.4,461.68 336.62,491.58 " fill="none" style="stroke: #A80036; stroke-width: 1.0;"/>
        <polygon fill="#A80036" points="331.91,493.89,341.7518,493.5183,336.3992,491.6883,338.2291,486.3356,331.91,493.89" style="stroke: #A80036; stroke-width: 1.0;"/>
        <text fill="#000000" font-family="sans-serif" font-size="13" lengthAdjust="spacingAndGlyphs" textLength="42" x="444.5" y="447.5684">possui</text>
        <text fill="#000000" font-family="sans-serif" font-size="13" lengthAdjust="spacingAndGlyphs" textLength="8" x="527.9565" y="390.3718">1</text>
        <text fill="#000000" font-family="sans-serif" font-size="13" lengthAdjust="spacingAndGlyphs" textLength="8" x="336.7075" y="483.2703">1</text>
        <path d="M607.99,404.17 C602.16,419.53 595.45,436.07 588.5,451 C584.64,459.29 580.26,467.89 575.8,476.23 " fill="none" style="stroke: #A80036; stroke-width: 1.0;"/>
        <polygon fill="#A80036" points="573.31,480.84,581.1011,474.8152,575.6822,476.4386,574.0588,471.0196,573.31,480.84" style="stroke: #A80036; stroke-width: 1.0;"/>
        <text fill="#000000" font-family="sans-serif" font-size="13" lengthAdjust="spacingAndGlyphs" textLength="42" x="597.5" y="447.5684">possui</text>
        <text fill="#000000" font-family="sans-serif" font-size="13" lengthAdjust="spacingAndGlyphs" textLength="8" x="597.2717" y="424.189">1</text>
        <text fill="#000000" font-family="sans-serif" font-size="13" lengthAdjust="spacingAndGlyphs" textLength="8" x="568.7989" y="470.3344">1</text>
        <path d="M671.23,404.25 C683.25,419.46 696.33,435.9 708.5,451 C720.63,466.04 734.18,482.56 745.77,496.59 " fill="none" style="stroke: #A80036; stroke-width: 1.0;"/>
        <polygon fill="#A80036" points="748.98,500.48,746.3328,490.9936,745.796,496.6249,740.1646,496.088,748.98,500.48" style="stroke: #A80036; stroke-width: 1.0;"/>
        <text fill="#000000" font-family="sans-serif" font-size="13" lengthAdjust="spacingAndGlyphs" textLength="42" x="709.5" y="447.5684">possui</text>
        <text fill="#000000" font-family="sans-serif" font-size="13" lengthAdjust="spacingAndGlyphs" textLength="8" x="667.8238" y="424.2782">1</text>
        <text fill="#000000" font-family="sans-serif" font-size="13" lengthAdjust="spacingAndGlyphs" textLength="8" x="734.7413" y="489.7704">1</text>
        <path d="M711.04,387.28 C767.06,413.43 842.4,448.89 908.5,481 C915.58,484.44 922.94,488.05 930.3,491.68 " fill="none" style="stroke: #A80036; stroke-width: 1.0;"/>
        <polygon fill="#A80036" points="934.87,493.95,928.5703,486.3795,930.3865,491.7368,925.0291,493.5531,934.87,493.95" style="stroke: #A80036; stroke-width: 1.0;"/>
        <text fill="#000000" font-family="sans-serif" font-size="13" lengthAdjust="spacingAndGlyphs" textLength="42" x="839.5" y="447.5684">possui</text>
        <text fill="#000000" font-family="sans-serif" font-size="13" lengthAdjust="spacingAndGlyphs" textLength="8" x="719.1101" y="387.8488">1</text>
        <text fill="#000000" font-family="sans-serif" font-size="13" lengthAdjust="spacingAndGlyphs" textLength="8" x="912.9257" y="483.3414">1</text>
        <path d="M261.2,568.16 C266.57,624.91 281.81,737.24 322.5,823 C334.73,848.78 352.53,874.12 370.27,895.96 " fill="none" style="stroke: #A80036; stroke-width: 1.0;"/>
        <polygon fill="#A80036" points="373.58,900,370.971,890.503,370.4115,896.1321,364.7824,895.5726,373.58,900" style="stroke: #A80036; stroke-width: 1.0;"/>
        <text fill="#000000" font-family="sans-serif" font-size="13" lengthAdjust="spacingAndGlyphs" textLength="42" x="323.5" y="745.5684">possui</text>
        <text fill="#000000" font-family="sans-serif" font-size="13" lengthAdjust="spacingAndGlyphs" textLength="8" x="252.9766" y="588.4387">1</text>
        <text fill="#000000" font-family="sans-serif" font-size="13" lengthAdjust="spacingAndGlyphs" textLength="6" x="360.4205" y="889.4503">*</text>
        <path d="M540.47,581.17 C538.72,602.54 536.62,628.23 534.62,652.64 " fill="none" style="stroke: #A80036; stroke-width: 1.0;"/>
        <polygon fill="#A80036" points="534.19,657.83,538.9236,649.1933,534.6052,652.8473,530.9512,648.5289,534.19,657.83" style="stroke: #A80036; stroke-width: 1.0;"/>
        <text fill="#000000" font-family="sans-serif" font-size="13" lengthAdjust="spacingAndGlyphs" textLength="42" x="539.5" y="624.5684">possui</text>
        <text fill="#000000" font-family="sans-serif" font-size="13" lengthAdjust="spacingAndGlyphs" textLength="8" x="531.391" y="601.5207">1</text>
        <text fill="#000000" font-family="sans-serif" font-size="13" lengthAdjust="spacingAndGlyphs" textLength="6" x="528.5302" y="647.1188">*</text>
        <path d="M773.5,561.73 C773.5,592.08 773.5,640.07 773.5,678.54 " fill="none" style="stroke: #A80036; stroke-width: 1.0;"/>
        <polygon fill="#A80036" points="773.5,683.66,777.5,674.66,773.5,678.66,769.5,674.66,773.5,683.66" style="stroke: #A80036; stroke-width: 1.0;"/>
        <text fill="#000000" font-family="sans-serif" font-size="13" lengthAdjust="spacingAndGlyphs" textLength="42" x="774.5" y="624.5684">possui</text>
        <text fill="#000000" font-family="sans-serif" font-size="13" lengthAdjust="spacingAndGlyphs" textLength="8" x="764.675" y="582.22">1</text>
        <text fill="#000000" font-family="sans-serif" font-size="13" lengthAdjust="spacingAndGlyphs" textLength="6" x="767.1344" y="673.4195">*</text>
        <path d="M993.08,568.35 C969.89,627.36 917.58,745.21 843.5,823 C795.8,873.08 726.42,912.72 677.96,936.64 " fill="none" style="stroke: #A80036; stroke-width: 1.0;"/>
        <polygon fill="#A80036" points="673.33,938.91,683.1718,938.5383,677.8192,936.7083,679.6491,931.3556,673.33,938.91" style="stroke: #A80036; stroke-width: 1.0;"/>
        <text fill="#000000" font-family="sans-serif" font-size="13" lengthAdjust="spacingAndGlyphs" textLength="42" x="951.5" y="745.5684">possui</text>
        <text fill="#000000" font-family="sans-serif" font-size="13" lengthAdjust="spacingAndGlyphs" textLength="8" x="982.1948" y="588.3798">1</text>
        <text fill="#000000" font-family="sans-serif" font-size="13" lengthAdjust="spacingAndGlyphs" textLength="6" x="679.8427" y="928.4232">*</text>
        <path d="M492.26,823.29 C482.06,846.98 471.04,872.55 461.28,895.2 " fill="none" style="stroke: #A80036; stroke-width: 1.0;"/>
        <polygon fill="#A80036" points="459.22,899.99,466.4669,893.3205,461.2068,895.4017,459.1257,890.1416,459.22,899.99" style="stroke: #A80036; stroke-width: 1.0;"/>
        <text fill="#000000" font-family="sans-serif" font-size="13" lengthAdjust="spacingAndGlyphs" textLength="78" x="478.5" y="866.5684">resultado de</text>
        <text fill="#000000" font-family="sans-serif" font-size="13" lengthAdjust="spacingAndGlyphs" textLength="24" x="464.4956" y="843.0818">0..1</text>
        <text fill="#000000" font-family="sans-serif" font-size="13" lengthAdjust="spacingAndGlyphs" textLength="8" x="453.847" y="889.4392">1</text>
        <path d="M562.37,823.29 C578.96,862.22 597.73,906.23 609.58,934.04 " fill="none" style="stroke: #A80036; stroke-width: 1.0;"/>
        <polygon fill="#A80036" points="611.57,938.7,611.7272,928.8524,609.6125,934.0991,604.3658,931.9844,611.57,938.7" style="stroke: #A80036; stroke-width: 1.0;"/>
        <text fill="#000000" font-family="sans-serif" font-size="13" lengthAdjust="spacingAndGlyphs" textLength="42" x="581.5" y="866.5684">possui</text>
        <text fill="#000000" font-family="sans-serif" font-size="13" lengthAdjust="spacingAndGlyphs" textLength="24" x="540.1925" y="843.0818">0..1</text>
        <text fill="#000000" font-family="sans-serif" font-size="13" lengthAdjust="spacingAndGlyphs" textLength="8" x="600.0004" y="928.1594">1</text>
        <!--
@startuml
skinparam classAttributeIconSize 0

class PublicarTarefaUI {

}


class PublicarTarefaController {
  +getListaTarefasUtilizador()
  +novoAnuncio(refUnica)
  +addPeriodo(pTarIn,pTarFi,pAprIn,pAprFi,pSerIn,pSerFin)
  +addTipoRegimento(trId)
  +regitaAnuncio()
  
}

class AplicacaoPOT {
  +static getInstance()
  +getSessaoAtual()
}

class SessaoUtilizador {
  +getEmailUtilizador()
}

class Organizacao {
  -String nome
  -String NIF
  -String website
  -String telefone
  -String email
}

class Anuncio {
  -DateTime pTarIn
  -DateTime pTarFi
  -DateTime pAprIn
  -DateTime pAprFi
  -DateTime pSerIn
  -DateTime pSerFi
  +Anuncio(tar)
  +setPer(pTarIn,pTarFi,pAprIn,pAprFi,pSerIn,pSerFi)
  +setTR(tp)
}

class RegistoAnuncio {
  +novoAnuncio(tar)
  +registaAnuncio(anuncio)
  -validaAnuncio(anuncio)
  -addAnuncio(anuncio)
}

class Plataforma {
  -String designacao
  +getRegistoOrganizacao()
  +getRegistoTarefa()
  +getRegistoAnuncio()
  +getRegistoTipoRegimento()
}

class RegistoOrganizacao {
  +getOrganizacaoByEmailUtilizador(email)
}

class RegistoTarefa {
  +getTarefasByEmailUtilizador(email)
  +getTarefa(refUnica,org)
}

class RegistoTipoRegimento {
  +getTR()
  +getTRByID(trID)
}

class Tarefa {
  -String referencia
  -String designacao
  -String descInformal
  -String descTecnica
  -Integer duracaoEst
  -Double custoEst
}

PublicarTarefaUI ..> PublicarTarefaController

PublicarTarefaController ..> AplicacaoPOT
PublicarTarefaController ..> SessaoUtilizador
PublicarTarefaController ..> Plataforma
PublicarTarefaController ..> Anuncio
PublicarTarefaController ..> RegistoAnuncio
PublicarTarefaController ..> RegistoTarefa
PublicarTarefaController ..> RegistoOrganizacao
PublicarTarefaController ..> RegistoTipoRegimento

Plataforma "1" - -> "1" RegistoTarefa : possui
Plataforma "1" - -> "1" RegistoAnuncio : possui
Plataforma "1" - -> "1" RegistoOrganizacao : possui
Plataforma "1" - -> "1" RegistoTipoRegimento : possui

RegistoTarefa "1" - -> "*" Tarefa : possui
RegistoAnuncio "1" - -> "*" Anuncio : possui
RegistoOrganizacao "1" - -> "*" Organizacao : possui
RegistoTipoRegimento "1" - -> "*" TipoRegimento : possui



Anuncio "0..1" - -> "1" Tarefa : resultado de
Anuncio "0..1" - -> "1" TipoRegimento : possui




@enduml

PlantUML version 2017.11(Wed Apr 19 17:18:59 WEST 2017)
(GPL source distribution)
Java Runtime: Java(TM) SE Runtime Environment
JVM: Java HotSpot(TM) 64-Bit Server VM
Java Version: 1.8.0_191-b12
Operating System: Mac OS X
OS Version: 10.15.4
Default Encoding: UTF-8
Language: pt
Country: PT
-->
    </g>
</svg>
