@startuml
skinparam classAttributeIconSize 0

class PublicarTarefaUI {

}


class PublicarTarefaController {
  +getListaTarefasUtilizador()
  +novoAnuncio(refUnica)
  +addPeriodo(pTarIn,pTarFi,pAprIn,pAprFi,pSerIn,pSerFin)
  +addTipoRegimento(trId)
  +regitaAnuncio()
  
}

class AplicacaoPOT {
  +static getInstance()
  +getSessaoAtual()
}

class SessaoUtilizador {
  +getEmailUtilizador()
}

class Organizacao {
  -String nome
  -String NIF
  -String website
  -String telefone
  -String email
}

class Anuncio {
  -DateTime pTarIn
  -DateTime pTarFi
  -DateTime pAprIn
  -DateTime pAprFi
  -DateTime pSerIn
  -DateTime pSerFi
  +Anuncio(tar)
  +setPer(pTarIn,pTarFi,pAprIn,pAprFi,pSerIn,pSerFi)
  +setTR(tp)
}

class RegistoAnuncio {
  +novoAnuncio(tar)
  +registaAnuncio(anuncio)
  -validaAnuncio(anuncio)
  -addAnuncio(anuncio)
}

class Plataforma {
  -String designacao
  +getRegistoOrganizacao()
  +getRegistoTarefa()
  +getRegistoAnuncio()
  +getRegistoTipoRegimento()
}

class RegistoOrganizacao {
  +getOrganizacaoByEmailUtilizador(email)
}

class RegistoTarefa {
  +getTarefasByEmailUtilizador(email)
  +getTarefa(refUnica,org)
}

class RegistoTipoRegimento {
  +getTR()
  +getTRByID(trID)
}

class Tarefa {
  -String referencia
  -String designacao
  -String descInformal
  -String descTecnica
  -Integer duracaoEst
  -Double custoEst
}

PublicarTarefaUI ..> PublicarTarefaController

PublicarTarefaController ..> AplicacaoPOT
PublicarTarefaController ..> SessaoUtilizador
PublicarTarefaController ..> Plataforma
PublicarTarefaController ..> Anuncio
PublicarTarefaController ..> RegistoAnuncio
PublicarTarefaController ..> RegistoTarefa
PublicarTarefaController ..> RegistoOrganizacao
PublicarTarefaController ..> RegistoTipoRegimento

Plataforma "1" --> "1" RegistoTarefa : possui
Plataforma "1" --> "1" RegistoAnuncio : possui
Plataforma "1" --> "1" RegistoOrganizacao : possui
Plataforma "1" --> "1" RegistoTipoRegimento : possui

RegistoTarefa "1" --> "*" Tarefa : possui
RegistoAnuncio "1" --> "*" Anuncio : possui
RegistoOrganizacao "1" --> "*" Organizacao : possui
RegistoTipoRegimento "1" --> "*" TipoRegimento : possui



Anuncio "0..1" --> "1" Tarefa : resultado de
Anuncio "0..1" --> "1" TipoRegimento : possui




@enduml
