@startuml
autonumber
actor "Colaborador de Organização" as CDO

activate CDO
CDO -> ":Sistema" : inicia a publicação de uma tarefa
activate ":Sistema"
":Sistema" --> CDO : apresenta as tarefas por si anteriormente criadas e pede para selecionar uma destas
deactivate ":Sistema"

CDO -> ":Sistema" : seleciona a tarefa pretendida
activate ":Sistema"
":Sistema" --> CDO : solicita os dados necessários para criação de um anúncio referente à tarefa \n(i.e. período de publicação da tarefa na plataforma, \nperíodo de apresentação de candidaturas pelos freelancers, período de seriação e decisão de\n atribuição da tarefa a um freelancer)
deactivate ":Sistema"

CDO -> ":Sistema" : introduz os dados solicitados
activate ":Sistema"
":Sistema" --> CDO : apresenta tipos de regimento
deactivate ":Sistema"

CDO -> ":Sistema" : seleciona o tipo de regimento pretendido
activate ":Sistema"
":Sistema" --> CDO : valida e apresenta os dados ao colaborador de organização, pedindo que os confirme
deactivate ":Sistema"

CDO -> ":Sistema" : confirma
activate ":Sistema"
":Sistema" --> CDO : regista os dados e informa o colaborador de organização do sucesso da operação
deactivate ":Sistema"

deactivate CDO

@enduml
