<?xml version="1.0" encoding="UTF-8"?><svg xmlns="http://www.w3.org/2000/svg" xmlns:xlink="http://www.w3.org/1999/xlink" contentScriptType="application/ecmascript" contentStyleType="text/css" height="1712px" preserveAspectRatio="none" style="width:2438px;height:1712px;" version="1.1" viewBox="0 0 2438 1712" width="2438px" zoomAndPan="magnify">
    <defs>
        <filter height="300%" id="f1j2a2d4kv8pzm" width="300%" x="-1" y="-1">
            <feGaussianBlur result="blurOut" stdDeviation="2.0"/>
            <feColorMatrix in="blurOut" result="blurOut2" type="matrix" values="0 0 0 0 0 0 0 0 0 0 0 0 0 0 0 0 0 0 .4 0"/>
            <feOffset dx="4.0" dy="4.0" in="blurOut2" result="blurOut3"/>
            <feBlend in="SourceGraphic" in2="blurOut3" mode="normal"/>
        </filter>
    </defs>
    <g>
        <rect fill="#FFFFFF" filter="url(#f1j2a2d4kv8pzm)" height="1512.8457" style="stroke: #A80036; stroke-width: 1.0;" width="10" x="105.5" y="96.4883"/>
        <rect fill="#FFFFFF" filter="url(#f1j2a2d4kv8pzm)" height="355.1738" style="stroke: #A80036; stroke-width: 1.0;" width="10" x="611.5" y="117.4883"/>
        <rect fill="#FFFFFF" filter="url(#f1j2a2d4kv8pzm)" height="417.1504" style="stroke: #A80036; stroke-width: 1.0;" width="10" x="611.5" y="501.9727"/>
        <rect fill="#FFFFFF" filter="url(#f1j2a2d4kv8pzm)" height="251.8633" style="stroke: #A80036; stroke-width: 1.0;" width="10" x="611.5" y="949.0547"/>
        <rect fill="#FFFFFF" filter="url(#f1j2a2d4kv8pzm)" height="177.2422" style="stroke: #A80036; stroke-width: 1.0;" width="10" x="611.5" y="1230.2285"/>
        <rect fill="#FFFFFF" filter="url(#f1j2a2d4kv8pzm)" height="172.5527" style="stroke: #A80036; stroke-width: 1.0;" width="10" x="611.5" y="1436.7813"/>
        <rect fill="#FFFFFF" filter="url(#f1j2a2d4kv8pzm)" height="296.5527" style="stroke: #A80036; stroke-width: 1.0;" width="10" x="853.5" y="146.7988"/>
        <rect fill="#FFFFFF" filter="url(#f1j2a2d4kv8pzm)" height="295.8633" style="stroke: #A80036; stroke-width: 1.0;" width="10" x="853.5" y="531.2832"/>
        <rect fill="#FFFFFF" filter="url(#f1j2a2d4kv8pzm)" height="178.2422" style="stroke: #A80036; stroke-width: 1.0;" width="10" x="853.5" y="993.3652"/>
        <rect fill="#FFFFFF" filter="url(#f1j2a2d4kv8pzm)" height="118.6211" style="stroke: #A80036; stroke-width: 1.0;" width="10" x="853.5" y="1259.5391"/>
        <rect fill="#FFFFFF" filter="url(#f1j2a2d4kv8pzm)" height="143.2422" style="stroke: #A80036; stroke-width: 1.0;" width="10" x="853.5" y="1466.0918"/>
        <rect fill="#FFFFFF" filter="url(#f1j2a2d4kv8pzm)" height="30" style="stroke: #A80036; stroke-width: 1.0;" width="10" x="1017.5" y="176.1094"/>
        <rect fill="#FFFFFF" filter="url(#f1j2a2d4kv8pzm)" height="30" style="stroke: #A80036; stroke-width: 1.0;" width="10" x="1141.5" y="235.4199"/>
        <rect fill="#FFFFFF" filter="url(#f1j2a2d4kv8pzm)" height="30" style="stroke: #A80036; stroke-width: 1.0;" width="10" x="1277.5" y="294.7305"/>
        <rect fill="#FFFFFF" filter="url(#f1j2a2d4kv8pzm)" height="30" style="stroke: #A80036; stroke-width: 1.0;" width="10" x="1403.5" y="354.041"/>
        <rect fill="#FFFFFF" filter="url(#f1j2a2d4kv8pzm)" height="30" style="stroke: #A80036; stroke-width: 1.0;" width="10" x="1403.5" y="560.5938"/>
        <rect fill="#FFFFFF" filter="url(#f1j2a2d4kv8pzm)" height="30" style="stroke: #A80036; stroke-width: 1.0;" width="10" x="1403.5" y="679.2148"/>
        <rect fill="#FFFFFF" filter="url(#f1j2a2d4kv8pzm)" height="30" style="stroke: #A80036; stroke-width: 1.0;" width="10" x="1403.5" y="1082.2969"/>
        <rect fill="#FFFFFF" filter="url(#f1j2a2d4kv8pzm)" height="30" style="stroke: #A80036; stroke-width: 1.0;" width="10" x="1541.5" y="619.9043"/>
        <rect fill="#FFFFFF" filter="url(#f1j2a2d4kv8pzm)" height="30" style="stroke: #A80036; stroke-width: 1.0;" width="10" x="1690" y="413.3516"/>
        <rect fill="#FFFFFF" filter="url(#f1j2a2d4kv8pzm)" height="30" style="stroke: #A80036; stroke-width: 1.0;" width="10" x="1690" y="738.5254"/>
        <rect fill="#FFFFFF" filter="url(#f1j2a2d4kv8pzm)" height="29.3105" style="stroke: #A80036; stroke-width: 1.0;" width="10" x="1823.5" y="797.8359"/>
        <rect fill="#FFFFFF" filter="url(#f1j2a2d4kv8pzm)" height="113.9316" style="stroke: #A80036; stroke-width: 1.0;" width="10" x="1823.5" y="1495.4023"/>
        <rect fill="#FFFFFF" filter="url(#f1j2a2d4kv8pzm)" height="30" style="stroke: #A80036; stroke-width: 1.0;" width="10" x="2016.5" y="1141.6074"/>
        <rect fill="#FFFFFF" filter="url(#f1j2a2d4kv8pzm)" height="30" style="stroke: #A80036; stroke-width: 1.0;" width="10" x="2016.5" y="1288.8496"/>
        <rect fill="#FFFFFF" filter="url(#f1j2a2d4kv8pzm)" height="30" style="stroke: #A80036; stroke-width: 1.0;" width="10" x="2113.5" y="1022.9863"/>
        <rect fill="#FFFFFF" filter="url(#f1j2a2d4kv8pzm)" height="30" style="stroke: #A80036; stroke-width: 1.0;" width="10" x="2113.5" y="1348.1602"/>
        <rect fill="#FEFECE" filter="url(#f1j2a2d4kv8pzm)" height="46.9766" style="stroke: #A80036; stroke-width: 1.5;" width="75" x="2079" y="806.1465"/>
        <text fill="#000000" font-family="sans-serif" font-size="14" lengthAdjust="spacingAndGlyphs" textLength="26" x="2103.5" y="826.6816">anu</text>
        <text fill="#000000" font-family="sans-serif" font-size="14" lengthAdjust="spacingAndGlyphs" textLength="61" x="2086" y="843.1699">:Anuncio</text>
        <line style="stroke: #A80036; stroke-width: 1.0; stroke-dasharray: 5.0,5.0;" x1="110" x2="110" y1="86.4883" y2="1627.6445"/>
        <line style="stroke: #A80036; stroke-width: 1.0; stroke-dasharray: 5.0,5.0;" x1="616" x2="616" y1="86.4883" y2="1627.6445"/>
        <line style="stroke: #A80036; stroke-width: 1.0; stroke-dasharray: 5.0,5.0;" x1="858" x2="858" y1="86.4883" y2="1627.6445"/>
        <line style="stroke: #A80036; stroke-width: 1.0; stroke-dasharray: 5.0,5.0;" x1="1022.5" x2="1022.5" y1="86.4883" y2="1627.6445"/>
        <line style="stroke: #A80036; stroke-width: 1.0; stroke-dasharray: 5.0,5.0;" x1="1146.5" x2="1146.5" y1="86.4883" y2="1627.6445"/>
        <line style="stroke: #A80036; stroke-width: 1.0; stroke-dasharray: 5.0,5.0;" x1="1282.5" x2="1282.5" y1="86.4883" y2="1627.6445"/>
        <line style="stroke: #A80036; stroke-width: 1.0; stroke-dasharray: 5.0,5.0;" x1="1408.5" x2="1408.5" y1="86.4883" y2="1627.6445"/>
        <line style="stroke: #A80036; stroke-width: 1.0; stroke-dasharray: 5.0,5.0;" x1="1546.5" x2="1546.5" y1="86.4883" y2="1627.6445"/>
        <line style="stroke: #A80036; stroke-width: 1.0; stroke-dasharray: 5.0,5.0;" x1="1694.5" x2="1694.5" y1="86.4883" y2="1627.6445"/>
        <line style="stroke: #A80036; stroke-width: 1.0; stroke-dasharray: 5.0,5.0;" x1="1828.5" x2="1828.5" y1="86.4883" y2="1627.6445"/>
        <line style="stroke: #A80036; stroke-width: 1.0; stroke-dasharray: 5.0,5.0;" x1="2021" x2="2021" y1="86.4883" y2="1627.6445"/>
        <line style="stroke: #A80036; stroke-width: 1.0; stroke-dasharray: 5.0,5.0;" x1="2118" x2="2118" y1="847.1348" y2="1627.6445"/>
        <line style="stroke: #A80036; stroke-width: 1.0; stroke-dasharray: 5.0,5.0;" x1="2216" x2="2216" y1="86.4883" y2="1627.6445"/>
        <line style="stroke: #A80036; stroke-width: 1.0; stroke-dasharray: 5.0,5.0;" x1="2354" x2="2354" y1="86.4883" y2="1627.6445"/>
        <text fill="#000000" font-family="sans-serif" font-size="14" lengthAdjust="spacingAndGlyphs" textLength="199" x="8" y="83.5352">Colaborador de Organização</text>
        <ellipse cx="110.5" cy="13" fill="#FEFECE" filter="url(#f1j2a2d4kv8pzm)" rx="8" ry="8" style="stroke: #A80036; stroke-width: 2.0;"/>
        <path d="M110.5,21 L110.5,48 M97.5,29 L123.5,29 M110.5,48 L97.5,63 M110.5,48 L123.5,63 " fill="#FEFECE" filter="url(#f1j2a2d4kv8pzm)" style="stroke: #A80036; stroke-width: 2.0;"/>
        <text fill="#000000" font-family="sans-serif" font-size="14" lengthAdjust="spacingAndGlyphs" textLength="199" x="8" y="1640.1797">Colaborador de Organização</text>
        <ellipse cx="110.5" cy="1653.1328" fill="#FEFECE" filter="url(#f1j2a2d4kv8pzm)" rx="8" ry="8" style="stroke: #A80036; stroke-width: 2.0;"/>
        <path d="M110.5,1661.1328 L110.5,1688.1328 M97.5,1669.1328 L123.5,1669.1328 M110.5,1688.1328 L97.5,1703.1328 M110.5,1688.1328 L123.5,1703.1328 " fill="#FEFECE" filter="url(#f1j2a2d4kv8pzm)" style="stroke: #A80036; stroke-width: 2.0;"/>
        <rect fill="#FEFECE" filter="url(#f1j2a2d4kv8pzm)" height="30.4883" style="stroke: #A80036; stroke-width: 1.5;" width="131" x="549" y="51"/>
        <text fill="#000000" font-family="sans-serif" font-size="14" lengthAdjust="spacingAndGlyphs" textLength="117" x="556" y="71.5352">:PublicarTarefaUI</text>
        <rect fill="#FEFECE" filter="url(#f1j2a2d4kv8pzm)" height="30.4883" style="stroke: #A80036; stroke-width: 1.5;" width="131" x="549" y="1626.6445"/>
        <text fill="#000000" font-family="sans-serif" font-size="14" lengthAdjust="spacingAndGlyphs" textLength="117" x="556" y="1647.1797">:PublicarTarefaUI</text>
        <rect fill="#FEFECE" filter="url(#f1j2a2d4kv8pzm)" height="30.4883" style="stroke: #A80036; stroke-width: 1.5;" width="187" x="763" y="51"/>
        <text fill="#000000" font-family="sans-serif" font-size="14" lengthAdjust="spacingAndGlyphs" textLength="173" x="770" y="71.5352">:PublicarTarefaController</text>
        <rect fill="#FEFECE" filter="url(#f1j2a2d4kv8pzm)" height="30.4883" style="stroke: #A80036; stroke-width: 1.5;" width="187" x="763" y="1626.6445"/>
        <text fill="#000000" font-family="sans-serif" font-size="14" lengthAdjust="spacingAndGlyphs" textLength="173" x="770" y="1647.1797">:PublicarTarefaController</text>
        <rect fill="#FEFECE" filter="url(#f1j2a2d4kv8pzm)" height="30.4883" style="stroke: #A80036; stroke-width: 1.5;" width="108" x="966.5" y="51"/>
        <text fill="#000000" font-family="sans-serif" font-size="14" lengthAdjust="spacingAndGlyphs" textLength="94" x="973.5" y="71.5352">AplicacaoPOT</text>
        <rect fill="#FEFECE" filter="url(#f1j2a2d4kv8pzm)" height="30.4883" style="stroke: #A80036; stroke-width: 1.5;" width="108" x="966.5" y="1626.6445"/>
        <text fill="#000000" font-family="sans-serif" font-size="14" lengthAdjust="spacingAndGlyphs" textLength="94" x="973.5" y="1647.1797">AplicacaoPOT</text>
        <rect fill="#FEFECE" filter="url(#f1j2a2d4kv8pzm)" height="46.9766" style="stroke: #A80036; stroke-width: 1.5;" width="112" x="1088.5" y="34.5117"/>
        <text fill="#000000" font-family="sans-serif" font-size="14" lengthAdjust="spacingAndGlyphs" textLength="26" x="1131.5" y="55.0469">app</text>
        <text fill="#000000" font-family="sans-serif" font-size="14" lengthAdjust="spacingAndGlyphs" textLength="98" x="1095.5" y="71.5352">:AplicacaoPOT</text>
        <rect fill="#FEFECE" filter="url(#f1j2a2d4kv8pzm)" height="46.9766" style="stroke: #A80036; stroke-width: 1.5;" width="112" x="1088.5" y="1626.6445"/>
        <text fill="#000000" font-family="sans-serif" font-size="14" lengthAdjust="spacingAndGlyphs" textLength="26" x="1131.5" y="1647.1797">app</text>
        <text fill="#000000" font-family="sans-serif" font-size="14" lengthAdjust="spacingAndGlyphs" textLength="98" x="1095.5" y="1663.668">:AplicacaoPOT</text>
        <rect fill="#FEFECE" filter="url(#f1j2a2d4kv8pzm)" height="46.9766" style="stroke: #A80036; stroke-width: 1.5;" width="132" x="1214.5" y="34.5117"/>
        <text fill="#000000" font-family="sans-serif" font-size="14" lengthAdjust="spacingAndGlyphs" textLength="46" x="1257.5" y="55.0469">sessao</text>
        <text fill="#000000" font-family="sans-serif" font-size="14" lengthAdjust="spacingAndGlyphs" textLength="118" x="1221.5" y="71.5352">:SessaoUtilizador</text>
        <rect fill="#FEFECE" filter="url(#f1j2a2d4kv8pzm)" height="46.9766" style="stroke: #A80036; stroke-width: 1.5;" width="132" x="1214.5" y="1626.6445"/>
        <text fill="#000000" font-family="sans-serif" font-size="14" lengthAdjust="spacingAndGlyphs" textLength="46" x="1257.5" y="1647.1797">sessao</text>
        <text fill="#000000" font-family="sans-serif" font-size="14" lengthAdjust="spacingAndGlyphs" textLength="118" x="1221.5" y="1663.668">:SessaoUtilizador</text>
        <rect fill="#FEFECE" filter="url(#f1j2a2d4kv8pzm)" height="30.4883" style="stroke: #A80036; stroke-width: 1.5;" width="92" x="1360.5" y="51"/>
        <text fill="#000000" font-family="sans-serif" font-size="14" lengthAdjust="spacingAndGlyphs" textLength="78" x="1367.5" y="71.5352">:Plataforma</text>
        <rect fill="#FEFECE" filter="url(#f1j2a2d4kv8pzm)" height="30.4883" style="stroke: #A80036; stroke-width: 1.5;" width="92" x="1360.5" y="1626.6445"/>
        <text fill="#000000" font-family="sans-serif" font-size="14" lengthAdjust="spacingAndGlyphs" textLength="78" x="1367.5" y="1647.1797">:Plataforma</text>
        <rect fill="#FEFECE" filter="url(#f1j2a2d4kv8pzm)" height="46.9766" style="stroke: #A80036; stroke-width: 1.5;" width="156" x="1466.5" y="34.5117"/>
        <text fill="#000000" font-family="sans-serif" font-size="14" lengthAdjust="spacingAndGlyphs" textLength="15" x="1537" y="55.0469">ro</text>
        <text fill="#000000" font-family="sans-serif" font-size="14" lengthAdjust="spacingAndGlyphs" textLength="142" x="1473.5" y="71.5352">:RegistoOrganizacao</text>
        <rect fill="#FEFECE" filter="url(#f1j2a2d4kv8pzm)" height="46.9766" style="stroke: #A80036; stroke-width: 1.5;" width="156" x="1466.5" y="1626.6445"/>
        <text fill="#000000" font-family="sans-serif" font-size="14" lengthAdjust="spacingAndGlyphs" textLength="15" x="1537" y="1647.1797">ro</text>
        <text fill="#000000" font-family="sans-serif" font-size="14" lengthAdjust="spacingAndGlyphs" textLength="142" x="1473.5" y="1663.668">:RegistoOrganizacao</text>
        <rect fill="#FEFECE" filter="url(#f1j2a2d4kv8pzm)" height="46.9766" style="stroke: #A80036; stroke-width: 1.5;" width="113" x="1636.5" y="34.5117"/>
        <text fill="#000000" font-family="sans-serif" font-size="14" lengthAdjust="spacingAndGlyphs" textLength="11" x="1687.5" y="55.0469">rt</text>
        <text fill="#000000" font-family="sans-serif" font-size="14" lengthAdjust="spacingAndGlyphs" textLength="99" x="1643.5" y="71.5352">:RegistoTarefa</text>
        <rect fill="#FEFECE" filter="url(#f1j2a2d4kv8pzm)" height="46.9766" style="stroke: #A80036; stroke-width: 1.5;" width="113" x="1636.5" y="1626.6445"/>
        <text fill="#000000" font-family="sans-serif" font-size="14" lengthAdjust="spacingAndGlyphs" textLength="11" x="1687.5" y="1647.1797">rt</text>
        <text fill="#000000" font-family="sans-serif" font-size="14" lengthAdjust="spacingAndGlyphs" textLength="99" x="1643.5" y="1663.668">:RegistoTarefa</text>
        <rect fill="#FEFECE" filter="url(#f1j2a2d4kv8pzm)" height="46.9766" style="stroke: #A80036; stroke-width: 1.5;" width="126" x="1763.5" y="34.5117"/>
        <text fill="#000000" font-family="sans-serif" font-size="14" lengthAdjust="spacingAndGlyphs" textLength="14" x="1819.5" y="55.0469">ra</text>
        <text fill="#000000" font-family="sans-serif" font-size="14" lengthAdjust="spacingAndGlyphs" textLength="112" x="1770.5" y="71.5352">:RegistoAnuncio</text>
        <rect fill="#FEFECE" filter="url(#f1j2a2d4kv8pzm)" height="46.9766" style="stroke: #A80036; stroke-width: 1.5;" width="126" x="1763.5" y="1626.6445"/>
        <text fill="#000000" font-family="sans-serif" font-size="14" lengthAdjust="spacingAndGlyphs" textLength="14" x="1819.5" y="1647.1797">ra</text>
        <text fill="#000000" font-family="sans-serif" font-size="14" lengthAdjust="spacingAndGlyphs" textLength="112" x="1770.5" y="1663.668">:RegistoAnuncio</text>
        <rect fill="#FEFECE" filter="url(#f1j2a2d4kv8pzm)" height="46.9766" style="stroke: #A80036; stroke-width: 1.5;" width="91" x="1974" y="34.5117"/>
        <text fill="#000000" font-family="sans-serif" font-size="14" lengthAdjust="spacingAndGlyphs" textLength="17" x="2011" y="55.0469">rtr</text>
        <text fill="#000000" font-family="sans-serif" font-size="14" lengthAdjust="spacingAndGlyphs" textLength="77" x="1981" y="71.5352">:Registo TR</text>
        <rect fill="#FEFECE" filter="url(#f1j2a2d4kv8pzm)" height="46.9766" style="stroke: #A80036; stroke-width: 1.5;" width="91" x="1974" y="1626.6445"/>
        <text fill="#000000" font-family="sans-serif" font-size="14" lengthAdjust="spacingAndGlyphs" textLength="17" x="2011" y="1647.1797">rtr</text>
        <text fill="#000000" font-family="sans-serif" font-size="14" lengthAdjust="spacingAndGlyphs" textLength="77" x="1981" y="1663.668">:Registo TR</text>
        <rect fill="#FEFECE" filter="url(#f1j2a2d4kv8pzm)" height="46.9766" style="stroke: #A80036; stroke-width: 1.5;" width="75" x="2079" y="1626.6445"/>
        <text fill="#000000" font-family="sans-serif" font-size="14" lengthAdjust="spacingAndGlyphs" textLength="26" x="2103.5" y="1647.1797">anu</text>
        <text fill="#000000" font-family="sans-serif" font-size="14" lengthAdjust="spacingAndGlyphs" textLength="61" x="2086" y="1663.668">:Anuncio</text>
        <rect fill="#FEFECE" filter="url(#f1j2a2d4kv8pzm)" height="46.9766" style="stroke: #A80036; stroke-width: 1.5;" width="93" x="2168" y="34.5117"/>
        <text fill="#000000" font-family="sans-serif" font-size="14" lengthAdjust="spacingAndGlyphs" textLength="18" x="2205.5" y="55.0469">ltu</text>
        <text fill="#000000" font-family="sans-serif" font-size="14" lengthAdjust="spacingAndGlyphs" textLength="79" x="2175" y="71.5352">:ListaTarefa</text>
        <rect fill="#FEFECE" filter="url(#f1j2a2d4kv8pzm)" height="46.9766" style="stroke: #A80036; stroke-width: 1.5;" width="93" x="2168" y="1626.6445"/>
        <text fill="#000000" font-family="sans-serif" font-size="14" lengthAdjust="spacingAndGlyphs" textLength="18" x="2205.5" y="1647.1797">ltu</text>
        <text fill="#000000" font-family="sans-serif" font-size="14" lengthAdjust="spacingAndGlyphs" textLength="79" x="2175" y="1663.668">:ListaTarefa</text>
        <rect fill="#FEFECE" filter="url(#f1j2a2d4kv8pzm)" height="46.9766" style="stroke: #A80036; stroke-width: 1.5;" width="154" x="2275" y="34.5117"/>
        <text fill="#000000" font-family="sans-serif" font-size="14" lengthAdjust="spacingAndGlyphs" textLength="15" x="2344.5" y="55.0469">ltr</text>
        <text fill="#000000" font-family="sans-serif" font-size="14" lengthAdjust="spacingAndGlyphs" textLength="140" x="2282" y="71.5352">:ListaTipoRegimento</text>
        <rect fill="#FEFECE" filter="url(#f1j2a2d4kv8pzm)" height="46.9766" style="stroke: #A80036; stroke-width: 1.5;" width="154" x="2275" y="1626.6445"/>
        <text fill="#000000" font-family="sans-serif" font-size="14" lengthAdjust="spacingAndGlyphs" textLength="15" x="2344.5" y="1647.1797">ltr</text>
        <text fill="#000000" font-family="sans-serif" font-size="14" lengthAdjust="spacingAndGlyphs" textLength="140" x="2282" y="1663.668">:ListaTipoRegimento</text>
        <rect fill="#FFFFFF" filter="url(#f1j2a2d4kv8pzm)" height="1512.8457" style="stroke: #A80036; stroke-width: 1.0;" width="10" x="105.5" y="96.4883"/>
        <rect fill="#FFFFFF" filter="url(#f1j2a2d4kv8pzm)" height="355.1738" style="stroke: #A80036; stroke-width: 1.0;" width="10" x="611.5" y="117.4883"/>
        <rect fill="#FFFFFF" filter="url(#f1j2a2d4kv8pzm)" height="417.1504" style="stroke: #A80036; stroke-width: 1.0;" width="10" x="611.5" y="501.9727"/>
        <rect fill="#FFFFFF" filter="url(#f1j2a2d4kv8pzm)" height="251.8633" style="stroke: #A80036; stroke-width: 1.0;" width="10" x="611.5" y="949.0547"/>
        <rect fill="#FFFFFF" filter="url(#f1j2a2d4kv8pzm)" height="177.2422" style="stroke: #A80036; stroke-width: 1.0;" width="10" x="611.5" y="1230.2285"/>
        <rect fill="#FFFFFF" filter="url(#f1j2a2d4kv8pzm)" height="172.5527" style="stroke: #A80036; stroke-width: 1.0;" width="10" x="611.5" y="1436.7813"/>
        <rect fill="#FFFFFF" filter="url(#f1j2a2d4kv8pzm)" height="296.5527" style="stroke: #A80036; stroke-width: 1.0;" width="10" x="853.5" y="146.7988"/>
        <rect fill="#FFFFFF" filter="url(#f1j2a2d4kv8pzm)" height="295.8633" style="stroke: #A80036; stroke-width: 1.0;" width="10" x="853.5" y="531.2832"/>
        <rect fill="#FFFFFF" filter="url(#f1j2a2d4kv8pzm)" height="178.2422" style="stroke: #A80036; stroke-width: 1.0;" width="10" x="853.5" y="993.3652"/>
        <rect fill="#FFFFFF" filter="url(#f1j2a2d4kv8pzm)" height="118.6211" style="stroke: #A80036; stroke-width: 1.0;" width="10" x="853.5" y="1259.5391"/>
        <rect fill="#FFFFFF" filter="url(#f1j2a2d4kv8pzm)" height="143.2422" style="stroke: #A80036; stroke-width: 1.0;" width="10" x="853.5" y="1466.0918"/>
        <rect fill="#FFFFFF" filter="url(#f1j2a2d4kv8pzm)" height="30" style="stroke: #A80036; stroke-width: 1.0;" width="10" x="1017.5" y="176.1094"/>
        <rect fill="#FFFFFF" filter="url(#f1j2a2d4kv8pzm)" height="30" style="stroke: #A80036; stroke-width: 1.0;" width="10" x="1141.5" y="235.4199"/>
        <rect fill="#FFFFFF" filter="url(#f1j2a2d4kv8pzm)" height="30" style="stroke: #A80036; stroke-width: 1.0;" width="10" x="1277.5" y="294.7305"/>
        <rect fill="#FFFFFF" filter="url(#f1j2a2d4kv8pzm)" height="30" style="stroke: #A80036; stroke-width: 1.0;" width="10" x="1403.5" y="354.041"/>
        <rect fill="#FFFFFF" filter="url(#f1j2a2d4kv8pzm)" height="30" style="stroke: #A80036; stroke-width: 1.0;" width="10" x="1403.5" y="560.5938"/>
        <rect fill="#FFFFFF" filter="url(#f1j2a2d4kv8pzm)" height="30" style="stroke: #A80036; stroke-width: 1.0;" width="10" x="1403.5" y="679.2148"/>
        <rect fill="#FFFFFF" filter="url(#f1j2a2d4kv8pzm)" height="30" style="stroke: #A80036; stroke-width: 1.0;" width="10" x="1403.5" y="1082.2969"/>
        <rect fill="#FFFFFF" filter="url(#f1j2a2d4kv8pzm)" height="30" style="stroke: #A80036; stroke-width: 1.0;" width="10" x="1541.5" y="619.9043"/>
        <rect fill="#FFFFFF" filter="url(#f1j2a2d4kv8pzm)" height="30" style="stroke: #A80036; stroke-width: 1.0;" width="10" x="1690" y="413.3516"/>
        <rect fill="#FFFFFF" filter="url(#f1j2a2d4kv8pzm)" height="30" style="stroke: #A80036; stroke-width: 1.0;" width="10" x="1690" y="738.5254"/>
        <rect fill="#FFFFFF" filter="url(#f1j2a2d4kv8pzm)" height="29.3105" style="stroke: #A80036; stroke-width: 1.0;" width="10" x="1823.5" y="797.8359"/>
        <rect fill="#FFFFFF" filter="url(#f1j2a2d4kv8pzm)" height="113.9316" style="stroke: #A80036; stroke-width: 1.0;" width="10" x="1823.5" y="1495.4023"/>
        <rect fill="#FFFFFF" filter="url(#f1j2a2d4kv8pzm)" height="30" style="stroke: #A80036; stroke-width: 1.0;" width="10" x="2016.5" y="1141.6074"/>
        <rect fill="#FFFFFF" filter="url(#f1j2a2d4kv8pzm)" height="30" style="stroke: #A80036; stroke-width: 1.0;" width="10" x="2016.5" y="1288.8496"/>
        <rect fill="#FFFFFF" filter="url(#f1j2a2d4kv8pzm)" height="30" style="stroke: #A80036; stroke-width: 1.0;" width="10" x="2113.5" y="1022.9863"/>
        <rect fill="#FFFFFF" filter="url(#f1j2a2d4kv8pzm)" height="30" style="stroke: #A80036; stroke-width: 1.0;" width="10" x="2113.5" y="1348.1602"/>
        <polygon fill="#A80036" points="599.5,113.4883,609.5,117.4883,599.5,121.4883,603.5,117.4883" style="stroke: #A80036; stroke-width: 1.0;"/>
        <line style="stroke: #A80036; stroke-width: 1.0;" x1="115.5" x2="605.5" y1="117.4883" y2="117.4883"/>
        <text fill="#000000" font-family="sans-serif" font-size="13" font-weight="bold" lengthAdjust="spacingAndGlyphs" textLength="9" x="122.5" y="113.0566">1</text>
        <text fill="#000000" font-family="sans-serif" font-size="13" lengthAdjust="spacingAndGlyphs" textLength="207" x="135.5" y="113.0566">inicia a publicação de uma tarefa</text>
        <polygon fill="#A80036" points="841.5,142.7988,851.5,146.7988,841.5,150.7988,845.5,146.7988" style="stroke: #A80036; stroke-width: 1.0;"/>
        <line style="stroke: #A80036; stroke-width: 1.0;" x1="621.5" x2="847.5" y1="146.7988" y2="146.7988"/>
        <text fill="#000000" font-family="sans-serif" font-size="13" font-weight="bold" lengthAdjust="spacingAndGlyphs" textLength="9" x="628.5" y="142.3672">2</text>
        <text fill="#000000" font-family="sans-serif" font-size="13" lengthAdjust="spacingAndGlyphs" textLength="200" x="641.5" y="142.3672">ltu = getListaTarefasUtilizador()</text>
        <polygon fill="#A80036" points="1005.5,172.1094,1015.5,176.1094,1005.5,180.1094,1009.5,176.1094" style="stroke: #A80036; stroke-width: 1.0;"/>
        <line style="stroke: #A80036; stroke-width: 1.0;" x1="863.5" x2="1011.5" y1="176.1094" y2="176.1094"/>
        <text fill="#000000" font-family="sans-serif" font-size="13" font-weight="bold" lengthAdjust="spacingAndGlyphs" textLength="9" x="870.5" y="171.6777">3</text>
        <text fill="#000000" font-family="sans-serif" font-size="13" lengthAdjust="spacingAndGlyphs" textLength="122" x="883.5" y="171.6777">app = getInstance()</text>
        <polygon fill="#A80036" points="1129.5,231.4199,1139.5,235.4199,1129.5,239.4199,1133.5,235.4199" style="stroke: #A80036; stroke-width: 1.0;"/>
        <line style="stroke: #A80036; stroke-width: 1.0;" x1="863.5" x2="1135.5" y1="235.4199" y2="235.4199"/>
        <text fill="#000000" font-family="sans-serif" font-size="13" font-weight="bold" lengthAdjust="spacingAndGlyphs" textLength="9" x="870.5" y="230.9883">4</text>
        <text fill="#000000" font-family="sans-serif" font-size="13" lengthAdjust="spacingAndGlyphs" textLength="165" x="883.5" y="230.9883">sessao = getSessaoAtual()</text>
        <polygon fill="#A80036" points="1265.5,290.7305,1275.5,294.7305,1265.5,298.7305,1269.5,294.7305" style="stroke: #A80036; stroke-width: 1.0;"/>
        <line style="stroke: #A80036; stroke-width: 1.0;" x1="863.5" x2="1271.5" y1="294.7305" y2="294.7305"/>
        <text fill="#000000" font-family="sans-serif" font-size="13" font-weight="bold" lengthAdjust="spacingAndGlyphs" textLength="9" x="870.5" y="290.2988">5</text>
        <text fill="#000000" font-family="sans-serif" font-size="13" lengthAdjust="spacingAndGlyphs" textLength="175" x="883.5" y="290.2988">email = getEmailUtilizador()</text>
        <polygon fill="#A80036" points="1391.5,350.041,1401.5,354.041,1391.5,358.041,1395.5,354.041" style="stroke: #A80036; stroke-width: 1.0;"/>
        <line style="stroke: #A80036; stroke-width: 1.0;" x1="863.5" x2="1397.5" y1="354.041" y2="354.041"/>
        <text fill="#000000" font-family="sans-serif" font-size="13" font-weight="bold" lengthAdjust="spacingAndGlyphs" textLength="9" x="870.5" y="349.6094">6</text>
        <text fill="#000000" font-family="sans-serif" font-size="13" lengthAdjust="spacingAndGlyphs" textLength="142" x="883.5" y="349.6094">rt = getRegistoTarefa()</text>
        <polygon fill="#A80036" points="1678,409.3516,1688,413.3516,1678,417.3516,1682,413.3516" style="stroke: #A80036; stroke-width: 1.0;"/>
        <line style="stroke: #A80036; stroke-width: 1.0;" x1="863.5" x2="1684" y1="413.3516" y2="413.3516"/>
        <text fill="#000000" font-family="sans-serif" font-size="13" font-weight="bold" lengthAdjust="spacingAndGlyphs" textLength="9" x="870.5" y="408.9199">7</text>
        <text fill="#000000" font-family="sans-serif" font-size="13" lengthAdjust="spacingAndGlyphs" textLength="292" x="883.5" y="408.9199">ltByEmail = getTarefasByEmailUtilizador(email)</text>
        <polygon fill="#A80036" points="126.5,468.6621,116.5,472.6621,126.5,476.6621,122.5,472.6621" style="stroke: #A80036; stroke-width: 1.0;"/>
        <line style="stroke: #A80036; stroke-width: 1.0; stroke-dasharray: 2.0,2.0;" x1="120.5" x2="615.5" y1="472.6621" y2="472.6621"/>
        <text fill="#000000" font-family="sans-serif" font-size="13" font-weight="bold" lengthAdjust="spacingAndGlyphs" textLength="9" x="132.5" y="468.2305">8</text>
        <text fill="#000000" font-family="sans-serif" font-size="13" lengthAdjust="spacingAndGlyphs" textLength="230" x="145.5" y="468.2305">mostra lista de tarefas por si criadas</text>
        <polygon fill="#A80036" points="599.5,497.9727,609.5,501.9727,599.5,505.9727,603.5,501.9727" style="stroke: #A80036; stroke-width: 1.0;"/>
        <line style="stroke: #A80036; stroke-width: 1.0;" x1="115.5" x2="605.5" y1="501.9727" y2="501.9727"/>
        <text fill="#000000" font-family="sans-serif" font-size="13" font-weight="bold" lengthAdjust="spacingAndGlyphs" textLength="9" x="122.5" y="497.541">9</text>
        <text fill="#000000" font-family="sans-serif" font-size="13" lengthAdjust="spacingAndGlyphs" textLength="130" x="135.5" y="497.541">seleciona uma tarefa</text>
        <polygon fill="#A80036" points="841.5,527.2832,851.5,531.2832,841.5,535.2832,845.5,531.2832" style="stroke: #A80036; stroke-width: 1.0;"/>
        <line style="stroke: #A80036; stroke-width: 1.0;" x1="621.5" x2="847.5" y1="531.2832" y2="531.2832"/>
        <text fill="#000000" font-family="sans-serif" font-size="13" font-weight="bold" lengthAdjust="spacingAndGlyphs" textLength="18" x="628.5" y="526.8516">10</text>
        <text fill="#000000" font-family="sans-serif" font-size="13" lengthAdjust="spacingAndGlyphs" textLength="143" x="650.5" y="526.8516">novoAnuncio(refUnica)</text>
        <polygon fill="#A80036" points="1391.5,556.5938,1401.5,560.5938,1391.5,564.5938,1395.5,560.5938" style="stroke: #A80036; stroke-width: 1.0;"/>
        <line style="stroke: #A80036; stroke-width: 1.0;" x1="863.5" x2="1397.5" y1="560.5938" y2="560.5938"/>
        <text fill="#000000" font-family="sans-serif" font-size="13" font-weight="bold" lengthAdjust="spacingAndGlyphs" textLength="18" x="870.5" y="556.1621">11</text>
        <text fill="#000000" font-family="sans-serif" font-size="13" lengthAdjust="spacingAndGlyphs" textLength="184" x="892.5" y="556.1621">ro = getRegistoOrganizacao()</text>
        <polygon fill="#A80036" points="1529.5,615.9043,1539.5,619.9043,1529.5,623.9043,1533.5,619.9043" style="stroke: #A80036; stroke-width: 1.0;"/>
        <line style="stroke: #A80036; stroke-width: 1.0;" x1="863.5" x2="1535.5" y1="619.9043" y2="619.9043"/>
        <text fill="#000000" font-family="sans-serif" font-size="13" font-weight="bold" lengthAdjust="spacingAndGlyphs" textLength="18" x="870.5" y="615.4727">12</text>
        <text fill="#000000" font-family="sans-serif" font-size="13" lengthAdjust="spacingAndGlyphs" textLength="288" x="892.5" y="615.4727">org = getOrganizacaoByEmailUtilizador(email)</text>
        <polygon fill="#A80036" points="1391.5,675.2148,1401.5,679.2148,1391.5,683.2148,1395.5,679.2148" style="stroke: #A80036; stroke-width: 1.0;"/>
        <line style="stroke: #A80036; stroke-width: 1.0;" x1="863.5" x2="1397.5" y1="679.2148" y2="679.2148"/>
        <text fill="#000000" font-family="sans-serif" font-size="13" font-weight="bold" lengthAdjust="spacingAndGlyphs" textLength="18" x="870.5" y="674.7832">13</text>
        <text fill="#000000" font-family="sans-serif" font-size="13" lengthAdjust="spacingAndGlyphs" textLength="157" x="892.5" y="674.7832">ra = getRegistoAnuncio()</text>
        <polygon fill="#A80036" points="1678,734.5254,1688,738.5254,1678,742.5254,1682,738.5254" style="stroke: #A80036; stroke-width: 1.0;"/>
        <line style="stroke: #A80036; stroke-width: 1.0;" x1="863.5" x2="1684" y1="738.5254" y2="738.5254"/>
        <text fill="#000000" font-family="sans-serif" font-size="13" font-weight="bold" lengthAdjust="spacingAndGlyphs" textLength="18" x="870.5" y="734.0938">14</text>
        <text fill="#000000" font-family="sans-serif" font-size="13" lengthAdjust="spacingAndGlyphs" textLength="179" x="892.5" y="734.0938">tar = getTarefa(refUnica,org)</text>
        <polygon fill="#A80036" points="1811.5,793.8359,1821.5,797.8359,1811.5,801.8359,1815.5,797.8359" style="stroke: #A80036; stroke-width: 1.0;"/>
        <line style="stroke: #A80036; stroke-width: 1.0;" x1="863.5" x2="1817.5" y1="797.8359" y2="797.8359"/>
        <text fill="#000000" font-family="sans-serif" font-size="13" font-weight="bold" lengthAdjust="spacingAndGlyphs" textLength="18" x="870.5" y="793.4043">15</text>
        <text fill="#000000" font-family="sans-serif" font-size="13" lengthAdjust="spacingAndGlyphs" textLength="176" x="892.5" y="793.4043">anuncio = novoAnuncio(tar)</text>
        <polygon fill="#A80036" points="2067,823.1465,2077,827.1465,2067,831.1465,2071,827.1465" style="stroke: #A80036; stroke-width: 1.0;"/>
        <line style="stroke: #A80036; stroke-width: 1.0; stroke-dasharray: 2.0,2.0;" x1="1828.5" x2="2073" y1="827.1465" y2="827.1465"/>
        <text fill="#000000" font-family="sans-serif" font-size="13" font-weight="bold" lengthAdjust="spacingAndGlyphs" textLength="18" x="1835.5" y="822.7148">16</text>
        <text fill="#000000" font-family="sans-serif" font-size="13" lengthAdjust="spacingAndGlyphs" textLength="63" x="1857.5" y="822.7148">create(tar)</text>
        <rect fill="#FEFECE" filter="url(#f1j2a2d4kv8pzm)" height="46.9766" style="stroke: #A80036; stroke-width: 1.5;" width="75" x="2079" y="806.1465"/>
        <text fill="#000000" font-family="sans-serif" font-size="14" lengthAdjust="spacingAndGlyphs" textLength="26" x="2103.5" y="826.6816">anu</text>
        <text fill="#000000" font-family="sans-serif" font-size="14" lengthAdjust="spacingAndGlyphs" textLength="61" x="2086" y="843.1699">:Anuncio</text>
        <polygon fill="#A80036" points="126.5,915.123,116.5,919.123,126.5,923.123,122.5,919.123" style="stroke: #A80036; stroke-width: 1.0;"/>
        <line style="stroke: #A80036; stroke-width: 1.0; stroke-dasharray: 2.0,2.0;" x1="120.5" x2="615.5" y1="919.123" y2="919.123"/>
        <text fill="#000000" font-family="sans-serif" font-size="13" font-weight="bold" lengthAdjust="spacingAndGlyphs" textLength="18" x="132.5" y="900.002">17</text>
        <text fill="#000000" font-family="sans-serif" font-size="13" lengthAdjust="spacingAndGlyphs" textLength="352" x="154.5" y="884.6914">solicita os dados necessários(períodos inicial e final de:</text>
        <text fill="#000000" font-family="sans-serif" font-size="13" lengthAdjust="spacingAndGlyphs" textLength="446" x="154.5" y="900.002">publicitação da tarefa; apresentação de candidaturas pelos freelancers;</text>
        <text fill="#000000" font-family="sans-serif" font-size="13" lengthAdjust="spacingAndGlyphs" textLength="365" x="158.5" y="915.3125">seriação e decisão de atribuição de tarefa a um freelancer)</text>
        <polygon fill="#A80036" points="599.5,945.0547,609.5,949.0547,599.5,953.0547,603.5,949.0547" style="stroke: #A80036; stroke-width: 1.0;"/>
        <line style="stroke: #A80036; stroke-width: 1.0;" x1="115.5" x2="605.5" y1="949.0547" y2="949.0547"/>
        <text fill="#000000" font-family="sans-serif" font-size="13" font-weight="bold" lengthAdjust="spacingAndGlyphs" textLength="18" x="122.5" y="944.623">18</text>
        <text fill="#000000" font-family="sans-serif" font-size="13" lengthAdjust="spacingAndGlyphs" textLength="192" x="144.5" y="944.623">introduz os dados necessários</text>
        <polygon fill="#A80036" points="841.5,989.3652,851.5,993.3652,841.5,997.3652,845.5,993.3652" style="stroke: #A80036; stroke-width: 1.0;"/>
        <line style="stroke: #A80036; stroke-width: 1.0;" x1="621.5" x2="847.5" y1="993.3652" y2="993.3652"/>
        <text fill="#000000" font-family="sans-serif" font-size="13" font-weight="bold" lengthAdjust="spacingAndGlyphs" textLength="18" x="628.5" y="981.5889">19</text>
        <text fill="#000000" font-family="sans-serif" font-size="13" lengthAdjust="spacingAndGlyphs" textLength="168" x="650.5" y="973.9336">addPeriodos(pTarIn,pTarFi,</text>
        <text fill="#000000" font-family="sans-serif" font-size="13" lengthAdjust="spacingAndGlyphs" textLength="176" x="650.5" y="989.2441">pAprIn,pAprFi,pSerIn,pSerFi)</text>
        <polygon fill="#A80036" points="2101.5,1018.9863,2111.5,1022.9863,2101.5,1026.9863,2105.5,1022.9863" style="stroke: #A80036; stroke-width: 1.0;"/>
        <line style="stroke: #A80036; stroke-width: 1.0;" x1="863.5" x2="2107.5" y1="1022.9863" y2="1022.9863"/>
        <text fill="#000000" font-family="sans-serif" font-size="13" font-weight="bold" lengthAdjust="spacingAndGlyphs" textLength="18" x="870.5" y="1018.5547">20</text>
        <text fill="#000000" font-family="sans-serif" font-size="13" lengthAdjust="spacingAndGlyphs" textLength="305" x="892.5" y="1018.5547">setPer(pTarIn,pTarFi,pAprIn,pAprFi,pSerIn,pSerFi)</text>
        <polygon fill="#A80036" points="1391.5,1078.2969,1401.5,1082.2969,1391.5,1086.2969,1395.5,1082.2969" style="stroke: #A80036; stroke-width: 1.0;"/>
        <line style="stroke: #A80036; stroke-width: 1.0;" x1="863.5" x2="1397.5" y1="1082.2969" y2="1082.2969"/>
        <text fill="#000000" font-family="sans-serif" font-size="13" font-weight="bold" lengthAdjust="spacingAndGlyphs" textLength="18" x="870.5" y="1077.8652">21</text>
        <text fill="#000000" font-family="sans-serif" font-size="13" lengthAdjust="spacingAndGlyphs" textLength="203" x="892.5" y="1077.8652">rtr = getRegistoTipoRegimento()</text>
        <polygon fill="#A80036" points="2004.5,1137.6074,2014.5,1141.6074,2004.5,1145.6074,2008.5,1141.6074" style="stroke: #A80036; stroke-width: 1.0;"/>
        <line style="stroke: #A80036; stroke-width: 1.0;" x1="863.5" x2="2010.5" y1="1141.6074" y2="1141.6074"/>
        <text fill="#000000" font-family="sans-serif" font-size="13" font-weight="bold" lengthAdjust="spacingAndGlyphs" textLength="18" x="870.5" y="1137.1758">22</text>
        <text fill="#000000" font-family="sans-serif" font-size="13" lengthAdjust="spacingAndGlyphs" textLength="84" x="892.5" y="1137.1758">ltrg = getTR()</text>
        <polygon fill="#A80036" points="126.5,1196.918,116.5,1200.918,126.5,1204.918,122.5,1200.918" style="stroke: #A80036; stroke-width: 1.0;"/>
        <line style="stroke: #A80036; stroke-width: 1.0; stroke-dasharray: 2.0,2.0;" x1="120.5" x2="615.5" y1="1200.918" y2="1200.918"/>
        <text fill="#000000" font-family="sans-serif" font-size="13" font-weight="bold" lengthAdjust="spacingAndGlyphs" textLength="18" x="132.5" y="1196.4863">23</text>
        <text fill="#000000" font-family="sans-serif" font-size="13" lengthAdjust="spacingAndGlyphs" textLength="63" x="154.5" y="1196.4863">Mostra TR</text>
        <polygon fill="#A80036" points="599.5,1226.2285,609.5,1230.2285,599.5,1234.2285,603.5,1230.2285" style="stroke: #A80036; stroke-width: 1.0;"/>
        <line style="stroke: #A80036; stroke-width: 1.0;" x1="115.5" x2="605.5" y1="1230.2285" y2="1230.2285"/>
        <text fill="#000000" font-family="sans-serif" font-size="13" font-weight="bold" lengthAdjust="spacingAndGlyphs" textLength="18" x="122.5" y="1225.7969">24</text>
        <text fill="#000000" font-family="sans-serif" font-size="13" lengthAdjust="spacingAndGlyphs" textLength="103" x="144.5" y="1225.7969">seleciona um TR</text>
        <polygon fill="#A80036" points="841.5,1255.5391,851.5,1259.5391,841.5,1263.5391,845.5,1259.5391" style="stroke: #A80036; stroke-width: 1.0;"/>
        <line style="stroke: #A80036; stroke-width: 1.0;" x1="621.5" x2="847.5" y1="1259.5391" y2="1259.5391"/>
        <text fill="#000000" font-family="sans-serif" font-size="13" font-weight="bold" lengthAdjust="spacingAndGlyphs" textLength="18" x="628.5" y="1255.1074">25</text>
        <text fill="#000000" font-family="sans-serif" font-size="13" lengthAdjust="spacingAndGlyphs" textLength="148" x="650.5" y="1255.1074">addTipoRegimento(trId)</text>
        <polygon fill="#A80036" points="2004.5,1284.8496,2014.5,1288.8496,2004.5,1292.8496,2008.5,1288.8496" style="stroke: #A80036; stroke-width: 1.0;"/>
        <line style="stroke: #A80036; stroke-width: 1.0;" x1="863.5" x2="2010.5" y1="1288.8496" y2="1288.8496"/>
        <text fill="#000000" font-family="sans-serif" font-size="13" font-weight="bold" lengthAdjust="spacingAndGlyphs" textLength="18" x="870.5" y="1284.418">26</text>
        <text fill="#000000" font-family="sans-serif" font-size="13" lengthAdjust="spacingAndGlyphs" textLength="122" x="892.5" y="1284.418">tr = getTRByID(trId)</text>
        <polygon fill="#A80036" points="2101.5,1344.1602,2111.5,1348.1602,2101.5,1352.1602,2105.5,1348.1602" style="stroke: #A80036; stroke-width: 1.0;"/>
        <line style="stroke: #A80036; stroke-width: 1.0;" x1="863.5" x2="2107.5" y1="1348.1602" y2="1348.1602"/>
        <text fill="#000000" font-family="sans-serif" font-size="13" font-weight="bold" lengthAdjust="spacingAndGlyphs" textLength="18" x="870.5" y="1343.7285">27</text>
        <text fill="#000000" font-family="sans-serif" font-size="13" lengthAdjust="spacingAndGlyphs" textLength="53" x="892.5" y="1343.7285">setTR(tr)</text>
        <polygon fill="#A80036" points="126.5,1403.4707,116.5,1407.4707,126.5,1411.4707,122.5,1407.4707" style="stroke: #A80036; stroke-width: 1.0;"/>
        <line style="stroke: #A80036; stroke-width: 1.0; stroke-dasharray: 2.0,2.0;" x1="120.5" x2="615.5" y1="1407.4707" y2="1407.4707"/>
        <text fill="#000000" font-family="sans-serif" font-size="13" font-weight="bold" lengthAdjust="spacingAndGlyphs" textLength="18" x="132.5" y="1403.0391">28</text>
        <text fill="#000000" font-family="sans-serif" font-size="13" lengthAdjust="spacingAndGlyphs" textLength="246" x="154.5" y="1403.0391">apresenta dados e solicita confirmação</text>
        <polygon fill="#A80036" points="599.5,1432.7813,609.5,1436.7813,599.5,1440.7813,603.5,1436.7813" style="stroke: #A80036; stroke-width: 1.0;"/>
        <line style="stroke: #A80036; stroke-width: 1.0;" x1="115.5" x2="605.5" y1="1436.7813" y2="1436.7813"/>
        <text fill="#000000" font-family="sans-serif" font-size="13" font-weight="bold" lengthAdjust="spacingAndGlyphs" textLength="18" x="122.5" y="1432.3496">29</text>
        <text fill="#000000" font-family="sans-serif" font-size="13" lengthAdjust="spacingAndGlyphs" textLength="56" x="144.5" y="1432.3496">confirma</text>
        <polygon fill="#A80036" points="841.5,1462.0918,851.5,1466.0918,841.5,1470.0918,845.5,1466.0918" style="stroke: #A80036; stroke-width: 1.0;"/>
        <line style="stroke: #A80036; stroke-width: 1.0;" x1="621.5" x2="847.5" y1="1466.0918" y2="1466.0918"/>
        <text fill="#000000" font-family="sans-serif" font-size="13" font-weight="bold" lengthAdjust="spacingAndGlyphs" textLength="18" x="628.5" y="1461.6602">30</text>
        <text fill="#000000" font-family="sans-serif" font-size="13" lengthAdjust="spacingAndGlyphs" textLength="103" x="650.5" y="1461.6602">registaAnuncio()</text>
        <polygon fill="#A80036" points="1811.5,1491.4023,1821.5,1495.4023,1811.5,1499.4023,1815.5,1495.4023" style="stroke: #A80036; stroke-width: 1.0;"/>
        <line style="stroke: #A80036; stroke-width: 1.0;" x1="863.5" x2="1817.5" y1="1495.4023" y2="1495.4023"/>
        <text fill="#000000" font-family="sans-serif" font-size="13" font-weight="bold" lengthAdjust="spacingAndGlyphs" textLength="18" x="870.5" y="1490.9707">31</text>
        <text fill="#000000" font-family="sans-serif" font-size="13" lengthAdjust="spacingAndGlyphs" textLength="153" x="892.5" y="1490.9707">registaAnuncio(anuncio)</text>
        <line style="stroke: #A80036; stroke-width: 1.0;" x1="1833.5" x2="1875.5" y1="1525.0234" y2="1525.0234"/>
        <line style="stroke: #A80036; stroke-width: 1.0;" x1="1875.5" x2="1875.5" y1="1525.0234" y2="1538.0234"/>
        <line style="stroke: #A80036; stroke-width: 1.0;" x1="1834.5" x2="1875.5" y1="1538.0234" y2="1538.0234"/>
        <polygon fill="#A80036" points="1844.5,1534.0234,1834.5,1538.0234,1844.5,1542.0234,1840.5,1538.0234" style="stroke: #A80036; stroke-width: 1.0;"/>
        <text fill="#000000" font-family="sans-serif" font-size="13" font-weight="bold" lengthAdjust="spacingAndGlyphs" textLength="18" x="1840.5" y="1520.2813">32</text>
        <text fill="#000000" font-family="sans-serif" font-size="13" lengthAdjust="spacingAndGlyphs" textLength="147" x="1862.5" y="1520.2813">validaAnuncio(anuncio)</text>
        <line style="stroke: #A80036; stroke-width: 1.0;" x1="1833.5" x2="1875.5" y1="1567.334" y2="1567.334"/>
        <line style="stroke: #A80036; stroke-width: 1.0;" x1="1875.5" x2="1875.5" y1="1567.334" y2="1580.334"/>
        <line style="stroke: #A80036; stroke-width: 1.0;" x1="1834.5" x2="1875.5" y1="1580.334" y2="1580.334"/>
        <polygon fill="#A80036" points="1844.5,1576.334,1834.5,1580.334,1844.5,1584.334,1840.5,1580.334" style="stroke: #A80036; stroke-width: 1.0;"/>
        <text fill="#000000" font-family="sans-serif" font-size="13" font-weight="bold" lengthAdjust="spacingAndGlyphs" textLength="18" x="1840.5" y="1562.5918">33</text>
        <text fill="#000000" font-family="sans-serif" font-size="13" lengthAdjust="spacingAndGlyphs" textLength="133" x="1862.5" y="1562.5918">addAnuncio(anuncio)</text>
        <polygon fill="#A80036" points="121.5,1605.334,111.5,1609.334,121.5,1613.334,117.5,1609.334" style="stroke: #A80036; stroke-width: 1.0;"/>
        <line style="stroke: #A80036; stroke-width: 1.0;" x1="115.5" x2="615.5" y1="1609.334" y2="1609.334"/>
        <text fill="#000000" font-family="sans-serif" font-size="13" font-weight="bold" lengthAdjust="spacingAndGlyphs" textLength="18" x="127.5" y="1604.9023">34</text>
        <text fill="#000000" font-family="sans-serif" font-size="13" lengthAdjust="spacingAndGlyphs" textLength="196" x="149.5" y="1604.9023">informa o sucesso da operação</text>
        <!--
@startuml
autonumber

actor "Colaborador de Organização" as CDO

participant ":PublicarTarefaUI" as UI
participant ":PublicarTarefaController" as CTRL
participant "AplicacaoPOT" as POT
participant "app\n:AplicacaoPOT" as APP
participant "sessao\n:SessaoUtilizador" as SESSAO
participant ":Plataforma" as PLAT
participant "ro\n:RegistoOrganizacao" as RO
participant "rt\n:RegistoTarefa" as RT
participant "ra\n:RegistoAnuncio" as RA
participant "rtr\n:Registo TR" as RTR
participant "anu\n:Anuncio" as AN
participant "ltu\n:ListaTarefa" as LTU
participant "ltr\n:ListaTipoRegimento" as LTR



activate CDO
CDO -> UI : inicia a publicação de uma tarefa
activate UI
UI -> CTRL : ltu = getListaTarefasUtilizador()

activate CTRL
CTRL -> POT : app = getInstance()
activate POT
deactivate POT
CTRL -> APP : sessao = getSessaoAtual()
activate APP
deactivate APP
CTRL -> SESSAO : email = getEmailUtilizador()
activate SESSAO
deactivate SESSAO



CTRL -> PLAT : rt = getRegistoTarefa()
activate PLAT
deactivate PLAT

CTRL -> RT : ltByEmail = getTarefasByEmailUtilizador(email)
activate RT
deactivate RT
deactivate CTRL

UI - -> CDO : mostra lista de tarefas por si criadas
deactivate UI


CDO -> UI : seleciona uma tarefa
activate UI

UI -> CTRL : novoAnuncio(refUnica)
activate CTRL

CTRL -> PLAT : ro = getRegistoOrganizacao()
activate PLAT
deactivate PLAT


CTRL -> RO : org = getOrganizacaoByEmailUtilizador(email)
activate RO
deactivate RO
CTRL -> PLAT : ra = getRegistoAnuncio()
activate PLAT
deactivate PLAT



CTRL -> RT : tar = getTarefa(refUnica,org)
activate RT
deactivate RT

CTRL -> RA : anuncio = novoAnuncio(tar)
activate RA

RA - -> AN** : create(tar)
deactivate RA
deactivate CTRL
UI - -> CDO : solicita os dados necessários(períodos inicial e final de: \npublicitação da tarefa; apresentação de candidaturas pelos freelancers; \n seriação e decisão de atribuição de tarefa a um freelancer)
deactivate UI


CDO -> UI : introduz os dados necessários
activate UI
UI -> CTRL : addPeriodos(pTarIn,pTarFi,\npAprIn,pAprFi,pSerIn,pSerFi)
activate CTRL
CTRL -> AN : setPer(pTarIn,pTarFi,pAprIn,pAprFi,pSerIn,pSerFi)
activate AN
deactivate AN

CTRL -> PLAT : rtr = getRegistoTipoRegimento()
activate PLAT
deactivate PLAT

CTRL -> RTR : ltrg = getTR()
activate RTR
deactivate RTR




deactivate CTRL



UI - -> CDO : Mostra TR
deactivate UI


CDO -> UI : seleciona um TR
activate UI
UI -> CTRL : addTipoRegimento(trId)
activate CTRL
CTRL -> RTR : tr = getTRByID(trId)
activate RTR
deactivate RTR
CTRL -> AN : setTR(tr)
activate AN
deactivate AN
deactivate CTRL

UI - -> CDO : apresenta dados e solicita confirmação
deactivate UI

CDO -> UI : confirma
activate UI
UI -> CTRL : registaAnuncio()
activate CTRL
CTRL -> RA : registaAnuncio(anuncio)
activate RA 

RA -> RA : validaAnuncio(anuncio)
RA -> RA : addAnuncio(anuncio)

UI -> CDO : informa o sucesso da operação

deactivate RA
deactivate UI
deactivate CTRL
deactivate CDO

@enduml

PlantUML version 2017.11(Wed Apr 19 17:18:59 WEST 2017)
(GPL source distribution)
Java Runtime: Java(TM) SE Runtime Environment
JVM: Java HotSpot(TM) 64-Bit Server VM
Java Version: 1.8.0_191-b12
Operating System: Mac OS X
OS Version: 10.15.4
Default Encoding: UTF-8
Language: pt
Country: PT
-->
    </g>
</svg>
