@startuml
autonumber

actor "Colaborador" as COLAB
participant ":SeriarAnuncioUI" as UI
participant ":SeriarAnuncioController" as CTRL
participant "AplicacaoPOT" as POT
participant "app\n:AplicacaoPOT" as app
participant "sessao\n:SessaoUtilizador" as SESSAO
participant ":Plataforma" as PLAT
participant "rorgs:RegistoOrganizacoes" as RORGS
participant "ra:Registo\nAnuncios" as RANU
participant "lstAnun:List<Anuncios>" as LANU
participant "org:Organizacao" as ORG
participant "lstColabs:ListaColaboradores" as LSTCOLABS
participant "anu:Anuncio" as ANU
participant "cand:Candidatura" as CND
participant "ps:ProcessoSeriacao" as PS
participant "trf:Tarefa" as TRF
participant "radjudi\n:RegistoAdjudicacoes" as RADJ
participant "adjudi\n:Adjudicacao" as ADJ

COLAB -> UI : inicia o processo de adjudicação de um anuncio
activate COLAB
activate UI

UI -> CTRL : lstAnun=getListAnunciosPorAdjudicar()
activate CTRL

CTRL -> PLAT: rorgs = getRegistoOrganizacoes()
activate PLAT
deactivate PLAT

CTRL -> POT : app = getInstance()
activate POT
deactivate POT

CTRL -> app : sessao = getSessaoAtual()
activate app
deactivate app

CTRL -> SESSAO : email = getEmailUtilizador()
activate SESSAO
deactivate SESSAO
CTRL -> RORGS: org = getOrganizacaoByEmailUtilizador(email)
activate RORGS
deactivate RORGS

CTRL -> ORG: lstColabs = getListaColaboradores()
activate ORG
deactivate ORG

CTRL -> LSTCOLABS: colab = getColaboradorByEmail(email)
activate LSTCOLABS
deactivate LSTCOLABS

CTRL -> PLAT : ra = getRegistoAnuncios()
activate PLAT
deactivate PLAT

CTRL -> RANU : lstAnun = getAnunciosPorAdjudicar(colab)
ref over RANU : SD_getAnunciosPorAdjudicar(colab)
activate RANU
deactivate RANU
deactivate CTRL

UI --> COLAB: Mostra a lista de anuncios publicados pelo\ncolaborador com adjudicação opcional já seriados. 
deactivate UI


COLAB -> UI : seleciona um anúncio
activate UI

UI -> CTRL :  novaAdjudicacao(anuncioId)
activate CTRL
CTRL -> LANU: anuncio = getAnuncio(anuncioId)
activate LANU
deactivate LANU
CTRL -> ANU : cand = getCandidatoAdjudicar()
activate ANU
deactivate ANU
CTRL -> ANU: tar = getTarefa()
activate ANU
deactivate ANU
CTRL -> TRF: descTarefa = getDescricao()
activate TRF
deactivate TRF
CTRL -> RORGS: org = getOrganizacaoByEmailUtilizador(email)
activate RORGS
deactivate RORGS
CTRL -> CND: periodoReali = getNrDias()
activate CND
deactivate CND
CTRL -> CND: valorRemu = getValor()
activate CND
deactivate CND
CTRL -> ANU: refAnu = getReferenciaAnuncio()
activate ANU
deactivate ANU
CTRL -> PLAT: radjudi = getRegistoAdjudicacao()
activate PLAT
deactivate PLAT
CTRL -> CND: free = getFreelancer()
activate CND
deactivate CND
CTRL -> RADJ:novaAdjudicacao(org,free,descTarefa,periodoReali,valorRemu,refAnu)
activate RADJ
RADJ -> RADJ:numSeq = geraNumPorAno()
RADJ -> RADJ:dataAdjudi = getDataAdjudi()
RADJ --> ADJ**:adjudi = create(numSeq,dataAdjudi,org,free,\ndescTarefa,periodoReali,valorRemu,refAnu)
deactivate RADJ

deactivate CTRL




UI -> COLAB : Apresenta o candidato e a informação relevante\n e solicita confirmação.
deactivate UI

COLAB -> UI : Confirma.
activate UI

UI -> CTRL : adjudicarAnuncio()
activate CTRL
CTRL -> RADJ: adjudicarAnuncio(adjudi)
activate RADJ
RADJ -> RADJ: validaAdjudicacao(adjudi)
RADJ -> RADJ: addAdjudicacao(adjudi)
deactivate RADJ
deactivate CTRL
UI -> COLAB: informa do sucesso da operação.
deactivate UI
@enduml