<?xml version="1.0" encoding="UTF-8"?><svg xmlns="http://www.w3.org/2000/svg" xmlns:xlink="http://www.w3.org/1999/xlink" contentScriptType="application/ecmascript" contentStyleType="text/css" height="309px" preserveAspectRatio="none" style="width:884px;height:309px;" version="1.1" viewBox="0 0 884 309" width="884px" zoomAndPan="magnify">
    <defs>
        <filter height="300%" id="f17123p8dpemem" width="300%" x="-1" y="-1">
            <feGaussianBlur result="blurOut" stdDeviation="2.0"/>
            <feColorMatrix in="blurOut" result="blurOut2" type="matrix" values="0 0 0 0 0 0 0 0 0 0 0 0 0 0 0 0 0 0 .4 0"/>
            <feOffset dx="4.0" dy="4.0" in="blurOut2" result="blurOut3"/>
            <feBlend in="SourceGraphic" in2="blurOut3" mode="normal"/>
        </filter>
    </defs>
    <g>
        <!--class Plataforma-->
        <rect fill="#FEFECE" filter="url(#f17123p8dpemem)" height="53.8359" style="stroke: #A80036; stroke-width: 1.5;" width="113" x="6" y="105"/>
        <ellipse cx="30.45" cy="121" fill="#ADD1B2" rx="11" ry="11" style="stroke: #A80036; stroke-width: 1.0;"/>
        <path d="M33.2156,116.875 Q33.3719,116.6563 33.5594,116.5469 Q33.7469,116.4375 33.9656,116.4375 Q34.3406,116.4375 34.575,116.6953 Q34.8094,116.9531 34.8094,117.5625 L34.8094,119.0156 Q34.8094,119.625 34.575,119.8906 Q34.3406,120.1563 33.9656,120.1563 Q33.6219,120.1563 33.4188,119.9531 Q33.2156,119.7656 33.1063,119.25 Q33.0594,118.8906 32.8719,118.7031 Q32.5438,118.3281 31.9344,118.1094 Q31.325,117.8906 30.7,117.8906 Q29.9344,117.8906 29.3016,118.2188 Q28.6688,118.5469 28.1766,119.2969 Q27.6844,120.0469 27.6844,121.0781 L27.6844,122.1719 Q27.6844,123.4063 28.575,124.2266 Q29.4656,125.0469 31.0594,125.0469 Q31.9969,125.0469 32.6531,124.7969 Q33.0438,124.6406 33.4656,124.2031 Q33.7313,123.9375 33.8797,123.8594 Q34.0281,123.7813 34.2313,123.7813 Q34.5594,123.7813 34.8172,124.0391 Q35.075,124.2969 35.075,124.6406 Q35.075,124.9844 34.7313,125.3906 Q34.2313,125.9688 33.4344,126.2969 Q32.3563,126.75 31.0594,126.75 Q29.5438,126.75 28.3406,126.125 Q27.3563,125.625 26.6688,124.5547 Q25.9813,123.4844 25.9813,122.2031 L25.9813,121.0469 Q25.9813,119.7188 26.5984,118.5703 Q27.2156,117.4219 28.3094,116.8047 Q29.4031,116.1875 30.6375,116.1875 Q31.3719,116.1875 32.0203,116.3516 Q32.6688,116.5156 33.2156,116.875 Z "/>
        <text fill="#000000" font-family="sans-serif" font-size="12" lengthAdjust="spacingAndGlyphs" textLength="60" x="46.55" y="125.9102">Plataforma</text>
        <line style="stroke: #A80036; stroke-width: 1.5;" x1="7" x2="118" y1="137" y2="137"/>
        <rect fill="none" height="6" style="stroke: #C82930; stroke-width: 1.0;" width="6" x="14" y="146.418"/>
        <text fill="#000000" font-family="sans-serif" font-size="11" lengthAdjust="spacingAndGlyphs" textLength="87" x="26" y="152.4189">String designacao</text>
        <!--class AreaAtividade-->
        <rect fill="#FEFECE" filter="url(#f17123p8dpemem)" height="81.5078" style="stroke: #A80036; stroke-width: 1.5;" width="129" x="746" y="8"/>
        <ellipse cx="771.35" cy="24" fill="#ADD1B2" rx="11" ry="11" style="stroke: #A80036; stroke-width: 1.0;"/>
        <path d="M774.1156,19.875 Q774.2719,19.6563 774.4594,19.5469 Q774.6469,19.4375 774.8656,19.4375 Q775.2406,19.4375 775.475,19.6953 Q775.7094,19.9531 775.7094,20.5625 L775.7094,22.0156 Q775.7094,22.625 775.475,22.8906 Q775.2406,23.1563 774.8656,23.1563 Q774.5219,23.1563 774.3188,22.9531 Q774.1156,22.7656 774.0063,22.25 Q773.9594,21.8906 773.7719,21.7031 Q773.4438,21.3281 772.8344,21.1094 Q772.225,20.8906 771.6,20.8906 Q770.8344,20.8906 770.2016,21.2188 Q769.5688,21.5469 769.0766,22.2969 Q768.5844,23.0469 768.5844,24.0781 L768.5844,25.1719 Q768.5844,26.4063 769.475,27.2266 Q770.3656,28.0469 771.9594,28.0469 Q772.8969,28.0469 773.5531,27.7969 Q773.9438,27.6406 774.3656,27.2031 Q774.6313,26.9375 774.7797,26.8594 Q774.9281,26.7813 775.1313,26.7813 Q775.4594,26.7813 775.7172,27.0391 Q775.975,27.2969 775.975,27.6406 Q775.975,27.9844 775.6313,28.3906 Q775.1313,28.9688 774.3344,29.2969 Q773.2563,29.75 771.9594,29.75 Q770.4438,29.75 769.2406,29.125 Q768.2563,28.625 767.5688,27.5547 Q766.8813,26.4844 766.8813,25.2031 L766.8813,24.0469 Q766.8813,22.7188 767.4984,21.5703 Q768.1156,20.4219 769.2094,19.8047 Q770.3031,19.1875 771.5375,19.1875 Q772.2719,19.1875 772.9203,19.3516 Q773.5688,19.5156 774.1156,19.875 Z "/>
        <text fill="#000000" font-family="sans-serif" font-size="12" lengthAdjust="spacingAndGlyphs" textLength="74" x="787.65" y="28.9102">AreaAtividade</text>
        <line style="stroke: #A80036; stroke-width: 1.5;" x1="747" x2="874" y1="40" y2="40"/>
        <rect fill="none" height="6" style="stroke: #C82930; stroke-width: 1.0;" width="6" x="754" y="49.418"/>
        <text fill="#000000" font-family="sans-serif" font-size="11" lengthAdjust="spacingAndGlyphs" textLength="63" x="766" y="55.4189">String codigo</text>
        <rect fill="none" height="6" style="stroke: #C82930; stroke-width: 1.0;" width="6" x="754" y="63.2539"/>
        <text fill="#000000" font-family="sans-serif" font-size="11" lengthAdjust="spacingAndGlyphs" textLength="84" x="766" y="69.2549">String descBreve</text>
        <rect fill="none" height="6" style="stroke: #C82930; stroke-width: 1.0;" width="6" x="754" y="77.0898"/>
        <text fill="#000000" font-family="sans-serif" font-size="11" lengthAdjust="spacingAndGlyphs" textLength="103" x="766" y="83.0908">String descDetalhada</text>
        <!--class CompetenciaTecnica-->
        <rect fill="#FEFECE" filter="url(#f17123p8dpemem)" height="81.5078" style="stroke: #A80036; stroke-width: 1.5;" width="149" x="461" y="102"/>
        <ellipse cx="476" cy="118" fill="#ADD1B2" rx="11" ry="11" style="stroke: #A80036; stroke-width: 1.0;"/>
        <path d="M478.7656,113.875 Q478.9219,113.6563 479.1094,113.5469 Q479.2969,113.4375 479.5156,113.4375 Q479.8906,113.4375 480.125,113.6953 Q480.3594,113.9531 480.3594,114.5625 L480.3594,116.0156 Q480.3594,116.625 480.125,116.8906 Q479.8906,117.1563 479.5156,117.1563 Q479.1719,117.1563 478.9688,116.9531 Q478.7656,116.7656 478.6563,116.25 Q478.6094,115.8906 478.4219,115.7031 Q478.0938,115.3281 477.4844,115.1094 Q476.875,114.8906 476.25,114.8906 Q475.4844,114.8906 474.8516,115.2188 Q474.2188,115.5469 473.7266,116.2969 Q473.2344,117.0469 473.2344,118.0781 L473.2344,119.1719 Q473.2344,120.4063 474.125,121.2266 Q475.0156,122.0469 476.6094,122.0469 Q477.5469,122.0469 478.2031,121.7969 Q478.5938,121.6406 479.0156,121.2031 Q479.2813,120.9375 479.4297,120.8594 Q479.5781,120.7813 479.7813,120.7813 Q480.1094,120.7813 480.3672,121.0391 Q480.625,121.2969 480.625,121.6406 Q480.625,121.9844 480.2813,122.3906 Q479.7813,122.9688 478.9844,123.2969 Q477.9063,123.75 476.6094,123.75 Q475.0938,123.75 473.8906,123.125 Q472.9063,122.625 472.2188,121.5547 Q471.5313,120.4844 471.5313,119.2031 L471.5313,118.0469 Q471.5313,116.7188 472.1484,115.5703 Q472.7656,114.4219 473.8594,113.8047 Q474.9531,113.1875 476.1875,113.1875 Q476.9219,113.1875 477.5703,113.3516 Q478.2188,113.5156 478.7656,113.875 Z "/>
        <text fill="#000000" font-family="sans-serif" font-size="12" lengthAdjust="spacingAndGlyphs" textLength="117" x="490" y="122.9102">CompetenciaTecnica</text>
        <line style="stroke: #A80036; stroke-width: 1.5;" x1="462" x2="609" y1="134" y2="134"/>
        <rect fill="none" height="6" style="stroke: #C82930; stroke-width: 1.0;" width="6" x="469" y="143.418"/>
        <text fill="#000000" font-family="sans-serif" font-size="11" lengthAdjust="spacingAndGlyphs" textLength="63" x="481" y="149.4189">String codigo</text>
        <rect fill="none" height="6" style="stroke: #C82930; stroke-width: 1.0;" width="6" x="469" y="157.2539"/>
        <text fill="#000000" font-family="sans-serif" font-size="11" lengthAdjust="spacingAndGlyphs" textLength="84" x="481" y="163.2549">String descBreve</text>
        <rect fill="none" height="6" style="stroke: #C82930; stroke-width: 1.0;" width="6" x="469" y="171.0898"/>
        <text fill="#000000" font-family="sans-serif" font-size="11" lengthAdjust="spacingAndGlyphs" textLength="103" x="481" y="177.0908">String descDetalhada</text>
        <!--class GrauProficiencia-->
        <rect fill="#FEFECE" filter="url(#f17123p8dpemem)" height="67.6719" style="stroke: #A80036; stroke-width: 1.5;" width="123" x="749" y="125"/>
        <ellipse cx="764" cy="141" fill="#ADD1B2" rx="11" ry="11" style="stroke: #A80036; stroke-width: 1.0;"/>
        <path d="M766.7656,136.875 Q766.9219,136.6563 767.1094,136.5469 Q767.2969,136.4375 767.5156,136.4375 Q767.8906,136.4375 768.125,136.6953 Q768.3594,136.9531 768.3594,137.5625 L768.3594,139.0156 Q768.3594,139.625 768.125,139.8906 Q767.8906,140.1563 767.5156,140.1563 Q767.1719,140.1563 766.9688,139.9531 Q766.7656,139.7656 766.6563,139.25 Q766.6094,138.8906 766.4219,138.7031 Q766.0938,138.3281 765.4844,138.1094 Q764.875,137.8906 764.25,137.8906 Q763.4844,137.8906 762.8516,138.2188 Q762.2188,138.5469 761.7266,139.2969 Q761.2344,140.0469 761.2344,141.0781 L761.2344,142.1719 Q761.2344,143.4063 762.125,144.2266 Q763.0156,145.0469 764.6094,145.0469 Q765.5469,145.0469 766.2031,144.7969 Q766.5938,144.6406 767.0156,144.2031 Q767.2813,143.9375 767.4297,143.8594 Q767.5781,143.7813 767.7813,143.7813 Q768.1094,143.7813 768.3672,144.0391 Q768.625,144.2969 768.625,144.6406 Q768.625,144.9844 768.2813,145.3906 Q767.7813,145.9688 766.9844,146.2969 Q765.9063,146.75 764.6094,146.75 Q763.0938,146.75 761.8906,146.125 Q760.9063,145.625 760.2188,144.5547 Q759.5313,143.4844 759.5313,142.2031 L759.5313,141.0469 Q759.5313,139.7188 760.1484,138.5703 Q760.7656,137.4219 761.8594,136.8047 Q762.9531,136.1875 764.1875,136.1875 Q764.9219,136.1875 765.5703,136.3516 Q766.2188,136.5156 766.7656,136.875 Z "/>
        <text fill="#000000" font-family="sans-serif" font-size="12" lengthAdjust="spacingAndGlyphs" textLength="91" x="778" y="145.9102">GrauProficiencia</text>
        <line style="stroke: #A80036; stroke-width: 1.5;" x1="750" x2="871" y1="157" y2="157"/>
        <rect fill="none" height="6" style="stroke: #C82930; stroke-width: 1.0;" width="6" x="757" y="166.418"/>
        <text fill="#000000" font-family="sans-serif" font-size="11" lengthAdjust="spacingAndGlyphs" textLength="60" x="769" y="172.4189">Integer valor</text>
        <rect fill="none" height="6" style="stroke: #C82930; stroke-width: 1.0;" width="6" x="757" y="180.2539"/>
        <text fill="#000000" font-family="sans-serif" font-size="11" lengthAdjust="spacingAndGlyphs" textLength="87" x="769" y="186.2549">String designacao</text>
        <!--class Administrativo-->
        <rect fill="#FEFECE" filter="url(#f17123p8dpemem)" height="40" style="stroke: #A80036; stroke-width: 1.5;" width="109" x="216" y="202"/>
        <ellipse cx="231" cy="218" fill="#ADD1B2" rx="11" ry="11" style="stroke: #A80036; stroke-width: 1.0;"/>
        <path d="M233.7656,213.875 Q233.9219,213.6563 234.1094,213.5469 Q234.2969,213.4375 234.5156,213.4375 Q234.8906,213.4375 235.125,213.6953 Q235.3594,213.9531 235.3594,214.5625 L235.3594,216.0156 Q235.3594,216.625 235.125,216.8906 Q234.8906,217.1563 234.5156,217.1563 Q234.1719,217.1563 233.9688,216.9531 Q233.7656,216.7656 233.6563,216.25 Q233.6094,215.8906 233.4219,215.7031 Q233.0938,215.3281 232.4844,215.1094 Q231.875,214.8906 231.25,214.8906 Q230.4844,214.8906 229.8516,215.2188 Q229.2188,215.5469 228.7266,216.2969 Q228.2344,217.0469 228.2344,218.0781 L228.2344,219.1719 Q228.2344,220.4063 229.125,221.2266 Q230.0156,222.0469 231.6094,222.0469 Q232.5469,222.0469 233.2031,221.7969 Q233.5938,221.6406 234.0156,221.2031 Q234.2813,220.9375 234.4297,220.8594 Q234.5781,220.7813 234.7813,220.7813 Q235.1094,220.7813 235.3672,221.0391 Q235.625,221.2969 235.625,221.6406 Q235.625,221.9844 235.2813,222.3906 Q234.7813,222.9688 233.9844,223.2969 Q232.9063,223.75 231.6094,223.75 Q230.0938,223.75 228.8906,223.125 Q227.9063,222.625 227.2188,221.5547 Q226.5313,220.4844 226.5313,219.2031 L226.5313,218.0469 Q226.5313,216.7188 227.1484,215.5703 Q227.7656,214.4219 228.8594,213.8047 Q229.9531,213.1875 231.1875,213.1875 Q231.9219,213.1875 232.5703,213.3516 Q233.2188,213.5156 233.7656,213.875 Z "/>
        <text fill="#000000" font-family="sans-serif" font-size="12" lengthAdjust="spacingAndGlyphs" textLength="77" x="245" y="222.9102">Administrativo</text>
        <line style="stroke: #A80036; stroke-width: 1.5;" x1="217" x2="324" y1="234" y2="234"/>
        <!--class Utilizador-->
        <rect fill="#FEFECE" filter="url(#f17123p8dpemem)" height="81.5078" style="stroke: #A80036; stroke-width: 1.5;" width="107" x="482" y="219"/>
        <ellipse cx="507.8" cy="235" fill="#ADD1B2" rx="11" ry="11" style="stroke: #A80036; stroke-width: 1.0;"/>
        <path d="M510.5656,230.875 Q510.7219,230.6563 510.9094,230.5469 Q511.0969,230.4375 511.3156,230.4375 Q511.6906,230.4375 511.925,230.6953 Q512.1594,230.9531 512.1594,231.5625 L512.1594,233.0156 Q512.1594,233.625 511.925,233.8906 Q511.6906,234.1563 511.3156,234.1563 Q510.9719,234.1563 510.7688,233.9531 Q510.5656,233.7656 510.4563,233.25 Q510.4094,232.8906 510.2219,232.7031 Q509.8938,232.3281 509.2844,232.1094 Q508.675,231.8906 508.05,231.8906 Q507.2844,231.8906 506.6516,232.2188 Q506.0188,232.5469 505.5266,233.2969 Q505.0344,234.0469 505.0344,235.0781 L505.0344,236.1719 Q505.0344,237.4063 505.925,238.2266 Q506.8156,239.0469 508.4094,239.0469 Q509.3469,239.0469 510.0031,238.7969 Q510.3938,238.6406 510.8156,238.2031 Q511.0813,237.9375 511.2297,237.8594 Q511.3781,237.7813 511.5813,237.7813 Q511.9094,237.7813 512.1672,238.0391 Q512.425,238.2969 512.425,238.6406 Q512.425,238.9844 512.0813,239.3906 Q511.5813,239.9688 510.7844,240.2969 Q509.7063,240.75 508.4094,240.75 Q506.8938,240.75 505.6906,240.125 Q504.7063,239.625 504.0188,238.5547 Q503.3313,237.4844 503.3313,236.2031 L503.3313,235.0469 Q503.3313,233.7188 503.9484,232.5703 Q504.5656,231.4219 505.6594,230.8047 Q506.7531,230.1875 507.9875,230.1875 Q508.7219,230.1875 509.3703,230.3516 Q510.0188,230.5156 510.5656,230.875 Z "/>
        <text fill="#000000" font-family="sans-serif" font-size="12" lengthAdjust="spacingAndGlyphs" textLength="51" x="524.2" y="239.9102">Utilizador</text>
        <line style="stroke: #A80036; stroke-width: 1.5;" x1="483" x2="588" y1="251" y2="251"/>
        <rect fill="none" height="6" style="stroke: #C82930; stroke-width: 1.0;" width="6" x="490" y="260.418"/>
        <text fill="#000000" font-family="sans-serif" font-size="11" lengthAdjust="spacingAndGlyphs" textLength="57" x="502" y="266.4189">String nome</text>
        <rect fill="none" height="6" style="stroke: #C82930; stroke-width: 1.0;" width="6" x="490" y="274.2539"/>
        <text fill="#000000" font-family="sans-serif" font-size="11" lengthAdjust="spacingAndGlyphs" textLength="55" x="502" y="280.2549">String email</text>
        <rect fill="none" height="6" style="stroke: #C82930; stroke-width: 1.0;" width="6" x="490" y="288.0898"/>
        <text fill="#000000" font-family="sans-serif" font-size="11" lengthAdjust="spacingAndGlyphs" textLength="81" x="502" y="294.0908">String password</text>
        <path d="M119.298,115.512 C129.129,113.031 139.315,110.729 149,109 C365.781,70.294 627.295,55.933 745.716,51.145 " fill="none" style="stroke: #A80036; stroke-width: 1.0;"/>
        <text fill="#000000" font-family="sans-serif" font-size="13" lengthAdjust="spacingAndGlyphs" textLength="38" x="367.5" y="69.4951">possui</text>
        <polygon fill="#000000" points="408.5,62.6758,414.5,65.6758,408.5,68.6758,408.5,62.6758" style="stroke: #000000; stroke-width: 1.0;"/>
        <text fill="#000000" font-family="sans-serif" font-size="13" lengthAdjust="spacingAndGlyphs" textLength="7" x="127.0237" y="127.9526">1</text>
        <text fill="#000000" font-family="sans-serif" font-size="13" lengthAdjust="spacingAndGlyphs" textLength="5" x="732.9363" y="65.8619">*</text>
        <path d="M119.379,133.305 C204.423,135.291 366.407,139.074 460.926,141.282 " fill="none" style="stroke: #A80036; stroke-width: 1.0;"/>
        <text fill="#000000" font-family="sans-serif" font-size="13" lengthAdjust="spacingAndGlyphs" textLength="38" x="245" y="132.4951">possui</text>
        <polygon fill="#000000" points="286,125.6758,292,128.6758,286,131.6758,286,125.6758" style="stroke: #000000; stroke-width: 1.0;"/>
        <text fill="#000000" font-family="sans-serif" font-size="13" lengthAdjust="spacingAndGlyphs" textLength="7" x="127.1151" y="148.0254">1</text>
        <text fill="#000000" font-family="sans-serif" font-size="13" lengthAdjust="spacingAndGlyphs" textLength="5" x="447.9777" y="155.4685">*</text>
        <path d="M114.139,159.227 C125.495,165.005 137.568,170.895 149,176 C170.571,185.632 194.828,195.138 215.894,202.9853 " fill="none" style="stroke: #A80036; stroke-width: 1.0;"/>
        <text fill="#000000" font-family="sans-serif" font-size="13" lengthAdjust="spacingAndGlyphs" textLength="22" x="150" y="172.4951">tem</text>
        <polygon fill="#000000" points="175,165.6758,181,168.6758,175,171.6758,175,165.6758" style="stroke: #000000; stroke-width: 1.0;"/>
        <text fill="#000000" font-family="sans-serif" font-size="13" lengthAdjust="spacingAndGlyphs" textLength="7" x="117.6694" y="180.4844">1</text>
        <text fill="#000000" font-family="sans-serif" font-size="13" lengthAdjust="spacingAndGlyphs" textLength="5" x="202.8635" y="214.9562">*</text>
        <path d="M610.315,125.43 C643.09,116.867 681.885,105.676 716,93 C725.838,89.345 736.062,85.062 745.982,80.63 " fill="none" style="stroke: #A80036; stroke-width: 1.0;"/>
        <text fill="#000000" font-family="sans-serif" font-size="13" lengthAdjust="spacingAndGlyphs" textLength="61" x="641" y="89.4951">referente a</text>
        <polygon fill="#000000" points="705,82.6758,711,85.6758,705,88.6758,705,82.6758" style="stroke: #000000; stroke-width: 1.0;"/>
        <text fill="#000000" font-family="sans-serif" font-size="13" lengthAdjust="spacingAndGlyphs" textLength="5" x="617.9257" y="138.0246">*</text>
        <text fill="#000000" font-family="sans-serif" font-size="13" lengthAdjust="spacingAndGlyphs" textLength="7" x="731.1174" y="98.7561">1</text>
        <path d="M610.167,154.091 C620.174,155.267 630.325,156.291 640,157 C675.954,159.634 716.311,160.205 748.624,160.084 " fill="none" style="stroke: #A80036; stroke-width: 1.0;"/>
        <text fill="#000000" font-family="sans-serif" font-size="13" lengthAdjust="spacingAndGlyphs" textLength="34" x="654.5" y="153.4951">aplica</text>
        <polygon fill="#000000" points="691.5,146.6758,697.5,149.6758,691.5,152.6758,691.5,146.6758" style="stroke: #000000; stroke-width: 1.0;"/>
        <text fill="#000000" font-family="sans-serif" font-size="13" lengthAdjust="spacingAndGlyphs" textLength="7" x="618.228" y="169.5984">1</text>
        <text fill="#000000" font-family="sans-serif" font-size="13" lengthAdjust="spacingAndGlyphs" textLength="20" x="721.2118" y="174.551">0..*</text>
        <path d="M325.14,206.9328 C356.138,198.125 395.839,186.673 431,176 C440.655,173.069 450.795,169.922 460.795,166.777 " fill="none" style="stroke: #A80036; stroke-width: 1.0;"/>
        <text fill="#000000" font-family="sans-serif" font-size="13" lengthAdjust="spacingAndGlyphs" textLength="58" x="357.5" y="172.4951">especifica</text>
        <polygon fill="#000000" points="418.5,165.6758,424.5,168.6758,418.5,171.6758,418.5,165.6758" style="stroke: #000000; stroke-width: 1.0;"/>
        <text fill="#000000" font-family="sans-serif" font-size="13" lengthAdjust="spacingAndGlyphs" textLength="7" x="332.9526" y="219.5019">1</text>
        <text fill="#000000" font-family="sans-serif" font-size="13" lengthAdjust="spacingAndGlyphs" textLength="5" x="447.8332" y="183.5926">*</text>
        <path d="M325.145,236.7675 C335.018,239.1208 345.277,241.327 355,243 C397.418,250.299 446.053,254.6616 481.99,257.1364 " fill="none" style="stroke: #A80036; stroke-width: 1.0;"/>
        <text fill="#000000" font-family="sans-serif" font-size="13" lengthAdjust="spacingAndGlyphs" textLength="61" x="356" y="239.4951">atua como</text>
        <polygon fill="#000000" points="420,232.6758,426,235.6758,420,238.6758,420,232.6758" style="stroke: #000000; stroke-width: 1.0;"/>
        <text fill="#000000" font-family="sans-serif" font-size="13" lengthAdjust="spacingAndGlyphs" textLength="22" x="333.1455" y="253.0588">0..1</text>
        <text fill="#000000" font-family="sans-serif" font-size="13" lengthAdjust="spacingAndGlyphs" textLength="7" x="466.973" y="271.4131">1</text>
        <!--
@startuml
hide methods
left to right direction

class Plataforma {
  -String designacao
}

class AreaAtividade {
  -String codigo
  -String descBreve
  -String descDetalhada
 
}

class CompetenciaTecnica {
  -String codigo
  -String descBreve
  -String descDetalhada
}

class GrauProficiencia {
  -Integer valor
  -String designacao
}

class Administrativo {
}

class Utilizador {
  -String nome
  -String email
  -String password
}

Plataforma "1" - - "*" AreaAtividade : possui >
Plataforma "1" - - "*" CompetenciaTecnica : possui >
Plataforma "1" - - "*" Administrativo : tem >

CompetenciaTecnica "*" - - "1" AreaAtividade : referente a >
CompetenciaTecnica "1" - - "0..*" GrauProficiencia : aplica >

Administrativo "1" - - "*" CompetenciaTecnica: especifica >
Administrativo "0..1" - - "1" Utilizador: atua como >
@enduml

PlantUML version 2017.11(Wed Apr 19 17:18:59 BST 2017)
(GPL source distribution)
Java Runtime: Java(TM) SE Runtime Environment
JVM: Java HotSpot(TM) 64-Bit Server VM
Java Version: 1.8.0_111-b14
Operating System: Windows 10
OS Version: 10.0
Default Encoding: UTF-8
Language: pt
Country: PT
-->
    </g>
</svg>
