<?xml version="1.0" encoding="UTF-8"?><svg xmlns="http://www.w3.org/2000/svg" xmlns:xlink="http://www.w3.org/1999/xlink" contentScriptType="application/ecmascript" contentStyleType="text/css" height="805px" preserveAspectRatio="none" style="width:1086px;height:805px;" version="1.1" viewBox="0 0 1086 805" width="1086px" zoomAndPan="magnify">
    <defs>
        <filter height="300%" id="fm3t4r2vlpd2v" width="300%" x="-1" y="-1">
            <feGaussianBlur result="blurOut" stdDeviation="2.0"/>
            <feColorMatrix in="blurOut" result="blurOut2" type="matrix" values="0 0 0 0 0 0 0 0 0 0 0 0 0 0 0 0 0 0 .4 0"/>
            <feOffset dx="4.0" dy="4.0" in="blurOut2" result="blurOut3"/>
            <feBlend in="SourceGraphic" in2="blurOut3" mode="normal"/>
        </filter>
    </defs>
    <g>
        <!--class RegistoCompetenciaTecnica-->
        <rect fill="#FEFECE" filter="url(#fm3t4r2vlpd2v)" height="112.7754" style="stroke: #A80036; stroke-width: 1.5;" width="618" x="130" y="442"/>
        <ellipse cx="354.25" cy="458" fill="#ADD1B2" rx="11" ry="11" style="stroke: #A80036; stroke-width: 1.0;"/>
        <path d="M356.7231,464.1431 Q356.1421,464.4419 355.5029,464.5913 Q354.8638,464.7407 354.1582,464.7407 Q351.6514,464.7407 350.3315,463.0889 Q349.0117,461.437 349.0117,458.3159 Q349.0117,455.1865 350.3315,453.5347 Q351.6514,451.8828 354.1582,451.8828 Q354.8638,451.8828 355.5112,452.0322 Q356.1587,452.1816 356.7231,452.4805 L356.7231,455.2031 Q356.0923,454.6221 355.4988,454.3523 Q354.9053,454.0825 354.2744,454.0825 Q352.9297,454.0825 352.2449,455.1492 Q351.5601,456.2158 351.5601,458.3159 Q351.5601,460.4077 352.2449,461.4744 Q352.9297,462.541 354.2744,462.541 Q354.9053,462.541 355.4988,462.2712 Q356.0923,462.0015 356.7231,461.4204 Z "/>
        <text fill="#000000" font-family="sans-serif" font-size="12" lengthAdjust="spacingAndGlyphs" textLength="161" x="374.75" y="462.5352">RegistoCompetenciaTecnica</text>
        <line style="stroke: #A80036; stroke-width: 1.5;" x1="131" x2="747" y1="474" y2="474"/>
        <line style="stroke: #A80036; stroke-width: 1.5;" x1="131" x2="747" y1="482" y2="482"/>
        <text fill="#000000" font-family="sans-serif" font-size="11" lengthAdjust="spacingAndGlyphs" textLength="606" x="136" y="496.6348">+CompetenciaTecnica(String cod, String dsBreve, String dsDet, AreaAtividade areaAtividade, GrauProficiencia gp)</text>
        <text fill="#000000" font-family="sans-serif" font-size="11" lengthAdjust="spacingAndGlyphs" textLength="443" x="136" y="509.5898">+novaCompetenciaTecnica(String cod, String dsBreve, String dsDet, areaAtividade)</text>
        <text fill="#000000" font-family="sans-serif" font-size="11" lengthAdjust="spacingAndGlyphs" textLength="227" x="136" y="522.5449">+validaCompetenciaTecnica(competencia)</text>
        <text fill="#000000" font-family="sans-serif" font-size="11" lengthAdjust="spacingAndGlyphs" textLength="233" x="136" y="535.5">+registaCompetenciaTecnica(competencia)</text>
        <text fill="#000000" font-family="sans-serif" font-size="11" lengthAdjust="spacingAndGlyphs" textLength="327" x="136" y="548.4551">-addCompetenciaTecnica(CompetenciaTecnica competencia)</text>
        <!--class RegistoAreaAtividade-->
        <rect fill="#FEFECE" filter="url(#fm3t4r2vlpd2v)" height="73.9102" style="stroke: #A80036; stroke-width: 1.5;" width="226" x="783" y="461.5"/>
        <ellipse cx="830.25" cy="477.5" fill="#ADD1B2" rx="11" ry="11" style="stroke: #A80036; stroke-width: 1.0;"/>
        <path d="M832.7231,483.6431 Q832.1421,483.9419 831.5029,484.0913 Q830.8638,484.2407 830.1582,484.2407 Q827.6514,484.2407 826.3315,482.5889 Q825.0117,480.937 825.0117,477.8159 Q825.0117,474.6865 826.3315,473.0347 Q827.6514,471.3828 830.1582,471.3828 Q830.8638,471.3828 831.5112,471.5322 Q832.1587,471.6816 832.7231,471.9805 L832.7231,474.7031 Q832.0923,474.1221 831.4988,473.8523 Q830.9053,473.5825 830.2744,473.5825 Q828.9297,473.5825 828.2449,474.6492 Q827.5601,475.7158 827.5601,477.8159 Q827.5601,479.9077 828.2449,480.9744 Q828.9297,482.041 830.2744,482.041 Q830.9053,482.041 831.4988,481.7712 Q832.0923,481.5015 832.7231,480.9204 Z "/>
        <text fill="#000000" font-family="sans-serif" font-size="12" lengthAdjust="spacingAndGlyphs" textLength="123" x="850.75" y="482.0352">RegistoAreaAtividade</text>
        <line style="stroke: #A80036; stroke-width: 1.5;" x1="784" x2="1008" y1="493.5" y2="493.5"/>
        <line style="stroke: #A80036; stroke-width: 1.5;" x1="784" x2="1008" y1="501.5" y2="501.5"/>
        <text fill="#000000" font-family="sans-serif" font-size="11" lengthAdjust="spacingAndGlyphs" textLength="115" x="789" y="516.1348">+getAreasAtividade()</text>
        <text fill="#000000" font-family="sans-serif" font-size="11" lengthAdjust="spacingAndGlyphs" textLength="214" x="789" y="529.0898">+getAreaAtividadeById(areaAtividadeId)</text>
        <!--class AreaAtividade-->
        <rect fill="#FEFECE" filter="url(#fm3t4r2vlpd2v)" height="86.8652" style="stroke: #A80036; stroke-width: 1.5;" width="131" x="946.5" y="671"/>
        <ellipse cx="969.6" cy="687" fill="#ADD1B2" rx="11" ry="11" style="stroke: #A80036; stroke-width: 1.0;"/>
        <path d="M972.0731,693.1431 Q971.4921,693.4419 970.8529,693.5913 Q970.2138,693.7407 969.5082,693.7407 Q967.0014,693.7407 965.6815,692.0889 Q964.3617,690.437 964.3617,687.3159 Q964.3617,684.1865 965.6815,682.5347 Q967.0014,680.8828 969.5082,680.8828 Q970.2138,680.8828 970.8612,681.0322 Q971.5087,681.1816 972.0731,681.4805 L972.0731,684.2031 Q971.4423,683.6221 970.8488,683.3523 Q970.2553,683.0825 969.6244,683.0825 Q968.2797,683.0825 967.5949,684.1492 Q966.9101,685.2158 966.9101,687.3159 Q966.9101,689.4077 967.5949,690.4744 Q968.2797,691.541 969.6244,691.541 Q970.2553,691.541 970.8488,691.2712 Q971.4423,691.0015 972.0731,690.4204 Z "/>
        <text fill="#000000" font-family="sans-serif" font-size="12" lengthAdjust="spacingAndGlyphs" textLength="81" x="985.4" y="691.5352">AreaAtividade</text>
        <line style="stroke: #A80036; stroke-width: 1.5;" x1="947.5" x2="1076.5" y1="703" y2="703"/>
        <text fill="#000000" font-family="sans-serif" font-size="11" lengthAdjust="spacingAndGlyphs" textLength="78" x="952.5" y="717.6348">-String codigo</text>
        <text fill="#000000" font-family="sans-serif" font-size="11" lengthAdjust="spacingAndGlyphs" textLength="95" x="952.5" y="730.5898">-String descBreve</text>
        <text fill="#000000" font-family="sans-serif" font-size="11" lengthAdjust="spacingAndGlyphs" textLength="119" x="952.5" y="743.5449">-String descDetalhada</text>
        <line style="stroke: #A80036; stroke-width: 1.5;" x1="947.5" x2="1076.5" y1="749.8652" y2="749.8652"/>
        <!--class CompetenciaTecnica-->
        <rect fill="#FEFECE" filter="url(#fm3t4r2vlpd2v)" height="164.5957" style="stroke: #A80036; stroke-width: 1.5;" width="618" x="6" y="632"/>
        <ellipse cx="251.25" cy="648" fill="#ADD1B2" rx="11" ry="11" style="stroke: #A80036; stroke-width: 1.0;"/>
        <path d="M253.7231,654.1431 Q253.1421,654.4419 252.5029,654.5913 Q251.8638,654.7407 251.1582,654.7407 Q248.6514,654.7407 247.3315,653.0889 Q246.0117,651.437 246.0117,648.3159 Q246.0117,645.1865 247.3315,643.5347 Q248.6514,641.8828 251.1582,641.8828 Q251.8638,641.8828 252.5112,642.0322 Q253.1587,642.1816 253.7231,642.4805 L253.7231,645.2031 Q253.0923,644.6221 252.4988,644.3523 Q251.9053,644.0825 251.2744,644.0825 Q249.9297,644.0825 249.2449,645.1492 Q248.5601,646.2158 248.5601,648.3159 Q248.5601,650.4077 249.2449,651.4744 Q249.9297,652.541 251.2744,652.541 Q251.9053,652.541 252.4988,652.2712 Q253.0923,652.0015 253.7231,651.4204 Z "/>
        <text fill="#000000" font-family="sans-serif" font-size="12" lengthAdjust="spacingAndGlyphs" textLength="119" x="271.75" y="652.5352">CompetenciaTecnica</text>
        <line style="stroke: #A80036; stroke-width: 1.5;" x1="7" x2="623" y1="664" y2="664"/>
        <text fill="#000000" font-family="sans-serif" font-size="11" lengthAdjust="spacingAndGlyphs" textLength="78" x="12" y="678.6348">-String codigo</text>
        <text fill="#000000" font-family="sans-serif" font-size="11" lengthAdjust="spacingAndGlyphs" textLength="95" x="12" y="691.5898">-String descBreve</text>
        <text fill="#000000" font-family="sans-serif" font-size="11" lengthAdjust="spacingAndGlyphs" textLength="119" x="12" y="704.5449">-String descDetalhada</text>
        <text fill="#000000" font-family="sans-serif" font-size="11" lengthAdjust="spacingAndGlyphs" textLength="157" x="12" y="717.5">-AreaAtividade areaAtividade</text>
        <line style="stroke: #A80036; stroke-width: 1.5;" x1="7" x2="623" y1="723.8203" y2="723.8203"/>
        <text fill="#000000" font-family="sans-serif" font-size="11" lengthAdjust="spacingAndGlyphs" textLength="606" x="12" y="738.4551">+CompetenciaTecnica(String cod, String dsBreve, String dsDet, AreaAtividade areaAtividade, GrauProficiencia gp)</text>
        <text fill="#000000" font-family="sans-serif" font-size="11" lengthAdjust="spacingAndGlyphs" textLength="423" x="12" y="751.4102">+CompetenciaTecnica(String cod, String dsBreve, AreaAtividade areaAtividade)</text>
        <text fill="#000000" font-family="sans-serif" font-size="11" lengthAdjust="spacingAndGlyphs" textLength="142" x="12" y="764.3652">-addGP(valor, designacao)</text>
        <text fill="#000000" font-family="sans-serif" font-size="11" lengthAdjust="spacingAndGlyphs" textLength="73" x="12" y="777.3203">-validaGP(gp)</text>
        <text fill="#000000" font-family="sans-serif" font-size="11" lengthAdjust="spacingAndGlyphs" textLength="62" x="12" y="790.2754">-addGP(gp)</text>
        <!--class GrauProficiencia-->
        <rect fill="#FEFECE" filter="url(#fm3t4r2vlpd2v)" height="86.8652" style="stroke: #A80036; stroke-width: 1.5;" width="208" x="703" y="671"/>
        <ellipse cx="756.25" cy="687" fill="#ADD1B2" rx="11" ry="11" style="stroke: #A80036; stroke-width: 1.0;"/>
        <path d="M758.7231,693.1431 Q758.1421,693.4419 757.5029,693.5913 Q756.8638,693.7407 756.1582,693.7407 Q753.6514,693.7407 752.3315,692.0889 Q751.0117,690.437 751.0117,687.3159 Q751.0117,684.1865 752.3315,682.5347 Q753.6514,680.8828 756.1582,680.8828 Q756.8638,680.8828 757.5112,681.0322 Q758.1587,681.1816 758.7231,681.4805 L758.7231,684.2031 Q758.0923,683.6221 757.4988,683.3523 Q756.9053,683.0825 756.2744,683.0825 Q754.9297,683.0825 754.2449,684.1492 Q753.5601,685.2158 753.5601,687.3159 Q753.5601,689.4077 754.2449,690.4744 Q754.9297,691.541 756.2744,691.541 Q756.9053,691.541 757.4988,691.2712 Q758.0923,691.0015 758.7231,690.4204 Z "/>
        <text fill="#000000" font-family="sans-serif" font-size="12" lengthAdjust="spacingAndGlyphs" textLength="93" x="776.75" y="691.5352">GrauProficiencia</text>
        <line style="stroke: #A80036; stroke-width: 1.5;" x1="704" x2="910" y1="703" y2="703"/>
        <text fill="#000000" font-family="sans-serif" font-size="11" lengthAdjust="spacingAndGlyphs" textLength="102" x="709" y="717.6348">-String designacao</text>
        <text fill="#000000" font-family="sans-serif" font-size="11" lengthAdjust="spacingAndGlyphs" textLength="50" x="709" y="730.5898">-Int valor</text>
        <line style="stroke: #A80036; stroke-width: 1.5;" x1="704" x2="910" y1="736.9102" y2="736.9102"/>
        <text fill="#000000" font-family="sans-serif" font-size="11" lengthAdjust="spacingAndGlyphs" textLength="196" x="709" y="751.5449">+GrauProficiencia(valor,designacao)</text>
        <!--class Plataforma-->
        <rect fill="#FEFECE" filter="url(#fm3t4r2vlpd2v)" height="86.8652" style="stroke: #A80036; stroke-width: 1.5;" width="197" x="573.5" y="278"/>
        <ellipse cx="636.75" cy="294" fill="#ADD1B2" rx="11" ry="11" style="stroke: #A80036; stroke-width: 1.0;"/>
        <path d="M639.2231,300.1431 Q638.6421,300.4419 638.0029,300.5913 Q637.3638,300.7407 636.6582,300.7407 Q634.1514,300.7407 632.8315,299.0889 Q631.5117,297.437 631.5117,294.3159 Q631.5117,291.1865 632.8315,289.5347 Q634.1514,287.8828 636.6582,287.8828 Q637.3638,287.8828 638.0112,288.0322 Q638.6587,288.1816 639.2231,288.4805 L639.2231,291.2031 Q638.5923,290.6221 637.9988,290.3523 Q637.4053,290.0825 636.7744,290.0825 Q635.4297,290.0825 634.7449,291.1492 Q634.0601,292.2158 634.0601,294.3159 Q634.0601,296.4077 634.7449,297.4744 Q635.4297,298.541 636.7744,298.541 Q637.4053,298.541 637.9988,298.2712 Q638.5923,298.0015 639.2231,297.4204 Z "/>
        <text fill="#000000" font-family="sans-serif" font-size="12" lengthAdjust="spacingAndGlyphs" textLength="62" x="657.25" y="298.5352">Plataforma</text>
        <line style="stroke: #A80036; stroke-width: 1.5;" x1="574.5" x2="769.5" y1="310" y2="310"/>
        <text fill="#000000" font-family="sans-serif" font-size="11" lengthAdjust="spacingAndGlyphs" textLength="102" x="579.5" y="324.6348">-String designacao</text>
        <line style="stroke: #A80036; stroke-width: 1.5;" x1="574.5" x2="769.5" y1="330.9551" y2="330.9551"/>
        <text fill="#000000" font-family="sans-serif" font-size="11" lengthAdjust="spacingAndGlyphs" textLength="185" x="579.5" y="345.5898">+getRegistoCompetenciaTecnica()</text>
        <text fill="#000000" font-family="sans-serif" font-size="11" lengthAdjust="spacingAndGlyphs" textLength="149" x="579.5" y="358.5449">+getRegistoAreaAtividade()</text>
        <!--class EspecificarCompetenciaTecnicaController-->
        <rect fill="#FEFECE" filter="url(#fm3t4r2vlpd2v)" height="99.8203" style="stroke: #A80036; stroke-width: 1.5;" width="269" x="537.5" y="117"/>
        <ellipse cx="552.5" cy="133" fill="#ADD1B2" rx="11" ry="11" style="stroke: #A80036; stroke-width: 1.0;"/>
        <path d="M554.9731,139.1431 Q554.3921,139.4419 553.7529,139.5913 Q553.1138,139.7407 552.4082,139.7407 Q549.9014,139.7407 548.5815,138.0889 Q547.2617,136.437 547.2617,133.3159 Q547.2617,130.1865 548.5815,128.5347 Q549.9014,126.8828 552.4082,126.8828 Q553.1138,126.8828 553.7612,127.0322 Q554.4087,127.1816 554.9731,127.4805 L554.9731,130.2031 Q554.3423,129.6221 553.7488,129.3523 Q553.1553,129.0825 552.5244,129.0825 Q551.1797,129.0825 550.4949,130.1492 Q549.8101,131.2158 549.8101,133.3159 Q549.8101,135.4077 550.4949,136.4744 Q551.1797,137.541 552.5244,137.541 Q553.1553,137.541 553.7488,137.2712 Q554.3423,137.0015 554.9731,136.4204 Z "/>
        <text fill="#000000" font-family="sans-serif" font-size="12" lengthAdjust="spacingAndGlyphs" textLength="237" x="566.5" y="137.5352">EspecificarCompetenciaTecnicaController</text>
        <line style="stroke: #A80036; stroke-width: 1.5;" x1="538.5" x2="805.5" y1="149" y2="149"/>
        <line style="stroke: #A80036; stroke-width: 1.5;" x1="538.5" x2="805.5" y1="157" y2="157"/>
        <text fill="#000000" font-family="sans-serif" font-size="11" lengthAdjust="spacingAndGlyphs" textLength="115" x="543.5" y="171.6348">+getAreasAtividade()</text>
        <text fill="#000000" font-family="sans-serif" font-size="11" lengthAdjust="spacingAndGlyphs" textLength="214" x="543.5" y="184.5898">+getAreaAtividadeById(areaAtividadeId)</text>
        <text fill="#000000" font-family="sans-serif" font-size="11" lengthAdjust="spacingAndGlyphs" textLength="145" x="543.5" y="197.5449">+addGP(valor, designacao)</text>
        <text fill="#000000" font-family="sans-serif" font-size="11" lengthAdjust="spacingAndGlyphs" textLength="165" x="543.5" y="210.5">+registaCompetenciaTecnica()</text>
        <!--class EspecificarCompetenciaTecnicaUI-->
        <rect fill="#FEFECE" filter="url(#fm3t4r2vlpd2v)" height="48" style="stroke: #A80036; stroke-width: 1.5;" width="224" x="560" y="8"/>
        <ellipse cx="575" cy="24" fill="#ADD1B2" rx="11" ry="11" style="stroke: #A80036; stroke-width: 1.0;"/>
        <path d="M577.4731,30.1431 Q576.8921,30.4419 576.2529,30.5913 Q575.6138,30.7407 574.9082,30.7407 Q572.4014,30.7407 571.0815,29.0889 Q569.7617,27.437 569.7617,24.3159 Q569.7617,21.1865 571.0815,19.5347 Q572.4014,17.8828 574.9082,17.8828 Q575.6138,17.8828 576.2612,18.0322 Q576.9087,18.1816 577.4731,18.4805 L577.4731,21.2031 Q576.8423,20.6221 576.2488,20.3523 Q575.6553,20.0825 575.0244,20.0825 Q573.6797,20.0825 572.9949,21.1492 Q572.3101,22.2158 572.3101,24.3159 Q572.3101,26.4077 572.9949,27.4744 Q573.6797,28.541 575.0244,28.541 Q575.6553,28.541 576.2488,28.2712 Q576.8423,28.0015 577.4731,27.4204 Z "/>
        <text fill="#000000" font-family="sans-serif" font-size="12" lengthAdjust="spacingAndGlyphs" textLength="192" x="589" y="28.5352">EspecificarCompetenciaTecnicaUI</text>
        <line style="stroke: #A80036; stroke-width: 1.5;" x1="561" x2="783" y1="40" y2="40"/>
        <line style="stroke: #A80036; stroke-width: 1.5;" x1="561" x2="783" y1="48" y2="48"/>
        <path d="M672,56.17 C672,71.47 672,92.2 672,111.53 " fill="none" style="stroke: #A80036; stroke-width: 1.0; stroke-dasharray: 7.0,7.0;"/>
        <polygon fill="#A80036" points="672,116.94,676,107.94,672,111.94,668,107.94,672,116.94" style="stroke: #A80036; stroke-width: 1.0;"/>
        <path d="M672,217.09 C672,234.85 672,254.86 672,272.52 " fill="none" style="stroke: #A80036; stroke-width: 1.0; stroke-dasharray: 7.0,7.0;"/>
        <polygon fill="#A80036" points="672,277.92,676,268.92,672,272.92,668,268.92,672,277.92" style="stroke: #A80036; stroke-width: 1.0;"/>
        <path d="M537.24,191.82 C403.19,223.47 204.54,293.7 112,442 C85.41,484.61 89.98,509.86 112,555 C125.73,583.13 147.13,607.73 170.97,628.62 " fill="none" style="stroke: #A80036; stroke-width: 1.0; stroke-dasharray: 7.0,7.0;"/>
        <polygon fill="#A80036" points="174.82,631.95,170.6257,623.0389,171.0368,628.6808,165.395,629.0919,174.82,631.95" style="stroke: #A80036; stroke-width: 1.0;"/>
        <path d="M782.77,217.15 C868.11,261.92 979.31,337.11 1027,442 C1060,514.58 1042.93,609.57 1027.49,665.81 " fill="none" style="stroke: #A80036; stroke-width: 1.0; stroke-dasharray: 7.0,7.0;"/>
        <polygon fill="#A80036" points="1026.1,670.79,1032.371,663.1956,1027.4434,665.9738,1024.6652,661.0462,1026.1,670.79" style="stroke: #A80036; stroke-width: 1.0;"/>
        <path d="M612.81,217.25 C593.34,235.17 572.48,256.36 556,278 C518.19,327.66 485.78,391.21 464.72,437.14 " fill="none" style="stroke: #A80036; stroke-width: 1.0; stroke-dasharray: 7.0,7.0;"/>
        <polygon fill="#A80036" points="462.59,441.81,469.9726,435.291,464.6708,437.2636,462.6983,431.9617,462.59,441.81" style="stroke: #A80036; stroke-width: 1.0;"/>
        <path d="M731.89,217.23 C751.31,235.06 771.96,256.21 788,278 C829.78,334.76 862.78,410.17 880.82,456.2 " fill="none" style="stroke: #A80036; stroke-width: 1.0; stroke-dasharray: 7.0,7.0;"/>
        <polygon fill="#A80036" points="882.74,461.11,883.2002,451.2719,880.925,456.4511,875.7459,454.1759,882.74,461.11" style="stroke: #A80036; stroke-width: 1.0;"/>
        <path d="M531.7,631.97 C631.84,603.87 752.39,584.23 861,605 C892.94,611.11 901.8,614.17 929,632 C943.78,641.69 958.1,654.32 970.57,666.78 " fill="none" style="stroke: #A80036; stroke-width: 1.0;"/>
        <polygon fill="#A80036" points="974.38,670.63,970.919,661.4093,970.8732,667.066,965.2165,667.0202,974.38,670.63" style="stroke: #A80036; stroke-width: 1.0;"/>
        <text fill="#000000" font-family="sans-serif" font-size="13" lengthAdjust="spacingAndGlyphs" textLength="56" x="804" y="598.5684">referente</text>
        <text fill="#000000" font-family="sans-serif" font-size="13" lengthAdjust="spacingAndGlyphs" textLength="6" x="545.4005" y="621.2717">*</text>
        <text fill="#000000" font-family="sans-serif" font-size="13" lengthAdjust="spacingAndGlyphs" textLength="8" x="960.0069" y="660.3664">1</text>
        <path d="M624.15,714.5 C650.13,714.5 675.11,714.5 697.81,714.5 " fill="none" style="stroke: #A80036; stroke-width: 1.0;"/>
        <polygon fill="#A80036" points="702.92,714.5,693.92,710.5,697.92,714.5,693.92,718.5,702.92,714.5" style="stroke: #A80036; stroke-width: 1.0;"/>
        <text fill="#000000" font-family="sans-serif" font-size="13" lengthAdjust="spacingAndGlyphs" textLength="42" x="642.5" y="708.0684">possui</text>
        <text fill="#000000" font-family="sans-serif" font-size="13" lengthAdjust="spacingAndGlyphs" textLength="8" x="632.468" y="711.8786">1</text>
        <text fill="#000000" font-family="sans-serif" font-size="13" lengthAdjust="spacingAndGlyphs" textLength="22" x="672.8284" y="727.6114">0..*</text>
        <path d="M615.3,365.09 C585.91,387.16 549.55,414.47 517.5,438.54 " fill="none" style="stroke: #A80036; stroke-width: 1.0;"/>
        <polygon fill="#A80036" points="513.21,441.77,522.81,439.57,517.21,438.77,518.01,433.17,513.21,441.77" style="stroke: #A80036; stroke-width: 1.0;"/>
        <text fill="#000000" font-family="sans-serif" font-size="13" lengthAdjust="spacingAndGlyphs" textLength="42" x="571" y="408.5684">possui</text>
        <text fill="#000000" font-family="sans-serif" font-size="13" lengthAdjust="spacingAndGlyphs" textLength="8" x="598.0053" y="385.5156">1</text>
        <text fill="#000000" font-family="sans-serif" font-size="13" lengthAdjust="spacingAndGlyphs" textLength="8" x="514.2057" y="431.1432">1</text>
        <path d="M726.51,365.09 C762.72,393.38 809.94,430.26 845.33,457.92 " fill="none" style="stroke: #A80036; stroke-width: 1.0;"/>
        <polygon fill="#A80036" points="849.59,461.24,844.9677,452.5432,845.6525,458.1585,840.0372,458.8432,849.59,461.24" style="stroke: #A80036; stroke-width: 1.0;"/>
        <text fill="#000000" font-family="sans-serif" font-size="13" lengthAdjust="spacingAndGlyphs" textLength="42" x="785" y="408.5684">possui</text>
        <text fill="#000000" font-family="sans-serif" font-size="13" lengthAdjust="spacingAndGlyphs" textLength="8" x="726.2443" y="385.5156">1</text>
        <text fill="#000000" font-family="sans-serif" font-size="13" lengthAdjust="spacingAndGlyphs" textLength="8" x="832.6107" y="450.8711">1</text>
        <path d="M406.74,555.17 C393.98,577.2 379,603.04 364.9,627.38 " fill="none" style="stroke: #A80036; stroke-width: 1.0;"/>
        <polygon fill="#A80036" points="362.28,631.91,370.245,626.117,364.7807,627.5803,363.3174,622.1159,362.28,631.91" style="stroke: #A80036; stroke-width: 1.0;"/>
        <text fill="#000000" font-family="sans-serif" font-size="13" lengthAdjust="spacingAndGlyphs" textLength="42" x="390" y="598.5684">possui</text>
        <text fill="#000000" font-family="sans-serif" font-size="13" lengthAdjust="spacingAndGlyphs" textLength="8" x="394.5474" y="575.189">1</text>
        <text fill="#000000" font-family="sans-serif" font-size="13" lengthAdjust="spacingAndGlyphs" textLength="6" x="360.3621" y="621.2061">*</text>
        <path d="M915.68,535.8 C935.12,571.67 964.96,626.72 986.27,666.04 " fill="none" style="stroke: #A80036; stroke-width: 1.0;"/>
        <polygon fill="#A80036" points="988.83,670.75,988.0431,660.9326,986.4408,666.3578,981.0156,664.7554,988.83,670.75" style="stroke: #A80036; stroke-width: 1.0;"/>
        <text fill="#000000" font-family="sans-serif" font-size="13" lengthAdjust="spacingAndGlyphs" textLength="42" x="951" y="598.5684">possui</text>
        <text fill="#000000" font-family="sans-serif" font-size="13" lengthAdjust="spacingAndGlyphs" textLength="8" x="910.375" y="556.1028">1</text>
        <text fill="#000000" font-family="sans-serif" font-size="13" lengthAdjust="spacingAndGlyphs" textLength="6" x="978.6592" y="660.1859">*</text>
        <!--
@startuml
skinparam classAttributeIconSize 0

class RegistoCompetenciaTecnica {
    +CompetenciaTecnica(String cod, String dsBreve, String dsDet, AreaAtividade areaAtividade, GrauProficiencia gp)
    +novaCompetenciaTecnica(String cod, String dsBreve, String dsDet, areaAtividade)
    +validaCompetenciaTecnica(competencia)
    +registaCompetenciaTecnica(competencia)
    - addCompetenciaTecnica(CompetenciaTecnica competencia)
}

class RegistoAreaAtividade {
    +getAreasAtividade()
    +getAreaAtividadeById(areaAtividadeId)
}

class AreaAtividade {
    -String codigo
    -String descBreve
    -String descDetalhada
}

class CompetenciaTecnica {
    -String codigo
    -String descBreve
    -String descDetalhada
    -AreaAtividade areaAtividade
    +CompetenciaTecnica(String cod, String dsBreve, String dsDet, AreaAtividade areaAtividade, GrauProficiencia gp)
    +CompetenciaTecnica(String cod, String dsBreve, AreaAtividade areaAtividade)
    -addGP(valor, designacao)
    -validaGP(gp)
    -addGP(gp)
}

class GrauProficiencia {
    -String designacao
    -Int valor
    +GrauProficiencia(valor,designacao)
}

class Plataforma {
    -String designacao
    +getRegistoCompetenciaTecnica()
    +getRegistoAreaAtividade()
}

class EspecificarCompetenciaTecnicaController { 
    +getAreasAtividade()
    +getAreaAtividadeById(areaAtividadeId)
    +addGP(valor, designacao)
    +registaCompetenciaTecnica()
}

class EspecificarCompetenciaTecnicaUI {
}

EspecificarCompetenciaTecnicaUI ..> EspecificarCompetenciaTecnicaController
EspecificarCompetenciaTecnicaController ..> Plataforma
EspecificarCompetenciaTecnicaController ..> CompetenciaTecnica
EspecificarCompetenciaTecnicaController ..> AreaAtividade
EspecificarCompetenciaTecnicaController ..> RegistoCompetenciaTecnica
EspecificarCompetenciaTecnicaController ..> RegistoAreaAtividade
CompetenciaTecnica "*" -> "1" AreaAtividade : referente
CompetenciaTecnica "1" -> "0..*" GrauProficiencia : possui
Plataforma "1" - -> "1" RegistoCompetenciaTecnica : possui
Plataforma "1" - -> "1" RegistoAreaAtividade : possui
RegistoCompetenciaTecnica "1" - -> "*" CompetenciaTecnica : possui
RegistoAreaAtividade "1" - -> "*" AreaAtividade : possui
@enduml

PlantUML version 2017.11(Wed Apr 19 17:18:59 WEST 2017)
(GPL source distribution)
Java Runtime: Java(TM) SE Runtime Environment
JVM: Java HotSpot(TM) 64-Bit Server VM
Java Version: 1.8.0_191-b12
Operating System: Mac OS X
OS Version: 10.15.4
Default Encoding: UTF-8
Language: pt
Country: PT
-->
    </g>
</svg>
