<?xml version="1.0" encoding="UTF-8"?><svg xmlns="http://www.w3.org/2000/svg" xmlns:xlink="http://www.w3.org/1999/xlink" contentScriptType="application/ecmascript" contentStyleType="text/css" height="1236px" preserveAspectRatio="none" style="width:1337px;height:1236px;" version="1.1" viewBox="0 0 1337 1236" width="1337px" zoomAndPan="magnify">
    <defs>
        <filter height="300%" id="f18q149zuecome" width="300%" x="-1" y="-1">
            <feGaussianBlur result="blurOut" stdDeviation="2.0"/>
            <feColorMatrix in="blurOut" result="blurOut2" type="matrix" values="0 0 0 0 0 0 0 0 0 0 0 0 0 0 0 0 0 0 .4 0"/>
            <feOffset dx="4.0" dy="4.0" in="blurOut2" result="blurOut3"/>
            <feBlend in="SourceGraphic" in2="blurOut3" mode="normal"/>
        </filter>
    </defs>
    <g>
        <!--class RegistarFreelancerUI-->
        <rect fill="#FEFECE" filter="url(#f18q149zuecome)" height="48" style="stroke: #A80036; stroke-width: 1.5;" width="150" x="770" y="8"/>
        <ellipse cx="785" cy="24" fill="#ADD1B2" rx="11" ry="11" style="stroke: #A80036; stroke-width: 1.0;"/>
        <path d="M787.4731,30.1431 Q786.8921,30.4419 786.2529,30.5913 Q785.6138,30.7407 784.9082,30.7407 Q782.4014,30.7407 781.0815,29.0889 Q779.7617,27.437 779.7617,24.3159 Q779.7617,21.1865 781.0815,19.5347 Q782.4014,17.8828 784.9082,17.8828 Q785.6138,17.8828 786.2612,18.0322 Q786.9087,18.1816 787.4731,18.4805 L787.4731,21.2031 Q786.8423,20.6221 786.2488,20.3523 Q785.6553,20.0825 785.0244,20.0825 Q783.6797,20.0825 782.9949,21.1492 Q782.3101,22.2158 782.3101,24.3159 Q782.3101,26.4077 782.9949,27.4744 Q783.6797,28.541 785.0244,28.541 Q785.6553,28.541 786.2488,28.2712 Q786.8423,28.0015 787.4731,27.4204 Z "/>
        <text fill="#000000" font-family="sans-serif" font-size="12" lengthAdjust="spacingAndGlyphs" textLength="118" x="799" y="28.5352">RegistarFreelancerUI</text>
        <line style="stroke: #A80036; stroke-width: 1.5;" x1="771" x2="919" y1="40" y2="40"/>
        <line style="stroke: #A80036; stroke-width: 1.5;" x1="771" x2="919" y1="48" y2="48"/>
        <!--class RegistarFreelancerController-->
        <rect fill="#FEFECE" filter="url(#f18q149zuecome)" height="99.8203" style="stroke: #A80036; stroke-width: 1.5;" width="369" x="660.5" y="117"/>
        <ellipse cx="759.25" cy="133" fill="#ADD1B2" rx="11" ry="11" style="stroke: #A80036; stroke-width: 1.0;"/>
        <path d="M761.7231,139.1431 Q761.1421,139.4419 760.5029,139.5913 Q759.8638,139.7407 759.1582,139.7407 Q756.6514,139.7407 755.3315,138.0889 Q754.0117,136.437 754.0117,133.3159 Q754.0117,130.1865 755.3315,128.5347 Q756.6514,126.8828 759.1582,126.8828 Q759.8638,126.8828 760.5112,127.0322 Q761.1587,127.1816 761.7231,127.4805 L761.7231,130.2031 Q761.0923,129.6221 760.4988,129.3523 Q759.9053,129.0825 759.2744,129.0825 Q757.9297,129.0825 757.2449,130.1492 Q756.5601,131.2158 756.5601,133.3159 Q756.5601,135.4077 757.2449,136.4744 Q757.9297,137.541 759.2744,137.541 Q759.9053,137.541 760.4988,137.2712 Q761.0923,137.0015 761.7231,136.4204 Z "/>
        <text fill="#000000" font-family="sans-serif" font-size="12" lengthAdjust="spacingAndGlyphs" textLength="163" x="779.75" y="137.5352">RegistarFreelancerController</text>
        <line style="stroke: #A80036; stroke-width: 1.5;" x1="661.5" x2="1028.5" y1="149" y2="149"/>
        <line style="stroke: #A80036; stroke-width: 1.5;" x1="661.5" x2="1028.5" y1="157" y2="157"/>
        <text fill="#000000" font-family="sans-serif" font-size="11" lengthAdjust="spacingAndGlyphs" textLength="357" x="666.5" y="171.6348">+novoFreelancer(nome,NIF,endLocal,endCodPostal,endLocalidade,</text>
        <text fill="#000000" font-family="sans-serif" font-size="11" lengthAdjust="spacingAndGlyphs" textLength="269" x="666.5" y="184.5898">contacto,email,grau,desigCurso,instituicao,media)</text>
        <text fill="#000000" font-family="sans-serif" font-size="11" lengthAdjust="spacingAndGlyphs" textLength="201" x="666.5" y="197.5449">+addReconhecimento(ctCod,gp,data)</text>
        <text fill="#000000" font-family="sans-serif" font-size="11" lengthAdjust="spacingAndGlyphs" textLength="110" x="666.5" y="210.5">+registaFreelancer()</text>
        <!--class Plataforma-->
        <rect fill="#FEFECE" filter="url(#f18q149zuecome)" height="86.8652" style="stroke: #A80036; stroke-width: 1.5;" width="167" x="553.5" y="278"/>
        <ellipse cx="601.75" cy="294" fill="#ADD1B2" rx="11" ry="11" style="stroke: #A80036; stroke-width: 1.0;"/>
        <path d="M604.2231,300.1431 Q603.6421,300.4419 603.0029,300.5913 Q602.3638,300.7407 601.6582,300.7407 Q599.1514,300.7407 597.8315,299.0889 Q596.5117,297.437 596.5117,294.3159 Q596.5117,291.1865 597.8315,289.5347 Q599.1514,287.8828 601.6582,287.8828 Q602.3638,287.8828 603.0112,288.0322 Q603.6587,288.1816 604.2231,288.4805 L604.2231,291.2031 Q603.5923,290.6221 602.9988,290.3523 Q602.4053,290.0825 601.7744,290.0825 Q600.4297,290.0825 599.7449,291.1492 Q599.0601,292.2158 599.0601,294.3159 Q599.0601,296.4077 599.7449,297.4744 Q600.4297,298.541 601.7744,298.541 Q602.4053,298.541 602.9988,298.2712 Q603.5923,298.0015 604.2231,297.4204 Z "/>
        <text fill="#000000" font-family="sans-serif" font-size="12" lengthAdjust="spacingAndGlyphs" textLength="62" x="622.25" y="298.5352">Plataforma</text>
        <line style="stroke: #A80036; stroke-width: 1.5;" x1="554.5" x2="719.5" y1="310" y2="310"/>
        <text fill="#000000" font-family="sans-serif" font-size="11" lengthAdjust="spacingAndGlyphs" textLength="102" x="559.5" y="324.6348">-String designacao</text>
        <line style="stroke: #A80036; stroke-width: 1.5;" x1="554.5" x2="719.5" y1="330.9551" y2="330.9551"/>
        <text fill="#000000" font-family="sans-serif" font-size="11" lengthAdjust="spacingAndGlyphs" textLength="130" x="559.5" y="345.5898">+getRegistoFreelancer()</text>
        <text fill="#000000" font-family="sans-serif" font-size="11" lengthAdjust="spacingAndGlyphs" textLength="155" x="559.5" y="358.5449">+getAlgoritmoGeradorPWD()</text>
        <!--class AplicacaoPOT-->
        <rect fill="#FEFECE" filter="url(#f18q149zuecome)" height="73.9102" style="stroke: #A80036; stroke-width: 1.5;" width="123" x="1205.5" y="284.5"/>
        <ellipse cx="1225.9" cy="300.5" fill="#ADD1B2" rx="11" ry="11" style="stroke: #A80036; stroke-width: 1.0;"/>
        <path d="M1228.3731,306.6431 Q1227.7921,306.9419 1227.1529,307.0913 Q1226.5138,307.2407 1225.8082,307.2407 Q1223.3014,307.2407 1221.9815,305.5889 Q1220.6617,303.937 1220.6617,300.8159 Q1220.6617,297.6865 1221.9815,296.0347 Q1223.3014,294.3828 1225.8082,294.3828 Q1226.5138,294.3828 1227.1612,294.5322 Q1227.8087,294.6816 1228.3731,294.9805 L1228.3731,297.7031 Q1227.7423,297.1221 1227.1488,296.8523 Q1226.5553,296.5825 1225.9244,296.5825 Q1224.5797,296.5825 1223.8949,297.6492 Q1223.2101,298.7158 1223.2101,300.8159 Q1223.2101,302.9077 1223.8949,303.9744 Q1224.5797,305.041 1225.9244,305.041 Q1226.5553,305.041 1227.1488,304.7712 Q1227.7423,304.5015 1228.3731,303.9204 Z "/>
        <text fill="#000000" font-family="sans-serif" font-size="12" lengthAdjust="spacingAndGlyphs" textLength="79" x="1241.1" y="305.0352">AplicacaoPOT</text>
        <line style="stroke: #A80036; stroke-width: 1.5;" x1="1206.5" x2="1327.5" y1="316.5" y2="316.5"/>
        <line style="stroke: #A80036; stroke-width: 1.5;" x1="1206.5" x2="1327.5" y1="324.5" y2="324.5"/>
        <text fill="#000000" font-family="sans-serif" font-size="11" lengthAdjust="spacingAndGlyphs" textLength="111" x="1211.5" y="339.1348">+static getInstance()</text>
        <text fill="#000000" font-family="sans-serif" font-size="11" lengthAdjust="spacingAndGlyphs" textLength="99" x="1211.5" y="352.0898">+getSessaoAtual()</text>
        <!--class RegistoFreelancer-->
        <rect fill="#FEFECE" filter="url(#f18q149zuecome)" height="125.7305" style="stroke: #A80036; stroke-width: 1.5;" width="369" x="305.5" y="442"/>
        <ellipse cx="434.75" cy="458" fill="#ADD1B2" rx="11" ry="11" style="stroke: #A80036; stroke-width: 1.0;"/>
        <path d="M437.2231,464.1431 Q436.6421,464.4419 436.0029,464.5913 Q435.3638,464.7407 434.6582,464.7407 Q432.1514,464.7407 430.8315,463.0889 Q429.5117,461.437 429.5117,458.3159 Q429.5117,455.1865 430.8315,453.5347 Q432.1514,451.8828 434.6582,451.8828 Q435.3638,451.8828 436.0112,452.0322 Q436.6587,452.1816 437.2231,452.4805 L437.2231,455.2031 Q436.5923,454.6221 435.9988,454.3523 Q435.4053,454.0825 434.7744,454.0825 Q433.4297,454.0825 432.7449,455.1492 Q432.0601,456.2158 432.0601,458.3159 Q432.0601,460.4077 432.7449,461.4744 Q433.4297,462.541 434.7744,462.541 Q435.4053,462.541 435.9988,462.2712 Q436.5923,462.0015 437.2231,461.4204 Z "/>
        <text fill="#000000" font-family="sans-serif" font-size="12" lengthAdjust="spacingAndGlyphs" textLength="102" x="455.25" y="462.5352">RegistoFreelancer</text>
        <line style="stroke: #A80036; stroke-width: 1.5;" x1="306.5" x2="673.5" y1="474" y2="474"/>
        <line style="stroke: #A80036; stroke-width: 1.5;" x1="306.5" x2="673.5" y1="482" y2="482"/>
        <text fill="#000000" font-family="sans-serif" font-size="11" lengthAdjust="spacingAndGlyphs" textLength="357" x="311.5" y="496.6348">+novoFreelancer(nome,NIF,endLocal,endCodPostal,endLocalidade,</text>
        <text fill="#000000" font-family="sans-serif" font-size="11" lengthAdjust="spacingAndGlyphs" textLength="269" x="311.5" y="509.5898">contacto,email,grau,desigCurso,instituicao,media)</text>
        <text fill="#000000" font-family="sans-serif" font-size="11" lengthAdjust="spacingAndGlyphs" textLength="131" x="311.5" y="522.5449">+registaFreelancer(free)</text>
        <text fill="#000000" font-family="sans-serif" font-size="11" lengthAdjust="spacingAndGlyphs" textLength="125" x="311.5" y="535.5">+validaFreelancer(free)</text>
        <text fill="#000000" font-family="sans-serif" font-size="11" lengthAdjust="spacingAndGlyphs" textLength="114" x="311.5" y="548.4551">+addFreelancer(free)</text>
        <text fill="#000000" font-family="sans-serif" font-size="11" lengthAdjust="spacingAndGlyphs" textLength="215" x="311.5" y="561.4102">+registaFreelancerComoUtilizador(free)</text>
        <!--class RegistoCompetenciaTecnica-->
        <rect fill="#FEFECE" filter="url(#f18q149zuecome)" height="73.9102" style="stroke: #A80036; stroke-width: 1.5;" width="193" x="709.5" y="468"/>
        <ellipse cx="724.5" cy="484" fill="#ADD1B2" rx="11" ry="11" style="stroke: #A80036; stroke-width: 1.0;"/>
        <path d="M726.9731,490.1431 Q726.3921,490.4419 725.7529,490.5913 Q725.1138,490.7407 724.4082,490.7407 Q721.9014,490.7407 720.5815,489.0889 Q719.2617,487.437 719.2617,484.3159 Q719.2617,481.1865 720.5815,479.5347 Q721.9014,477.8828 724.4082,477.8828 Q725.1138,477.8828 725.7612,478.0322 Q726.4087,478.1816 726.9731,478.4805 L726.9731,481.2031 Q726.3423,480.6221 725.7488,480.3523 Q725.1553,480.0825 724.5244,480.0825 Q723.1797,480.0825 722.4949,481.1492 Q721.8101,482.2158 721.8101,484.3159 Q721.8101,486.4077 722.4949,487.4744 Q723.1797,488.541 724.5244,488.541 Q725.1553,488.541 725.7488,488.2712 Q726.3423,488.0015 726.9731,487.4204 Z "/>
        <text fill="#000000" font-family="sans-serif" font-size="12" lengthAdjust="spacingAndGlyphs" textLength="161" x="738.5" y="488.5352">RegistoCompetenciaTecnica</text>
        <line style="stroke: #A80036; stroke-width: 1.5;" x1="710.5" x2="901.5" y1="500" y2="500"/>
        <line style="stroke: #A80036; stroke-width: 1.5;" x1="710.5" x2="901.5" y1="508" y2="508"/>
        <text fill="#000000" font-family="sans-serif" font-size="11" lengthAdjust="spacingAndGlyphs" textLength="74" x="715.5" y="522.6348">+getListaCT()</text>
        <text fill="#000000" font-family="sans-serif" font-size="11" lengthAdjust="spacingAndGlyphs" textLength="81" x="715.5" y="535.5898">+getCT(ctCod)</text>
        <!--class Freelancer-->
        <rect fill="#FEFECE" filter="url(#f18q149zuecome)" height="229.3711" style="stroke: #A80036; stroke-width: 1.5;" width="476" x="623" y="645"/>
        <ellipse cx="826.75" cy="661" fill="#ADD1B2" rx="11" ry="11" style="stroke: #A80036; stroke-width: 1.0;"/>
        <path d="M829.2231,667.1431 Q828.6421,667.4419 828.0029,667.5913 Q827.3638,667.7407 826.6582,667.7407 Q824.1514,667.7407 822.8315,666.0889 Q821.5117,664.437 821.5117,661.3159 Q821.5117,658.1865 822.8315,656.5347 Q824.1514,654.8828 826.6582,654.8828 Q827.3638,654.8828 828.0112,655.0322 Q828.6587,655.1816 829.2231,655.4805 L829.2231,658.2031 Q828.5923,657.6221 827.9988,657.3523 Q827.4053,657.0825 826.7744,657.0825 Q825.4297,657.0825 824.7449,658.1492 Q824.0601,659.2158 824.0601,661.3159 Q824.0601,663.4077 824.7449,664.4744 Q825.4297,665.541 826.7744,665.541 Q827.4053,665.541 827.9988,665.2712 Q828.5923,665.0015 829.2231,664.4204 Z "/>
        <text fill="#000000" font-family="sans-serif" font-size="12" lengthAdjust="spacingAndGlyphs" textLength="60" x="847.25" y="665.5352">Freelancer</text>
        <line style="stroke: #A80036; stroke-width: 1.5;" x1="624" x2="1098" y1="677" y2="677"/>
        <text fill="#000000" font-family="sans-serif" font-size="11" lengthAdjust="spacingAndGlyphs" textLength="71" x="629" y="691.6348">-String nome</text>
        <text fill="#000000" font-family="sans-serif" font-size="11" lengthAdjust="spacingAndGlyphs" textLength="58" x="629" y="704.5898">-String NIF</text>
        <text fill="#000000" font-family="sans-serif" font-size="11" lengthAdjust="spacingAndGlyphs" textLength="88" x="629" y="717.5449">-String contacto</text>
        <text fill="#000000" font-family="sans-serif" font-size="11" lengthAdjust="spacingAndGlyphs" textLength="69" x="629" y="730.5">-String email</text>
        <line style="stroke: #A80036; stroke-width: 1.5;" x1="624" x2="1098" y1="736.8203" y2="736.8203"/>
        <text fill="#000000" font-family="sans-serif" font-size="11" lengthAdjust="spacingAndGlyphs" text-decoration="underline" textLength="384" x="629" y="751.4551">+EnderecoPostal novoEndereco(endLocal,endCodPostal,endLocalidade)</text>
        <line style="stroke: #000000; stroke-width: 1.0;" x1="629" x2="1013" y1="753.4551" y2="753.4551"/>
        <text fill="#000000" font-family="sans-serif" font-size="11" lengthAdjust="spacingAndGlyphs" text-decoration="underline" textLength="464" x="629" y="764.4102">+HabilitacaoAcademica novaHabilitacaoAcademica(grau,desigCurso,instituicao,media)</text>
        <line style="stroke: #000000; stroke-width: 1.0;" x1="629" x2="1093" y1="766.4102" y2="766.4102"/>
        <text fill="#000000" font-family="sans-serif" font-size="11" lengthAdjust="spacingAndGlyphs" textLength="208" x="629" y="777.3652">+novoReconhecimento(ctCod,gp,data)</text>
        <text fill="#000000" font-family="sans-serif" font-size="11" lengthAdjust="spacingAndGlyphs" textLength="154" x="629" y="790.3203">+validaReconhecimento(rec)</text>
        <text fill="#000000" font-family="sans-serif" font-size="11" lengthAdjust="spacingAndGlyphs" textLength="178" x="629" y="803.2754">+validaHabilitacaoAcademica(ha)</text>
        <text fill="#000000" font-family="sans-serif" font-size="11" lengthAdjust="spacingAndGlyphs" textLength="143" x="629" y="816.2305">+addReconhecimento(rec)</text>
        <text fill="#000000" font-family="sans-serif" font-size="11" lengthAdjust="spacingAndGlyphs" textLength="167" x="629" y="829.1855">+addHabilitacaoAcademica(ha)</text>
        <text fill="#000000" font-family="sans-serif" font-size="11" lengthAdjust="spacingAndGlyphs" textLength="125" x="629" y="842.1406">+validaFreelancer(free)</text>
        <text fill="#000000" font-family="sans-serif" font-size="11" lengthAdjust="spacingAndGlyphs" textLength="65" x="629" y="855.0957">+getNome()</text>
        <text fill="#000000" font-family="sans-serif" font-size="11" lengthAdjust="spacingAndGlyphs" textLength="62" x="629" y="868.0508">+getEmail()</text>
        <!--class EnderecoPostal-->
        <rect fill="#FEFECE" filter="url(#f18q149zuecome)" height="99.8203" style="stroke: #A80036; stroke-width: 1.5;" width="248" x="704" y="957.5"/>
        <ellipse cx="779.75" cy="973.5" fill="#ADD1B2" rx="11" ry="11" style="stroke: #A80036; stroke-width: 1.0;"/>
        <path d="M782.2231,979.6431 Q781.6421,979.9419 781.0029,980.0913 Q780.3638,980.2407 779.6582,980.2407 Q777.1514,980.2407 775.8315,978.5889 Q774.5117,976.937 774.5117,973.8159 Q774.5117,970.6865 775.8315,969.0347 Q777.1514,967.3828 779.6582,967.3828 Q780.3638,967.3828 781.0112,967.5322 Q781.6587,967.6816 782.2231,967.9805 L782.2231,970.7031 Q781.5923,970.1221 780.9988,969.8523 Q780.4053,969.5825 779.7744,969.5825 Q778.4297,969.5825 777.7449,970.6492 Q777.0601,971.7158 777.0601,973.8159 Q777.0601,975.9077 777.7449,976.9744 Q778.4297,978.041 779.7744,978.041 Q780.4053,978.041 780.9988,977.7712 Q781.5923,977.5015 782.2231,976.9204 Z "/>
        <text fill="#000000" font-family="sans-serif" font-size="12" lengthAdjust="spacingAndGlyphs" textLength="88" x="800.25" y="978.0352">EnderecoPostal</text>
        <line style="stroke: #A80036; stroke-width: 1.5;" x1="705" x2="951" y1="989.5" y2="989.5"/>
        <text fill="#000000" font-family="sans-serif" font-size="11" lengthAdjust="spacingAndGlyphs" textLength="66" x="710" y="1004.1348">-String local</text>
        <text fill="#000000" font-family="sans-serif" font-size="11" lengthAdjust="spacingAndGlyphs" textLength="93" x="710" y="1017.0898">-String codPostal</text>
        <text fill="#000000" font-family="sans-serif" font-size="11" lengthAdjust="spacingAndGlyphs" textLength="95" x="710" y="1030.0449">-String localidade</text>
        <line style="stroke: #A80036; stroke-width: 1.5;" x1="705" x2="951" y1="1036.3652" y2="1036.3652"/>
        <text fill="#000000" font-family="sans-serif" font-size="11" lengthAdjust="spacingAndGlyphs" textLength="236" x="710" y="1051">+EnderecoPostal(local,codPostal,localidade)</text>
        <!--class HabilitacaoAcademica-->
        <rect fill="#FEFECE" filter="url(#f18q149zuecome)" height="112.7754" style="stroke: #A80036; stroke-width: 1.5;" width="330" x="987" y="951"/>
        <ellipse cx="1084.25" cy="967" fill="#ADD1B2" rx="11" ry="11" style="stroke: #A80036; stroke-width: 1.0;"/>
        <path d="M1086.7231,973.1431 Q1086.1421,973.4419 1085.5029,973.5913 Q1084.8638,973.7407 1084.1582,973.7407 Q1081.6514,973.7407 1080.3315,972.0889 Q1079.0117,970.437 1079.0117,967.3159 Q1079.0117,964.1865 1080.3315,962.5347 Q1081.6514,960.8828 1084.1582,960.8828 Q1084.8638,960.8828 1085.5112,961.0322 Q1086.1587,961.1816 1086.7231,961.4805 L1086.7231,964.2031 Q1086.0923,963.6221 1085.4988,963.3523 Q1084.9053,963.0825 1084.2744,963.0825 Q1082.9297,963.0825 1082.2449,964.1492 Q1081.5601,965.2158 1081.5601,967.3159 Q1081.5601,969.4077 1082.2449,970.4744 Q1082.9297,971.541 1084.2744,971.541 Q1084.9053,971.541 1085.4988,971.2712 Q1086.0923,971.0015 1086.7231,970.4204 Z "/>
        <text fill="#000000" font-family="sans-serif" font-size="12" lengthAdjust="spacingAndGlyphs" textLength="127" x="1104.75" y="971.5352">HabilitacaoAcademica</text>
        <line style="stroke: #A80036; stroke-width: 1.5;" x1="988" x2="1316" y1="983" y2="983"/>
        <text fill="#000000" font-family="sans-serif" font-size="11" lengthAdjust="spacingAndGlyphs" textLength="66" x="993" y="997.6348">-String grau</text>
        <text fill="#000000" font-family="sans-serif" font-size="11" lengthAdjust="spacingAndGlyphs" textLength="103" x="993" y="1010.5898">-String desigCurso</text>
        <text fill="#000000" font-family="sans-serif" font-size="11" lengthAdjust="spacingAndGlyphs" textLength="97" x="993" y="1023.5449">-String instituicao</text>
        <text fill="#000000" font-family="sans-serif" font-size="11" lengthAdjust="spacingAndGlyphs" textLength="78" x="993" y="1036.5">-double media</text>
        <line style="stroke: #A80036; stroke-width: 1.5;" x1="988" x2="1316" y1="1042.8203" y2="1042.8203"/>
        <text fill="#000000" font-family="sans-serif" font-size="11" lengthAdjust="spacingAndGlyphs" textLength="318" x="993" y="1057.4551">+HabilitacaoAcademica(grau,desigCurso,instituicao,media)</text>
        <!--class GrauProficiencia-->
        <rect fill="#FEFECE" filter="url(#f18q149zuecome)" height="73.9102" style="stroke: #A80036; stroke-width: 1.5;" width="125" x="140.5" y="1147.5"/>
        <ellipse cx="155.5" cy="1163.5" fill="#ADD1B2" rx="11" ry="11" style="stroke: #A80036; stroke-width: 1.0;"/>
        <path d="M157.9731,1169.6431 Q157.3921,1169.9419 156.7529,1170.0913 Q156.1138,1170.2407 155.4082,1170.2407 Q152.9014,1170.2407 151.5815,1168.5889 Q150.2617,1166.937 150.2617,1163.8159 Q150.2617,1160.6865 151.5815,1159.0347 Q152.9014,1157.3828 155.4082,1157.3828 Q156.1138,1157.3828 156.7612,1157.5322 Q157.4087,1157.6816 157.9731,1157.9805 L157.9731,1160.7031 Q157.3423,1160.1221 156.7488,1159.8523 Q156.1553,1159.5825 155.5244,1159.5825 Q154.1797,1159.5825 153.4949,1160.6492 Q152.8101,1161.7158 152.8101,1163.8159 Q152.8101,1165.9077 153.4949,1166.9744 Q154.1797,1168.041 155.5244,1168.041 Q156.1553,1168.041 156.7488,1167.7712 Q157.3423,1167.5015 157.9731,1166.9204 Z "/>
        <text fill="#000000" font-family="sans-serif" font-size="12" lengthAdjust="spacingAndGlyphs" textLength="93" x="169.5" y="1168.0352">GrauProficiencia</text>
        <line style="stroke: #A80036; stroke-width: 1.5;" x1="141.5" x2="264.5" y1="1179.5" y2="1179.5"/>
        <text fill="#000000" font-family="sans-serif" font-size="11" lengthAdjust="spacingAndGlyphs" textLength="102" x="146.5" y="1194.1348">-String designacao</text>
        <text fill="#000000" font-family="sans-serif" font-size="11" lengthAdjust="spacingAndGlyphs" textLength="50" x="146.5" y="1207.0898">-int valor</text>
        <line style="stroke: #A80036; stroke-width: 1.5;" x1="141.5" x2="264.5" y1="1213.4102" y2="1213.4102"/>
        <!--class CompetenciaTecnica-->
        <rect fill="#FEFECE" filter="url(#f18q149zuecome)" height="86.8652" style="stroke: #A80036; stroke-width: 1.5;" width="151" x="300.5" y="1141"/>
        <ellipse cx="315.5" cy="1157" fill="#ADD1B2" rx="11" ry="11" style="stroke: #A80036; stroke-width: 1.0;"/>
        <path d="M317.9731,1163.1431 Q317.3921,1163.4419 316.7529,1163.5913 Q316.1138,1163.7407 315.4082,1163.7407 Q312.9014,1163.7407 311.5815,1162.0889 Q310.2617,1160.437 310.2617,1157.3159 Q310.2617,1154.1865 311.5815,1152.5347 Q312.9014,1150.8828 315.4082,1150.8828 Q316.1138,1150.8828 316.7612,1151.0322 Q317.4087,1151.1816 317.9731,1151.4805 L317.9731,1154.2031 Q317.3423,1153.6221 316.7488,1153.3523 Q316.1553,1153.0825 315.5244,1153.0825 Q314.1797,1153.0825 313.4949,1154.1492 Q312.8101,1155.2158 312.8101,1157.3159 Q312.8101,1159.4077 313.4949,1160.4744 Q314.1797,1161.541 315.5244,1161.541 Q316.1553,1161.541 316.7488,1161.2712 Q317.3423,1161.0015 317.9731,1160.4204 Z "/>
        <text fill="#000000" font-family="sans-serif" font-size="12" lengthAdjust="spacingAndGlyphs" textLength="119" x="329.5" y="1161.5352">CompetenciaTecnica</text>
        <line style="stroke: #A80036; stroke-width: 1.5;" x1="301.5" x2="450.5" y1="1173" y2="1173"/>
        <text fill="#000000" font-family="sans-serif" font-size="11" lengthAdjust="spacingAndGlyphs" textLength="78" x="306.5" y="1187.6348">-String codigo</text>
        <text fill="#000000" font-family="sans-serif" font-size="11" lengthAdjust="spacingAndGlyphs" textLength="95" x="306.5" y="1200.5898">-String descBreve</text>
        <text fill="#000000" font-family="sans-serif" font-size="11" lengthAdjust="spacingAndGlyphs" textLength="119" x="306.5" y="1213.5449">-String descDetalhada</text>
        <line style="stroke: #A80036; stroke-width: 1.5;" x1="301.5" x2="450.5" y1="1219.8652" y2="1219.8652"/>
        <!--class Reconhecimento-->
        <rect fill="#FEFECE" filter="url(#f18q149zuecome)" height="73.9102" style="stroke: #A80036; stroke-width: 1.5;" width="193" x="192.5" y="970.5"/>
        <ellipse cx="237.75" cy="986.5" fill="#ADD1B2" rx="11" ry="11" style="stroke: #A80036; stroke-width: 1.0;"/>
        <path d="M240.2231,992.6431 Q239.6421,992.9419 239.0029,993.0913 Q238.3638,993.2407 237.6582,993.2407 Q235.1514,993.2407 233.8315,991.5889 Q232.5117,989.937 232.5117,986.8159 Q232.5117,983.6865 233.8315,982.0347 Q235.1514,980.3828 237.6582,980.3828 Q238.3638,980.3828 239.0112,980.5322 Q239.6587,980.6816 240.2231,980.9805 L240.2231,983.7031 Q239.5923,983.1221 238.9988,982.8523 Q238.4053,982.5825 237.7744,982.5825 Q236.4297,982.5825 235.7449,983.6492 Q235.0601,984.7158 235.0601,986.8159 Q235.0601,988.9077 235.7449,989.9744 Q236.4297,991.041 237.7744,991.041 Q238.4053,991.041 238.9988,990.7712 Q239.5923,990.5015 240.2231,989.9204 Z "/>
        <text fill="#000000" font-family="sans-serif" font-size="12" lengthAdjust="spacingAndGlyphs" textLength="94" x="258.25" y="991.0352">Reconhecimento</text>
        <line style="stroke: #A80036; stroke-width: 1.5;" x1="193.5" x2="384.5" y1="1002.5" y2="1002.5"/>
        <text fill="#000000" font-family="sans-serif" font-size="11" lengthAdjust="spacingAndGlyphs" textLength="82" x="198.5" y="1017.1348">-DateTime data</text>
        <line style="stroke: #A80036; stroke-width: 1.5;" x1="193.5" x2="384.5" y1="1023.4551" y2="1023.4551"/>
        <text fill="#000000" font-family="sans-serif" font-size="11" lengthAdjust="spacingAndGlyphs" textLength="181" x="198.5" y="1038.0898">+Reconhecimento(ctCod,gp,data)</text>
        <!--class AutorizacaoFacade-->
        <rect fill="#FEFECE" filter="url(#f18q149zuecome)" height="60.9551" style="stroke: #A80036; stroke-width: 1.5;" width="298" x="59" y="729"/>
        <ellipse cx="149.25" cy="745" fill="#ADD1B2" rx="11" ry="11" style="stroke: #A80036; stroke-width: 1.0;"/>
        <path d="M151.7231,751.1431 Q151.1421,751.4419 150.5029,751.5913 Q149.8638,751.7407 149.1582,751.7407 Q146.6514,751.7407 145.3315,750.0889 Q144.0117,748.437 144.0117,745.3159 Q144.0117,742.1865 145.3315,740.5347 Q146.6514,738.8828 149.1582,738.8828 Q149.8638,738.8828 150.5112,739.0322 Q151.1587,739.1816 151.7231,739.4805 L151.7231,742.2031 Q151.0923,741.6221 150.4988,741.3523 Q149.9053,741.0825 149.2744,741.0825 Q147.9297,741.0825 147.2449,742.1492 Q146.5601,743.2158 146.5601,745.3159 Q146.5601,747.4077 147.2449,748.4744 Q147.9297,749.541 149.2744,749.541 Q149.9053,749.541 150.4988,749.2712 Q151.0923,749.0015 151.7231,748.4204 Z "/>
        <text fill="#000000" font-family="sans-serif" font-size="12" lengthAdjust="spacingAndGlyphs" textLength="109" x="169.75" y="749.5352">AutorizacaoFacade</text>
        <line style="stroke: #A80036; stroke-width: 1.5;" x1="60" x2="356" y1="761" y2="761"/>
        <line style="stroke: #A80036; stroke-width: 1.5;" x1="60" x2="356" y1="769" y2="769"/>
        <text fill="#000000" font-family="sans-serif" font-size="11" lengthAdjust="spacingAndGlyphs" textLength="286" x="65" y="783.6348">+registaUtilizadorComPapel(nome, email, pwd, papel)</text>
        <!--class AlgoritmoGeradorPasswords-->
        <rect fill="#FEFECE" filter="url(#f18q149zuecome)" height="48" style="stroke: #A80036; stroke-width: 1.5;" width="196" x="392" y="735.5"/>
        <ellipse cx="407" cy="751.5" fill="#B4A7E5" rx="11" ry="11" style="stroke: #A80036; stroke-width: 1.0;"/>
        <path d="M403.4277,747.7651 L403.4277,745.6069 L410.8071,745.6069 L410.8071,747.7651 L408.3418,747.7651 L408.3418,755.8418 L410.8071,755.8418 L410.8071,758 L403.4277,758 L403.4277,755.8418 L405.8931,755.8418 L405.8931,747.7651 Z "/>
        <text fill="#000000" font-family="sans-serif" font-size="12" font-style="italic" lengthAdjust="spacingAndGlyphs" textLength="164" x="421" y="756.0352">AlgoritmoGeradorPasswords</text>
        <line style="stroke: #A80036; stroke-width: 1.5;" x1="393" x2="587" y1="767.5" y2="767.5"/>
        <line style="stroke: #A80036; stroke-width: 1.5;" x1="393" x2="587" y1="775.5" y2="775.5"/>
        <path d="M845,56.17 C845,71.47 845,92.2 845,111.53 " fill="none" style="stroke: #A80036; stroke-width: 1.0; stroke-dasharray: 7.0,7.0;"/>
        <polygon fill="#A80036" points="845,116.94,849,107.94,845,111.94,841,107.94,845,116.94" style="stroke: #A80036; stroke-width: 1.0;"/>
        <path d="M1029.55,196.03 C1079.35,207.76 1132.12,224.17 1178,247 C1195.55,255.73 1212.68,268.52 1227.15,280.99 " fill="none" style="stroke: #A80036; stroke-width: 1.0; stroke-dasharray: 7.0,7.0;"/>
        <polygon fill="#A80036" points="1231.16,284.49,1227.0208,275.5532,1227.3971,281.1975,1221.7528,281.5738,1231.16,284.49" style="stroke: #A80036; stroke-width: 1.0;"/>
        <path d="M778.04,217.09 C752.78,235.61 724.17,256.59 699.35,274.79 " fill="none" style="stroke: #A80036; stroke-width: 1.0; stroke-dasharray: 7.0,7.0;"/>
        <polygon fill="#A80036" points="695.08,277.92,704.7021,275.8189,699.1107,274.9613,699.9682,269.3699,695.08,277.92" style="stroke: #A80036; stroke-width: 1.0;"/>
        <path d="M839.29,217.22 C831.59,283.53 818.03,400.38 810.82,462.48 " fill="none" style="stroke: #A80036; stroke-width: 1.0; stroke-dasharray: 7.0,7.0;"/>
        <polygon fill="#A80036" points="810.23,467.59,815.2316,459.1056,810.801,462.6227,807.2839,458.1921,810.23,467.59" style="stroke: #A80036; stroke-width: 1.0;"/>
        <path d="M831.57,217.24 C813.54,280.17 780.46,384.29 752,412 C744.98,418.84 715.96,430.62 679.64,443.52 " fill="none" style="stroke: #A80036; stroke-width: 1.0; stroke-dasharray: 7.0,7.0;"/>
        <polygon fill="#A80036" points="674.7,445.26,684.5172,446.049,679.4171,443.6019,681.8642,438.5017,674.7,445.26" style="stroke: #A80036; stroke-width: 1.0;"/>
        <path d="M865,217.07 C893.21,292.32 939.24,440.86 920,568 C916.42,591.65 910.48,616.41 903.71,639.96 " fill="none" style="stroke: #A80036; stroke-width: 1.0; stroke-dasharray: 7.0,7.0;"/>
        <polygon fill="#A80036" points="902.25,644.96,908.61,637.44,903.65,640.16,900.93,635.2,902.25,644.96" style="stroke: #A80036; stroke-width: 1.0;"/>
        <path d="M1029.78,196.06 C1094.8,217.34 1152,254.74 1152,320.5 C1152,320.5 1152,320.5 1152,760.5 C1152,823.67 1152,895.97 1152,945.76 " fill="none" style="stroke: #A80036; stroke-width: 1.0; stroke-dasharray: 7.0,7.0;"/>
        <polygon fill="#A80036" points="1152,950.81,1156,941.81,1152,945.81,1148,941.81,1152,950.81" style="stroke: #A80036; stroke-width: 1.0;"/>
        <path d="M592.98,365.11 C583.76,374.67 574.32,384.96 566,395 C555,408.28 543.94,423.1 533.79,437.43 " fill="none" style="stroke: #A80036; stroke-width: 1.0;"/>
        <polygon fill="#A80036" points="530.68,441.86,539.1311,436.8024,533.5578,437.7712,532.589,432.1979,530.68,441.86" style="stroke: #A80036; stroke-width: 1.0;"/>
        <text fill="#000000" font-family="sans-serif" font-size="13" lengthAdjust="spacingAndGlyphs" textLength="42" x="567" y="408.5684">possui</text>
        <polygon fill="#000000" points="583.5,417.3105,586.5,423.3105,589.5,417.3105,583.5,417.3105" style="stroke: #000000; stroke-width: 1.0;"/>
        <text fill="#000000" font-family="sans-serif" font-size="13" lengthAdjust="spacingAndGlyphs" textLength="8" x="577.6269" y="385.5387">1</text>
        <text fill="#000000" font-family="sans-serif" font-size="13" lengthAdjust="spacingAndGlyphs" textLength="6" x="529.0368" y="431.2941">*</text>
        <path d="M676.62,365.05 C704.45,394.94 741.42,434.64 768.71,463.95 " fill="none" style="stroke: #A80036; stroke-width: 1.0;"/>
        <polygon fill="#A80036" points="772.33,467.83,769.1121,458.5217,768.9179,464.1752,763.2644,463.981,772.33,467.83" style="stroke: #A80036; stroke-width: 1.0;"/>
        <text fill="#000000" font-family="sans-serif" font-size="13" lengthAdjust="spacingAndGlyphs" textLength="42" x="718" y="408.5684">possui</text>
        <polygon fill="#000000" points="734.5,417.3105,737.5,423.3105,740.5,417.3105,734.5,417.3105" style="stroke: #000000; stroke-width: 1.0;"/>
        <text fill="#000000" font-family="sans-serif" font-size="13" lengthAdjust="spacingAndGlyphs" textLength="8" x="674.0743" y="385.4695">1</text>
        <text fill="#000000" font-family="sans-serif" font-size="13" lengthAdjust="spacingAndGlyphs" textLength="6" x="759.569" y="457.1992">*</text>
        <path d="M581.23,568.09 C614.01,590.4 652.14,616.35 689.51,641.79 " fill="none" style="stroke: #A80036; stroke-width: 1.0;"/>
        <polygon fill="#A80036" points="694.06,644.88,688.8432,636.5263,689.9174,642.0802,684.3635,643.1544,694.06,644.88" style="stroke: #A80036; stroke-width: 1.0;"/>
        <text fill="#000000" font-family="sans-serif" font-size="13" lengthAdjust="spacingAndGlyphs" textLength="42" x="644" y="611.5684">possui</text>
        <polygon fill="#000000" points="689,605.1553,695,608.1553,689,611.1553,689,605.1553" style="stroke: #000000; stroke-width: 1.0;"/>
        <text fill="#000000" font-family="sans-serif" font-size="13" lengthAdjust="spacingAndGlyphs" textLength="8" x="582.7708" y="588.4109">1</text>
        <text fill="#000000" font-family="sans-serif" font-size="13" lengthAdjust="spacingAndGlyphs" textLength="6" x="676.6422" y="634.2414">*</text>
        <path d="M845.76,874.14 C842.11,901.29 838.39,929.06 835.3,952.1 " fill="none" style="stroke: #A80036; stroke-width: 1.0;"/>
        <polygon fill="#A80036" points="834.61,957.24,839.758,948.8437,835.2671,952.2834,831.8274,947.7924,834.61,957.24" style="stroke: #A80036; stroke-width: 1.0;"/>
        <text fill="#000000" font-family="sans-serif" font-size="13" lengthAdjust="spacingAndGlyphs" textLength="87" x="843" y="917.5684">localizado em</text>
        <polygon fill="#000000" points="882,926.3105,885,932.3105,888,926.3105,882,926.3105" style="stroke: #000000; stroke-width: 1.0;"/>
        <text fill="#000000" font-family="sans-serif" font-size="13" lengthAdjust="spacingAndGlyphs" textLength="8" x="836.4673" y="894.9126">1</text>
        <text fill="#000000" font-family="sans-serif" font-size="13" lengthAdjust="spacingAndGlyphs" textLength="8" x="826.977" y="946.7203">1</text>
        <path d="M995.43,874.14 C1025.52,899.58 1056.24,925.55 1082.42,947.68 " fill="none" style="stroke: #A80036; stroke-width: 1.0;"/>
        <polygon fill="#A80036" points="1086.25,950.91,1081.9648,942.0423,1082.4336,947.6796,1076.7962,948.1485,1086.25,950.91" style="stroke: #A80036; stroke-width: 1.0;"/>
        <text fill="#000000" font-family="sans-serif" font-size="13" lengthAdjust="spacingAndGlyphs" textLength="39" x="1051" y="917.5684">detém</text>
        <polygon fill="#000000" points="1093,911.1553,1099,914.1553,1093,917.1553,1093,911.1553" style="stroke: #000000; stroke-width: 1.0;"/>
        <text fill="#000000" font-family="sans-serif" font-size="13" lengthAdjust="spacingAndGlyphs" textLength="8" x="996.1933" y="894.9126">1</text>
        <text fill="#000000" font-family="sans-serif" font-size="13" lengthAdjust="spacingAndGlyphs" textLength="22" x="1054.4164" y="940.3011">1..*</text>
        <path d="M622.94,866.24 C616.9,868.86 610.92,871.45 605,874 C529.93,906.37 444.4,942.17 381.27,968.39 " fill="none" style="stroke: #A80036; stroke-width: 1.0;"/>
        <polygon fill="#A80036" points="376.38,970.42,386.2255,970.6767,381.0004,968.5091,383.168,963.284,376.38,970.42" style="stroke: #A80036; stroke-width: 1.0;"/>
        <polygon fill="#000000" points="536,911.1553,530,914.1553,536,917.1553,536,911.1553" style="stroke: #000000; stroke-width: 1.0;"/>
        <text fill="#000000" font-family="sans-serif" font-size="13" lengthAdjust="spacingAndGlyphs" textLength="24" x="542" y="917.5684">tem</text>
        <text fill="#000000" font-family="sans-serif" font-size="13" lengthAdjust="spacingAndGlyphs" textLength="8" x="606.9974" y="867.0637">1</text>
        <text fill="#000000" font-family="sans-serif" font-size="13" lengthAdjust="spacingAndGlyphs" textLength="22" x="368.4626" y="959.8058">0..*</text>
        <path d="M307.03,1044.76 C320.21,1071.27 338.21,1107.48 352.51,1136.26 " fill="none" style="stroke: #A80036; stroke-width: 1.0;"/>
        <polygon fill="#A80036" points="354.78,1140.81,354.3579,1130.9702,352.5553,1136.3322,347.1934,1134.5296,354.78,1140.81" style="stroke: #A80036; stroke-width: 1.0;"/>
        <text fill="#000000" font-family="sans-serif" font-size="13" lengthAdjust="spacingAndGlyphs" textLength="24" x="339" y="1107.5684">tem</text>
        <polygon fill="#000000" points="346.5,1116.3105,349.5,1122.3105,352.5,1116.3105,346.5,1116.3105" style="stroke: #000000; stroke-width: 1.0;"/>
        <text fill="#000000" font-family="sans-serif" font-size="13" lengthAdjust="spacingAndGlyphs" textLength="8" x="301.4414" y="1065.0559">1</text>
        <text fill="#000000" font-family="sans-serif" font-size="13" lengthAdjust="spacingAndGlyphs" textLength="8" x="342.7606" y="1130.2554">1</text>
        <path d="M271.18,1044.76 C257.17,1073.27 237.65,1112.98 223.09,1142.62 " fill="none" style="stroke: #A80036; stroke-width: 1.0;"/>
        <polygon fill="#A80036" points="220.8,1147.29,228.3544,1140.9709,223.0017,1142.8008,221.1717,1137.4482,220.8,1147.29" style="stroke: #A80036; stroke-width: 1.0;"/>
        <text fill="#000000" font-family="sans-serif" font-size="13" lengthAdjust="spacingAndGlyphs" textLength="24" x="247" y="1107.5684">tem</text>
        <polygon fill="#000000" points="254.5,1116.3105,257.5,1122.3105,260.5,1116.3105,254.5,1116.3105" style="stroke: #000000; stroke-width: 1.0;"/>
        <text fill="#000000" font-family="sans-serif" font-size="13" lengthAdjust="spacingAndGlyphs" textLength="8" x="259.4297" y="1065.0559">1</text>
        <text fill="#000000" font-family="sans-serif" font-size="13" lengthAdjust="spacingAndGlyphs" textLength="8" x="215.3444" y="1136.6519">1</text>
        <path d="M420.65,568.09 C365.25,617.7 289.74,685.31 245.2,725.19 " fill="none" style="stroke: #A80036; stroke-width: 1.0; stroke-dasharray: 7.0,7.0;"/>
        <polygon fill="#A80036" points="241.25,728.73,250.6155,725.6825,244.9665,725.3852,245.2638,719.7361,241.25,728.73" style="stroke: #A80036; stroke-width: 1.0;"/>
        <path d="M490,568.09 C490,619.94 490,691.44 490,730.41 " fill="none" style="stroke: #A80036; stroke-width: 1.0;"/>
        <polygon fill="#A80036" points="490,735.46,494,726.46,490,730.46,486,726.46,490,735.46" style="stroke: #A80036; stroke-width: 1.0;"/>
        <polygon fill="#000000" points="492,605,495,611,498,605,492,605" style="stroke: #000000; stroke-width: 1.0;"/>
        <path d="M660.36,183.35 C413.33,206.42 6,254.48 6,320.5 C6,320.5 6,320.5 6,760.5 C6,813.29 7.41,833.27 41,874 C78.91,919.97 137.05,952.23 187.51,973.39 " fill="none" style="stroke: #A80036; stroke-width: 1.0; stroke-dasharray: 7.0,7.0;"/>
        <polygon fill="#A80036" points="192.37,975.41,185.5898,968.2666,187.7517,973.494,182.5242,975.6559,192.37,975.41" style="stroke: #A80036; stroke-width: 1.0;"/>
        <!--
@startuml
skinparam classAttributeIconSize 0

class RegistarFreelancerUI {
}

class RegistarFreelancerController {
    +novoFreelancer(nome,NIF,endLocal,endCodPostal,endLocalidade,\ncontacto,email,grau,desigCurso,instituicao,media)
    +addReconhecimento(ctCod,gp,data)
    +registaFreelancer()
}

class Plataforma {
    -String designacao
    +getRegistoFreelancer()
    +getAlgoritmoGeradorPWD()
}

class AplicacaoPOT{
    +static getInstance()
    +getSessaoAtual()
}

class RegistoFreelancer{
    +novoFreelancer(nome,NIF,endLocal,endCodPostal,endLocalidade,\ncontacto,email,grau,desigCurso,instituicao,media)
    +registaFreelancer(free)
    +validaFreelancer(free)
    +addFreelancer(free)
    +registaFreelancerComoUtilizador(free)
}

class RegistoCompetenciaTecnica{
    +getListaCT()
    +getCT(ctCod)
}

class Freelancer{
    -String nome
    -String NIF
    -String contacto
    -String email
    +{static} EnderecoPostal novoEndereco(endLocal,endCodPostal,endLocalidade)
    +{static} HabilitacaoAcademica novaHabilitacaoAcademica(grau,desigCurso,instituicao,media)
    +novoReconhecimento(ctCod,gp,data)
    +validaReconhecimento(rec)
    +validaHabilitacaoAcademica(ha)
    +addReconhecimento(rec)
    +addHabilitacaoAcademica(ha)
    +validaFreelancer(free)
    +getNome()
    +getEmail()
}

class EnderecoPostal {
  -String local
  -String codPostal
  -String localidade
  +EnderecoPostal(local,codPostal,localidade)
}

class HabilitacaoAcademica{
  -String grau
  -String desigCurso
  -String instituicao
  -double media
  +HabilitacaoAcademica(grau,desigCurso,instituicao,media)
}

class GrauProficiencia {
  -String designacao
  -int valor
}

class CompetenciaTecnica {
  -String codigo
  -String descBreve
  -String descDetalhada
}

class Reconhecimento{
   -DateTime data
   +Reconhecimento(ctCod,gp,data)
}

class AutorizacaoFacade {
  +registaUtilizadorComPapel(nome, email, pwd, papel)
}

interface AlgoritmoGeradorPasswords{
}

RegistarFreelancerUI ..> RegistarFreelancerController
RegistarFreelancerController ..> AplicacaoPOT
RegistarFreelancerController ..> Plataforma
RegistarFreelancerController ..> RegistoCompetenciaTecnica
RegistarFreelancerController ..> RegistoFreelancer
RegistarFreelancerController ..> Freelancer
RegistarFreelancerController ..> HabilitacaoAcademica
Plataforma "1" - -> "*" RegistoFreelancer : possui >
Plataforma "1" - -> "*" RegistoCompetenciaTecnica : possui >
RegistoFreelancer "1" - -> "*" Freelancer : possui >
Freelancer "1" - -> "1" EnderecoPostal : localizado em >
Freelancer "1" - -> "1..*" HabilitacaoAcademica : detém >
Freelancer "1" - -> "0..*" Reconhecimento : tem >
Reconhecimento "1" - -> "1" CompetenciaTecnica: tem >
Reconhecimento "1" - -> "1" GrauProficiencia: tem >
RegistoFreelancer ..> AutorizacaoFacade 
RegistoFreelancer - -> AlgoritmoGeradorPasswords: >
RegistarFreelancerController ..> Reconhecimento

@enduml

PlantUML version 2017.11(Wed Apr 19 17:18:59 WEST 2017)
(GPL source distribution)
Java Runtime: Java(TM) SE Runtime Environment
JVM: Java HotSpot(TM) 64-Bit Server VM
Java Version: 1.8.0_111-b14
Operating System: Mac OS X
OS Version: 10.15
Default Encoding: UTF-8
Language: pt
Country: PT
-->
    </g>
</svg>
