@startuml
participant "ra\n:RegistoAnuncio" as RA
participant ":List<Anuncio>" as LST


[o->RA: getListaAnunciosPorSeriarByEmail(emailColab)
activate RA
RA -> RA: Date date = new Date()
RA -> RA: lstAnuncios = new List<Anuncio>
loop para cada anuncio na lista de anuncios
alt se o email da tarefa for igual ao do colaborador, o tipo de regimento manual\n e a data atual estar entre o inicio e fim do periodo de seriação do anuncio
RA -> LST : lstAnuncios.add(anuncio)
activate LST
deactivate LST
end
[<-- RA : lstAnuncios

@enduml
