@startuml
autonumber
actor "Administrativo" as ADM

activate ADM
ADM -> ":Sistema" : Inicia a especificação de uma nova categoria de tarefa 
activate ":Sistema"
":Sistema" --> ADM : Solicita dados necessários(descrição)
deactivate ":Sistema"

ADM -> ":Sistema" : Introduz os dados solicitados
activate ":Sistema"
":Sistema" --> ADM : Apresenta as AA e pede para selecionar uma
deactivate ":Sistema"

ADM -> ":Sistema" : Seleciona a AA pretendida
activate ":Sistema"
loop  até não querer selecionar mais
":Sistema" --> ADM : Apresenta as CT pede para selecionar uma e o seu caracter\n(obrigatório, desejável, ou sem caracter)
deactivate ":Sistema"

ADM -> ":Sistema" : Seleciona a CT pretendida assim como o caracter
activate ":Sistema"

":Sistema" --> ADM : Sistema apresenta os graus de proficiência referentes\n a CT selecionada e pede para selecionar o mínimo exigido
deactivate ":Sistema"

ADM -> ":Sistema" : Seleciona o grau de proficiência mínimo
activate ":Sistema"

end
":Sistema" --> ADM : Apresenta todos os dados e solicita confirmação
deactivate ":Sistema"

ADM -> ":Sistema" : Confirma
activate ":Sistema"
":Sistema" --> ADM : Operação bem sucedida
deactivate ":Sistema"
deactivate ADM
@enduml
