<?xml version="1.0" encoding="UTF-8"?><svg xmlns="http://www.w3.org/2000/svg" xmlns:xlink="http://www.w3.org/1999/xlink" contentScriptType="application/ecmascript" contentStyleType="text/css" height="1732px" preserveAspectRatio="none" style="width:2617px;height:1732px;" version="1.1" viewBox="0 0 2617 1732" width="2617px" zoomAndPan="magnify">
    <defs>
        <filter height="300%" id="f1lvi0nkr2lxp7" width="300%" x="-1" y="-1">
            <feGaussianBlur result="blurOut" stdDeviation="2.0"/>
            <feColorMatrix in="blurOut" result="blurOut2" type="matrix" values="0 0 0 0 0 0 0 0 0 0 0 0 0 0 0 0 0 0 .4 0"/>
            <feOffset dx="4.0" dy="4.0" in="blurOut2" result="blurOut3"/>
            <feBlend in="SourceGraphic" in2="blurOut3" mode="normal"/>
        </filter>
    </defs>
    <g>
        <rect fill="#FFFFFF" filter="url(#f1lvi0nkr2lxp7)" height="1532.8223" style="stroke: #A80036; stroke-width: 1.0;" width="10" x="71" y="96.4883"/>
        <rect fill="#FFFFFF" filter="url(#f1lvi0nkr2lxp7)" height="29.3105" style="stroke: #A80036; stroke-width: 1.0;" width="10" x="453" y="117.4883"/>
        <rect fill="#FFFFFF" filter="url(#f1lvi0nkr2lxp7)" height="429.4609" style="stroke: #A80036; stroke-width: 1.0;" width="10" x="453" y="176.1094"/>
        <rect fill="#FFFFFF" filter="url(#f1lvi0nkr2lxp7)" height="236.5527" style="stroke: #A80036; stroke-width: 1.0;" width="10" x="453" y="634.8809"/>
        <rect fill="#FFFFFF" filter="url(#f1lvi0nkr2lxp7)" height="29.3105" style="stroke: #A80036; stroke-width: 1.0;" width="10" x="453" y="925.0547"/>
        <rect fill="#FFFFFF" filter="url(#f1lvi0nkr2lxp7)" height="29.3105" style="stroke: #A80036; stroke-width: 1.0;" width="10" x="453" y="983.6758"/>
        <rect fill="#FFFFFF" filter="url(#f1lvi0nkr2lxp7)" height="325.8398" style="stroke: #A80036; stroke-width: 1.0;" width="10" x="453" y="1042.2969"/>
        <rect fill="#FFFFFF" filter="url(#f1lvi0nkr2lxp7)" height="231.8633" style="stroke: #A80036; stroke-width: 1.0;" width="10" x="453" y="1397.4473"/>
        <rect fill="#FFFFFF" filter="url(#f1lvi0nkr2lxp7)" height="370.8398" style="stroke: #A80036; stroke-width: 1.0;" width="10" x="678" y="205.4199"/>
        <rect fill="#FFFFFF" filter="url(#f1lvi0nkr2lxp7)" height="177.9316" style="stroke: #A80036; stroke-width: 1.0;" width="10" x="678" y="664.1914"/>
        <rect fill="#FFFFFF" filter="url(#f1lvi0nkr2lxp7)" height="228.2188" style="stroke: #A80036; stroke-width: 1.0;" width="10" x="678" y="1071.6074"/>
        <rect fill="#FFFFFF" filter="url(#f1lvi0nkr2lxp7)" height="202.5527" style="stroke: #A80036; stroke-width: 1.0;" width="10" x="678" y="1426.7578"/>
        <rect fill="#FFFFFF" filter="url(#f1lvi0nkr2lxp7)" height="30" style="stroke: #A80036; stroke-width: 1.0;" width="10" x="970" y="234.7305"/>
        <rect fill="#FFFFFF" filter="url(#f1lvi0nkr2lxp7)" height="30" style="stroke: #A80036; stroke-width: 1.0;" width="10" x="970" y="294.041"/>
        <rect fill="#FFFFFF" filter="url(#f1lvi0nkr2lxp7)" height="30" style="stroke: #A80036; stroke-width: 1.0;" width="10" x="970" y="353.3516"/>
        <rect fill="#FFFFFF" filter="url(#f1lvi0nkr2lxp7)" height="71.6211" style="stroke: #A80036; stroke-width: 1.0;" width="10" x="1129" y="412.6621"/>
        <rect fill="#FFFFFF" filter="url(#f1lvi0nkr2lxp7)" height="173.2422" style="stroke: #A80036; stroke-width: 1.0;" width="10" x="1129" y="1456.0684"/>
        <rect fill="#FFFFFF" filter="url(#f1lvi0nkr2lxp7)" height="30" style="stroke: #A80036; stroke-width: 1.0;" width="10" x="1364" y="812.123"/>
        <rect fill="#FFFFFF" filter="url(#f1lvi0nkr2lxp7)" height="30" style="stroke: #A80036; stroke-width: 1.0;" width="10" x="1364" y="1100.918"/>
        <rect fill="#FFFFFF" filter="url(#f1lvi0nkr2lxp7)" height="30" style="stroke: #A80036; stroke-width: 1.0;" width="10" x="1593.5" y="546.2598"/>
        <rect fill="#FFFFFF" filter="url(#f1lvi0nkr2lxp7)" height="30" style="stroke: #A80036; stroke-width: 1.0;" width="10" x="1593.5" y="693.502"/>
        <rect fill="#FFFFFF" filter="url(#f1lvi0nkr2lxp7)" height="30" style="stroke: #A80036; stroke-width: 1.0;" width="10" x="2044.5" y="752.8125"/>
        <rect fill="#FFFFFF" filter="url(#f1lvi0nkr2lxp7)" height="139.5977" style="stroke: #A80036; stroke-width: 1.0;" width="10" x="2044.5" y="1160.2285"/>
        <rect fill="#FFFFFF" filter="url(#f1lvi0nkr2lxp7)" height="30" style="stroke: #A80036; stroke-width: 1.0;" width="10" x="2044.5" y="1485.3789"/>
        <rect fill="#FEFECE" filter="url(#f1lvi0nkr2lxp7)" height="46.9766" style="stroke: #A80036; stroke-width: 1.5;" width="85" x="2005" y="463.2832"/>
        <text fill="#000000" font-family="sans-serif" font-size="14" lengthAdjust="spacingAndGlyphs" textLength="20" x="2037.5" y="483.8184">cat</text>
        <text fill="#000000" font-family="sans-serif" font-size="14" lengthAdjust="spacingAndGlyphs" textLength="71" x="2012" y="500.3066">:Categoria</text>
        <rect fill="#FFFFFF" filter="url(#f1lvi0nkr2lxp7)" height="453.3926" style="stroke: #000000; stroke-width: 2.0;" width="2595" x="13" y="886.7441"/>
        <rect fill="#FEFECE" filter="url(#f1lvi0nkr2lxp7)" height="46.9766" style="stroke: #A80036; stroke-width: 1.5;" width="88" x="2506" y="1168.5391"/>
        <text fill="#000000" font-family="sans-serif" font-size="14" lengthAdjust="spacingAndGlyphs" textLength="19" x="2540.5" y="1189.0742">cct</text>
        <text fill="#000000" font-family="sans-serif" font-size="14" lengthAdjust="spacingAndGlyphs" textLength="74" x="2513" y="1205.5625">:CaraterCT</text>
        <line style="stroke: #A80036; stroke-width: 1.0; stroke-dasharray: 5.0,5.0;" x1="76" x2="76" y1="86.4883" y2="1647.6211"/>
        <line style="stroke: #A80036; stroke-width: 1.0; stroke-dasharray: 5.0,5.0;" x1="457.5" x2="457.5" y1="86.4883" y2="1647.6211"/>
        <line style="stroke: #A80036; stroke-width: 1.0; stroke-dasharray: 5.0,5.0;" x1="683" x2="683" y1="86.4883" y2="1647.6211"/>
        <line style="stroke: #A80036; stroke-width: 1.0; stroke-dasharray: 5.0,5.0;" x1="975" x2="975" y1="86.4883" y2="1647.6211"/>
        <line style="stroke: #A80036; stroke-width: 1.0; stroke-dasharray: 5.0,5.0;" x1="1134" x2="1134" y1="86.4883" y2="1647.6211"/>
        <line style="stroke: #A80036; stroke-width: 1.0; stroke-dasharray: 5.0,5.0;" x1="1369" x2="1369" y1="86.4883" y2="1647.6211"/>
        <line style="stroke: #A80036; stroke-width: 1.0; stroke-dasharray: 5.0,5.0;" x1="1598" x2="1598" y1="86.4883" y2="1647.6211"/>
        <line style="stroke: #A80036; stroke-width: 1.0; stroke-dasharray: 5.0,5.0;" x1="1785" x2="1785" y1="86.4883" y2="1647.6211"/>
        <line style="stroke: #A80036; stroke-width: 1.0; stroke-dasharray: 5.0,5.0;" x1="1936" x2="1936" y1="86.4883" y2="1647.6211"/>
        <line style="stroke: #A80036; stroke-width: 1.0; stroke-dasharray: 5.0,5.0;" x1="2049" x2="2049" y1="504.2715" y2="1647.6211"/>
        <line style="stroke: #A80036; stroke-width: 1.0; stroke-dasharray: 5.0,5.0;" x1="2221" x2="2221" y1="86.4883" y2="1647.6211"/>
        <line style="stroke: #A80036; stroke-width: 1.0; stroke-dasharray: 5.0,5.0;" x1="2416" x2="2416" y1="86.4883" y2="1647.6211"/>
        <line style="stroke: #A80036; stroke-width: 1.0; stroke-dasharray: 5.0,5.0;" x1="2552" x2="2552" y1="1209.5273" y2="1647.6211"/>
        <text fill="#000000" font-family="sans-serif" font-size="14" lengthAdjust="spacingAndGlyphs" textLength="100" x="23" y="83.5352">Administrativo</text>
        <ellipse cx="76" cy="13" fill="#FEFECE" filter="url(#f1lvi0nkr2lxp7)" rx="8" ry="8" style="stroke: #A80036; stroke-width: 2.0;"/>
        <path d="M76,21 L76,48 M63,29 L89,29 M76,48 L63,63 M76,48 L89,63 " fill="#FEFECE" filter="url(#f1lvi0nkr2lxp7)" style="stroke: #A80036; stroke-width: 2.0;"/>
        <text fill="#000000" font-family="sans-serif" font-size="14" lengthAdjust="spacingAndGlyphs" textLength="100" x="23" y="1660.1563">Administrativo</text>
        <ellipse cx="76" cy="1673.1094" fill="#FEFECE" filter="url(#f1lvi0nkr2lxp7)" rx="8" ry="8" style="stroke: #A80036; stroke-width: 2.0;"/>
        <path d="M76,1681.1094 L76,1708.1094 M63,1689.1094 L89,1689.1094 M76,1708.1094 L63,1723.1094 M76,1708.1094 L89,1723.1094 " fill="#FEFECE" filter="url(#f1lvi0nkr2lxp7)" style="stroke: #A80036; stroke-width: 2.0;"/>
        <rect fill="#FEFECE" filter="url(#f1lvi0nkr2lxp7)" height="30.4883" style="stroke: #A80036; stroke-width: 1.5;" width="145" x="383.5" y="51"/>
        <text fill="#000000" font-family="sans-serif" font-size="14" lengthAdjust="spacingAndGlyphs" textLength="131" x="390.5" y="71.5352">:DefinirCategoriaUI</text>
        <rect fill="#FEFECE" filter="url(#f1lvi0nkr2lxp7)" height="30.4883" style="stroke: #A80036; stroke-width: 1.5;" width="145" x="383.5" y="1646.6211"/>
        <text fill="#000000" font-family="sans-serif" font-size="14" lengthAdjust="spacingAndGlyphs" textLength="131" x="390.5" y="1667.1563">:DefinirCategoriaUI</text>
        <rect fill="#FEFECE" filter="url(#f1lvi0nkr2lxp7)" height="30.4883" style="stroke: #A80036; stroke-width: 1.5;" width="198" x="582" y="51"/>
        <text fill="#000000" font-family="sans-serif" font-size="14" lengthAdjust="spacingAndGlyphs" textLength="184" x="589" y="71.5352">:DefinircategoriaController</text>
        <rect fill="#FEFECE" filter="url(#f1lvi0nkr2lxp7)" height="30.4883" style="stroke: #A80036; stroke-width: 1.5;" width="198" x="582" y="1646.6211"/>
        <text fill="#000000" font-family="sans-serif" font-size="14" lengthAdjust="spacingAndGlyphs" textLength="184" x="589" y="1667.1563">:DefinircategoriaController</text>
        <rect fill="#FEFECE" filter="url(#f1lvi0nkr2lxp7)" height="30.4883" style="stroke: #A80036; stroke-width: 1.5;" width="92" x="927" y="51"/>
        <text fill="#000000" font-family="sans-serif" font-size="14" lengthAdjust="spacingAndGlyphs" textLength="78" x="934" y="71.5352">:Plataforma</text>
        <rect fill="#FEFECE" filter="url(#f1lvi0nkr2lxp7)" height="30.4883" style="stroke: #A80036; stroke-width: 1.5;" width="92" x="927" y="1646.6211"/>
        <text fill="#000000" font-family="sans-serif" font-size="14" lengthAdjust="spacingAndGlyphs" textLength="78" x="934" y="1667.1563">:Plataforma</text>
        <rect fill="#FEFECE" filter="url(#f1lvi0nkr2lxp7)" height="30.4883" style="stroke: #A80036; stroke-width: 1.5;" width="198" x="1033" y="51"/>
        <text fill="#000000" font-family="sans-serif" font-size="14" lengthAdjust="spacingAndGlyphs" textLength="184" x="1040" y="71.5352">rct:RegistoCategoriaTarefa</text>
        <rect fill="#FEFECE" filter="url(#f1lvi0nkr2lxp7)" height="30.4883" style="stroke: #A80036; stroke-width: 1.5;" width="198" x="1033" y="1646.6211"/>
        <text fill="#000000" font-family="sans-serif" font-size="14" lengthAdjust="spacingAndGlyphs" textLength="184" x="1040" y="1667.1563">rct:RegistoCategoriaTarefa</text>
        <rect fill="#FEFECE" filter="url(#f1lvi0nkr2lxp7)" height="30.4883" style="stroke: #A80036; stroke-width: 1.5;" width="244" x="1245" y="51"/>
        <text fill="#000000" font-family="sans-serif" font-size="14" lengthAdjust="spacingAndGlyphs" textLength="230" x="1252" y="71.5352">rctec:RegistoCompetenciaTecnica</text>
        <rect fill="#FEFECE" filter="url(#f1lvi0nkr2lxp7)" height="30.4883" style="stroke: #A80036; stroke-width: 1.5;" width="244" x="1245" y="1646.6211"/>
        <text fill="#000000" font-family="sans-serif" font-size="14" lengthAdjust="spacingAndGlyphs" textLength="230" x="1252" y="1667.1563">rctec:RegistoCompetenciaTecnica</text>
        <rect fill="#FEFECE" filter="url(#f1lvi0nkr2lxp7)" height="30.4883" style="stroke: #A80036; stroke-width: 1.5;" width="187" x="1503" y="51"/>
        <text fill="#000000" font-family="sans-serif" font-size="14" lengthAdjust="spacingAndGlyphs" textLength="173" x="1510" y="71.5352">raa:RegistoAreaAtividade</text>
        <rect fill="#FEFECE" filter="url(#f1lvi0nkr2lxp7)" height="30.4883" style="stroke: #A80036; stroke-width: 1.5;" width="187" x="1503" y="1646.6211"/>
        <text fill="#000000" font-family="sans-serif" font-size="14" lengthAdjust="spacingAndGlyphs" textLength="173" x="1510" y="1667.1563">raa:RegistoAreaAtividade</text>
        <rect fill="#FEFECE" filter="url(#f1lvi0nkr2lxp7)" height="46.9766" style="stroke: #A80036; stroke-width: 1.5;" width="159" x="1704" y="34.5117"/>
        <text fill="#000000" font-family="sans-serif" font-size="14" lengthAdjust="spacingAndGlyphs" textLength="12" x="1777.5" y="55.0469">la</text>
        <text fill="#000000" font-family="sans-serif" font-size="14" lengthAdjust="spacingAndGlyphs" textLength="145" x="1711" y="71.5352">:List&lt;AreaAtividade&gt;</text>
        <rect fill="#FEFECE" filter="url(#f1lvi0nkr2lxp7)" height="46.9766" style="stroke: #A80036; stroke-width: 1.5;" width="159" x="1704" y="1646.6211"/>
        <text fill="#000000" font-family="sans-serif" font-size="14" lengthAdjust="spacingAndGlyphs" textLength="12" x="1777.5" y="1667.1563">la</text>
        <text fill="#000000" font-family="sans-serif" font-size="14" lengthAdjust="spacingAndGlyphs" textLength="145" x="1711" y="1683.6445">:List&lt;AreaAtividade&gt;</text>
        <rect fill="#FEFECE" filter="url(#f1lvi0nkr2lxp7)" height="46.9766" style="stroke: #A80036; stroke-width: 1.5;" width="114" x="1877" y="34.5117"/>
        <text fill="#000000" font-family="sans-serif" font-size="14" lengthAdjust="spacingAndGlyphs" textLength="13" x="1927.5" y="55.0469">at</text>
        <text fill="#000000" font-family="sans-serif" font-size="14" lengthAdjust="spacingAndGlyphs" textLength="100" x="1884" y="71.5352">:AreaAtividade</text>
        <rect fill="#FEFECE" filter="url(#f1lvi0nkr2lxp7)" height="46.9766" style="stroke: #A80036; stroke-width: 1.5;" width="114" x="1877" y="1646.6211"/>
        <text fill="#000000" font-family="sans-serif" font-size="14" lengthAdjust="spacingAndGlyphs" textLength="13" x="1927.5" y="1667.1563">at</text>
        <text fill="#000000" font-family="sans-serif" font-size="14" lengthAdjust="spacingAndGlyphs" textLength="100" x="1884" y="1683.6445">:AreaAtividade</text>
        <rect fill="#FEFECE" filter="url(#f1lvi0nkr2lxp7)" height="46.9766" style="stroke: #A80036; stroke-width: 1.5;" width="85" x="2005" y="1646.6211"/>
        <text fill="#000000" font-family="sans-serif" font-size="14" lengthAdjust="spacingAndGlyphs" textLength="20" x="2037.5" y="1667.1563">cat</text>
        <text fill="#000000" font-family="sans-serif" font-size="14" lengthAdjust="spacingAndGlyphs" textLength="71" x="2012" y="1683.6445">:Categoria</text>
        <rect fill="#FEFECE" filter="url(#f1lvi0nkr2lxp7)" height="46.9766" style="stroke: #A80036; stroke-width: 1.5;" width="205" x="2117" y="34.5117"/>
        <text fill="#000000" font-family="sans-serif" font-size="14" lengthAdjust="spacingAndGlyphs" textLength="16" x="2211.5" y="55.0469">lct</text>
        <text fill="#000000" font-family="sans-serif" font-size="14" lengthAdjust="spacingAndGlyphs" textLength="191" x="2124" y="71.5352">:List&lt;CompetenciaTecnica&gt;</text>
        <rect fill="#FEFECE" filter="url(#f1lvi0nkr2lxp7)" height="46.9766" style="stroke: #A80036; stroke-width: 1.5;" width="205" x="2117" y="1646.6211"/>
        <text fill="#000000" font-family="sans-serif" font-size="14" lengthAdjust="spacingAndGlyphs" textLength="16" x="2211.5" y="1667.1563">lct</text>
        <text fill="#000000" font-family="sans-serif" font-size="14" lengthAdjust="spacingAndGlyphs" textLength="191" x="2124" y="1683.6445">:List&lt;CompetenciaTecnica&gt;</text>
        <rect fill="#FEFECE" filter="url(#f1lvi0nkr2lxp7)" height="46.9766" style="stroke: #A80036; stroke-width: 1.5;" width="156" x="2336" y="34.5117"/>
        <text fill="#000000" font-family="sans-serif" font-size="14" lengthAdjust="spacingAndGlyphs" textLength="16" x="2406" y="55.0469">ct:</text>
        <text fill="#000000" font-family="sans-serif" font-size="14" lengthAdjust="spacingAndGlyphs" textLength="142" x="2343" y="71.5352">CompetenciaTecnica</text>
        <rect fill="#FEFECE" filter="url(#f1lvi0nkr2lxp7)" height="46.9766" style="stroke: #A80036; stroke-width: 1.5;" width="156" x="2336" y="1646.6211"/>
        <text fill="#000000" font-family="sans-serif" font-size="14" lengthAdjust="spacingAndGlyphs" textLength="16" x="2406" y="1667.1563">ct:</text>
        <text fill="#000000" font-family="sans-serif" font-size="14" lengthAdjust="spacingAndGlyphs" textLength="142" x="2343" y="1683.6445">CompetenciaTecnica</text>
        <rect fill="#FEFECE" filter="url(#f1lvi0nkr2lxp7)" height="46.9766" style="stroke: #A80036; stroke-width: 1.5;" width="88" x="2506" y="1646.6211"/>
        <text fill="#000000" font-family="sans-serif" font-size="14" lengthAdjust="spacingAndGlyphs" textLength="19" x="2540.5" y="1667.1563">cct</text>
        <text fill="#000000" font-family="sans-serif" font-size="14" lengthAdjust="spacingAndGlyphs" textLength="74" x="2513" y="1683.6445">:CaraterCT</text>
        <rect fill="#FFFFFF" filter="url(#f1lvi0nkr2lxp7)" height="1532.8223" style="stroke: #A80036; stroke-width: 1.0;" width="10" x="71" y="96.4883"/>
        <rect fill="#FFFFFF" filter="url(#f1lvi0nkr2lxp7)" height="29.3105" style="stroke: #A80036; stroke-width: 1.0;" width="10" x="453" y="117.4883"/>
        <rect fill="#FFFFFF" filter="url(#f1lvi0nkr2lxp7)" height="429.4609" style="stroke: #A80036; stroke-width: 1.0;" width="10" x="453" y="176.1094"/>
        <rect fill="#FFFFFF" filter="url(#f1lvi0nkr2lxp7)" height="236.5527" style="stroke: #A80036; stroke-width: 1.0;" width="10" x="453" y="634.8809"/>
        <rect fill="#FFFFFF" filter="url(#f1lvi0nkr2lxp7)" height="29.3105" style="stroke: #A80036; stroke-width: 1.0;" width="10" x="453" y="925.0547"/>
        <rect fill="#FFFFFF" filter="url(#f1lvi0nkr2lxp7)" height="29.3105" style="stroke: #A80036; stroke-width: 1.0;" width="10" x="453" y="983.6758"/>
        <rect fill="#FFFFFF" filter="url(#f1lvi0nkr2lxp7)" height="325.8398" style="stroke: #A80036; stroke-width: 1.0;" width="10" x="453" y="1042.2969"/>
        <rect fill="#FFFFFF" filter="url(#f1lvi0nkr2lxp7)" height="231.8633" style="stroke: #A80036; stroke-width: 1.0;" width="10" x="453" y="1397.4473"/>
        <rect fill="#FFFFFF" filter="url(#f1lvi0nkr2lxp7)" height="370.8398" style="stroke: #A80036; stroke-width: 1.0;" width="10" x="678" y="205.4199"/>
        <rect fill="#FFFFFF" filter="url(#f1lvi0nkr2lxp7)" height="177.9316" style="stroke: #A80036; stroke-width: 1.0;" width="10" x="678" y="664.1914"/>
        <rect fill="#FFFFFF" filter="url(#f1lvi0nkr2lxp7)" height="228.2188" style="stroke: #A80036; stroke-width: 1.0;" width="10" x="678" y="1071.6074"/>
        <rect fill="#FFFFFF" filter="url(#f1lvi0nkr2lxp7)" height="202.5527" style="stroke: #A80036; stroke-width: 1.0;" width="10" x="678" y="1426.7578"/>
        <rect fill="#FFFFFF" filter="url(#f1lvi0nkr2lxp7)" height="30" style="stroke: #A80036; stroke-width: 1.0;" width="10" x="970" y="234.7305"/>
        <rect fill="#FFFFFF" filter="url(#f1lvi0nkr2lxp7)" height="30" style="stroke: #A80036; stroke-width: 1.0;" width="10" x="970" y="294.041"/>
        <rect fill="#FFFFFF" filter="url(#f1lvi0nkr2lxp7)" height="30" style="stroke: #A80036; stroke-width: 1.0;" width="10" x="970" y="353.3516"/>
        <rect fill="#FFFFFF" filter="url(#f1lvi0nkr2lxp7)" height="71.6211" style="stroke: #A80036; stroke-width: 1.0;" width="10" x="1129" y="412.6621"/>
        <rect fill="#FFFFFF" filter="url(#f1lvi0nkr2lxp7)" height="173.2422" style="stroke: #A80036; stroke-width: 1.0;" width="10" x="1129" y="1456.0684"/>
        <rect fill="#FFFFFF" filter="url(#f1lvi0nkr2lxp7)" height="30" style="stroke: #A80036; stroke-width: 1.0;" width="10" x="1364" y="812.123"/>
        <rect fill="#FFFFFF" filter="url(#f1lvi0nkr2lxp7)" height="30" style="stroke: #A80036; stroke-width: 1.0;" width="10" x="1364" y="1100.918"/>
        <rect fill="#FFFFFF" filter="url(#f1lvi0nkr2lxp7)" height="30" style="stroke: #A80036; stroke-width: 1.0;" width="10" x="1593.5" y="546.2598"/>
        <rect fill="#FFFFFF" filter="url(#f1lvi0nkr2lxp7)" height="30" style="stroke: #A80036; stroke-width: 1.0;" width="10" x="1593.5" y="693.502"/>
        <rect fill="#FFFFFF" filter="url(#f1lvi0nkr2lxp7)" height="30" style="stroke: #A80036; stroke-width: 1.0;" width="10" x="2044.5" y="752.8125"/>
        <rect fill="#FFFFFF" filter="url(#f1lvi0nkr2lxp7)" height="139.5977" style="stroke: #A80036; stroke-width: 1.0;" width="10" x="2044.5" y="1160.2285"/>
        <rect fill="#FFFFFF" filter="url(#f1lvi0nkr2lxp7)" height="30" style="stroke: #A80036; stroke-width: 1.0;" width="10" x="2044.5" y="1485.3789"/>
        <polygon fill="#A80036" points="441,113.4883,451,117.4883,441,121.4883,445,117.4883" style="stroke: #A80036; stroke-width: 1.0;"/>
        <line style="stroke: #A80036; stroke-width: 1.0;" x1="81" x2="447" y1="117.4883" y2="117.4883"/>
        <text fill="#000000" font-family="sans-serif" font-size="13" font-weight="bold" lengthAdjust="spacingAndGlyphs" textLength="9" x="88" y="113.0566">1</text>
        <text fill="#000000" font-family="sans-serif" font-size="13" lengthAdjust="spacingAndGlyphs" textLength="281" x="101" y="113.0566">inicia a definição de nova categoria de tarefa</text>
        <polygon fill="#A80036" points="92,142.7988,82,146.7988,92,150.7988,88,146.7988" style="stroke: #A80036; stroke-width: 1.0;"/>
        <line style="stroke: #A80036; stroke-width: 1.0; stroke-dasharray: 2.0,2.0;" x1="86" x2="457" y1="146.7988" y2="146.7988"/>
        <text fill="#000000" font-family="sans-serif" font-size="13" font-weight="bold" lengthAdjust="spacingAndGlyphs" textLength="9" x="98" y="142.3672">2</text>
        <text fill="#000000" font-family="sans-serif" font-size="13" lengthAdjust="spacingAndGlyphs" textLength="121" x="111" y="142.3672">solicita a descrição</text>
        <polygon fill="#A80036" points="441,172.1094,451,176.1094,441,180.1094,445,176.1094" style="stroke: #A80036; stroke-width: 1.0;"/>
        <line style="stroke: #A80036; stroke-width: 1.0;" x1="81" x2="447" y1="176.1094" y2="176.1094"/>
        <text fill="#000000" font-family="sans-serif" font-size="13" font-weight="bold" lengthAdjust="spacingAndGlyphs" textLength="9" x="88" y="171.6777">3</text>
        <text fill="#000000" font-family="sans-serif" font-size="13" lengthAdjust="spacingAndGlyphs" textLength="193" x="101" y="171.6777">introduz a descrição solicitada</text>
        <polygon fill="#A80036" points="666,201.4199,676,205.4199,666,209.4199,670,205.4199" style="stroke: #A80036; stroke-width: 1.0;"/>
        <line style="stroke: #A80036; stroke-width: 1.0;" x1="463" x2="672" y1="205.4199" y2="205.4199"/>
        <text fill="#000000" font-family="sans-serif" font-size="13" font-weight="bold" lengthAdjust="spacingAndGlyphs" textLength="9" x="470" y="200.9883">4</text>
        <text fill="#000000" font-family="sans-serif" font-size="13" lengthAdjust="spacingAndGlyphs" textLength="148" x="483" y="200.9883">la=novaCategoria(desc)</text>
        <polygon fill="#A80036" points="958,230.7305,968,234.7305,958,238.7305,962,234.7305" style="stroke: #A80036; stroke-width: 1.0;"/>
        <line style="stroke: #A80036; stroke-width: 1.0;" x1="688" x2="964" y1="234.7305" y2="234.7305"/>
        <text fill="#000000" font-family="sans-serif" font-size="13" font-weight="bold" lengthAdjust="spacingAndGlyphs" textLength="9" x="695" y="230.2988">5</text>
        <text fill="#000000" font-family="sans-serif" font-size="13" lengthAdjust="spacingAndGlyphs" textLength="205" x="708" y="230.2988">rct= getRegistoCategoriaTarefa()</text>
        <polygon fill="#A80036" points="958,290.041,968,294.041,958,298.041,962,294.041" style="stroke: #A80036; stroke-width: 1.0;"/>
        <line style="stroke: #A80036; stroke-width: 1.0;" x1="688" x2="964" y1="294.041" y2="294.041"/>
        <text fill="#000000" font-family="sans-serif" font-size="13" font-weight="bold" lengthAdjust="spacingAndGlyphs" textLength="9" x="695" y="289.6094">6</text>
        <text fill="#000000" font-family="sans-serif" font-size="13" lengthAdjust="spacingAndGlyphs" textLength="250" x="708" y="289.6094">rctec= getRegistoCompetenciaTecnica()</text>
        <polygon fill="#A80036" points="958,349.3516,968,353.3516,958,357.3516,962,353.3516" style="stroke: #A80036; stroke-width: 1.0;"/>
        <line style="stroke: #A80036; stroke-width: 1.0;" x1="688" x2="964" y1="353.3516" y2="353.3516"/>
        <text fill="#000000" font-family="sans-serif" font-size="13" font-weight="bold" lengthAdjust="spacingAndGlyphs" textLength="9" x="695" y="348.9199">7</text>
        <text fill="#000000" font-family="sans-serif" font-size="13" lengthAdjust="spacingAndGlyphs" textLength="195" x="708" y="348.9199">raa= getRegistoAreaAtividade()</text>
        <polygon fill="#A80036" points="1117,408.6621,1127,412.6621,1117,416.6621,1121,412.6621" style="stroke: #A80036; stroke-width: 1.0;"/>
        <line style="stroke: #A80036; stroke-width: 1.0;" x1="688" x2="1123" y1="412.6621" y2="412.6621"/>
        <text fill="#000000" font-family="sans-serif" font-size="13" font-weight="bold" lengthAdjust="spacingAndGlyphs" textLength="9" x="695" y="408.2305">8</text>
        <text fill="#000000" font-family="sans-serif" font-size="13" lengthAdjust="spacingAndGlyphs" textLength="195" x="708" y="408.2305">cat=novaCategoriaTarefa(desc)</text>
        <line style="stroke: #A80036; stroke-width: 1.0;" x1="1139" x2="1181" y1="442.2832" y2="442.2832"/>
        <line style="stroke: #A80036; stroke-width: 1.0;" x1="1181" x2="1181" y1="442.2832" y2="455.2832"/>
        <line style="stroke: #A80036; stroke-width: 1.0;" x1="1140" x2="1181" y1="455.2832" y2="455.2832"/>
        <polygon fill="#A80036" points="1150,451.2832,1140,455.2832,1150,459.2832,1146,455.2832" style="stroke: #A80036; stroke-width: 1.0;"/>
        <text fill="#000000" font-family="sans-serif" font-size="13" font-weight="bold" lengthAdjust="spacingAndGlyphs" textLength="9" x="1146" y="437.541">9</text>
        <text fill="#000000" font-family="sans-serif" font-size="13" lengthAdjust="spacingAndGlyphs" textLength="148" x="1159" y="437.541">catId=geraCategoriaId()</text>
        <polygon fill="#A80036" points="1993,480.2832,2003,484.2832,1993,488.2832,1997,484.2832" style="stroke: #A80036; stroke-width: 1.0;"/>
        <line style="stroke: #A80036; stroke-width: 1.0; stroke-dasharray: 2.0,2.0;" x1="1134" x2="1999" y1="484.2832" y2="484.2832"/>
        <text fill="#000000" font-family="sans-serif" font-size="13" font-weight="bold" lengthAdjust="spacingAndGlyphs" textLength="18" x="1141" y="479.8516">10</text>
        <text fill="#000000" font-family="sans-serif" font-size="13" lengthAdjust="spacingAndGlyphs" textLength="110" x="1163" y="479.8516">create(catId,desc)</text>
        <rect fill="#FEFECE" filter="url(#f1lvi0nkr2lxp7)" height="46.9766" style="stroke: #A80036; stroke-width: 1.5;" width="85" x="2005" y="463.2832"/>
        <text fill="#000000" font-family="sans-serif" font-size="14" lengthAdjust="spacingAndGlyphs" textLength="20" x="2037.5" y="483.8184">cat</text>
        <text fill="#000000" font-family="sans-serif" font-size="14" lengthAdjust="spacingAndGlyphs" textLength="71" x="2012" y="500.3066">:Categoria</text>
        <polygon fill="#A80036" points="1581.5,542.2598,1591.5,546.2598,1581.5,550.2598,1585.5,546.2598" style="stroke: #A80036; stroke-width: 1.0;"/>
        <line style="stroke: #A80036; stroke-width: 1.0;" x1="688" x2="1587.5" y1="546.2598" y2="546.2598"/>
        <text fill="#000000" font-family="sans-serif" font-size="13" font-weight="bold" lengthAdjust="spacingAndGlyphs" textLength="18" x="695" y="541.8281">11</text>
        <text fill="#000000" font-family="sans-serif" font-size="13" lengthAdjust="spacingAndGlyphs" textLength="104" x="717" y="541.8281">la = getListaAT()</text>
        <polygon fill="#A80036" points="92,601.5703,82,605.5703,92,609.5703,88,605.5703" style="stroke: #A80036; stroke-width: 1.0;"/>
        <line style="stroke: #A80036; stroke-width: 1.0; stroke-dasharray: 2.0,2.0;" x1="86" x2="457" y1="605.5703" y2="605.5703"/>
        <text fill="#000000" font-family="sans-serif" font-size="13" font-weight="bold" lengthAdjust="spacingAndGlyphs" textLength="18" x="98" y="601.1387">12</text>
        <text fill="#000000" font-family="sans-serif" font-size="13" lengthAdjust="spacingAndGlyphs" textLength="315" x="120" y="601.1387">mostra lista de AT e solicita escolha de uma delas</text>
        <polygon fill="#A80036" points="441,630.8809,451,634.8809,441,638.8809,445,634.8809" style="stroke: #A80036; stroke-width: 1.0;"/>
        <line style="stroke: #A80036; stroke-width: 1.0;" x1="81" x2="447" y1="634.8809" y2="634.8809"/>
        <text fill="#000000" font-family="sans-serif" font-size="13" font-weight="bold" lengthAdjust="spacingAndGlyphs" textLength="18" x="88" y="630.4492">13</text>
        <text fill="#000000" font-family="sans-serif" font-size="13" lengthAdjust="spacingAndGlyphs" textLength="111" x="110" y="630.4492">seleciona uma AT</text>
        <polygon fill="#A80036" points="666,660.1914,676,664.1914,666,668.1914,670,664.1914" style="stroke: #A80036; stroke-width: 1.0;"/>
        <line style="stroke: #A80036; stroke-width: 1.0;" x1="463" x2="672" y1="664.1914" y2="664.1914"/>
        <text fill="#000000" font-family="sans-serif" font-size="13" font-weight="bold" lengthAdjust="spacingAndGlyphs" textLength="18" x="470" y="659.7598">14</text>
        <text fill="#000000" font-family="sans-serif" font-size="13" lengthAdjust="spacingAndGlyphs" textLength="107" x="492" y="659.7598">lct=setAT(atCod)</text>
        <polygon fill="#A80036" points="1581.5,689.502,1591.5,693.502,1581.5,697.502,1585.5,693.502" style="stroke: #A80036; stroke-width: 1.0;"/>
        <line style="stroke: #A80036; stroke-width: 1.0;" x1="688" x2="1587.5" y1="693.502" y2="693.502"/>
        <text fill="#000000" font-family="sans-serif" font-size="13" font-weight="bold" lengthAdjust="spacingAndGlyphs" textLength="18" x="695" y="689.0703">15</text>
        <text fill="#000000" font-family="sans-serif" font-size="13" lengthAdjust="spacingAndGlyphs" textLength="112" x="717" y="689.0703">at = getAT(atCod)</text>
        <polygon fill="#A80036" points="2032.5,748.8125,2042.5,752.8125,2032.5,756.8125,2036.5,752.8125" style="stroke: #A80036; stroke-width: 1.0;"/>
        <line style="stroke: #A80036; stroke-width: 1.0;" x1="688" x2="2038.5" y1="752.8125" y2="752.8125"/>
        <text fill="#000000" font-family="sans-serif" font-size="13" font-weight="bold" lengthAdjust="spacingAndGlyphs" textLength="18" x="695" y="748.3809">16</text>
        <text fill="#000000" font-family="sans-serif" font-size="13" lengthAdjust="spacingAndGlyphs" textLength="56" x="717" y="748.3809">setAT(at)</text>
        <polygon fill="#A80036" points="1352,808.123,1362,812.123,1352,816.123,1356,812.123" style="stroke: #A80036; stroke-width: 1.0;"/>
        <line style="stroke: #A80036; stroke-width: 1.0;" x1="688" x2="1358" y1="812.123" y2="812.123"/>
        <text fill="#000000" font-family="sans-serif" font-size="13" font-weight="bold" lengthAdjust="spacingAndGlyphs" textLength="18" x="695" y="807.6914">17</text>
        <text fill="#000000" font-family="sans-serif" font-size="13" lengthAdjust="spacingAndGlyphs" textLength="121" x="717" y="807.6914">lct = getListaCT(at)</text>
        <polygon fill="#A80036" points="92,867.4336,82,871.4336,92,875.4336,88,871.4336" style="stroke: #A80036; stroke-width: 1.0;"/>
        <line style="stroke: #A80036; stroke-width: 1.0; stroke-dasharray: 2.0,2.0;" x1="86" x2="457" y1="871.4336" y2="871.4336"/>
        <text fill="#000000" font-family="sans-serif" font-size="13" font-weight="bold" lengthAdjust="spacingAndGlyphs" textLength="18" x="98" y="867.002">18</text>
        <text fill="#000000" font-family="sans-serif" font-size="13" lengthAdjust="spacingAndGlyphs" textLength="326" x="120" y="867.002">mostra lista de CT e solicita a escolha de uma delas</text>
        <rect fill="none" height="453.3926" style="stroke: #000000; stroke-width: 2.0;" width="2595" x="13" y="886.7441"/>
        <polygon fill="#EEEEEE" points="13,886.7441,87,886.7441,87,893.7441,77,903.7441,13,903.7441,13,886.7441" style="stroke: #000000; stroke-width: 2.0;"/>
        <text fill="#000000" font-family="sans-serif" font-size="13" font-weight="bold" lengthAdjust="spacingAndGlyphs" textLength="29" x="28" y="900.3125">loop</text>
        <polygon fill="#A80036" points="441,921.0547,451,925.0547,441,929.0547,445,925.0547" style="stroke: #A80036; stroke-width: 1.0;"/>
        <line style="stroke: #A80036; stroke-width: 1.0;" x1="81" x2="447" y1="925.0547" y2="925.0547"/>
        <text fill="#000000" font-family="sans-serif" font-size="13" font-weight="bold" lengthAdjust="spacingAndGlyphs" textLength="18" x="88" y="920.623">19</text>
        <text fill="#000000" font-family="sans-serif" font-size="13" lengthAdjust="spacingAndGlyphs" textLength="111" x="110" y="920.623">seleciona uma CT</text>
        <polygon fill="#A80036" points="92,950.3652,82,954.3652,92,958.3652,88,954.3652" style="stroke: #A80036; stroke-width: 1.0;"/>
        <line style="stroke: #A80036; stroke-width: 1.0; stroke-dasharray: 2.0,2.0;" x1="86" x2="457" y1="954.3652" y2="954.3652"/>
        <text fill="#000000" font-family="sans-serif" font-size="13" font-weight="bold" lengthAdjust="spacingAndGlyphs" textLength="18" x="98" y="949.9336">20</text>
        <text fill="#000000" font-family="sans-serif" font-size="13" lengthAdjust="spacingAndGlyphs" textLength="223" x="120" y="949.9336">solicita o caráter da CT selecionada</text>
        <polygon fill="#A80036" points="441,979.6758,451,983.6758,441,987.6758,445,983.6758" style="stroke: #A80036; stroke-width: 1.0;"/>
        <line style="stroke: #A80036; stroke-width: 1.0;" x1="81" x2="447" y1="983.6758" y2="983.6758"/>
        <text fill="#000000" font-family="sans-serif" font-size="13" font-weight="bold" lengthAdjust="spacingAndGlyphs" textLength="18" x="88" y="979.2441">21</text>
        <text fill="#000000" font-family="sans-serif" font-size="13" lengthAdjust="spacingAndGlyphs" textLength="230" x="110" y="979.2441">introduz o caráter da CT selecionada</text>
        <polygon fill="#A80036" points="92,1008.9863,82,1012.9863,92,1016.9863,88,1012.9863" style="stroke: #A80036; stroke-width: 1.0;"/>
        <line style="stroke: #A80036; stroke-width: 1.0; stroke-dasharray: 2.0,2.0;" x1="86" x2="457" y1="1012.9863" y2="1012.9863"/>
        <text fill="#000000" font-family="sans-serif" font-size="13" font-weight="bold" lengthAdjust="spacingAndGlyphs" textLength="18" x="98" y="1008.5547">22</text>
        <text fill="#000000" font-family="sans-serif" font-size="13" lengthAdjust="spacingAndGlyphs" textLength="260" x="120" y="1008.5547">solicita o grau mínimo da CT selecionada</text>
        <polygon fill="#A80036" points="441,1038.2969,451,1042.2969,441,1046.2969,445,1042.2969" style="stroke: #A80036; stroke-width: 1.0;"/>
        <line style="stroke: #A80036; stroke-width: 1.0;" x1="81" x2="447" y1="1042.2969" y2="1042.2969"/>
        <text fill="#000000" font-family="sans-serif" font-size="13" font-weight="bold" lengthAdjust="spacingAndGlyphs" textLength="18" x="88" y="1037.8652">23</text>
        <text fill="#000000" font-family="sans-serif" font-size="13" lengthAdjust="spacingAndGlyphs" textLength="267" x="110" y="1037.8652">introduz o grau mínimo da CT selecionada</text>
        <polygon fill="#A80036" points="666,1067.6074,676,1071.6074,666,1075.6074,670,1071.6074" style="stroke: #A80036; stroke-width: 1.0;"/>
        <line style="stroke: #A80036; stroke-width: 1.0;" x1="463" x2="672" y1="1071.6074" y2="1071.6074"/>
        <text fill="#000000" font-family="sans-serif" font-size="13" font-weight="bold" lengthAdjust="spacingAndGlyphs" textLength="18" x="470" y="1067.1758">24</text>
        <text fill="#000000" font-family="sans-serif" font-size="13" lengthAdjust="spacingAndGlyphs" textLength="174" x="492" y="1067.1758">addCaraterCT(ctCod,ob,gm)</text>
        <polygon fill="#A80036" points="1352,1096.918,1362,1100.918,1352,1104.918,1356,1100.918" style="stroke: #A80036; stroke-width: 1.0;"/>
        <line style="stroke: #A80036; stroke-width: 1.0;" x1="688" x2="1358" y1="1100.918" y2="1100.918"/>
        <text fill="#000000" font-family="sans-serif" font-size="13" font-weight="bold" lengthAdjust="spacingAndGlyphs" textLength="18" x="695" y="1096.4863">25</text>
        <text fill="#000000" font-family="sans-serif" font-size="13" lengthAdjust="spacingAndGlyphs" textLength="112" x="717" y="1096.4863">ct = getCT(ctCod)</text>
        <polygon fill="#A80036" points="2032.5,1156.2285,2042.5,1160.2285,2032.5,1164.2285,2036.5,1160.2285" style="stroke: #A80036; stroke-width: 1.0;"/>
        <line style="stroke: #A80036; stroke-width: 1.0;" x1="688" x2="2038.5" y1="1160.2285" y2="1160.2285"/>
        <text fill="#000000" font-family="sans-serif" font-size="13" font-weight="bold" lengthAdjust="spacingAndGlyphs" textLength="18" x="695" y="1155.7969">26</text>
        <text fill="#000000" font-family="sans-serif" font-size="13" lengthAdjust="spacingAndGlyphs" textLength="149" x="717" y="1155.7969">addCaraterCT(ct,ob,gm)</text>
        <polygon fill="#A80036" points="2494,1185.5391,2504,1189.5391,2494,1193.5391,2498,1189.5391" style="stroke: #A80036; stroke-width: 1.0;"/>
        <line style="stroke: #A80036; stroke-width: 1.0; stroke-dasharray: 2.0,2.0;" x1="2054.5" x2="2500" y1="1189.5391" y2="1189.5391"/>
        <text fill="#000000" font-family="sans-serif" font-size="13" font-weight="bold" lengthAdjust="spacingAndGlyphs" textLength="18" x="2061.5" y="1185.1074">27</text>
        <text fill="#000000" font-family="sans-serif" font-size="13" lengthAdjust="spacingAndGlyphs" textLength="102" x="2083.5" y="1185.1074">create(ct,ob,gm)</text>
        <rect fill="#FEFECE" filter="url(#f1lvi0nkr2lxp7)" height="46.9766" style="stroke: #A80036; stroke-width: 1.5;" width="88" x="2506" y="1168.5391"/>
        <text fill="#000000" font-family="sans-serif" font-size="14" lengthAdjust="spacingAndGlyphs" textLength="19" x="2540.5" y="1189.0742">cct</text>
        <text fill="#000000" font-family="sans-serif" font-size="14" lengthAdjust="spacingAndGlyphs" textLength="74" x="2513" y="1205.5625">:CaraterCT</text>
        <line style="stroke: #A80036; stroke-width: 1.0;" x1="2054.5" x2="2096.5" y1="1251.8262" y2="1251.8262"/>
        <line style="stroke: #A80036; stroke-width: 1.0;" x1="2096.5" x2="2096.5" y1="1251.8262" y2="1264.8262"/>
        <line style="stroke: #A80036; stroke-width: 1.0;" x1="2055.5" x2="2096.5" y1="1264.8262" y2="1264.8262"/>
        <polygon fill="#A80036" points="2065.5,1260.8262,2055.5,1264.8262,2065.5,1268.8262,2061.5,1264.8262" style="stroke: #A80036; stroke-width: 1.0;"/>
        <text fill="#000000" font-family="sans-serif" font-size="13" font-weight="bold" lengthAdjust="spacingAndGlyphs" textLength="18" x="2061.5" y="1247.084">28</text>
        <text fill="#000000" font-family="sans-serif" font-size="13" lengthAdjust="spacingAndGlyphs" textLength="126" x="2083.5" y="1247.084">validaCaraterCT(cct)</text>
        <line style="stroke: #A80036; stroke-width: 1.0;" x1="2054.5" x2="2096.5" y1="1299.1367" y2="1299.1367"/>
        <line style="stroke: #A80036; stroke-width: 1.0;" x1="2096.5" x2="2096.5" y1="1299.1367" y2="1312.1367"/>
        <line style="stroke: #A80036; stroke-width: 1.0;" x1="2049.5" x2="2096.5" y1="1312.1367" y2="1312.1367"/>
        <polygon fill="#A80036" points="2059.5,1308.1367,2049.5,1312.1367,2059.5,1316.1367,2055.5,1312.1367" style="stroke: #A80036; stroke-width: 1.0;"/>
        <text fill="#000000" font-family="sans-serif" font-size="13" font-weight="bold" lengthAdjust="spacingAndGlyphs" textLength="18" x="2061.5" y="1294.3945">29</text>
        <text fill="#000000" font-family="sans-serif" font-size="13" lengthAdjust="spacingAndGlyphs" textLength="112" x="2083.5" y="1294.3945">addCaraterCT(cct)</text>
        <polygon fill="#A80036" points="92,1364.1367,82,1368.1367,92,1372.1367,88,1368.1367" style="stroke: #A80036; stroke-width: 1.0;"/>
        <line style="stroke: #A80036; stroke-width: 1.0; stroke-dasharray: 2.0,2.0;" x1="86" x2="457" y1="1368.1367" y2="1368.1367"/>
        <text fill="#000000" font-family="sans-serif" font-size="13" font-weight="bold" lengthAdjust="spacingAndGlyphs" textLength="18" x="98" y="1363.7051">30</text>
        <text fill="#000000" font-family="sans-serif" font-size="13" lengthAdjust="spacingAndGlyphs" textLength="246" x="120" y="1363.7051">apresenta dados e solicita confirmação</text>
        <polygon fill="#A80036" points="441,1393.4473,451,1397.4473,441,1401.4473,445,1397.4473" style="stroke: #A80036; stroke-width: 1.0;"/>
        <line style="stroke: #A80036; stroke-width: 1.0;" x1="81" x2="447" y1="1397.4473" y2="1397.4473"/>
        <text fill="#000000" font-family="sans-serif" font-size="13" font-weight="bold" lengthAdjust="spacingAndGlyphs" textLength="18" x="88" y="1393.0156">31</text>
        <text fill="#000000" font-family="sans-serif" font-size="13" lengthAdjust="spacingAndGlyphs" textLength="56" x="110" y="1393.0156">confirma</text>
        <polygon fill="#A80036" points="666,1422.7578,676,1426.7578,666,1430.7578,670,1426.7578" style="stroke: #A80036; stroke-width: 1.0;"/>
        <line style="stroke: #A80036; stroke-width: 1.0;" x1="463" x2="672" y1="1426.7578" y2="1426.7578"/>
        <text fill="#000000" font-family="sans-serif" font-size="13" font-weight="bold" lengthAdjust="spacingAndGlyphs" textLength="18" x="470" y="1422.3262">32</text>
        <text fill="#000000" font-family="sans-serif" font-size="13" lengthAdjust="spacingAndGlyphs" textLength="111" x="492" y="1422.3262">registaCategoria()</text>
        <polygon fill="#A80036" points="1117,1452.0684,1127,1456.0684,1117,1460.0684,1121,1456.0684" style="stroke: #A80036; stroke-width: 1.0;"/>
        <line style="stroke: #A80036; stroke-width: 1.0;" x1="688" x2="1123" y1="1456.0684" y2="1456.0684"/>
        <text fill="#000000" font-family="sans-serif" font-size="13" font-weight="bold" lengthAdjust="spacingAndGlyphs" textLength="18" x="695" y="1451.6367">33</text>
        <text fill="#000000" font-family="sans-serif" font-size="13" lengthAdjust="spacingAndGlyphs" textLength="130" x="717" y="1451.6367">registaCategoria(cat)</text>
        <polygon fill="#A80036" points="2032.5,1481.3789,2042.5,1485.3789,2032.5,1489.3789,2036.5,1485.3789" style="stroke: #A80036; stroke-width: 1.0;"/>
        <line style="stroke: #A80036; stroke-width: 1.0;" x1="1139" x2="2038.5" y1="1485.3789" y2="1485.3789"/>
        <text fill="#000000" font-family="sans-serif" font-size="13" font-weight="bold" lengthAdjust="spacingAndGlyphs" textLength="18" x="1146" y="1480.9473">34</text>
        <text fill="#000000" font-family="sans-serif" font-size="13" lengthAdjust="spacingAndGlyphs" textLength="45" x="1168" y="1480.9473">valida()</text>
        <line style="stroke: #A80036; stroke-width: 1.0;" x1="1139" x2="1181" y1="1545" y2="1545"/>
        <line style="stroke: #A80036; stroke-width: 1.0;" x1="1181" x2="1181" y1="1545" y2="1558"/>
        <line style="stroke: #A80036; stroke-width: 1.0;" x1="1140" x2="1181" y1="1558" y2="1558"/>
        <polygon fill="#A80036" points="1150,1554,1140,1558,1150,1562,1146,1558" style="stroke: #A80036; stroke-width: 1.0;"/>
        <text fill="#000000" font-family="sans-serif" font-size="13" font-weight="bold" lengthAdjust="spacingAndGlyphs" textLength="18" x="1146" y="1540.2578">35</text>
        <text fill="#000000" font-family="sans-serif" font-size="13" lengthAdjust="spacingAndGlyphs" textLength="124" x="1168" y="1540.2578">validaCategoria(cat)</text>
        <line style="stroke: #A80036; stroke-width: 1.0;" x1="1139" x2="1181" y1="1587.3105" y2="1587.3105"/>
        <line style="stroke: #A80036; stroke-width: 1.0;" x1="1181" x2="1181" y1="1587.3105" y2="1600.3105"/>
        <line style="stroke: #A80036; stroke-width: 1.0;" x1="1140" x2="1181" y1="1600.3105" y2="1600.3105"/>
        <polygon fill="#A80036" points="1150,1596.3105,1140,1600.3105,1150,1604.3105,1146,1600.3105" style="stroke: #A80036; stroke-width: 1.0;"/>
        <text fill="#000000" font-family="sans-serif" font-size="13" font-weight="bold" lengthAdjust="spacingAndGlyphs" textLength="18" x="1146" y="1582.5684">36</text>
        <text fill="#000000" font-family="sans-serif" font-size="13" lengthAdjust="spacingAndGlyphs" textLength="110" x="1168" y="1582.5684">addCategoria(cat)</text>
        <polygon fill="#A80036" points="87,1625.3105,77,1629.3105,87,1633.3105,83,1629.3105" style="stroke: #A80036; stroke-width: 1.0;"/>
        <line style="stroke: #A80036; stroke-width: 1.0; stroke-dasharray: 2.0,2.0;" x1="81" x2="457" y1="1629.3105" y2="1629.3105"/>
        <text fill="#000000" font-family="sans-serif" font-size="13" font-weight="bold" lengthAdjust="spacingAndGlyphs" textLength="18" x="93" y="1624.8789">37</text>
        <text fill="#000000" font-family="sans-serif" font-size="13" lengthAdjust="spacingAndGlyphs" textLength="184" x="115" y="1624.8789">informa sucesso da operação</text>
        <!--
@startuml
autonumber
'hide footbox
actor "Administrativo" as ADM

participant ":DefinirCategoriaUI" as UI
participant ":DefinircategoriaController" as CTRL
participant ":Plataforma" as PLAT
participant "rct:RegistoCategoriaTarefa" as RCT
participant "rctec:RegistoCompetenciaTecnica" as RCTEC
participant "raa:RegistoAreaAtividade" as RAA
participant "la\n:List<AreaAtividade>" as LIST_AT
participant "at\n:AreaAtividade" as AT
participant "cat\n:Categoria" as CAT
participant "lct\n:List<CompetenciaTecnica>" as LIST_CT
participant "ct:\nCompetenciaTecnica" as CT
participant "cct\n:CaraterCT" as CARACT_CT

activate ADM

ADM -> UI : inicia a definição de nova categoria de tarefa
activate UI
UI - -> ADM : solicita a descrição
deactivate UI

ADM -> UI : introduz a descrição solicitada
activate UI
UI -> CTRL : la=novaCategoria(desc)
activate CTRL
CTRL -> PLAT : rct= getRegistoCategoriaTarefa()
activate PLAT
deactivate PLAT

CTRL -> PLAT : rctec= getRegistoCompetenciaTecnica()
activate PLAT
deactivate PLAT

CTRL -> PLAT : raa= getRegistoAreaAtividade()
activate PLAT
deactivate PLAT

CTRL -> RCT : cat=novaCategoriaTarefa(desc)

activate RCT
RCT -> RCT : catId=geraCategoriaId()
RCT- -> CAT**: create(catId,desc)
deactivate RCT
CTRL -> RAA : la = getListaAT()
activate RAA
deactivate RAA
deactivate CTRL
UI - -> ADM : mostra lista de AT e solicita escolha de uma delas
deactivate UI

ADM -> UI : seleciona uma AT
activate UI
UI -> CTRL : lct=setAT(atCod)
activate CTRL
CTRL -> RAA : at = getAT(atCod)
activate RAA
deactivate RAA
CTRL -> CAT : setAT(at)
activate CAT
deactivate CAT
CTRL -> RCTEC : lct = getListaCT(at)
activate RCTEC
deactivate RCTEC
deactivate CTRL
UI - -> ADM : mostra lista de CT e solicita a escolha de uma delas
deactivate UI

loop
ADM -> UI : seleciona uma CT
activate UI
UI - -> ADM : solicita o caráter da CT selecionada
deactivate UI

ADM -> UI : introduz o caráter da CT selecionada
activate UI
UI - -> ADM : solicita o grau mínimo da CT selecionada
deactivate UI

ADM -> UI : introduz o grau mínimo da CT selecionada
activate UI
UI -> CTRL : addCaraterCT(ctCod,ob,gm)
activate CTRL
CTRL -> RCTEC : ct = getCT(ctCod)
activate RCTEC
deactivate RCTEC
CTRL -> CAT : addCaraterCT(ct,ob,gm)
activate CAT
CAT - -> CARACT_CT** : create(ct,ob,gm)
CAT -> CAT : validaCaraterCT(cct)
CAT -> CAT : addCaraterCT(cct)
|||
deactivate CAT
deactivate CTRL
end loop
UI - -> ADM : apresenta dados e solicita confirmação
deactivate UI

ADM -> UI : confirma
activate UI
UI -> CTRL : registaCategoria()
activate CTRL
CTRL -> RCT : registaCategoria(cat)
activate RCT
RCT -> CAT : valida()
activate CAT
deactivate CAT
RCT -> RCT : validaCategoria(cat)
RCT -> RCT : addCategoria(cat)
UI - -> ADM : informa sucesso da operação
deactivate CTRL
deactivate RCT
deactivate UI

deactivate ADM

@enduml

PlantUML version 2017.11(Wed Apr 19 17:18:59 WEST 2017)
(GPL source distribution)
Java Runtime: Java(TM) SE Runtime Environment
JVM: Java HotSpot(TM) 64-Bit Server VM
Java Version: 1.8.0_111-b14
Operating System: Mac OS X
OS Version: 10.15
Default Encoding: UTF-8
Language: pt
Country: PT
-->
    </g>
</svg>
