<?xml version="1.0" encoding="UTF-8"?><svg xmlns="http://www.w3.org/2000/svg" xmlns:xlink="http://www.w3.org/1999/xlink" contentScriptType="application/ecmascript" contentStyleType="text/css" height="1823px" preserveAspectRatio="none" style="width:2336px;height:1823px;" version="1.1" viewBox="0 0 2336 1823" width="2336px" zoomAndPan="magnify">
    <defs>
        <filter height="300%" id="f1ny2z1wgwdjv6" width="300%" x="-1" y="-1">
            <feGaussianBlur result="blurOut" stdDeviation="2.0"/>
            <feColorMatrix in="blurOut" result="blurOut2" type="matrix" values="0 0 0 0 0 0 0 0 0 0 0 0 0 0 0 0 0 0 .4 0"/>
            <feOffset dx="4.0" dy="4.0" in="blurOut2" result="blurOut3"/>
            <feBlend in="SourceGraphic" in2="blurOut3" mode="normal"/>
        </filter>
    </defs>
    <g>
        <rect fill="#FFFFFF" filter="url(#f1ny2z1wgwdjv6)" height="1623.8008" style="stroke: #A80036; stroke-width: 1.0;" width="10" x="42" y="96.4883"/>
        <rect fill="#FFFFFF" filter="url(#f1ny2z1wgwdjv6)" height="534.7266" style="stroke: #A80036; stroke-width: 1.0;" width="10" x="393" y="132.4883"/>
        <rect fill="#FFFFFF" filter="url(#f1ny2z1wgwdjv6)" height="402.7949" style="stroke: #A80036; stroke-width: 1.0;" width="10" x="393" y="696.8359"/>
        <rect fill="#FFFFFF" filter="url(#f1ny2z1wgwdjv6)" height="591.0371" style="stroke: #A80036; stroke-width: 1.0;" width="10" x="393" y="1129.252"/>
        <rect fill="#FFFFFF" filter="url(#f1ny2z1wgwdjv6)" height="505.1055" style="stroke: #A80036; stroke-width: 1.0;" width="10" x="673" y="162.1094"/>
        <rect fill="#FFFFFF" filter="url(#f1ny2z1wgwdjv6)" height="337.4844" style="stroke: #A80036; stroke-width: 1.0;" width="10" x="673" y="726.1465"/>
        <rect fill="#FFFFFF" filter="url(#f1ny2z1wgwdjv6)" height="561.7266" style="stroke: #A80036; stroke-width: 1.0;" width="10" x="673" y="1158.5625"/>
        <rect fill="#FFFFFF" filter="url(#f1ny2z1wgwdjv6)" height="30" style="stroke: #A80036; stroke-width: 1.0;" width="10" x="893" y="191.4199"/>
        <rect fill="#FFFFFF" filter="url(#f1ny2z1wgwdjv6)" height="30" style="stroke: #A80036; stroke-width: 1.0;" width="10" x="1017" y="250.7305"/>
        <rect fill="#FFFFFF" filter="url(#f1ny2z1wgwdjv6)" height="30" style="stroke: #A80036; stroke-width: 1.0;" width="10" x="1153" y="310.041"/>
        <rect fill="#FFFFFF" filter="url(#f1ny2z1wgwdjv6)" height="30" style="stroke: #A80036; stroke-width: 1.0;" width="10" x="1279" y="369.3516"/>
        <rect fill="#FFFFFF" filter="url(#f1ny2z1wgwdjv6)" height="30" style="stroke: #A80036; stroke-width: 1.0;" width="10" x="1279" y="487.9727"/>
        <rect fill="#FFFFFF" filter="url(#f1ny2z1wgwdjv6)" height="30" style="stroke: #A80036; stroke-width: 1.0;" width="10" x="1409.5" y="428.6621"/>
        <rect fill="#FFFFFF" filter="url(#f1ny2z1wgwdjv6)" height="30" style="stroke: #A80036; stroke-width: 1.0;" width="10" x="1560.5" y="547.2832"/>
        <rect fill="#FFFFFF" filter="url(#f1ny2z1wgwdjv6)" height="301.1738" style="stroke: #A80036; stroke-width: 1.0;" width="10" x="1560.5" y="755.457"/>
        <rect fill="#FFFFFF" filter="url(#f1ny2z1wgwdjv6)" height="30" style="stroke: #A80036; stroke-width: 1.0;" width="10" x="1560.5" y="1187.873"/>
        <rect fill="#FFFFFF" filter="url(#f1ny2z1wgwdjv6)" height="30" style="stroke: #A80036; stroke-width: 1.0;" width="10" x="1729.5" y="809.0781"/>
        <rect fill="#FFFFFF" filter="url(#f1ny2z1wgwdjv6)" height="30" style="stroke: #A80036; stroke-width: 1.0;" width="10" x="1729.5" y="1271.4941"/>
        <rect fill="#FFFFFF" filter="url(#f1ny2z1wgwdjv6)" height="30" style="stroke: #A80036; stroke-width: 1.0;" width="10" x="1729.5" y="1473.7363"/>
        <rect fill="#FFFFFF" filter="url(#f1ny2z1wgwdjv6)" height="30" style="stroke: #A80036; stroke-width: 1.0;" width="10" x="1844.5" y="868.3887"/>
        <rect fill="#FFFFFF" filter="url(#f1ny2z1wgwdjv6)" height="30" style="stroke: #A80036; stroke-width: 1.0;" width="10" x="1844.5" y="1330.8047"/>
        <rect fill="#FFFFFF" filter="url(#f1ny2z1wgwdjv6)" height="59.3105" style="stroke: #A80036; stroke-width: 1.0;" width="10" x="1948.5" y="1547.0469"/>
        <rect fill="#FFFFFF" filter="url(#f1ny2z1wgwdjv6)" height="30" style="stroke: #A80036; stroke-width: 1.0;" width="10" x="2164.5" y="927.6992"/>
        <rect fill="#FFFFFF" filter="url(#f1ny2z1wgwdjv6)" height="30" style="stroke: #A80036; stroke-width: 1.0;" width="10" x="2164.5" y="1011.3203"/>
        <rect fill="#FFFFFF" filter="url(#f1ny2z1wgwdjv6)" height="30" style="stroke: #A80036; stroke-width: 1.0;" width="10" x="2164.5" y="1390.1152"/>
        <rect fill="#FFFFFF" filter="url(#f1ny2z1wgwdjv6)" height="107.6211" style="stroke: #A80036; stroke-width: 1.0;" width="10" x="2164.5" y="1576.3574"/>
        <rect fill="#FFFFFF" filter="url(#f1ny2z1wgwdjv6)" height="285.8633" style="stroke: #000000; stroke-width: 2.0;" width="787" x="1477" y="770.7676"/>
        <rect fill="#FFFFFF" filter="url(#f1ny2z1wgwdjv6)" height="76.6211" style="stroke: #000000; stroke-width: 2.0;" width="767" x="1487" y="973.0098"/>
        <rect fill="#FFFFFF" filter="url(#f1ny2z1wgwdjv6)" height="285.8633" style="stroke: #000000; stroke-width: 2.0;" width="777" x="1477" y="1233.1836"/>
        <rect fill="#FFFFFF" filter="url(#f1ny2z1wgwdjv6)" height="76.6211" style="stroke: #000000; stroke-width: 2.0;" width="323" x="1487" y="1435.4258"/>
        <line style="stroke: #A80036; stroke-width: 1.0; stroke-dasharray: 5.0,5.0;" x1="47" x2="47" y1="86.4883" y2="1738.5996"/>
        <line style="stroke: #A80036; stroke-width: 1.0; stroke-dasharray: 5.0,5.0;" x1="397.5" x2="397.5" y1="86.4883" y2="1738.5996"/>
        <line style="stroke: #A80036; stroke-width: 1.0; stroke-dasharray: 5.0,5.0;" x1="678" x2="678" y1="86.4883" y2="1738.5996"/>
        <line style="stroke: #A80036; stroke-width: 1.0; stroke-dasharray: 5.0,5.0;" x1="898" x2="898" y1="86.4883" y2="1738.5996"/>
        <line style="stroke: #A80036; stroke-width: 1.0; stroke-dasharray: 5.0,5.0;" x1="1022" x2="1022" y1="86.4883" y2="1738.5996"/>
        <line style="stroke: #A80036; stroke-width: 1.0; stroke-dasharray: 5.0,5.0;" x1="1158" x2="1158" y1="86.4883" y2="1738.5996"/>
        <line style="stroke: #A80036; stroke-width: 1.0; stroke-dasharray: 5.0,5.0;" x1="1284" x2="1284" y1="86.4883" y2="1738.5996"/>
        <line style="stroke: #A80036; stroke-width: 1.0; stroke-dasharray: 5.0,5.0;" x1="1414" x2="1414" y1="86.4883" y2="1738.5996"/>
        <line style="stroke: #A80036; stroke-width: 1.0; stroke-dasharray: 5.0,5.0;" x1="1565" x2="1565" y1="86.4883" y2="1738.5996"/>
        <line style="stroke: #A80036; stroke-width: 1.0; stroke-dasharray: 5.0,5.0;" x1="1734" x2="1734" y1="86.4883" y2="1738.5996"/>
        <line style="stroke: #A80036; stroke-width: 1.0; stroke-dasharray: 5.0,5.0;" x1="1849" x2="1849" y1="86.4883" y2="1738.5996"/>
        <line style="stroke: #A80036; stroke-width: 1.0; stroke-dasharray: 5.0,5.0;" x1="1953" x2="1953" y1="86.4883" y2="1738.5996"/>
        <line style="stroke: #A80036; stroke-width: 1.0; stroke-dasharray: 5.0,5.0;" x1="2169" x2="2169" y1="86.4883" y2="1738.5996"/>
        <text fill="#000000" font-family="sans-serif" font-size="14" lengthAdjust="spacingAndGlyphs" textLength="72" x="8" y="83.5352">Freelancer</text>
        <ellipse cx="47" cy="13" fill="#FEFECE" filter="url(#f1ny2z1wgwdjv6)" rx="8" ry="8" style="stroke: #A80036; stroke-width: 2.0;"/>
        <path d="M47,21 L47,48 M34,29 L60,29 M47,48 L34,63 M47,48 L60,63 " fill="#FEFECE" filter="url(#f1ny2z1wgwdjv6)" style="stroke: #A80036; stroke-width: 2.0;"/>
        <text fill="#000000" font-family="sans-serif" font-size="14" lengthAdjust="spacingAndGlyphs" textLength="72" x="8" y="1751.1348">Freelancer</text>
        <ellipse cx="47" cy="1764.0879" fill="#FEFECE" filter="url(#f1ny2z1wgwdjv6)" rx="8" ry="8" style="stroke: #A80036; stroke-width: 2.0;"/>
        <path d="M47,1772.0879 L47,1799.0879 M34,1780.0879 L60,1780.0879 M47,1799.0879 L34,1814.0879 M47,1799.0879 L60,1814.0879 " fill="#FEFECE" filter="url(#f1ny2z1wgwdjv6)" style="stroke: #A80036; stroke-width: 2.0;"/>
        <rect fill="#FEFECE" filter="url(#f1ny2z1wgwdjv6)" height="30.4883" style="stroke: #A80036; stroke-width: 1.5;" width="163" x="314.5" y="51"/>
        <text fill="#000000" font-family="sans-serif" font-size="14" lengthAdjust="spacingAndGlyphs" textLength="149" x="321.5" y="71.5352">:RetirarCandidaturaUI</text>
        <rect fill="#FEFECE" filter="url(#f1ny2z1wgwdjv6)" height="30.4883" style="stroke: #A80036; stroke-width: 1.5;" width="163" x="314.5" y="1737.5996"/>
        <text fill="#000000" font-family="sans-serif" font-size="14" lengthAdjust="spacingAndGlyphs" textLength="149" x="321.5" y="1758.1348">:RetirarCandidaturaUI</text>
        <rect fill="#FEFECE" filter="url(#f1ny2z1wgwdjv6)" height="30.4883" style="stroke: #A80036; stroke-width: 1.5;" width="304" x="524" y="51"/>
        <text fill="#000000" font-family="sans-serif" font-size="14" lengthAdjust="spacingAndGlyphs" textLength="290" x="531" y="71.5352">:RetirarCandidaturaCandidaturaController</text>
        <rect fill="#FEFECE" filter="url(#f1ny2z1wgwdjv6)" height="30.4883" style="stroke: #A80036; stroke-width: 1.5;" width="304" x="524" y="1737.5996"/>
        <text fill="#000000" font-family="sans-serif" font-size="14" lengthAdjust="spacingAndGlyphs" textLength="290" x="531" y="1758.1348">:RetirarCandidaturaCandidaturaController</text>
        <rect fill="#FEFECE" filter="url(#f1ny2z1wgwdjv6)" height="30.4883" style="stroke: #A80036; stroke-width: 1.5;" width="108" x="842" y="51"/>
        <text fill="#000000" font-family="sans-serif" font-size="14" lengthAdjust="spacingAndGlyphs" textLength="94" x="849" y="71.5352">AplicacaoPOT</text>
        <rect fill="#FEFECE" filter="url(#f1ny2z1wgwdjv6)" height="30.4883" style="stroke: #A80036; stroke-width: 1.5;" width="108" x="842" y="1737.5996"/>
        <text fill="#000000" font-family="sans-serif" font-size="14" lengthAdjust="spacingAndGlyphs" textLength="94" x="849" y="1758.1348">AplicacaoPOT</text>
        <rect fill="#FEFECE" filter="url(#f1ny2z1wgwdjv6)" height="46.9766" style="stroke: #A80036; stroke-width: 1.5;" width="112" x="964" y="34.5117"/>
        <text fill="#000000" font-family="sans-serif" font-size="14" lengthAdjust="spacingAndGlyphs" textLength="26" x="1007" y="55.0469">app</text>
        <text fill="#000000" font-family="sans-serif" font-size="14" lengthAdjust="spacingAndGlyphs" textLength="98" x="971" y="71.5352">:AplicacaoPOT</text>
        <rect fill="#FEFECE" filter="url(#f1ny2z1wgwdjv6)" height="46.9766" style="stroke: #A80036; stroke-width: 1.5;" width="112" x="964" y="1737.5996"/>
        <text fill="#000000" font-family="sans-serif" font-size="14" lengthAdjust="spacingAndGlyphs" textLength="26" x="1007" y="1758.1348">app</text>
        <text fill="#000000" font-family="sans-serif" font-size="14" lengthAdjust="spacingAndGlyphs" textLength="98" x="971" y="1774.623">:AplicacaoPOT</text>
        <rect fill="#FEFECE" filter="url(#f1ny2z1wgwdjv6)" height="46.9766" style="stroke: #A80036; stroke-width: 1.5;" width="132" x="1090" y="34.5117"/>
        <text fill="#000000" font-family="sans-serif" font-size="14" lengthAdjust="spacingAndGlyphs" textLength="46" x="1133" y="55.0469">sessao</text>
        <text fill="#000000" font-family="sans-serif" font-size="14" lengthAdjust="spacingAndGlyphs" textLength="118" x="1097" y="71.5352">:SessaoUtilizador</text>
        <rect fill="#FEFECE" filter="url(#f1ny2z1wgwdjv6)" height="46.9766" style="stroke: #A80036; stroke-width: 1.5;" width="132" x="1090" y="1737.5996"/>
        <text fill="#000000" font-family="sans-serif" font-size="14" lengthAdjust="spacingAndGlyphs" textLength="46" x="1133" y="1758.1348">sessao</text>
        <text fill="#000000" font-family="sans-serif" font-size="14" lengthAdjust="spacingAndGlyphs" textLength="118" x="1097" y="1774.623">:SessaoUtilizador</text>
        <rect fill="#FEFECE" filter="url(#f1ny2z1wgwdjv6)" height="30.4883" style="stroke: #A80036; stroke-width: 1.5;" width="92" x="1236" y="51"/>
        <text fill="#000000" font-family="sans-serif" font-size="14" lengthAdjust="spacingAndGlyphs" textLength="78" x="1243" y="71.5352">:Plataforma</text>
        <rect fill="#FEFECE" filter="url(#f1ny2z1wgwdjv6)" height="30.4883" style="stroke: #A80036; stroke-width: 1.5;" width="92" x="1236" y="1737.5996"/>
        <text fill="#000000" font-family="sans-serif" font-size="14" lengthAdjust="spacingAndGlyphs" textLength="78" x="1243" y="1758.1348">:Plataforma</text>
        <rect fill="#FEFECE" filter="url(#f1ny2z1wgwdjv6)" height="46.9766" style="stroke: #A80036; stroke-width: 1.5;" width="141" x="1342" y="34.5117"/>
        <text fill="#000000" font-family="sans-serif" font-size="14" lengthAdjust="spacingAndGlyphs" textLength="17" x="1404" y="55.0469">rfr</text>
        <text fill="#000000" font-family="sans-serif" font-size="14" lengthAdjust="spacingAndGlyphs" textLength="127" x="1349" y="71.5352">:RegistoFreelancer</text>
        <rect fill="#FEFECE" filter="url(#f1ny2z1wgwdjv6)" height="46.9766" style="stroke: #A80036; stroke-width: 1.5;" width="141" x="1342" y="1737.5996"/>
        <text fill="#000000" font-family="sans-serif" font-size="14" lengthAdjust="spacingAndGlyphs" textLength="17" x="1404" y="1758.1348">rfr</text>
        <text fill="#000000" font-family="sans-serif" font-size="14" lengthAdjust="spacingAndGlyphs" textLength="127" x="1349" y="1774.623">:RegistoFreelancer</text>
        <rect fill="#FEFECE" filter="url(#f1ny2z1wgwdjv6)" height="46.9766" style="stroke: #A80036; stroke-width: 1.5;" width="133" x="1497" y="34.5117"/>
        <text fill="#000000" font-family="sans-serif" font-size="14" lengthAdjust="spacingAndGlyphs" textLength="33" x="1547" y="55.0469">regA</text>
        <text fill="#000000" font-family="sans-serif" font-size="14" lengthAdjust="spacingAndGlyphs" textLength="119" x="1504" y="71.5352">:RegistoAnuncios</text>
        <rect fill="#FEFECE" filter="url(#f1ny2z1wgwdjv6)" height="46.9766" style="stroke: #A80036; stroke-width: 1.5;" width="133" x="1497" y="1737.5996"/>
        <text fill="#000000" font-family="sans-serif" font-size="14" lengthAdjust="spacingAndGlyphs" textLength="33" x="1547" y="1758.1348">regA</text>
        <text fill="#000000" font-family="sans-serif" font-size="14" lengthAdjust="spacingAndGlyphs" textLength="119" x="1504" y="1774.623">:RegistoAnuncios</text>
        <rect fill="#FEFECE" filter="url(#f1ny2z1wgwdjv6)" height="46.9766" style="stroke: #A80036; stroke-width: 1.5;" width="127" x="1669" y="34.5117"/>
        <text fill="#000000" font-family="sans-serif" font-size="14" lengthAdjust="spacingAndGlyphs" textLength="44" x="1710.5" y="55.0469">lstAnu</text>
        <text fill="#000000" font-family="sans-serif" font-size="14" lengthAdjust="spacingAndGlyphs" textLength="113" x="1676" y="71.5352">:List&lt;Anuncios&gt;</text>
        <rect fill="#FEFECE" filter="url(#f1ny2z1wgwdjv6)" height="46.9766" style="stroke: #A80036; stroke-width: 1.5;" width="127" x="1669" y="1737.5996"/>
        <text fill="#000000" font-family="sans-serif" font-size="14" lengthAdjust="spacingAndGlyphs" textLength="44" x="1710.5" y="1758.1348">lstAnu</text>
        <text fill="#000000" font-family="sans-serif" font-size="14" lengthAdjust="spacingAndGlyphs" textLength="113" x="1676" y="1774.623">:List&lt;Anuncios&gt;</text>
        <rect fill="#FEFECE" filter="url(#f1ny2z1wgwdjv6)" height="46.9766" style="stroke: #A80036; stroke-width: 1.5;" width="75" x="1810" y="34.5117"/>
        <text fill="#000000" font-family="sans-serif" font-size="14" lengthAdjust="spacingAndGlyphs" textLength="26" x="1834.5" y="55.0469">anu</text>
        <text fill="#000000" font-family="sans-serif" font-size="14" lengthAdjust="spacingAndGlyphs" textLength="61" x="1817" y="71.5352">:Anuncio</text>
        <rect fill="#FEFECE" filter="url(#f1ny2z1wgwdjv6)" height="46.9766" style="stroke: #A80036; stroke-width: 1.5;" width="75" x="1810" y="1737.5996"/>
        <text fill="#000000" font-family="sans-serif" font-size="14" lengthAdjust="spacingAndGlyphs" textLength="26" x="1834.5" y="1758.1348">anu</text>
        <text fill="#000000" font-family="sans-serif" font-size="14" lengthAdjust="spacingAndGlyphs" textLength="61" x="1817" y="1774.623">:Anuncio</text>
        <rect fill="#FEFECE" filter="url(#f1ny2z1wgwdjv6)" height="46.9766" style="stroke: #A80036; stroke-width: 1.5;" width="105" x="1899" y="34.5117"/>
        <text fill="#000000" font-family="sans-serif" font-size="14" lengthAdjust="spacingAndGlyphs" textLength="91" x="1906" y="55.0469">anuncioCand</text>
        <text fill="#000000" font-family="sans-serif" font-size="14" lengthAdjust="spacingAndGlyphs" textLength="61" x="1921" y="71.5352">:Anuncio</text>
        <rect fill="#FEFECE" filter="url(#f1ny2z1wgwdjv6)" height="46.9766" style="stroke: #A80036; stroke-width: 1.5;" width="105" x="1899" y="1737.5996"/>
        <text fill="#000000" font-family="sans-serif" font-size="14" lengthAdjust="spacingAndGlyphs" textLength="91" x="1906" y="1758.1348">anuncioCand</text>
        <text fill="#000000" font-family="sans-serif" font-size="14" lengthAdjust="spacingAndGlyphs" textLength="61" x="1921" y="1774.623">:Anuncio</text>
        <rect fill="#FEFECE" filter="url(#f1ny2z1wgwdjv6)" height="30.4883" style="stroke: #A80036; stroke-width: 1.5;" width="145" x="2095" y="51"/>
        <text fill="#000000" font-family="sans-serif" font-size="14" lengthAdjust="spacingAndGlyphs" textLength="131" x="2102" y="71.5352">:ListaCandidaturas:</text>
        <rect fill="#FEFECE" filter="url(#f1ny2z1wgwdjv6)" height="30.4883" style="stroke: #A80036; stroke-width: 1.5;" width="145" x="2095" y="1737.5996"/>
        <text fill="#000000" font-family="sans-serif" font-size="14" lengthAdjust="spacingAndGlyphs" textLength="131" x="2102" y="1758.1348">:ListaCandidaturas:</text>
        <rect fill="#FFFFFF" filter="url(#f1ny2z1wgwdjv6)" height="1623.8008" style="stroke: #A80036; stroke-width: 1.0;" width="10" x="42" y="96.4883"/>
        <rect fill="#FFFFFF" filter="url(#f1ny2z1wgwdjv6)" height="534.7266" style="stroke: #A80036; stroke-width: 1.0;" width="10" x="393" y="132.4883"/>
        <rect fill="#FFFFFF" filter="url(#f1ny2z1wgwdjv6)" height="402.7949" style="stroke: #A80036; stroke-width: 1.0;" width="10" x="393" y="696.8359"/>
        <rect fill="#FFFFFF" filter="url(#f1ny2z1wgwdjv6)" height="591.0371" style="stroke: #A80036; stroke-width: 1.0;" width="10" x="393" y="1129.252"/>
        <rect fill="#FFFFFF" filter="url(#f1ny2z1wgwdjv6)" height="505.1055" style="stroke: #A80036; stroke-width: 1.0;" width="10" x="673" y="162.1094"/>
        <rect fill="#FFFFFF" filter="url(#f1ny2z1wgwdjv6)" height="337.4844" style="stroke: #A80036; stroke-width: 1.0;" width="10" x="673" y="726.1465"/>
        <rect fill="#FFFFFF" filter="url(#f1ny2z1wgwdjv6)" height="561.7266" style="stroke: #A80036; stroke-width: 1.0;" width="10" x="673" y="1158.5625"/>
        <rect fill="#FFFFFF" filter="url(#f1ny2z1wgwdjv6)" height="30" style="stroke: #A80036; stroke-width: 1.0;" width="10" x="893" y="191.4199"/>
        <rect fill="#FFFFFF" filter="url(#f1ny2z1wgwdjv6)" height="30" style="stroke: #A80036; stroke-width: 1.0;" width="10" x="1017" y="250.7305"/>
        <rect fill="#FFFFFF" filter="url(#f1ny2z1wgwdjv6)" height="30" style="stroke: #A80036; stroke-width: 1.0;" width="10" x="1153" y="310.041"/>
        <rect fill="#FFFFFF" filter="url(#f1ny2z1wgwdjv6)" height="30" style="stroke: #A80036; stroke-width: 1.0;" width="10" x="1279" y="369.3516"/>
        <rect fill="#FFFFFF" filter="url(#f1ny2z1wgwdjv6)" height="30" style="stroke: #A80036; stroke-width: 1.0;" width="10" x="1279" y="487.9727"/>
        <rect fill="#FFFFFF" filter="url(#f1ny2z1wgwdjv6)" height="30" style="stroke: #A80036; stroke-width: 1.0;" width="10" x="1409.5" y="428.6621"/>
        <rect fill="#FFFFFF" filter="url(#f1ny2z1wgwdjv6)" height="30" style="stroke: #A80036; stroke-width: 1.0;" width="10" x="1560.5" y="547.2832"/>
        <rect fill="#FFFFFF" filter="url(#f1ny2z1wgwdjv6)" height="301.1738" style="stroke: #A80036; stroke-width: 1.0;" width="10" x="1560.5" y="755.457"/>
        <rect fill="#FFFFFF" filter="url(#f1ny2z1wgwdjv6)" height="30" style="stroke: #A80036; stroke-width: 1.0;" width="10" x="1560.5" y="1187.873"/>
        <rect fill="#FFFFFF" filter="url(#f1ny2z1wgwdjv6)" height="30" style="stroke: #A80036; stroke-width: 1.0;" width="10" x="1729.5" y="809.0781"/>
        <rect fill="#FFFFFF" filter="url(#f1ny2z1wgwdjv6)" height="30" style="stroke: #A80036; stroke-width: 1.0;" width="10" x="1729.5" y="1271.4941"/>
        <rect fill="#FFFFFF" filter="url(#f1ny2z1wgwdjv6)" height="30" style="stroke: #A80036; stroke-width: 1.0;" width="10" x="1729.5" y="1473.7363"/>
        <rect fill="#FFFFFF" filter="url(#f1ny2z1wgwdjv6)" height="30" style="stroke: #A80036; stroke-width: 1.0;" width="10" x="1844.5" y="868.3887"/>
        <rect fill="#FFFFFF" filter="url(#f1ny2z1wgwdjv6)" height="30" style="stroke: #A80036; stroke-width: 1.0;" width="10" x="1844.5" y="1330.8047"/>
        <rect fill="#FFFFFF" filter="url(#f1ny2z1wgwdjv6)" height="59.3105" style="stroke: #A80036; stroke-width: 1.0;" width="10" x="1948.5" y="1547.0469"/>
        <rect fill="#FFFFFF" filter="url(#f1ny2z1wgwdjv6)" height="30" style="stroke: #A80036; stroke-width: 1.0;" width="10" x="2164.5" y="927.6992"/>
        <rect fill="#FFFFFF" filter="url(#f1ny2z1wgwdjv6)" height="30" style="stroke: #A80036; stroke-width: 1.0;" width="10" x="2164.5" y="1011.3203"/>
        <rect fill="#FFFFFF" filter="url(#f1ny2z1wgwdjv6)" height="30" style="stroke: #A80036; stroke-width: 1.0;" width="10" x="2164.5" y="1390.1152"/>
        <rect fill="#FFFFFF" filter="url(#f1ny2z1wgwdjv6)" height="107.6211" style="stroke: #A80036; stroke-width: 1.0;" width="10" x="2164.5" y="1576.3574"/>
        <polygon fill="#A80036" points="381,128.4883,391,132.4883,381,136.4883,385,132.4883" style="stroke: #A80036; stroke-width: 1.0;"/>
        <line style="stroke: #A80036; stroke-width: 1.0;" x1="52" x2="387" y1="132.4883" y2="132.4883"/>
        <text fill="#000000" font-family="sans-serif" font-size="13" font-weight="bold" lengthAdjust="spacingAndGlyphs" textLength="9" x="59" y="120.7119">1</text>
        <text fill="#000000" font-family="sans-serif" font-size="13" lengthAdjust="spacingAndGlyphs" textLength="289" x="72" y="113.0566">inicia a remoção de uma candidatura efetuada</text>
        <text fill="#000000" font-family="sans-serif" font-size="13" lengthAdjust="spacingAndGlyphs" textLength="36" x="76" y="128.3672">por si</text>
        <polygon fill="#A80036" points="661,158.1094,671,162.1094,661,166.1094,665,162.1094" style="stroke: #A80036; stroke-width: 1.0;"/>
        <line style="stroke: #A80036; stroke-width: 1.0;" x1="403" x2="667" y1="162.1094" y2="162.1094"/>
        <text fill="#000000" font-family="sans-serif" font-size="13" font-weight="bold" lengthAdjust="spacingAndGlyphs" textLength="9" x="410" y="157.6777">2</text>
        <text fill="#000000" font-family="sans-serif" font-size="13" lengthAdjust="spacingAndGlyphs" textLength="148" x="423" y="157.6777">lstCF = getCandidFree()</text>
        <polygon fill="#A80036" points="881,187.4199,891,191.4199,881,195.4199,885,191.4199" style="stroke: #A80036; stroke-width: 1.0;"/>
        <line style="stroke: #A80036; stroke-width: 1.0;" x1="683" x2="887" y1="191.4199" y2="191.4199"/>
        <text fill="#000000" font-family="sans-serif" font-size="13" font-weight="bold" lengthAdjust="spacingAndGlyphs" textLength="9" x="690" y="186.9883">3</text>
        <text fill="#000000" font-family="sans-serif" font-size="13" lengthAdjust="spacingAndGlyphs" textLength="122" x="703" y="186.9883">app = getInstance()</text>
        <polygon fill="#A80036" points="1005,246.7305,1015,250.7305,1005,254.7305,1009,250.7305" style="stroke: #A80036; stroke-width: 1.0;"/>
        <line style="stroke: #A80036; stroke-width: 1.0;" x1="683" x2="1011" y1="250.7305" y2="250.7305"/>
        <text fill="#000000" font-family="sans-serif" font-size="13" font-weight="bold" lengthAdjust="spacingAndGlyphs" textLength="9" x="690" y="246.2988">4</text>
        <text fill="#000000" font-family="sans-serif" font-size="13" lengthAdjust="spacingAndGlyphs" textLength="165" x="703" y="246.2988">sessao = getSessaoAtual()</text>
        <polygon fill="#A80036" points="1141,306.041,1151,310.041,1141,314.041,1145,310.041" style="stroke: #A80036; stroke-width: 1.0;"/>
        <line style="stroke: #A80036; stroke-width: 1.0;" x1="683" x2="1147" y1="310.041" y2="310.041"/>
        <text fill="#000000" font-family="sans-serif" font-size="13" font-weight="bold" lengthAdjust="spacingAndGlyphs" textLength="9" x="690" y="305.6094">5</text>
        <text fill="#000000" font-family="sans-serif" font-size="13" lengthAdjust="spacingAndGlyphs" textLength="175" x="703" y="305.6094">email = getEmailUtilizador()</text>
        <polygon fill="#A80036" points="1267,365.3516,1277,369.3516,1267,373.3516,1271,369.3516" style="stroke: #A80036; stroke-width: 1.0;"/>
        <line style="stroke: #A80036; stroke-width: 1.0;" x1="683" x2="1273" y1="369.3516" y2="369.3516"/>
        <text fill="#000000" font-family="sans-serif" font-size="13" font-weight="bold" lengthAdjust="spacingAndGlyphs" textLength="9" x="690" y="364.9199">6</text>
        <text fill="#000000" font-family="sans-serif" font-size="13" lengthAdjust="spacingAndGlyphs" textLength="172" x="703" y="364.9199">rfr = getRegistoFreelancer()</text>
        <polygon fill="#A80036" points="1397.5,424.6621,1407.5,428.6621,1397.5,432.6621,1401.5,428.6621" style="stroke: #A80036; stroke-width: 1.0;"/>
        <line style="stroke: #A80036; stroke-width: 1.0;" x1="683" x2="1403.5" y1="428.6621" y2="428.6621"/>
        <text fill="#000000" font-family="sans-serif" font-size="13" font-weight="bold" lengthAdjust="spacingAndGlyphs" textLength="9" x="690" y="424.2305">7</text>
        <text fill="#000000" font-family="sans-serif" font-size="13" lengthAdjust="spacingAndGlyphs" textLength="216" x="703" y="424.2305">free = getFreelancerByEmail(email)</text>
        <polygon fill="#A80036" points="1267,483.9727,1277,487.9727,1267,491.9727,1271,487.9727" style="stroke: #A80036; stroke-width: 1.0;"/>
        <line style="stroke: #A80036; stroke-width: 1.0;" x1="683" x2="1273" y1="487.9727" y2="487.9727"/>
        <text fill="#000000" font-family="sans-serif" font-size="13" font-weight="bold" lengthAdjust="spacingAndGlyphs" textLength="9" x="690" y="483.541">8</text>
        <text fill="#000000" font-family="sans-serif" font-size="13" lengthAdjust="spacingAndGlyphs" textLength="181" x="703" y="483.541">regA = getRegistoAnuncios()</text>
        <polygon fill="#A80036" points="1548.5,543.2832,1558.5,547.2832,1548.5,551.2832,1552.5,547.2832" style="stroke: #A80036; stroke-width: 1.0;"/>
        <line style="stroke: #A80036; stroke-width: 1.0;" x1="683" x2="1554.5" y1="547.2832" y2="547.2832"/>
        <text fill="#000000" font-family="sans-serif" font-size="13" font-weight="bold" lengthAdjust="spacingAndGlyphs" textLength="9" x="690" y="542.8516">9</text>
        <text fill="#000000" font-family="sans-serif" font-size="13" lengthAdjust="spacingAndGlyphs" textLength="329" x="703" y="542.8516">lstCandFreelancer = getCandidaturasFreelancer(free)</text>
        <rect fill="#FFFFFF" filter="url(#f1ny2z1wgwdjv6)" height="40.6211" style="stroke: #000000; stroke-width: 2.0;" width="749" x="1494" y="585.5938"/>
        <polygon fill="#EEEEEE" points="1494,585.5938,1558,585.5938,1558,592.5938,1548,602.5938,1494,602.5938,1494,585.5938" style="stroke: #000000; stroke-width: 2.0;"/>
        <text fill="#000000" font-family="sans-serif" font-size="13" font-weight="bold" lengthAdjust="spacingAndGlyphs" textLength="19" x="1507" y="600.1621">ref</text>
        <text fill="#000000" font-family="sans-serif" font-size="13" lengthAdjust="spacingAndGlyphs" textLength="271" x="1735" y="619.1621">UC_12_SD_getCandidaturasFreelancer(free)</text>
        <polygon fill="#A80036" points="63,663.2148,53,667.2148,63,671.2148,59,667.2148" style="stroke: #A80036; stroke-width: 1.0;"/>
        <line style="stroke: #A80036; stroke-width: 1.0; stroke-dasharray: 2.0,2.0;" x1="57" x2="397" y1="667.2148" y2="667.2148"/>
        <text fill="#000000" font-family="sans-serif" font-size="13" font-weight="bold" lengthAdjust="spacingAndGlyphs" textLength="18" x="69" y="655.4385">10</text>
        <text fill="#000000" font-family="sans-serif" font-size="13" lengthAdjust="spacingAndGlyphs" textLength="295" x="91" y="647.7832">mostra a lista de candidaturas efetuadas por si</text>
        <text fill="#000000" font-family="sans-serif" font-size="13" lengthAdjust="spacingAndGlyphs" textLength="171" x="95" y="663.0938">e pede para selecionar uma</text>
        <polygon fill="#A80036" points="381,692.8359,391,696.8359,381,700.8359,385,696.8359" style="stroke: #A80036; stroke-width: 1.0;"/>
        <line style="stroke: #A80036; stroke-width: 1.0;" x1="52" x2="387" y1="696.8359" y2="696.8359"/>
        <text fill="#000000" font-family="sans-serif" font-size="13" font-weight="bold" lengthAdjust="spacingAndGlyphs" textLength="18" x="59" y="692.4043">11</text>
        <text fill="#000000" font-family="sans-serif" font-size="13" lengthAdjust="spacingAndGlyphs" textLength="289" x="81" y="692.4043">seleciona a candidatura que pretende remover</text>
        <polygon fill="#A80036" points="661,722.1465,671,726.1465,661,730.1465,665,726.1465" style="stroke: #A80036; stroke-width: 1.0;"/>
        <line style="stroke: #A80036; stroke-width: 1.0;" x1="403" x2="667" y1="726.1465" y2="726.1465"/>
        <text fill="#000000" font-family="sans-serif" font-size="13" font-weight="bold" lengthAdjust="spacingAndGlyphs" textLength="18" x="410" y="721.7148">12</text>
        <text fill="#000000" font-family="sans-serif" font-size="13" lengthAdjust="spacingAndGlyphs" textLength="229" x="432" y="721.7148">selecionaCandidatura(candidaturaId)</text>
        <polygon fill="#A80036" points="1548.5,751.457,1558.5,755.457,1548.5,759.457,1552.5,755.457" style="stroke: #A80036; stroke-width: 1.0;"/>
        <line style="stroke: #A80036; stroke-width: 1.0;" x1="683" x2="1554.5" y1="755.457" y2="755.457"/>
        <text fill="#000000" font-family="sans-serif" font-size="13" font-weight="bold" lengthAdjust="spacingAndGlyphs" textLength="18" x="690" y="751.0254">13</text>
        <text fill="#000000" font-family="sans-serif" font-size="13" lengthAdjust="spacingAndGlyphs" textLength="268" x="712" y="751.0254">cand = getCandSelecionada(candidaturaId)</text>
        <rect fill="none" height="285.8633" style="stroke: #000000; stroke-width: 2.0;" width="787" x="1477" y="770.7676"/>
        <polygon fill="#EEEEEE" points="1477,770.7676,1551,770.7676,1551,777.7676,1541,787.7676,1477,787.7676,1477,770.7676" style="stroke: #000000; stroke-width: 2.0;"/>
        <text fill="#000000" font-family="sans-serif" font-size="13" font-weight="bold" lengthAdjust="spacingAndGlyphs" textLength="29" x="1492" y="784.3359">loop</text>
        <a target="_top" xlink:actuate="onRequest" xlink:href="" xlink:show="new" xlink:title="" xlink:type="simple">
            <text fill="#0000FF" font-family="sans-serif" font-size="11" font-weight="bold" lengthAdjust="spacingAndGlyphs" text-decoration="underline" textLength="157" x="1566" y="783.4023">Para cada anúncio registado</text>
            <line style="stroke: #0000FF; stroke-width: 1.0;" x1="1566" x2="1723" y1="785.4023" y2="785.4023"/>
        </a>
        <polygon fill="#A80036" points="1717.5,805.0781,1727.5,809.0781,1717.5,813.0781,1721.5,809.0781" style="stroke: #A80036; stroke-width: 1.0;"/>
        <line style="stroke: #A80036; stroke-width: 1.0;" x1="1570.5" x2="1723.5" y1="809.0781" y2="809.0781"/>
        <text fill="#000000" font-family="sans-serif" font-size="13" font-weight="bold" lengthAdjust="spacingAndGlyphs" textLength="18" x="1577.5" y="804.6465">14</text>
        <text fill="#000000" font-family="sans-serif" font-size="13" lengthAdjust="spacingAndGlyphs" textLength="73" x="1599.5" y="804.6465">anu = get(i)</text>
        <polygon fill="#A80036" points="1832.5,864.3887,1842.5,868.3887,1832.5,872.3887,1836.5,868.3887" style="stroke: #A80036; stroke-width: 1.0;"/>
        <line style="stroke: #A80036; stroke-width: 1.0;" x1="1570.5" x2="1838.5" y1="868.3887" y2="868.3887"/>
        <text fill="#000000" font-family="sans-serif" font-size="13" font-weight="bold" lengthAdjust="spacingAndGlyphs" textLength="18" x="1577.5" y="863.957">15</text>
        <text fill="#000000" font-family="sans-serif" font-size="13" lengthAdjust="spacingAndGlyphs" textLength="207" x="1599.5" y="863.957">lstCand = getListaCandidaturas()</text>
        <polygon fill="#A80036" points="2152.5,923.6992,2162.5,927.6992,2152.5,931.6992,2156.5,927.6992" style="stroke: #A80036; stroke-width: 1.0;"/>
        <line style="stroke: #A80036; stroke-width: 1.0;" x1="1570.5" x2="2158.5" y1="927.6992" y2="927.6992"/>
        <text fill="#000000" font-family="sans-serif" font-size="13" font-weight="bold" lengthAdjust="spacingAndGlyphs" textLength="18" x="1577.5" y="923.2676">16</text>
        <text fill="#000000" font-family="sans-serif" font-size="13" lengthAdjust="spacingAndGlyphs" textLength="292" x="1599.5" y="923.2676">temIdCand = temIdCandidatura(candidaturaId)</text>
        <rect fill="none" height="76.6211" style="stroke: #000000; stroke-width: 2.0;" width="767" x="1487" y="973.0098"/>
        <polygon fill="#EEEEEE" points="1487,973.0098,1554,973.0098,1554,980.0098,1544,990.0098,1487,990.0098,1487,973.0098" style="stroke: #000000; stroke-width: 2.0;"/>
        <text fill="#000000" font-family="sans-serif" font-size="13" font-weight="bold" lengthAdjust="spacingAndGlyphs" textLength="22" x="1502" y="986.5781">opt</text>
        <a target="_top" xlink:actuate="onRequest" xlink:href="" xlink:show="new" xlink:title="" xlink:type="simple">
            <text fill="#0000FF" font-family="sans-serif" font-size="11" font-weight="bold" lengthAdjust="spacingAndGlyphs" text-decoration="underline" textLength="108" x="1569" y="985.6445">temIdCand == true</text>
            <line style="stroke: #0000FF; stroke-width: 1.0;" x1="1569" x2="1677" y1="987.6445" y2="987.6445"/>
        </a>
        <polygon fill="#A80036" points="2152.5,1007.3203,2162.5,1011.3203,2152.5,1015.3203,2156.5,1011.3203" style="stroke: #A80036; stroke-width: 1.0;"/>
        <line style="stroke: #A80036; stroke-width: 1.0;" x1="1570.5" x2="2158.5" y1="1011.3203" y2="1011.3203"/>
        <text fill="#000000" font-family="sans-serif" font-size="13" font-weight="bold" lengthAdjust="spacingAndGlyphs" textLength="18" x="1577.5" y="1006.8887">17</text>
        <text fill="#000000" font-family="sans-serif" font-size="13" lengthAdjust="spacingAndGlyphs" textLength="264" x="1599.5" y="1006.8887">cand = getCandidaturaById(candidaturaId)</text>
        <polygon fill="#A80036" points="63,1095.6309,53,1099.6309,63,1103.6309,59,1099.6309" style="stroke: #A80036; stroke-width: 1.0;"/>
        <line style="stroke: #A80036; stroke-width: 1.0;" x1="57" x2="397" y1="1099.6309" y2="1099.6309"/>
        <text fill="#000000" font-family="sans-serif" font-size="13" font-weight="bold" lengthAdjust="spacingAndGlyphs" textLength="18" x="69" y="1087.8545">18</text>
        <text fill="#000000" font-family="sans-serif" font-size="13" lengthAdjust="spacingAndGlyphs" textLength="287" x="91" y="1080.1992">mostra a candidatura e solicita a confirmação</text>
        <text fill="#000000" font-family="sans-serif" font-size="13" lengthAdjust="spacingAndGlyphs" textLength="123" x="91" y="1095.5098">para remoção desta</text>
        <polygon fill="#A80036" points="381,1125.252,391,1129.252,381,1133.252,385,1129.252" style="stroke: #A80036; stroke-width: 1.0;"/>
        <line style="stroke: #A80036; stroke-width: 1.0;" x1="52" x2="387" y1="1129.252" y2="1129.252"/>
        <text fill="#000000" font-family="sans-serif" font-size="13" font-weight="bold" lengthAdjust="spacingAndGlyphs" textLength="18" x="59" y="1124.8203">19</text>
        <text fill="#000000" font-family="sans-serif" font-size="13" lengthAdjust="spacingAndGlyphs" textLength="56" x="81" y="1124.8203">confirma</text>
        <polygon fill="#A80036" points="661,1154.5625,671,1158.5625,661,1162.5625,665,1158.5625" style="stroke: #A80036; stroke-width: 1.0;"/>
        <line style="stroke: #A80036; stroke-width: 1.0;" x1="403" x2="667" y1="1158.5625" y2="1158.5625"/>
        <text fill="#000000" font-family="sans-serif" font-size="13" font-weight="bold" lengthAdjust="spacingAndGlyphs" textLength="18" x="410" y="1154.1309">20</text>
        <text fill="#000000" font-family="sans-serif" font-size="13" lengthAdjust="spacingAndGlyphs" textLength="135" x="432" y="1154.1309">removerCandidatura()</text>
        <polygon fill="#A80036" points="1548.5,1183.873,1558.5,1187.873,1548.5,1191.873,1552.5,1187.873" style="stroke: #A80036; stroke-width: 1.0;"/>
        <line style="stroke: #A80036; stroke-width: 1.0;" x1="683" x2="1554.5" y1="1187.873" y2="1187.873"/>
        <text fill="#000000" font-family="sans-serif" font-size="13" font-weight="bold" lengthAdjust="spacingAndGlyphs" textLength="18" x="690" y="1183.4414">21</text>
        <text fill="#000000" font-family="sans-serif" font-size="13" lengthAdjust="spacingAndGlyphs" textLength="242" x="712" y="1183.4414">anuncioCand = getAnuncioCand(cand)</text>
        <rect fill="none" height="285.8633" style="stroke: #000000; stroke-width: 2.0;" width="777" x="1477" y="1233.1836"/>
        <polygon fill="#EEEEEE" points="1477,1233.1836,1551,1233.1836,1551,1240.1836,1541,1250.1836,1477,1250.1836,1477,1233.1836" style="stroke: #000000; stroke-width: 2.0;"/>
        <text fill="#000000" font-family="sans-serif" font-size="13" font-weight="bold" lengthAdjust="spacingAndGlyphs" textLength="29" x="1492" y="1246.752">loop</text>
        <a target="_top" xlink:actuate="onRequest" xlink:href="" xlink:show="new" xlink:title="" xlink:type="simple">
            <text fill="#0000FF" font-family="sans-serif" font-size="11" font-weight="bold" lengthAdjust="spacingAndGlyphs" text-decoration="underline" textLength="157" x="1566" y="1245.8184">Para cada anúncio registado</text>
            <line style="stroke: #0000FF; stroke-width: 1.0;" x1="1566" x2="1723" y1="1247.8184" y2="1247.8184"/>
        </a>
        <polygon fill="#A80036" points="1717.5,1267.4941,1727.5,1271.4941,1717.5,1275.4941,1721.5,1271.4941" style="stroke: #A80036; stroke-width: 1.0;"/>
        <line style="stroke: #A80036; stroke-width: 1.0;" x1="1565.5" x2="1723.5" y1="1271.4941" y2="1271.4941"/>
        <text fill="#000000" font-family="sans-serif" font-size="13" font-weight="bold" lengthAdjust="spacingAndGlyphs" textLength="18" x="1572.5" y="1267.0625">22</text>
        <text fill="#000000" font-family="sans-serif" font-size="13" lengthAdjust="spacingAndGlyphs" textLength="73" x="1594.5" y="1267.0625">anu = get(i)</text>
        <polygon fill="#A80036" points="1832.5,1326.8047,1842.5,1330.8047,1832.5,1334.8047,1836.5,1330.8047" style="stroke: #A80036; stroke-width: 1.0;"/>
        <line style="stroke: #A80036; stroke-width: 1.0;" x1="1565.5" x2="1838.5" y1="1330.8047" y2="1330.8047"/>
        <text fill="#000000" font-family="sans-serif" font-size="13" font-weight="bold" lengthAdjust="spacingAndGlyphs" textLength="18" x="1572.5" y="1326.373">23</text>
        <text fill="#000000" font-family="sans-serif" font-size="13" lengthAdjust="spacingAndGlyphs" textLength="207" x="1594.5" y="1326.373">lstCand = getListaCandidaturas()</text>
        <polygon fill="#A80036" points="2152.5,1386.1152,2162.5,1390.1152,2152.5,1394.1152,2156.5,1390.1152" style="stroke: #A80036; stroke-width: 1.0;"/>
        <line style="stroke: #A80036; stroke-width: 1.0;" x1="1565.5" x2="2158.5" y1="1390.1152" y2="1390.1152"/>
        <text fill="#000000" font-family="sans-serif" font-size="13" font-weight="bold" lengthAdjust="spacingAndGlyphs" textLength="18" x="1572.5" y="1385.6836">24</text>
        <text fill="#000000" font-family="sans-serif" font-size="13" lengthAdjust="spacingAndGlyphs" textLength="256" x="1594.5" y="1385.6836">temCand = temCandidatura(candidatura)</text>
        <rect fill="none" height="76.6211" style="stroke: #000000; stroke-width: 2.0;" width="323" x="1487" y="1435.4258"/>
        <polygon fill="#EEEEEE" points="1487,1435.4258,1554,1435.4258,1554,1442.4258,1544,1452.4258,1487,1452.4258,1487,1435.4258" style="stroke: #000000; stroke-width: 2.0;"/>
        <text fill="#000000" font-family="sans-serif" font-size="13" font-weight="bold" lengthAdjust="spacingAndGlyphs" textLength="22" x="1502" y="1448.9941">opt</text>
        <a target="_top" xlink:actuate="onRequest" xlink:href="" xlink:show="new" xlink:title="" xlink:type="simple">
            <text fill="#0000FF" font-family="sans-serif" font-size="11" font-weight="bold" lengthAdjust="spacingAndGlyphs" text-decoration="underline" textLength="97" x="1569" y="1448.0605">temCand == true</text>
            <line style="stroke: #0000FF; stroke-width: 1.0;" x1="1569" x2="1666" y1="1450.0605" y2="1450.0605"/>
        </a>
        <polygon fill="#A80036" points="1717.5,1469.7363,1727.5,1473.7363,1717.5,1477.7363,1721.5,1473.7363" style="stroke: #A80036; stroke-width: 1.0;"/>
        <line style="stroke: #A80036; stroke-width: 1.0;" x1="1565.5" x2="1723.5" y1="1473.7363" y2="1473.7363"/>
        <text fill="#000000" font-family="sans-serif" font-size="13" font-weight="bold" lengthAdjust="spacingAndGlyphs" textLength="18" x="1572.5" y="1469.3047">25</text>
        <text fill="#000000" font-family="sans-serif" font-size="13" lengthAdjust="spacingAndGlyphs" textLength="123" x="1594.5" y="1469.3047">anuncioCand = anu</text>
        <polygon fill="#A80036" points="1936.5,1543.0469,1946.5,1547.0469,1936.5,1551.0469,1940.5,1547.0469" style="stroke: #A80036; stroke-width: 1.0;"/>
        <line style="stroke: #A80036; stroke-width: 1.0;" x1="683" x2="1942.5" y1="1547.0469" y2="1547.0469"/>
        <text fill="#000000" font-family="sans-serif" font-size="13" font-weight="bold" lengthAdjust="spacingAndGlyphs" textLength="18" x="690" y="1542.6152">26</text>
        <text fill="#000000" font-family="sans-serif" font-size="13" lengthAdjust="spacingAndGlyphs" textLength="165" x="712" y="1542.6152">removerCandidatura(cand)</text>
        <polygon fill="#A80036" points="2152.5,1572.3574,2162.5,1576.3574,2152.5,1580.3574,2156.5,1576.3574" style="stroke: #A80036; stroke-width: 1.0;"/>
        <line style="stroke: #A80036; stroke-width: 1.0;" x1="1958.5" x2="2158.5" y1="1576.3574" y2="1576.3574"/>
        <text fill="#000000" font-family="sans-serif" font-size="13" font-weight="bold" lengthAdjust="spacingAndGlyphs" textLength="18" x="1965.5" y="1571.9258">27</text>
        <text fill="#000000" font-family="sans-serif" font-size="13" lengthAdjust="spacingAndGlyphs" textLength="165" x="1987.5" y="1571.9258">removerCandidatura(cand)</text>
        <line style="stroke: #A80036; stroke-width: 1.0;" x1="2174.5" x2="2216.5" y1="1635.9785" y2="1635.9785"/>
        <line style="stroke: #A80036; stroke-width: 1.0;" x1="2216.5" x2="2216.5" y1="1635.9785" y2="1648.9785"/>
        <line style="stroke: #A80036; stroke-width: 1.0;" x1="2175.5" x2="2216.5" y1="1648.9785" y2="1648.9785"/>
        <polygon fill="#A80036" points="2185.5,1644.9785,2175.5,1648.9785,2185.5,1652.9785,2181.5,1648.9785" style="stroke: #A80036; stroke-width: 1.0;"/>
        <text fill="#000000" font-family="sans-serif" font-size="13" font-weight="bold" lengthAdjust="spacingAndGlyphs" textLength="18" x="2181.5" y="1631.2363">28</text>
        <text fill="#000000" font-family="sans-serif" font-size="13" lengthAdjust="spacingAndGlyphs" textLength="84" x="2203.5" y="1631.2363">remove(cand)</text>
        <line style="stroke: #A80036; stroke-width: 1.0;" x1="2174.5" x2="2216.5" y1="1683.2891" y2="1683.2891"/>
        <line style="stroke: #A80036; stroke-width: 1.0;" x1="2216.5" x2="2216.5" y1="1683.2891" y2="1696.2891"/>
        <line style="stroke: #A80036; stroke-width: 1.0;" x1="2169.5" x2="2216.5" y1="1696.2891" y2="1696.2891"/>
        <polygon fill="#A80036" points="2179.5,1692.2891,2169.5,1696.2891,2179.5,1700.2891,2175.5,1696.2891" style="stroke: #A80036; stroke-width: 1.0;"/>
        <text fill="#000000" font-family="sans-serif" font-size="13" font-weight="bold" lengthAdjust="spacingAndGlyphs" textLength="18" x="2181.5" y="1678.5469">29</text>
        <text fill="#000000" font-family="sans-serif" font-size="13" lengthAdjust="spacingAndGlyphs" textLength="132" x="2203.5" y="1678.5469">validaRemocao(cand)</text>
        <polygon fill="#A80036" points="58,1716.2891,48,1720.2891,58,1724.2891,54,1720.2891" style="stroke: #A80036; stroke-width: 1.0;"/>
        <line style="stroke: #A80036; stroke-width: 1.0;" x1="52" x2="397" y1="1720.2891" y2="1720.2891"/>
        <text fill="#000000" font-family="sans-serif" font-size="13" font-weight="bold" lengthAdjust="spacingAndGlyphs" textLength="18" x="64" y="1715.8574">30</text>
        <text fill="#000000" font-family="sans-serif" font-size="13" lengthAdjust="spacingAndGlyphs" textLength="196" x="86" y="1715.8574">informa o sucesso da operação</text>
        <!--
@startuml
autonumber
actor "Freelancer" as FREE

participant ":RetirarCandidaturaUI" as UI
participant ":RetirarCandidaturaCandidaturaController" as CTRL
participant "AplicacaoPOT" as POT
participant "app\n:AplicacaoPOT" as app
participant "sessao\n:SessaoUtilizador" as SESSAO
participant ":Plataforma" as PLAT
participant "rfr\n:RegistoFreelancer" as RFR
participant "regA\n:RegistoAnuncios" as RA
participant "lstAnu\n:List<Anuncios>" as LA
participant "anu\n:Anuncio" as AN
participant "anuncioCand\n:Anuncio" as AC
participant ":ListaCandidaturas:" as LC

activate FREE
FREE -> UI : inicia a remoção de uma candidatura efetuada\n por si
activate UI

UI -> CTRL : lstCF = getCandidFree()
activate CTRL
 
CTRL -> POT : app = getInstance()
activate POT
deactivate POT

CTRL -> app : sessao = getSessaoAtual()
activate app
deactivate app

CTRL -> SESSAO : email = getEmailUtilizador()
activate SESSAO
deactivate SESSAO

CTRL -> PLAT : rfr = getRegistoFreelancer()
activate PLAT
deactivate PLAT

CTRL -> RFR : free = getFreelancerByEmail(email)
activate RFR
deactivate RFR

CTRL -> PLAT : regA = getRegistoAnuncios()
activate PLAT
deactivate PLAT

CTRL -> RA : lstCandFreelancer = getCandidaturasFreelancer(free)
activate RA

ref over RA, LC : UC_12_SD_getCandidaturasFreelancer(free)
deactivate RA

UI - -> FREE : mostra a lista de candidaturas efetuadas por si\n e pede para selecionar uma
deactivate UI
deactivate CTRL

FREE -> UI : seleciona a candidatura que pretende remover
activate UI

UI -> CTRL : selecionaCandidatura(candidaturaId)
activate CTRL

CTRL -> RA : cand = getCandSelecionada(candidaturaId)
activate RA

loop [ Para cada anúncio registado ]

RA -> LA : anu = get(i)
activate LA
deactivate LA

RA -> AN : lstCand = getListaCandidaturas()
activate AN
deactivate AN

RA -> LC : temIdCand = temIdCandidatura(candidaturaId)
activate LC
deactivate LC

OPT [ temIdCand == true ]

RA -> LC : cand = getCandidaturaById(candidaturaId)
activate LC
deactivate LC

end OPT

deactivate RA
end

deactivate CTRL

UI -> FREE : mostra a candidatura e solicita a confirmação \npara remoção desta
deactivate UI

FREE -> UI : confirma
activate UI

UI -> CTRL : removerCandidatura()
activate CTRL

CTRL -> RA : anuncioCand = getAnuncioCand(cand)
activate RA
deactivate RA 

loop [ Para cada anúncio registado ]
RA -> LA : anu = get(i)
activate LA
deactivate LA

RA -> AN : lstCand = getListaCandidaturas()
activate AN
deactivate AN

RA -> LC : temCand = temCandidatura(candidatura)
activate LC
deactivate LC

OPT [ temCand == true ]

RA -> LA : anuncioCand = anu
activate LA
deactivate LA

end OPT

deactivate RA
end

CTRL -> AC : removerCandidatura(cand)
activate AC

AC -> LC : removerCandidatura(cand)
activate LC
deactivate AC
LC -> LC : remove(cand)
LC -> LC : validaRemocao(cand)
deactivate LC

UI -> FREE : informa o sucesso da operação
deactivate UI
deactivate CTRL
deactivate FREE

@enduml

PlantUML version 2017.11(Wed Apr 19 17:18:59 WEST 2017)
(GPL source distribution)
Java Runtime: Java(TM) SE Runtime Environment
JVM: Java HotSpot(TM) 64-Bit Server VM
Java Version: 1.8.0_191-b12
Operating System: Mac OS X
OS Version: 10.15.4
Default Encoding: UTF-8
Language: pt
Country: PT
-->
    </g>
</svg>
