@startuml
autonumber
actor "Freelancer" as FREE

participant ":RetirarCandidaturaUI" as UI
participant ":RetirarCandidaturaCandidaturaController" as CTRL
participant "AplicacaoPOT" as POT
participant "app\n:AplicacaoPOT" as app
participant "sessao\n:SessaoUtilizador" as SESSAO
participant ":Plataforma" as PLAT
participant "rfr\n:RegistoFreelancer" as RFR
participant "regA\n:RegistoAnuncios" as RA
participant "lstAnu\n:List<Anuncios>" as LA
participant "anu\n:Anuncio" as AN
participant "anuncioCand\n:Anuncio" as AC
participant ":ListaCandidaturas:" as LC

activate FREE
FREE -> UI : inicia a remoção de uma candidatura efetuada\n por si
activate UI

UI -> CTRL : lstCF = getCandidFree()
activate CTRL
 
CTRL -> POT : app = getInstance()
activate POT
deactivate POT

CTRL -> app : sessao = getSessaoAtual()
activate app
deactivate app

CTRL -> SESSAO : email = getEmailUtilizador()
activate SESSAO
deactivate SESSAO

CTRL -> PLAT : rfr = getRegistoFreelancer()
activate PLAT
deactivate PLAT

CTRL -> RFR : free = getFreelancerByEmail(email)
activate RFR
deactivate RFR

CTRL -> PLAT : regA = getRegistoAnuncios()
activate PLAT
deactivate PLAT

CTRL -> RA : lstCandFreelancer = getCandidaturasFreelancer(free)
activate RA

ref over RA, LC : UC_12_SD_getCandidaturasFreelancer(free)
deactivate RA

UI --> FREE : mostra a lista de candidaturas efetuadas por si\n e pede para selecionar uma
deactivate UI
deactivate CTRL

FREE -> UI : seleciona a candidatura que pretende remover
activate UI

UI -> CTRL : selecionaCandidatura(candidaturaId)
activate CTRL

CTRL -> RA : cand = getCandSelecionada(candidaturaId)
activate RA

loop [ Para cada anúncio registado ]

RA -> LA : anu = get(i)
activate LA
deactivate LA

RA -> AN : lstCand = getListaCandidaturas()
activate AN
deactivate AN

RA -> LC : temIdCand = temIdCandidatura(candidaturaId)
activate LC
deactivate LC

OPT [ temIdCand == true ]

RA -> LC : cand = getCandidaturaById(candidaturaId)
activate LC
deactivate LC

end OPT

deactivate RA
end

deactivate CTRL

UI -> FREE : mostra a candidatura e solicita a confirmação \npara remoção desta
deactivate UI

FREE -> UI : confirma
activate UI

UI -> CTRL : removerCandidatura()
activate CTRL

CTRL -> RA : anuncioCand = getAnuncioCand(cand)
activate RA
deactivate RA 

loop [ Para cada anúncio registado ]
RA -> LA : anu = get(i)
activate LA
deactivate LA

RA -> AN : lstCand = getListaCandidaturas()
activate AN
deactivate AN

RA -> LC : temCand = temCandidatura(candidatura)
activate LC
deactivate LC

OPT [ temCand == true ]

RA -> LA : anuncioCand = anu
activate LA
deactivate LA

end OPT

deactivate RA
end

CTRL -> AC : removerCandidatura(cand)
activate AC

AC -> LC : removerCandidatura(cand)
activate LC
deactivate AC
LC -> LC : remove(cand)
LC -> LC : validaRemocao(cand)
deactivate LC

UI -> FREE : informa o sucesso da operação
deactivate UI
deactivate CTRL
deactivate FREE

@enduml
