@startuml
skinparam classAttributeIconSize 0
hide methods
left to right direction


skinparam padding 2
skinparam ranksep 100
skinparam classFontSize 15




class Plataforma {
  -String designacao
}

class AreaAtividade {
  -String codigo
  -String descBreve
  -String descDetalhada

}

class CompetenciaTecnica {
  -String codigo
  -String descBreve
  -String descDetalhada
}

class Categoria {
  -String id
  -String descricao
}

class Organizacao {
  -String nome
  -String NIF
  -String website
  -String telefone
  -String email
}

class Colaborador {
  -String nome
  -String funcao
  -String telefone
  -String email
}

class EnderecoPostal {
  -String local
  -String codPostal
  -String localidade
}

class CaraterCT {
  -Boolean obrigatoria
}

class Tarefa {
  -String referencia
  -String designacao
  -String descInformal
  -String descTecnica
  -Integer duracaoEst
  -Double custoEst
}

class Freelancer {
    -String nome
    -int NIF
    -int contacto
    -String email
}

class Administrativo {

}

class GrauProficiencia {
  -String designacao
  -int valor
}

class Anuncio{
  -DataHora pPublicInicial
  -DataHora pPublicFinal
  -DataHora pApreseInicial
  -DataHora pApreseFinal
  -DataHora pSeriaInicial
  -DataHora pSeriaFinal
}

class TipoRegimento {
}

class Utilizador {
  -String nome
  -String email
  -String password
}

class Habilitacao{
  -String grau
  -String desigCurso
  -String instituicao
  -double media
}

class Reconhecimento {
   -Data data
}

class Candidatura {
  -Integer valorReceber
  -DataHora diasRealizacao
  -String texto
  -Freelancer candidato
}

class AnuncioSeriado {
  -List<Freelancer> candidatosSeriados
  -List<Colaborador> colaboradoresEnvolvidos
  -DateTime dataHoraSeriacao
}


Plataforma "1" -- "*" AreaAtividade : possui >
Plataforma "1" -- "*" CompetenciaTecnica : possui >
Plataforma "1" -- "*" Organizacao : tem registadas >
Plataforma "1" -- "*" Freelancer : tem/usa  >
Plataforma "1" -- "*" Administrativo : tem  >
Plataforma "1" -- "*" Categoria : possui >
Plataforma "1" -- "*" TipoRegimento : possui >
Plataforma "1" -- "1" AlgoritmoExternoGeracaoPWD : recorre a >
Plataforma "1" -- "*" Tarefa : possui >

Organizacao "1" -- "1..*" Colaborador: tem >
Organizacao "1" -- "1" Colaborador: tem gestor >
Organizacao "1" -- "1" EnderecoPostal: localizada em >


CompetenciaTecnica "*" -- "1" AreaAtividade : referente a >
CompetenciaTecnica "1" -- "0..*" GrauProficiencia : aplica >

Categoria "1" -- "1" AreaAtividade: enquadra-se em >
Categoria "*" -- "*" CompetenciaTecnica: requer >
(Categoria, CompetenciaTecnica) .. CaraterCT

Tarefa "*" -- "1" Categoria: enquadra-se em >
Tarefa "*" -- "1" Colaborador: especificada por >
Tarefa "1" -- "0..1" Anuncio : resulta >
Tarefa "*" -- "1" Colaborador : publicada por >

Freelancer "0..1" -- "1" Utilizador: atua como >
Freelancer "1" -- "1" EnderecoPostal: localizada em >
Freelancer "1" -- "1..*" Habilitacao: detem >
Freelancer "1" -- "0..*" Reconhecimento: tem >
Freelancer "1" -- "*" Candidatura: efetua >

Administrativo "0..1" -- "1" Utilizador: atua como >
Administrativo "1" -- "*" CompetenciaTecnica: especifica >
Administrativo "1" -- "*" Freelancer: regista >

Colaborador "0..1" -- "1" Utilizador: atua como >
Colaborador "1" -- "*" Anuncio : especifica >
Colaborador "1" -- "*" Anuncio : seria >

Anuncio "0..*" -- "1" TipoRegimento : possui >
Anuncio "1" -- "0..*" Candidatura : tem >
Anuncio "1" -- "1" AnuncioSeriado : resulta >

CaraterCT"*" -- "1" GrauProficiencia : exige(como mínimo) >

Reconhecimento "1" -- "1" CompetenciaTecnica: tem >
Reconhecimento "1" -- "1" GrauProficiencia: tem >

AlgoritmoExternoGeracaoPWD "1" -- "*" Utilizador : gera password >

@enduml
