<?xml version="1.0" encoding="UTF-8" standalone="no"?><svg xmlns="http://www.w3.org/2000/svg" xmlns:xlink="http://www.w3.org/1999/xlink" contentScriptType="application/ecmascript" contentStyleType="text/css" height="629.6px" preserveAspectRatio="none" style="width:1089px;height:629px;" version="1.1" viewBox="0 0 1089 629" width="1089.6px" zoomAndPan="magnify"><defs><filter height="300%" id="feki9qx9m2lt1" width="300%" x="-1" y="-1"><feGaussianBlur result="blurOut" stdDeviation="1.6"/><feColorMatrix in="blurOut" result="blurOut2" type="matrix" values="0 0 0 0 0 0 0 0 0 0 0 0 0 0 0 0 0 0 .4 0"/><feOffset dx="3.2" dy="3.2" in="blurOut2" result="blurOut3"/><feBlend in="SourceGraphic" in2="blurOut3" mode="normal"/></filter></defs><g><text fill="#000000" font-family="sans-serif" font-size="14.4" lengthAdjust="spacingAndGlyphs" textLength="308.8" x="391" y="21.9219">UC5_SD_RegistarColaboradorComoUtilizador</text><rect fill="#00BFFF" filter="url(#feki9qx9m2lt1)" height="434.7328" style="stroke: #A80036; stroke-width: 0.8;" width="8" x="64.4" y="116.7797"/><rect fill="#00BFFF" filter="url(#feki9qx9m2lt1)" height="22.4" style="stroke: #A80036; stroke-width: 0.8;" width="8" x="68.4" y="529.1125"/><rect fill="#FFFFFF" filter="url(#feki9qx9m2lt1)" height="24" style="stroke: #A80036; stroke-width: 0.8;" width="8" x="294" y="144.2281"/><rect fill="#FFFFFF" filter="url(#feki9qx9m2lt1)" height="24" style="stroke: #A80036; stroke-width: 0.8;" width="8" x="294" y="191.6766"/><rect fill="#FFFFFF" filter="url(#feki9qx9m2lt1)" height="70.8969" style="stroke: #A80036; stroke-width: 0.8;" width="8" x="389.2" y="239.125"/><rect fill="#FFFFFF" filter="url(#feki9qx9m2lt1)" height="70.8969" style="stroke: #A80036; stroke-width: 0.8;" width="8" x="389.2" y="380.9188"/><rect fill="#00BFFF" filter="url(#feki9qx9m2lt1)" height="47.4484" style="stroke: #A80036; stroke-width: 0.8;" width="8" x="578" y="262.5734"/><rect fill="#00BFFF" filter="url(#feki9qx9m2lt1)" height="47.4484" style="stroke: #A80036; stroke-width: 0.8;" width="8" x="578" y="404.3672"/><rect fill="#FFFFFF" filter="url(#feki9qx9m2lt1)" height="24" style="stroke: #A80036; stroke-width: 0.8;" width="8" x="766.8" y="286.0219"/><rect fill="#FFFFFF" filter="url(#feki9qx9m2lt1)" height="24" style="stroke: #A80036; stroke-width: 0.8;" width="8" x="766.8" y="427.8156"/><rect fill="#00BFFF" filter="url(#feki9qx9m2lt1)" height="24" style="stroke: #A80036; stroke-width: 0.8;" width="8" x="900.8" y="333.4703"/><rect fill="#FFFFFF" filter="url(#feki9qx9m2lt1)" height="24" style="stroke: #A80036; stroke-width: 0.8;" width="8" x="1038.4" y="475.2641"/><line style="stroke: #A80036; stroke-width: 0.8; stroke-dasharray: 5.0,5.0;" x1="68" x2="68" y1="85.3313" y2="571.5125"/><line style="stroke: #A80036; stroke-width: 0.8; stroke-dasharray: 5.0,5.0;" x1="297.6" x2="297.6" y1="85.3313" y2="571.5125"/><line style="stroke: #A80036; stroke-width: 0.8; stroke-dasharray: 5.0,5.0;" x1="392.8" x2="392.8" y1="85.3313" y2="571.5125"/><line style="stroke: #A80036; stroke-width: 0.8; stroke-dasharray: 5.0,5.0;" x1="581.6" x2="581.6" y1="85.3313" y2="571.5125"/><line style="stroke: #A80036; stroke-width: 0.8; stroke-dasharray: 5.0,5.0;" x1="770.8" x2="770.8" y1="85.3313" y2="571.5125"/><line style="stroke: #A80036; stroke-width: 0.8; stroke-dasharray: 5.0,5.0;" x1="904.4" x2="904.4" y1="85.3313" y2="571.5125"/><line style="stroke: #A80036; stroke-width: 0.8; stroke-dasharray: 5.0,5.0;" x1="1042" x2="1042" y1="85.3313" y2="571.5125"/><rect fill="#00BFFF" filter="url(#feki9qx9m2lt1)" height="37.5813" style="stroke: #A80036; stroke-width: 1.2000000000000002;" width="120.8" x="6.4" y="43.75"/><text fill="#000000" font-family="sans-serif" font-size="11.2" lengthAdjust="spacingAndGlyphs" textLength="8.8" x="62.4" y="60.1781">lc</text><text fill="#000000" font-family="sans-serif" font-size="11.2" lengthAdjust="spacingAndGlyphs" textLength="109.6" x="12" y="73.3688">:ListaColaboradores</text><rect fill="#00BFFF" filter="url(#feki9qx9m2lt1)" height="37.5813" style="stroke: #A80036; stroke-width: 1.2000000000000002;" width="120.8" x="6.4" y="570.7125"/><text fill="#000000" font-family="sans-serif" font-size="11.2" lengthAdjust="spacingAndGlyphs" textLength="8.8" x="62.4" y="587.1406">lc</text><text fill="#000000" font-family="sans-serif" font-size="11.2" lengthAdjust="spacingAndGlyphs" textLength="109.6" x="12" y="600.3313">:ListaColaboradores</text><rect fill="#FEFECE" filter="url(#feki9qx9m2lt1)" height="37.5813" style="stroke: #A80036; stroke-width: 1.2000000000000002;" width="84" x="254.4" y="43.75"/><text fill="#000000" font-family="sans-serif" font-size="11.2" lengthAdjust="spacingAndGlyphs" textLength="29.6" x="281.6" y="60.1781">colab</text><text fill="#000000" font-family="sans-serif" font-size="11.2" lengthAdjust="spacingAndGlyphs" textLength="72.8" x="260" y="73.3688">:Colaborador</text><rect fill="#FEFECE" filter="url(#feki9qx9m2lt1)" height="37.5813" style="stroke: #A80036; stroke-width: 1.2000000000000002;" width="84" x="254.4" y="570.7125"/><text fill="#000000" font-family="sans-serif" font-size="11.2" lengthAdjust="spacingAndGlyphs" textLength="29.6" x="281.6" y="587.1406">colab</text><text fill="#000000" font-family="sans-serif" font-size="11.2" lengthAdjust="spacingAndGlyphs" textLength="72.8" x="260" y="600.3313">:Colaborador</text><rect fill="#FEFECE" filter="url(#feki9qx9m2lt1)" height="37.5813" style="stroke: #A80036; stroke-width: 1.2000000000000002;" width="84" x="349.6" y="43.75"/><text fill="#000000" font-family="sans-serif" font-size="11.2" lengthAdjust="spacingAndGlyphs" textLength="19.2" x="382" y="60.1781">org</text><text fill="#000000" font-family="sans-serif" font-size="11.2" lengthAdjust="spacingAndGlyphs" textLength="72.8" x="355.2" y="73.3688">:Organizacao</text><rect fill="#FEFECE" filter="url(#feki9qx9m2lt1)" height="37.5813" style="stroke: #A80036; stroke-width: 1.2000000000000002;" width="84" x="349.6" y="570.7125"/><text fill="#000000" font-family="sans-serif" font-size="11.2" lengthAdjust="spacingAndGlyphs" textLength="19.2" x="382" y="587.1406">org</text><text fill="#000000" font-family="sans-serif" font-size="11.2" lengthAdjust="spacingAndGlyphs" textLength="72.8" x="355.2" y="600.3313">:Organizacao</text><rect fill="#00BFFF" filter="url(#feki9qx9m2lt1)" height="37.5813" style="stroke: #A80036; stroke-width: 1.2000000000000002;" width="130.4" x="515.2" y="43.75"/><text fill="#000000" font-family="sans-serif" font-size="11.2" lengthAdjust="spacingAndGlyphs" textLength="12" x="574.4" y="60.1781">ro</text><text fill="#000000" font-family="sans-serif" font-size="11.2" lengthAdjust="spacingAndGlyphs" textLength="119.2" x="520.8" y="73.3688">:RegistoOrganizacoes</text><rect fill="#00BFFF" filter="url(#feki9qx9m2lt1)" height="37.5813" style="stroke: #A80036; stroke-width: 1.2000000000000002;" width="130.4" x="515.2" y="570.7125"/><text fill="#000000" font-family="sans-serif" font-size="11.2" lengthAdjust="spacingAndGlyphs" textLength="12" x="574.4" y="587.1406">ro</text><text fill="#000000" font-family="sans-serif" font-size="11.2" lengthAdjust="spacingAndGlyphs" textLength="119.2" x="520.8" y="600.3313">:RegistoOrganizacoes</text><rect fill="#FEFECE" filter="url(#feki9qx9m2lt1)" height="24.3906" style="stroke: #A80036; stroke-width: 1.2000000000000002;" width="73.6" x="732.4" y="56.9406"/><text fill="#000000" font-family="sans-serif" font-size="11.2" lengthAdjust="spacingAndGlyphs" textLength="62.4" x="738" y="73.3688">:Plataforma</text><rect fill="#FEFECE" filter="url(#feki9qx9m2lt1)" height="24.3906" style="stroke: #A80036; stroke-width: 1.2000000000000002;" width="73.6" x="732.4" y="570.7125"/><text fill="#000000" font-family="sans-serif" font-size="11.2" lengthAdjust="spacingAndGlyphs" textLength="62.4" x="738" y="587.1406">:Plataforma</text><rect fill="#00BFFF" filter="url(#feki9qx9m2lt1)" height="50.7719" style="stroke: #A80036; stroke-width: 1.2000000000000002;" width="172" x="817.2" y="30.5594"/><text fill="#000000" font-family="sans-serif" font-size="11.2" font-style="italic" lengthAdjust="spacingAndGlyphs" textLength="83.2" x="861.6" y="46.9875">&lt;&lt;interface&gt;&gt;</text><text fill="#000000" font-family="sans-serif" font-size="11.2" lengthAdjust="spacingAndGlyphs" textLength="16.8" x="894.8" y="60.1781">alg</text><text fill="#000000" font-family="sans-serif" font-size="11.2" lengthAdjust="spacingAndGlyphs" textLength="160.8" x="822.8" y="73.3688">:AlgoritmoGeradorPasswords</text><rect fill="#00BFFF" filter="url(#feki9qx9m2lt1)" height="50.7719" style="stroke: #A80036; stroke-width: 1.2000000000000002;" width="172" x="817.2" y="570.7125"/><text fill="#000000" font-family="sans-serif" font-size="11.2" font-style="italic" lengthAdjust="spacingAndGlyphs" textLength="83.2" x="861.6" y="587.1406">&lt;&lt;interface&gt;&gt;</text><text fill="#000000" font-family="sans-serif" font-size="11.2" lengthAdjust="spacingAndGlyphs" textLength="16.8" x="894.8" y="600.3313">alg</text><text fill="#000000" font-family="sans-serif" font-size="11.2" lengthAdjust="spacingAndGlyphs" textLength="160.8" x="822.8" y="613.5219">:AlgoritmoGeradorPasswords</text><rect fill="#FEFECE" filter="url(#feki9qx9m2lt1)" height="50.7719" style="stroke: #A80036; stroke-width: 1.2000000000000002;" width="80.8" x="1000.4" y="30.5594"/><text fill="#000000" font-family="sans-serif" font-size="11.2" lengthAdjust="spacingAndGlyphs" textLength="17.6" x="1032" y="46.9875">aut</text><text fill="#000000" font-family="sans-serif" font-size="11.2" lengthAdjust="spacingAndGlyphs" textLength="69.6" x="1006" y="60.1781">:Autorizacao</text><text fill="#000000" font-family="sans-serif" font-size="11.2" lengthAdjust="spacingAndGlyphs" textLength="38.4" x="1021.6" y="73.3688">Facade</text><rect fill="#FEFECE" filter="url(#feki9qx9m2lt1)" height="50.7719" style="stroke: #A80036; stroke-width: 1.2000000000000002;" width="80.8" x="1000.4" y="570.7125"/><text fill="#000000" font-family="sans-serif" font-size="11.2" lengthAdjust="spacingAndGlyphs" textLength="17.6" x="1032" y="587.1406">aut</text><text fill="#000000" font-family="sans-serif" font-size="11.2" lengthAdjust="spacingAndGlyphs" textLength="69.6" x="1006" y="600.3313">:Autorizacao</text><text fill="#000000" font-family="sans-serif" font-size="11.2" lengthAdjust="spacingAndGlyphs" textLength="38.4" x="1021.6" y="613.5219">Facade</text><rect fill="#00BFFF" filter="url(#feki9qx9m2lt1)" height="434.7328" style="stroke: #A80036; stroke-width: 0.8;" width="8" x="64.4" y="116.7797"/><rect fill="#00BFFF" filter="url(#feki9qx9m2lt1)" height="22.4" style="stroke: #A80036; stroke-width: 0.8;" width="8" x="68.4" y="529.1125"/><rect fill="#FFFFFF" filter="url(#feki9qx9m2lt1)" height="24" style="stroke: #A80036; stroke-width: 0.8;" width="8" x="294" y="144.2281"/><rect fill="#FFFFFF" filter="url(#feki9qx9m2lt1)" height="24" style="stroke: #A80036; stroke-width: 0.8;" width="8" x="294" y="191.6766"/><rect fill="#FFFFFF" filter="url(#feki9qx9m2lt1)" height="70.8969" style="stroke: #A80036; stroke-width: 0.8;" width="8" x="389.2" y="239.125"/><rect fill="#FFFFFF" filter="url(#feki9qx9m2lt1)" height="70.8969" style="stroke: #A80036; stroke-width: 0.8;" width="8" x="389.2" y="380.9188"/><rect fill="#00BFFF" filter="url(#feki9qx9m2lt1)" height="47.4484" style="stroke: #A80036; stroke-width: 0.8;" width="8" x="578" y="262.5734"/><rect fill="#00BFFF" filter="url(#feki9qx9m2lt1)" height="47.4484" style="stroke: #A80036; stroke-width: 0.8;" width="8" x="578" y="404.3672"/><rect fill="#FFFFFF" filter="url(#feki9qx9m2lt1)" height="24" style="stroke: #A80036; stroke-width: 0.8;" width="8" x="766.8" y="286.0219"/><rect fill="#FFFFFF" filter="url(#feki9qx9m2lt1)" height="24" style="stroke: #A80036; stroke-width: 0.8;" width="8" x="766.8" y="427.8156"/><rect fill="#00BFFF" filter="url(#feki9qx9m2lt1)" height="24" style="stroke: #A80036; stroke-width: 0.8;" width="8" x="900.8" y="333.4703"/><rect fill="#FFFFFF" filter="url(#feki9qx9m2lt1)" height="24" style="stroke: #A80036; stroke-width: 0.8;" width="8" x="1038.4" y="475.2641"/><line style="stroke: #A80036; stroke-width: 0.8;" x1="68.4" x2="106" y1="106.3797" y2="106.3797"/><line style="stroke: #A80036; stroke-width: 0.8;" x1="106" x2="106" y1="106.3797" y2="116.7797"/><line style="stroke: #A80036; stroke-width: 0.8;" x1="73.2" x2="106" y1="116.7797" y2="116.7797"/><polygon fill="#A80036" points="81.2,113.5797,73.2,116.7797,81.2,119.9797,78,116.7797" style="stroke: #A80036; stroke-width: 0.8;"/><text fill="#000000" font-family="sans-serif" font-size="10.4" font-weight="bold" lengthAdjust="spacingAndGlyphs" textLength="7.2" x="78" y="102.5859">1</text><text fill="#000000" font-family="sans-serif" font-size="10.4" lengthAdjust="spacingAndGlyphs" textLength="208" x="88.4" y="102.5859">registaColaboradorComoUtilizador(colab)</text><polygon fill="#A80036" points="284.4,141.0281,292.4,144.2281,284.4,147.4281,287.6,144.2281" style="stroke: #A80036; stroke-width: 0.8;"/><line style="stroke: #A80036; stroke-width: 0.8;" x1="72.4" x2="289.2" y1="144.2281" y2="144.2281"/><text fill="#000000" font-family="sans-serif" font-size="10.4" font-weight="bold" lengthAdjust="spacingAndGlyphs" textLength="7.2" x="78" y="140.4344">2</text><text fill="#000000" font-family="sans-serif" font-size="10.4" lengthAdjust="spacingAndGlyphs" textLength="88" x="88.4" y="140.4344">nome=getNome()</text><polygon fill="#A80036" points="284.4,188.4766,292.4,191.6766,284.4,194.8766,287.6,191.6766" style="stroke: #A80036; stroke-width: 0.8;"/><line style="stroke: #A80036; stroke-width: 0.8;" x1="72.4" x2="289.2" y1="191.6766" y2="191.6766"/><text fill="#000000" font-family="sans-serif" font-size="10.4" font-weight="bold" lengthAdjust="spacingAndGlyphs" textLength="7.2" x="78" y="187.8828">3</text><text fill="#000000" font-family="sans-serif" font-size="10.4" lengthAdjust="spacingAndGlyphs" textLength="84.8" x="88.4" y="187.8828">email=getEmail()</text><polygon fill="#A80036" points="379.6,235.925,387.6,239.125,379.6,242.325,382.8,239.125" style="stroke: #A80036; stroke-width: 0.8;"/><line style="stroke: #A80036; stroke-width: 0.8;" x1="72.4" x2="384.4" y1="239.125" y2="239.125"/><text fill="#000000" font-family="sans-serif" font-size="10.4" font-weight="bold" lengthAdjust="spacingAndGlyphs" textLength="7.2" x="78" y="235.3313">4</text><text fill="#000000" font-family="sans-serif" font-size="10.4" lengthAdjust="spacingAndGlyphs" textLength="155.2" x="88.4" y="235.3313">alg=getAlgoritmoGeradorPwd()</text><polygon fill="#A80036" points="568.4,259.3734,576.4,262.5734,568.4,265.7734,571.6,262.5734" style="stroke: #A80036; stroke-width: 0.8;"/><line style="stroke: #A80036; stroke-width: 0.8;" x1="397.2" x2="573.2" y1="262.5734" y2="262.5734"/><text fill="#000000" font-family="sans-serif" font-size="10.4" font-weight="bold" lengthAdjust="spacingAndGlyphs" textLength="7.2" x="402.8" y="258.7797">5</text><text fill="#000000" font-family="sans-serif" font-size="10.4" lengthAdjust="spacingAndGlyphs" textLength="155.2" x="413.2" y="258.7797">alg=getAlgoritmoGeradorPwd()</text><polygon fill="#A80036" points="757.2,282.8219,765.2,286.0219,757.2,289.2219,760.4,286.0219" style="stroke: #A80036; stroke-width: 0.8;"/><line style="stroke: #A80036; stroke-width: 0.8;" x1="586" x2="762" y1="286.0219" y2="286.0219"/><text fill="#000000" font-family="sans-serif" font-size="10.4" font-weight="bold" lengthAdjust="spacingAndGlyphs" textLength="7.2" x="591.6" y="282.2281">6</text><text fill="#000000" font-family="sans-serif" font-size="10.4" lengthAdjust="spacingAndGlyphs" textLength="155.2" x="602" y="282.2281">alg=getAlgoritmoGeradorPwd()</text><polygon fill="#A80036" points="891.2,330.2703,899.2,333.4703,891.2,336.6703,894.4,333.4703" style="stroke: #A80036; stroke-width: 0.8;"/><line style="stroke: #A80036; stroke-width: 0.8;" x1="72.4" x2="896" y1="333.4703" y2="333.4703"/><text fill="#000000" font-family="sans-serif" font-size="10.4" font-weight="bold" lengthAdjust="spacingAndGlyphs" textLength="7.2" x="78" y="329.6766">7</text><text fill="#000000" font-family="sans-serif" font-size="10.4" lengthAdjust="spacingAndGlyphs" textLength="165.6" x="88.4" y="329.6766">pwd=geraPassword(nome, email)</text><polygon fill="#A80036" points="379.6,377.7188,387.6,380.9188,379.6,384.1188,382.8,380.9188" style="stroke: #A80036; stroke-width: 0.8;"/><line style="stroke: #A80036; stroke-width: 0.8;" x1="72.4" x2="384.4" y1="380.9188" y2="380.9188"/><text fill="#000000" font-family="sans-serif" font-size="10.4" font-weight="bold" lengthAdjust="spacingAndGlyphs" textLength="7.2" x="78" y="377.125">8</text><text fill="#000000" font-family="sans-serif" font-size="10.4" lengthAdjust="spacingAndGlyphs" textLength="140.8" x="88.4" y="377.125">aut=getAutorizacaoFacade()</text><polygon fill="#A80036" points="568.4,401.1672,576.4,404.3672,568.4,407.5672,571.6,404.3672" style="stroke: #A80036; stroke-width: 0.8;"/><line style="stroke: #A80036; stroke-width: 0.8;" x1="397.2" x2="573.2" y1="404.3672" y2="404.3672"/><text fill="#000000" font-family="sans-serif" font-size="10.4" font-weight="bold" lengthAdjust="spacingAndGlyphs" textLength="7.2" x="402.8" y="400.5734">9</text><text fill="#000000" font-family="sans-serif" font-size="10.4" lengthAdjust="spacingAndGlyphs" textLength="140.8" x="413.2" y="400.5734">aut=getAutorizacaoFacade()</text><polygon fill="#A80036" points="757.2,424.6156,765.2,427.8156,757.2,431.0156,760.4,427.8156" style="stroke: #A80036; stroke-width: 0.8;"/><line style="stroke: #A80036; stroke-width: 0.8;" x1="586" x2="762" y1="427.8156" y2="427.8156"/><text fill="#000000" font-family="sans-serif" font-size="10.4" font-weight="bold" lengthAdjust="spacingAndGlyphs" textLength="14.4" x="591.6" y="424.0219">10</text><text fill="#000000" font-family="sans-serif" font-size="10.4" lengthAdjust="spacingAndGlyphs" textLength="140.8" x="609.2" y="424.0219">aut=getAutorizacaoFacade()</text><polygon fill="#A80036" points="1028.8,472.0641,1036.8,475.2641,1028.8,478.4641,1032,475.2641" style="stroke: #A80036; stroke-width: 0.8;"/><line style="stroke: #A80036; stroke-width: 0.8;" x1="72.4" x2="1033.6" y1="475.2641" y2="475.2641"/><text fill="#000000" font-family="sans-serif" font-size="10.4" font-weight="bold" lengthAdjust="spacingAndGlyphs" textLength="14.4" x="78" y="471.4703">11</text><text fill="#000000" font-family="sans-serif" font-size="10.4" lengthAdjust="spacingAndGlyphs" textLength="310.4" x="95.6" y="471.4703">registaUtilizadorComPapel(nome,email,pwd,"COLABORADOR")</text><line style="stroke: #A80036; stroke-width: 0.8;" x1="76.4" x2="110" y1="522.7125" y2="522.7125"/><line style="stroke: #A80036; stroke-width: 0.8;" x1="110" x2="110" y1="522.7125" y2="533.1125"/><line style="stroke: #A80036; stroke-width: 0.8;" x1="77.2" x2="110" y1="533.1125" y2="533.1125"/><polygon fill="#A80036" points="85.2,529.9125,77.2,533.1125,85.2,536.3125,82,533.1125" style="stroke: #A80036; stroke-width: 0.8;"/><text fill="#000000" font-family="sans-serif" font-size="10.4" font-weight="bold" lengthAdjust="spacingAndGlyphs" textLength="14.4" x="82" y="518.9188">12</text><text fill="#000000" font-family="sans-serif" font-size="10.4" lengthAdjust="spacingAndGlyphs" textLength="111.2" x="99.6" y="518.9188">enviaEmail(email,pwd)</text><!--MD5=[af367cab32b0ca50223bfe44c28c8162]
@startuml
autonumber

title UC5_SD_RegistarColaboradorComoUtilizador

participant "lc\n:ListaColaboradores" as LC #DeepSkyBlue
participant "colab\n:Colaborador" as COLAB
participant "org\n:Organizacao" as ORG
participant "ro\n:RegistoOrganizacoes" as RO #DeepSkyBlue
participant ":Plataforma" as PLAT
participant "//<<interface>>//\nalg\n:AlgoritmoGeradorPasswords" as ALG #DeepSkyBlue
participant "aut\n:Autorizacao\nFacade" as AUT

LC -> LC : registaColaboradorComoUtilizador(colab)
activate LC #DeepSkyBlue

LC -> COLAB : nome=getNome()
activate COLAB
deactivate COLAB

LC -> COLAB : email=getEmail()
activate COLAB
deactivate COLAB

LC -> ORG : alg=getAlgoritmoGeradorPwd()
activate ORG

ORG -> RO : alg=getAlgoritmoGeradorPwd()
activate RO #DeepSkyBlue

RO -> PLAT : alg=getAlgoritmoGeradorPwd()
activate PLAT
deactivate PLAT
deactivate RO
deactivate ORG

LC -> ALG : pwd=geraPassword(nome, email)
activate ALG #DeepSkyBlue
deactivate ALG

LC -> ORG : aut=getAutorizacaoFacade()
activate ORG

ORG -> RO : aut=getAutorizacaoFacade()
activate RO #DeepSkyBlue

RO -> PLAT : aut=getAutorizacaoFacade()
activate PLAT
deactivate PLAT
deactivate RO
deactivate ORG

LC -> AUT : registaUtilizadorComPapel(nome,email,pwd,"COLABORADOR")
activate AUT
deactivate AUT

LC -> LC : enviaEmail(email,pwd)
activate LC #DeepSkyBlue
deactivate LC

deactivate LC
@enduml

PlantUML version 1.2020.03beta6(Unknown compile time)
(GPL source distribution)
Java Runtime: OpenJDK Runtime Environment
JVM: OpenJDK 64-Bit Server VM
Java Version: 11.0.5+10-b520.38
Operating System: Mac OS X
Default Encoding: UTF-8
Language: en
Country: PT
--></g></svg>