<?xml version="1.0" encoding="UTF-8"?><svg xmlns="http://www.w3.org/2000/svg" xmlns:xlink="http://www.w3.org/1999/xlink" contentScriptType="application/ecmascript" contentStyleType="text/css" height="530px" preserveAspectRatio="none" style="width:782px;height:530px;" version="1.1" viewBox="0 0 782 530" width="782px" zoomAndPan="magnify">
    <defs>
        <filter height="300%" id="fak6puf588v69" width="300%" x="-1" y="-1">
            <feGaussianBlur result="blurOut" stdDeviation="2.0"/>
            <feColorMatrix in="blurOut" result="blurOut2" type="matrix" values="0 0 0 0 0 0 0 0 0 0 0 0 0 0 0 0 0 0 .4 0"/>
            <feOffset dx="4.0" dy="4.0" in="blurOut2" result="blurOut3"/>
            <feBlend in="SourceGraphic" in2="blurOut3" mode="normal"/>
        </filter>
    </defs>
    <g>
        <rect fill="#FFFFFF" filter="url(#fak6puf588v69)" height="330.7266" style="stroke: #A80036; stroke-width: 1.0;" width="10" x="105.5" y="96.4883"/>
        <rect fill="#FFFFFF" filter="url(#fak6puf588v69)" height="29.3105" style="stroke: #A80036; stroke-width: 1.0;" width="10" x="734.5" y="117.4883"/>
        <rect fill="#FFFFFF" filter="url(#fak6puf588v69)" height="75.3105" style="stroke: #A80036; stroke-width: 1.0;" width="10" x="734.5" y="176.1094"/>
        <rect fill="#FFFFFF" filter="url(#fak6puf588v69)" height="29.3105" style="stroke: #A80036; stroke-width: 1.0;" width="10" x="734.5" y="280.6621"/>
        <rect fill="#FFFFFF" filter="url(#fak6puf588v69)" height="29.3105" style="stroke: #A80036; stroke-width: 1.0;" width="10" x="734.5" y="339.2832"/>
        <rect fill="#FFFFFF" filter="url(#fak6puf588v69)" height="29.3105" style="stroke: #A80036; stroke-width: 1.0;" width="10" x="734.5" y="397.9043"/>
        <line style="stroke: #A80036; stroke-width: 1.0; stroke-dasharray: 5.0,5.0;" x1="110" x2="110" y1="86.4883" y2="445.5254"/>
        <line style="stroke: #A80036; stroke-width: 1.0; stroke-dasharray: 5.0,5.0;" x1="739" x2="739" y1="86.4883" y2="445.5254"/>
        <text fill="#000000" font-family="sans-serif" font-size="14" lengthAdjust="spacingAndGlyphs" textLength="199" x="8" y="83.5352">Colaborador de Organização</text>
        <ellipse cx="110.5" cy="13" fill="#FEFECE" filter="url(#fak6puf588v69)" rx="8" ry="8" style="stroke: #A80036; stroke-width: 2.0;"/>
        <path d="M110.5,21 L110.5,48 M97.5,29 L123.5,29 M110.5,48 L97.5,63 M110.5,48 L123.5,63 " fill="#FEFECE" filter="url(#fak6puf588v69)" style="stroke: #A80036; stroke-width: 2.0;"/>
        <text fill="#000000" font-family="sans-serif" font-size="14" lengthAdjust="spacingAndGlyphs" textLength="199" x="8" y="458.0605">Colaborador de Organização</text>
        <ellipse cx="110.5" cy="471.0137" fill="#FEFECE" filter="url(#fak6puf588v69)" rx="8" ry="8" style="stroke: #A80036; stroke-width: 2.0;"/>
        <path d="M110.5,479.0137 L110.5,506.0137 M97.5,487.0137 L123.5,487.0137 M110.5,506.0137 L97.5,521.0137 M110.5,506.0137 L123.5,521.0137 " fill="#FEFECE" filter="url(#fak6puf588v69)" style="stroke: #A80036; stroke-width: 2.0;"/>
        <rect fill="#FEFECE" filter="url(#fak6puf588v69)" height="30.4883" style="stroke: #A80036; stroke-width: 1.5;" width="71" x="702" y="51"/>
        <text fill="#000000" font-family="sans-serif" font-size="14" lengthAdjust="spacingAndGlyphs" textLength="57" x="709" y="71.5352">:Sistema</text>
        <rect fill="#FEFECE" filter="url(#fak6puf588v69)" height="30.4883" style="stroke: #A80036; stroke-width: 1.5;" width="71" x="702" y="444.5254"/>
        <text fill="#000000" font-family="sans-serif" font-size="14" lengthAdjust="spacingAndGlyphs" textLength="57" x="709" y="465.0605">:Sistema</text>
        <rect fill="#FFFFFF" filter="url(#fak6puf588v69)" height="330.7266" style="stroke: #A80036; stroke-width: 1.0;" width="10" x="105.5" y="96.4883"/>
        <rect fill="#FFFFFF" filter="url(#fak6puf588v69)" height="29.3105" style="stroke: #A80036; stroke-width: 1.0;" width="10" x="734.5" y="117.4883"/>
        <rect fill="#FFFFFF" filter="url(#fak6puf588v69)" height="75.3105" style="stroke: #A80036; stroke-width: 1.0;" width="10" x="734.5" y="176.1094"/>
        <rect fill="#FFFFFF" filter="url(#fak6puf588v69)" height="29.3105" style="stroke: #A80036; stroke-width: 1.0;" width="10" x="734.5" y="280.6621"/>
        <rect fill="#FFFFFF" filter="url(#fak6puf588v69)" height="29.3105" style="stroke: #A80036; stroke-width: 1.0;" width="10" x="734.5" y="339.2832"/>
        <rect fill="#FFFFFF" filter="url(#fak6puf588v69)" height="29.3105" style="stroke: #A80036; stroke-width: 1.0;" width="10" x="734.5" y="397.9043"/>
        <polygon fill="#A80036" points="722.5,113.4883,732.5,117.4883,722.5,121.4883,726.5,117.4883" style="stroke: #A80036; stroke-width: 1.0;"/>
        <line style="stroke: #A80036; stroke-width: 1.0;" x1="115.5" x2="728.5" y1="117.4883" y2="117.4883"/>
        <text fill="#000000" font-family="sans-serif" font-size="13" font-weight="bold" lengthAdjust="spacingAndGlyphs" textLength="9" x="122.5" y="113.0566">1</text>
        <text fill="#000000" font-family="sans-serif" font-size="13" lengthAdjust="spacingAndGlyphs" textLength="207" x="135.5" y="113.0566">inicia a publicação de uma tarefa</text>
        <polygon fill="#A80036" points="126.5,142.7988,116.5,146.7988,126.5,150.7988,122.5,146.7988" style="stroke: #A80036; stroke-width: 1.0;"/>
        <line style="stroke: #A80036; stroke-width: 1.0; stroke-dasharray: 2.0,2.0;" x1="120.5" x2="738.5" y1="146.7988" y2="146.7988"/>
        <text fill="#000000" font-family="sans-serif" font-size="13" font-weight="bold" lengthAdjust="spacingAndGlyphs" textLength="9" x="132.5" y="142.3672">2</text>
        <text fill="#000000" font-family="sans-serif" font-size="13" lengthAdjust="spacingAndGlyphs" textLength="527" x="145.5" y="142.3672">apresenta as tarefas por si anteriormente criadas e pede para selecionar uma destas</text>
        <polygon fill="#A80036" points="722.5,172.1094,732.5,176.1094,722.5,180.1094,726.5,176.1094" style="stroke: #A80036; stroke-width: 1.0;"/>
        <line style="stroke: #A80036; stroke-width: 1.0;" x1="115.5" x2="728.5" y1="176.1094" y2="176.1094"/>
        <text fill="#000000" font-family="sans-serif" font-size="13" font-weight="bold" lengthAdjust="spacingAndGlyphs" textLength="9" x="122.5" y="171.6777">3</text>
        <text fill="#000000" font-family="sans-serif" font-size="13" lengthAdjust="spacingAndGlyphs" textLength="181" x="135.5" y="171.6777">seleciona a tarefa pretendida</text>
        <polygon fill="#A80036" points="126.5,247.4199,116.5,251.4199,126.5,255.4199,122.5,251.4199" style="stroke: #A80036; stroke-width: 1.0;"/>
        <line style="stroke: #A80036; stroke-width: 1.0; stroke-dasharray: 2.0,2.0;" x1="120.5" x2="738.5" y1="251.4199" y2="251.4199"/>
        <text fill="#000000" font-family="sans-serif" font-size="13" font-weight="bold" lengthAdjust="spacingAndGlyphs" textLength="9" x="132.5" y="223.9541">4</text>
        <text fill="#000000" font-family="sans-serif" font-size="13" lengthAdjust="spacingAndGlyphs" textLength="473" x="145.5" y="200.9883">solicita os dados necessários para criação de um anúncio referente à tarefa</text>
        <text fill="#000000" font-family="sans-serif" font-size="13" lengthAdjust="spacingAndGlyphs" textLength="320" x="145.5" y="216.2988">(i.e. período de publicação da tarefa na plataforma,</text>
        <text fill="#000000" font-family="sans-serif" font-size="13" lengthAdjust="spacingAndGlyphs" textLength="582" x="145.5" y="231.6094">período de apresentação de candidaturas pelos freelancers, período de seriação e decisão de</text>
        <text fill="#000000" font-family="sans-serif" font-size="13" lengthAdjust="spacingAndGlyphs" textLength="227" x="149.5" y="246.9199">atribuição da tarefa a um freelancer)</text>
        <polygon fill="#A80036" points="722.5,276.6621,732.5,280.6621,722.5,284.6621,726.5,280.6621" style="stroke: #A80036; stroke-width: 1.0;"/>
        <line style="stroke: #A80036; stroke-width: 1.0;" x1="115.5" x2="728.5" y1="280.6621" y2="280.6621"/>
        <text fill="#000000" font-family="sans-serif" font-size="13" font-weight="bold" lengthAdjust="spacingAndGlyphs" textLength="9" x="122.5" y="276.2305">5</text>
        <text fill="#000000" font-family="sans-serif" font-size="13" lengthAdjust="spacingAndGlyphs" textLength="187" x="135.5" y="276.2305">introduz os dados solicitados</text>
        <polygon fill="#A80036" points="126.5,305.9727,116.5,309.9727,126.5,313.9727,122.5,309.9727" style="stroke: #A80036; stroke-width: 1.0;"/>
        <line style="stroke: #A80036; stroke-width: 1.0; stroke-dasharray: 2.0,2.0;" x1="120.5" x2="738.5" y1="309.9727" y2="309.9727"/>
        <text fill="#000000" font-family="sans-serif" font-size="13" font-weight="bold" lengthAdjust="spacingAndGlyphs" textLength="9" x="132.5" y="305.541">6</text>
        <text fill="#000000" font-family="sans-serif" font-size="13" lengthAdjust="spacingAndGlyphs" textLength="184" x="145.5" y="305.541">apresenta tipos de regimento</text>
        <polygon fill="#A80036" points="722.5,335.2832,732.5,339.2832,722.5,343.2832,726.5,339.2832" style="stroke: #A80036; stroke-width: 1.0;"/>
        <line style="stroke: #A80036; stroke-width: 1.0;" x1="115.5" x2="728.5" y1="339.2832" y2="339.2832"/>
        <text fill="#000000" font-family="sans-serif" font-size="13" font-weight="bold" lengthAdjust="spacingAndGlyphs" textLength="9" x="122.5" y="334.8516">7</text>
        <text fill="#000000" font-family="sans-serif" font-size="13" lengthAdjust="spacingAndGlyphs" textLength="259" x="135.5" y="334.8516">seleciona o tipo de regimento pretendido</text>
        <polygon fill="#A80036" points="126.5,364.5938,116.5,368.5938,126.5,372.5938,122.5,368.5938" style="stroke: #A80036; stroke-width: 1.0;"/>
        <line style="stroke: #A80036; stroke-width: 1.0; stroke-dasharray: 2.0,2.0;" x1="120.5" x2="738.5" y1="368.5938" y2="368.5938"/>
        <text fill="#000000" font-family="sans-serif" font-size="13" font-weight="bold" lengthAdjust="spacingAndGlyphs" textLength="9" x="132.5" y="364.1621">8</text>
        <text fill="#000000" font-family="sans-serif" font-size="13" lengthAdjust="spacingAndGlyphs" textLength="536" x="145.5" y="364.1621">valida e apresenta os dados ao colaborador de organização, pedindo que os confirme</text>
        <polygon fill="#A80036" points="722.5,393.9043,732.5,397.9043,722.5,401.9043,726.5,397.9043" style="stroke: #A80036; stroke-width: 1.0;"/>
        <line style="stroke: #A80036; stroke-width: 1.0;" x1="115.5" x2="728.5" y1="397.9043" y2="397.9043"/>
        <text fill="#000000" font-family="sans-serif" font-size="13" font-weight="bold" lengthAdjust="spacingAndGlyphs" textLength="9" x="122.5" y="393.4727">9</text>
        <text fill="#000000" font-family="sans-serif" font-size="13" lengthAdjust="spacingAndGlyphs" textLength="56" x="135.5" y="393.4727">confirma</text>
        <polygon fill="#A80036" points="121.5,423.2148,111.5,427.2148,121.5,431.2148,117.5,427.2148" style="stroke: #A80036; stroke-width: 1.0;"/>
        <line style="stroke: #A80036; stroke-width: 1.0; stroke-dasharray: 2.0,2.0;" x1="115.5" x2="738.5" y1="427.2148" y2="427.2148"/>
        <text fill="#000000" font-family="sans-serif" font-size="13" font-weight="bold" lengthAdjust="spacingAndGlyphs" textLength="18" x="127.5" y="422.7832">10</text>
        <text fill="#000000" font-family="sans-serif" font-size="13" lengthAdjust="spacingAndGlyphs" textLength="513" x="149.5" y="422.7832">regista os dados e informa o colaborador de organização do sucesso da operação</text>
        <!--
@startuml
autonumber
actor "Colaborador de Organização" as CDO

activate CDO
CDO -> ":Sistema" : inicia a publicação de uma tarefa
activate ":Sistema"
":Sistema" - -> CDO : apresenta as tarefas por si anteriormente criadas e pede para selecionar uma destas
deactivate ":Sistema"

CDO -> ":Sistema" : seleciona a tarefa pretendida
activate ":Sistema"
":Sistema" - -> CDO : solicita os dados necessários para criação de um anúncio referente à tarefa \n(i.e. período de publicação da tarefa na plataforma, \nperíodo de apresentação de candidaturas pelos freelancers, período de seriação e decisão de\n atribuição da tarefa a um freelancer)
deactivate ":Sistema"

CDO -> ":Sistema" : introduz os dados solicitados
activate ":Sistema"
":Sistema" - -> CDO : apresenta tipos de regimento
deactivate ":Sistema"

CDO -> ":Sistema" : seleciona o tipo de regimento pretendido
activate ":Sistema"
":Sistema" - -> CDO : valida e apresenta os dados ao colaborador de organização, pedindo que os confirme
deactivate ":Sistema"

CDO -> ":Sistema" : confirma
activate ":Sistema"
":Sistema" - -> CDO : regista os dados e informa o colaborador de organização do sucesso da operação
deactivate ":Sistema"

deactivate CDO

@enduml

PlantUML version 2017.11(Wed Apr 19 17:18:59 WEST 2017)
(GPL source distribution)
Java Runtime: Java(TM) SE Runtime Environment
JVM: Java HotSpot(TM) 64-Bit Server VM
Java Version: 1.8.0_191-b12
Operating System: Mac OS X
OS Version: 10.15.4
Default Encoding: UTF-8
Language: pt
Country: PT
-->
    </g>
</svg>
