@startuml
skinparam classAttributeIconSize 0
hide methods
left to right direction

class Plataforma{
  -String designacao
}

class Colaborador{
  -String nome
  -String funcao
  -String telefone
  -String email
}

class Tarefa {
  -String referencia
  -String designacao
  -String descInformal
  -String descTecnica
  -Integer duracaoEst
  -Double custoEst
}

class Anuncio{
  -DateTime pPublicInicial
  -DateTime pPublicFinal
  -DateTime pApreseInicial
  -DateTime pApreseFinal
  -DateTime pSeriaInicial
  -DateTime pSeriaFinal
}

class TipoRegimento{
}

class Utilizador{
  -String nome
  -String email
  -String password
}

class Organizacao{
  -String nome
  -String NIF
  -String website
  -String telefone
  -String email
}

Plataforma "1" -- "*" Organizacao : tem registadas >
Plataforma "1" -- "*" TipoRegimento : possui >
Plataforma "1" -- "*" Tarefa : possui >

Tarefa "*" -- "1" Colaborador : publicada por >
Tarefa "*" -- "1" Colaborador : especificada por >
Tarefa "1" -- "0..1" Anuncio : resulta >

Colaborador "0..1" -- "1" Utilizador : atua como >
Colaborador "1" -- "*" Anuncio : especifica >

Organizacao "1" -- "1..*" Colaborador : tem >


Anuncio "0..*" -- "1" TipoRegimento : possui >



@enduml
