@startuml
autonumber
hide footbox
title UC_11_SD_getCandidaturasFreelancer(free)

participant "regA\n:RegistoAnuncios" as RA
participant ":List<Anuncio>" as LA
participant "listaCandidaturas:\nList<Candidatura>" as lsc
participant "anu\n:Anuncio" as AN
participant ":ListaCandidaturas" as LC
participant "can\n:Candidatura" as C

RA -> RA : lstCandFreelancer = getCandidaturasFree(free)
activate RA

RA -> lsc **:create()

loop [ Para cada anúncio registado ]

RA -> LA : anu = get(i)
activate LA
deactivate LA

RA -> AN : dataInicialCand = getDataInicialCand()
activate AN

RA -> AN : dataFinalCand = getDataFinalCand()

deactivate AN

RA -> AN : lstCand = getListaCandidaturas()
activate AN

RA -> AN : isCandidato = isCandidatoAoAnuncio(free)


AN->LC : éCandidato = isCandidatoAoAnuncio(free)
activate LC
deactivate LC

deactivate AN


 
OPT [ isCandidato == true ]

RA -> LC : can = getCandidaturaByFree(free)
activate LC
deactivate LC

RA -> C : vPer : verificaPeriodoCandidatura(dataInicialCand,dataFinalCand)
activate C
deactivate C

OPT [ vPer == true ]

RA -> lsc : addCandidatura(can)
activate lsc
deactivate lsc 

end OPT

end OPT


end


@enduml