@startuml
autonumber
actor "Administrativo" as ADM

activate ADM
ADM -> ":Sistema" : Inicia a especificação de uma nova categoria de tarefa 
activate ":Sistema"
":Sistema" --> ADM : Solicita dados necessários(identificador, descricao)
deactivate ":Sistema"

ADM -> ":Sistema" : Introduz os dados solicitados
activate ":Sistema"
":Sistema" --> ADM : Apresenta as AA e pede para selecionar uma
deactivate ":Sistema"

ADM -> ":Sistema" : Seleciona a AA pretendida
activate ":Sistema"
loop  até não querer selecionar mais
":Sistema" --> ADM : Apresenta as CT e pede para selecionar uma\nelegendo se esta é ou não obrigatoria
deactivate ":Sistema"

ADM -> ":Sistema" : Seleciona a CT pretendida\nelegendo se esta é ou não obrigatoria
activate ":Sistema"
end
":Sistema" --> ADM : Apresenta todos os dados e solicita confirmação
deactivate ":Sistema"

ADM -> ":Sistema" : Confirma
activate ":Sistema"
":Sistema" --> ADM : Operação bem sucedida
deactivate ":Sistema"
deactivate ADM
@enduml
