<?xml version="1.0" encoding="UTF-8"?><svg xmlns="http://www.w3.org/2000/svg" xmlns:xlink="http://www.w3.org/1999/xlink" height="386pt" style="width:424px;height:386px;" version="1.1" viewBox="0 0 424 386" width="424pt">
    <defs>
        <filter height="300%" id="f1" width="300%" x="-1" y="-1">
            <feGaussianBlur result="blurOut" stdDeviation="2.0"/>
            <feColorMatrix in="blurOut" result="blurOut2" type="matrix" values="0 0 0 0 0 0 0 0 0 0 0 0 0 0 0 0 0 0 .4 0"/>
            <feOffset dx="4.0" dy="4.0" in="blurOut2" result="blurOut3"/>
            <feBlend in="SourceGraphic" in2="blurOut3" mode="normal"/>
        </filter>
    </defs>
    <g>
        <rect fill="#FFFFFF" filter="url(#f1)" height="190.1094" style="stroke: #A80036; stroke-width: 1.0;" width="10" x="70" y="93.3516"/>
        <rect fill="#FFFFFF" filter="url(#f1)" height="46.3516" style="stroke: #A80036; stroke-width: 1.0;" width="10" x="379" y="115.3516"/>
        <rect fill="#FFFFFF" filter="url(#f1)" height="30.3516" style="stroke: #A80036; stroke-width: 1.0;" width="10" x="379" y="192.4063"/>
        <rect fill="#FFFFFF" filter="url(#f1)" height="30.3516" style="stroke: #A80036; stroke-width: 1.0;" width="10" x="379" y="253.1094"/>
        <line style="stroke: #A80036; stroke-width: 1.0; stroke-dasharray: 5.0,5.0;" x1="75" x2="75" y1="83.3516" y2="301.8125"/>
        <line style="stroke: #A80036; stroke-width: 1.0; stroke-dasharray: 5.0,5.0;" x1="384" x2="384" y1="83.3516" y2="301.8125"/>
        <text fill="#000000" font-size="13" lengthAdjust="spacingAndGlyphs" textLength="134" x="5" y="80">Gestor de Organização</text>
        <ellipse cx="75" cy="10" fill="#FEFECE" filter="url(#f1)" rx="8" ry="8" style="stroke: #A80036; stroke-width: 2.0;"/>
        <path d="M75,18 L75,45 M62,26 L88,26 M75,45 L62,60 M75,45 L88,60 " fill="#FEFECE" filter="url(#f1)" style="stroke: #A80036; stroke-width: 2.0;"/>
        <text fill="#000000" font-size="13" lengthAdjust="spacingAndGlyphs" textLength="134" x="5" y="313.6484">Gestor de Organização</text>
        <ellipse cx="75" cy="327" fill="#FEFECE" filter="url(#f1)" rx="8" ry="8" style="stroke: #A80036; stroke-width: 2.0;"/>
        <path d="M75,335 L75,362 M62,343 L88,343 M75,362 L62,377 M75,362 L88,377 " fill="#FEFECE" filter="url(#f1)" style="stroke: #A80036; stroke-width: 2.0;"/>
        <rect fill="#FEFECE" filter="url(#f1)" height="30.3516" style="stroke: #A80036; stroke-width: 1.5;" width="66" x="349" y="48"/>
        <text fill="#000000" font-size="13" lengthAdjust="spacingAndGlyphs" textLength="52" x="356" y="68">:Sistema</text>
        <rect fill="#FEFECE" filter="url(#f1)" height="30.3516" style="stroke: #A80036; stroke-width: 1.5;" width="66" x="349" y="300.6484"/>
        <text fill="#000000" font-size="13" lengthAdjust="spacingAndGlyphs" textLength="52" x="356" y="320.6484">:Sistema</text>
        <rect fill="#FFFFFF" filter="url(#f1)" height="190.1094" style="stroke: #A80036; stroke-width: 1.0;" width="10" x="70" y="93.3516"/>
        <rect fill="#FFFFFF" filter="url(#f1)" height="46.3516" style="stroke: #A80036; stroke-width: 1.0;" width="10" x="379" y="115.3516"/>
        <rect fill="#FFFFFF" filter="url(#f1)" height="30.3516" style="stroke: #A80036; stroke-width: 1.0;" width="10" x="379" y="192.4063"/>
        <rect fill="#FFFFFF" filter="url(#f1)" height="30.3516" style="stroke: #A80036; stroke-width: 1.0;" width="10" x="379" y="253.1094"/>
        <polygon fill="#A80036" points="367,111.3516,377,115.3516,367,119.3516,371,115.3516" style="stroke: #A80036; stroke-width: 1.0;"/>
        <line style="stroke: #A80036; stroke-width: 1.0;" x1="80" x2="373" y1="115.3516" y2="115.3516"/>
        <text fill="#000000" font-size="13" font-weight="bold" lengthAdjust="spacingAndGlyphs" textLength="7" x="87" y="110.3516">1</text>
        <text fill="#000000" font-size="13" lengthAdjust="spacingAndGlyphs" textLength="135" x="98" y="110.3516">Especificar colaborador</text>
        <polygon fill="#A80036" points="91,157.7031,81,161.7031,91,165.7031,87,161.7031" style="stroke: #A80036; stroke-width: 1.0;"/>
        <line style="stroke: #A80036; stroke-width: 1.0; stroke-dasharray: 2.0,2.0;" x1="85" x2="383" y1="161.7031" y2="161.7031"/>
        <text fill="#000000" font-size="13" font-weight="bold" lengthAdjust="spacingAndGlyphs" textLength="7" x="97" y="148.8789">2</text>
        <text fill="#000000" font-size="13" lengthAdjust="spacingAndGlyphs" textLength="264" x="108" y="140.7031">Solicita dados necessários(i.e. nome, função,</text>
        <text fill="#000000" font-size="13" lengthAdjust="spacingAndGlyphs" textLength="227" x="108" y="157.0547">contacto telefonico, endereco de email)</text>
        <polygon fill="#A80036" points="367,188.4063,377,192.4063,367,196.4063,371,192.4063" style="stroke: #A80036; stroke-width: 1.0;"/>
        <line style="stroke: #A80036; stroke-width: 1.0;" x1="80" x2="373" y1="192.4063" y2="192.4063"/>
        <text fill="#000000" font-size="13" font-weight="bold" lengthAdjust="spacingAndGlyphs" textLength="7" x="87" y="187.4063">3</text>
        <text fill="#000000" font-size="13" lengthAdjust="spacingAndGlyphs" textLength="169" x="98" y="187.4063">Introduz os dados solicitados</text>
        <polygon fill="#A80036" points="91,218.7578,81,222.7578,91,226.7578,87,222.7578" style="stroke: #A80036; stroke-width: 1.0;"/>
        <line style="stroke: #A80036; stroke-width: 1.0; stroke-dasharray: 2.0,2.0;" x1="85" x2="383" y1="222.7578" y2="222.7578"/>
        <text fill="#000000" font-size="13" font-weight="bold" lengthAdjust="spacingAndGlyphs" textLength="7" x="97" y="217.7578">4</text>
        <text fill="#000000" font-size="13" lengthAdjust="spacingAndGlyphs" textLength="246" x="108" y="217.7578">Apresenta os dados e solicita confirmação</text>
        <polygon fill="#A80036" points="367,249.1094,377,253.1094,367,257.1094,371,253.1094" style="stroke: #A80036; stroke-width: 1.0;"/>
        <line style="stroke: #A80036; stroke-width: 1.0;" x1="80" x2="373" y1="253.1094" y2="253.1094"/>
        <text fill="#000000" font-size="13" font-weight="bold" lengthAdjust="spacingAndGlyphs" textLength="7" x="87" y="248.1094">5</text>
        <text fill="#000000" font-size="13" lengthAdjust="spacingAndGlyphs" textLength="51" x="98" y="248.1094">Confirma</text>
        <polygon fill="#A80036" points="86,279.4609,76,283.4609,86,287.4609,82,283.4609" style="stroke: #A80036; stroke-width: 1.0;"/>
        <line style="stroke: #A80036; stroke-width: 1.0; stroke-dasharray: 2.0,2.0;" x1="80" x2="383" y1="283.4609" y2="283.4609"/>
        <text fill="#000000" font-size="13" font-weight="bold" lengthAdjust="spacingAndGlyphs" textLength="7" x="92" y="278.4609">6</text>
        <text fill="#000000" font-size="13" lengthAdjust="spacingAndGlyphs" textLength="141" x="103" y="278.4609">Operação bem sucedida</text>
    </g>
</svg>
