<?xml version="1.0" encoding="UTF-8"?><svg xmlns="http://www.w3.org/2000/svg" xmlns:xlink="http://www.w3.org/1999/xlink" contentScriptType="application/ecmascript" contentStyleType="text/css" height="148px" preserveAspectRatio="none" style="width:1033px;height:148px;" version="1.1" viewBox="0 0 1033 148" width="1033px" zoomAndPan="magnify">
    <defs>
        <filter height="300%" id="f2ah3cuyuabr6" width="300%" x="-1" y="-1">
            <feGaussianBlur result="blurOut" stdDeviation="2.0"/>
            <feColorMatrix in="blurOut" result="blurOut2" type="matrix" values="0 0 0 0 0 0 0 0 0 0 0 0 0 0 0 0 0 0 .4 0"/>
            <feOffset dx="4.0" dy="4.0" in="blurOut2" result="blurOut3"/>
            <feBlend in="SourceGraphic" in2="blurOut3" mode="normal"/>
        </filter>
    </defs>
    <g>
        <!--class Plataforma-->
        <rect fill="#FEFECE" filter="url(#f2ah3cuyuabr6)" height="53.8359" style="stroke: #A80036; stroke-width: 1.5;" width="113" x="6" y="35.562"/>
        <ellipse cx="30.45" cy="51.562" fill="#ADD1B2" rx="11" ry="11" style="stroke: #A80036; stroke-width: 1.0;"/>
        <path d="M33.2156,47.437 Q33.3719,47.2183 33.5594,47.1089 Q33.7469,46.9995 33.9656,46.9995 Q34.3406,46.9995 34.575,47.2573 Q34.8094,47.5151 34.8094,48.1245 L34.8094,49.5776 Q34.8094,50.187 34.575,50.4526 Q34.3406,50.7183 33.9656,50.7183 Q33.6219,50.7183 33.4188,50.5151 Q33.2156,50.3276 33.1063,49.812 Q33.0594,49.4526 32.8719,49.2651 Q32.5438,48.8901 31.9344,48.6714 Q31.325,48.4526 30.7,48.4526 Q29.9344,48.4526 29.3016,48.7808 Q28.6688,49.1089 28.1766,49.8589 Q27.6844,50.6089 27.6844,51.6401 L27.6844,52.7339 Q27.6844,53.9683 28.575,54.7886 Q29.4656,55.6089 31.0594,55.6089 Q31.9969,55.6089 32.6531,55.3589 Q33.0438,55.2026 33.4656,54.7651 Q33.7313,54.4995 33.8797,54.4214 Q34.0281,54.3433 34.2313,54.3433 Q34.5594,54.3433 34.8172,54.6011 Q35.075,54.8589 35.075,55.2026 Q35.075,55.5464 34.7313,55.9526 Q34.2313,56.5308 33.4344,56.8589 Q32.3563,57.312 31.0594,57.312 Q29.5438,57.312 28.3406,56.687 Q27.3563,56.187 26.6688,55.1167 Q25.9813,54.0464 25.9813,52.7651 L25.9813,51.6089 Q25.9813,50.2808 26.5984,49.1323 Q27.2156,47.9839 28.3094,47.3667 Q29.4031,46.7495 30.6375,46.7495 Q31.3719,46.7495 32.0203,46.9136 Q32.6688,47.0776 33.2156,47.437 Z "/>
        <text fill="#000000" font-family="sans-serif" font-size="12" lengthAdjust="spacingAndGlyphs" textLength="60" x="46.55" y="56.4722">Plataforma</text>
        <line style="stroke: #A80036; stroke-width: 1.5;" x1="7" x2="118" y1="67.562" y2="67.562"/>
        <rect fill="none" height="6" style="stroke: #C82930; stroke-width: 1.0;" width="6" x="14" y="76.98"/>
        <text fill="#000000" font-family="sans-serif" font-size="11" lengthAdjust="spacingAndGlyphs" textLength="87" x="26" y="82.9809">String designacao</text>
        <!--class Organização-->
        <rect fill="#FEFECE" filter="url(#f2ah3cuyuabr6)" height="109.1797" style="stroke: #A80036; stroke-width: 1.5;" width="101" x="280" y="8.062"/>
        <ellipse cx="295" cy="24.062" fill="#ADD1B2" rx="11" ry="11" style="stroke: #A80036; stroke-width: 1.0;"/>
        <path d="M297.7656,19.937 Q297.9219,19.7183 298.1094,19.6089 Q298.2969,19.4995 298.5156,19.4995 Q298.8906,19.4995 299.125,19.7573 Q299.3594,20.0151 299.3594,20.6245 L299.3594,22.0776 Q299.3594,22.687 299.125,22.9526 Q298.8906,23.2183 298.5156,23.2183 Q298.1719,23.2183 297.9688,23.0151 Q297.7656,22.8276 297.6563,22.312 Q297.6094,21.9526 297.4219,21.7651 Q297.0938,21.3901 296.4844,21.1714 Q295.875,20.9526 295.25,20.9526 Q294.4844,20.9526 293.8516,21.2808 Q293.2188,21.6089 292.7266,22.3589 Q292.2344,23.1089 292.2344,24.1401 L292.2344,25.2339 Q292.2344,26.4683 293.125,27.2886 Q294.0156,28.1089 295.6094,28.1089 Q296.5469,28.1089 297.2031,27.8589 Q297.5938,27.7026 298.0156,27.2651 Q298.2813,26.9995 298.4297,26.9214 Q298.5781,26.8433 298.7813,26.8433 Q299.1094,26.8433 299.3672,27.1011 Q299.625,27.3589 299.625,27.7026 Q299.625,28.0464 299.2813,28.4526 Q298.7813,29.0308 297.9844,29.3589 Q296.9063,29.812 295.6094,29.812 Q294.0938,29.812 292.8906,29.187 Q291.9063,28.687 291.2188,27.6167 Q290.5313,26.5464 290.5313,25.2651 L290.5313,24.1089 Q290.5313,22.7808 291.1484,21.6323 Q291.7656,20.4839 292.8594,19.8667 Q293.9531,19.2495 295.1875,19.2495 Q295.9219,19.2495 296.5703,19.4136 Q297.2188,19.5776 297.7656,19.937 Z "/>
        <text fill="#000000" font-family="sans-serif" font-size="12" lengthAdjust="spacingAndGlyphs" textLength="69" x="309" y="28.9722">Organização</text>
        <line style="stroke: #A80036; stroke-width: 1.5;" x1="281" x2="380" y1="40.062" y2="40.062"/>
        <rect fill="none" height="6" style="stroke: #C82930; stroke-width: 1.0;" width="6" x="288" y="49.48"/>
        <text fill="#000000" font-family="sans-serif" font-size="11" lengthAdjust="spacingAndGlyphs" textLength="57" x="300" y="55.4809">String nome</text>
        <rect fill="none" height="6" style="stroke: #C82930; stroke-width: 1.0;" width="6" x="288" y="63.3159"/>
        <text fill="#000000" font-family="sans-serif" font-size="11" lengthAdjust="spacingAndGlyphs" textLength="46" x="300" y="69.3169">String NIF</text>
        <rect fill="none" height="6" style="stroke: #C82930; stroke-width: 1.0;" width="6" x="288" y="77.1518"/>
        <text fill="#000000" font-family="sans-serif" font-size="11" lengthAdjust="spacingAndGlyphs" textLength="70" x="300" y="83.1528">String website</text>
        <rect fill="none" height="6" style="stroke: #C82930; stroke-width: 1.0;" width="6" x="288" y="90.9878"/>
        <text fill="#000000" font-family="sans-serif" font-size="11" lengthAdjust="spacingAndGlyphs" textLength="70" x="300" y="96.9888">String telefone</text>
        <rect fill="none" height="6" style="stroke: #C82930; stroke-width: 1.0;" width="6" x="288" y="104.8237"/>
        <text fill="#000000" font-family="sans-serif" font-size="11" lengthAdjust="spacingAndGlyphs" textLength="55" x="300" y="110.8247">String email</text>
        <!--class Colaborador-->
        <rect fill="#FEFECE" filter="url(#f2ah3cuyuabr6)" height="95.3438" style="stroke: #A80036; stroke-width: 1.5;" width="101" x="680" y="23.062"/>
        <ellipse cx="695" cy="39.062" fill="#ADD1B2" rx="11" ry="11" style="stroke: #A80036; stroke-width: 1.0;"/>
        <path d="M697.7656,34.937 Q697.9219,34.7183 698.1094,34.6089 Q698.2969,34.4995 698.5156,34.4995 Q698.8906,34.4995 699.125,34.7573 Q699.3594,35.0151 699.3594,35.6245 L699.3594,37.0776 Q699.3594,37.687 699.125,37.9526 Q698.8906,38.2183 698.5156,38.2183 Q698.1719,38.2183 697.9688,38.0151 Q697.7656,37.8276 697.6563,37.312 Q697.6094,36.9526 697.4219,36.7651 Q697.0938,36.3901 696.4844,36.1714 Q695.875,35.9526 695.25,35.9526 Q694.4844,35.9526 693.8516,36.2808 Q693.2188,36.6089 692.7266,37.3589 Q692.2344,38.1089 692.2344,39.1401 L692.2344,40.2339 Q692.2344,41.4683 693.125,42.2886 Q694.0156,43.1089 695.6094,43.1089 Q696.5469,43.1089 697.2031,42.8589 Q697.5938,42.7026 698.0156,42.2651 Q698.2813,41.9995 698.4297,41.9214 Q698.5781,41.8433 698.7813,41.8433 Q699.1094,41.8433 699.3672,42.1011 Q699.625,42.3589 699.625,42.7026 Q699.625,43.0464 699.2813,43.4526 Q698.7813,44.0308 697.9844,44.3589 Q696.9063,44.812 695.6094,44.812 Q694.0938,44.812 692.8906,44.187 Q691.9063,43.687 691.2188,42.6167 Q690.5313,41.5464 690.5313,40.2651 L690.5313,39.1089 Q690.5313,37.7808 691.1484,36.6323 Q691.7656,35.4839 692.8594,34.8667 Q693.9531,34.2495 695.1875,34.2495 Q695.9219,34.2495 696.5703,34.4136 Q697.2188,34.5776 697.7656,34.937 Z "/>
        <text fill="#000000" font-family="sans-serif" font-size="12" lengthAdjust="spacingAndGlyphs" textLength="69" x="709" y="43.9722">Colaborador</text>
        <line style="stroke: #A80036; stroke-width: 1.5;" x1="681" x2="780" y1="55.062" y2="55.062"/>
        <rect fill="none" height="6" style="stroke: #C82930; stroke-width: 1.0;" width="6" x="688" y="64.48"/>
        <text fill="#000000" font-family="sans-serif" font-size="11" lengthAdjust="spacingAndGlyphs" textLength="57" x="700" y="70.4809">String nome</text>
        <rect fill="none" height="6" style="stroke: #C82930; stroke-width: 1.0;" width="6" x="688" y="78.3159"/>
        <text fill="#000000" font-family="sans-serif" font-size="11" lengthAdjust="spacingAndGlyphs" textLength="65" x="700" y="84.3169">String função</text>
        <rect fill="none" height="6" style="stroke: #C82930; stroke-width: 1.0;" width="6" x="688" y="92.1518"/>
        <text fill="#000000" font-family="sans-serif" font-size="11" lengthAdjust="spacingAndGlyphs" textLength="70" x="700" y="98.1528">String telefone</text>
        <rect fill="none" height="6" style="stroke: #C82930; stroke-width: 1.0;" width="6" x="688" y="105.9878"/>
        <text fill="#000000" font-family="sans-serif" font-size="11" lengthAdjust="spacingAndGlyphs" textLength="55" x="700" y="111.9888">String email</text>
        <!--class Utilizador-->
        <rect fill="#FEFECE" filter="url(#f2ah3cuyuabr6)" height="81.5078" style="stroke: #A80036; stroke-width: 1.5;" width="107" x="917" y="29.562"/>
        <ellipse cx="942.8" cy="45.562" fill="#ADD1B2" rx="11" ry="11" style="stroke: #A80036; stroke-width: 1.0;"/>
        <path d="M945.5656,41.437 Q945.7219,41.2183 945.9094,41.1089 Q946.0969,40.9995 946.3156,40.9995 Q946.6906,40.9995 946.925,41.2573 Q947.1594,41.5151 947.1594,42.1245 L947.1594,43.5776 Q947.1594,44.187 946.925,44.4526 Q946.6906,44.7183 946.3156,44.7183 Q945.9719,44.7183 945.7688,44.5151 Q945.5656,44.3276 945.4563,43.812 Q945.4094,43.4526 945.2219,43.2651 Q944.8938,42.8901 944.2844,42.6714 Q943.675,42.4526 943.05,42.4526 Q942.2844,42.4526 941.6516,42.7808 Q941.0188,43.1089 940.5266,43.8589 Q940.0344,44.6089 940.0344,45.6401 L940.0344,46.7339 Q940.0344,47.9683 940.925,48.7886 Q941.8156,49.6089 943.4094,49.6089 Q944.3469,49.6089 945.0031,49.3589 Q945.3938,49.2026 945.8156,48.7651 Q946.0813,48.4995 946.2297,48.4214 Q946.3781,48.3433 946.5813,48.3433 Q946.9094,48.3433 947.1672,48.6011 Q947.425,48.8589 947.425,49.2026 Q947.425,49.5464 947.0813,49.9526 Q946.5813,50.5308 945.7844,50.8589 Q944.7063,51.312 943.4094,51.312 Q941.8938,51.312 940.6906,50.687 Q939.7063,50.187 939.0188,49.1167 Q938.3313,48.0464 938.3313,46.7651 L938.3313,45.6089 Q938.3313,44.2808 938.9484,43.1323 Q939.5656,41.9839 940.6594,41.3667 Q941.7531,40.7495 942.9875,40.7495 Q943.7219,40.7495 944.3703,40.9136 Q945.0188,41.0776 945.5656,41.437 Z "/>
        <text fill="#000000" font-family="sans-serif" font-size="12" lengthAdjust="spacingAndGlyphs" textLength="51" x="959.2" y="50.4722">Utilizador</text>
        <line style="stroke: #A80036; stroke-width: 1.5;" x1="918" x2="1023" y1="61.562" y2="61.562"/>
        <rect fill="none" height="6" style="stroke: #C82930; stroke-width: 1.0;" width="6" x="925" y="70.98"/>
        <text fill="#000000" font-family="sans-serif" font-size="11" lengthAdjust="spacingAndGlyphs" textLength="57" x="937" y="76.9809">String nome</text>
        <rect fill="none" height="6" style="stroke: #C82930; stroke-width: 1.0;" width="6" x="925" y="84.8159"/>
        <text fill="#000000" font-family="sans-serif" font-size="11" lengthAdjust="spacingAndGlyphs" textLength="55" x="937" y="90.8169">String email</text>
        <rect fill="none" height="6" style="stroke: #C82930; stroke-width: 1.0;" width="6" x="925" y="98.6518"/>
        <text fill="#000000" font-family="sans-serif" font-size="11" lengthAdjust="spacingAndGlyphs" textLength="81" x="937" y="104.6528">String password</text>
        <!--class Gestor-->
        <rect fill="#FEFECE" filter="url(#f2ah3cuyuabr6)" height="40" style="stroke: #A80036; stroke-width: 1.5;" width="69" x="478" y="99.5621"/>
        <ellipse cx="493" cy="115.5621" fill="#ADD1B2" rx="11" ry="11" style="stroke: #A80036; stroke-width: 1.0;"/>
        <path d="M495.7656,111.4371 Q495.9219,111.2184 496.1094,111.109 Q496.2969,110.9996 496.5156,110.9996 Q496.8906,110.9996 497.125,111.2574 Q497.3594,111.5152 497.3594,112.1246 L497.3594,113.5777 Q497.3594,114.1871 497.125,114.4527 Q496.8906,114.7184 496.5156,114.7184 Q496.1719,114.7184 495.9688,114.5152 Q495.7656,114.3277 495.6563,113.8121 Q495.6094,113.4527 495.4219,113.2652 Q495.0938,112.8902 494.4844,112.6715 Q493.875,112.4527 493.25,112.4527 Q492.4844,112.4527 491.8516,112.7809 Q491.2188,113.109 490.7266,113.859 Q490.2344,114.609 490.2344,115.6402 L490.2344,116.734 Q490.2344,117.9684 491.125,118.7887 Q492.0156,119.609 493.6094,119.609 Q494.5469,119.609 495.2031,119.359 Q495.5938,119.2027 496.0156,118.7652 Q496.2813,118.4996 496.4297,118.4215 Q496.5781,118.3434 496.7813,118.3434 Q497.1094,118.3434 497.3672,118.6012 Q497.625,118.859 497.625,119.2027 Q497.625,119.5465 497.2813,119.9527 Q496.7813,120.5309 495.9844,120.859 Q494.9063,121.3121 493.6094,121.3121 Q492.0938,121.3121 490.8906,120.6871 Q489.9063,120.1871 489.2188,119.1168 Q488.5313,118.0465 488.5313,116.7652 L488.5313,115.609 Q488.5313,114.2809 489.1484,113.1324 Q489.7656,111.984 490.8594,111.3668 Q491.9531,110.7496 493.1875,110.7496 Q493.9219,110.7496 494.5703,110.9137 Q495.2188,111.0777 495.7656,111.4371 Z "/>
        <text fill="#000000" font-family="sans-serif" font-size="12" lengthAdjust="spacingAndGlyphs" textLength="37" x="507" y="120.4723">Gestor</text>
        <line style="stroke: #A80036; stroke-width: 1.5;" x1="479" x2="546" y1="131.5621" y2="131.5621"/>
        <path d="M119.262,62.5621 C166.641,62.5621 234.032,62.5621 279.642,62.5621 " fill="none" style="stroke: #A80036; stroke-width: 1.0;"/>
        <text fill="#000000" font-family="sans-serif" font-size="13" lengthAdjust="spacingAndGlyphs" textLength="86" x="150" y="59.0571">tem registadas</text>
        <polygon fill="#000000" points="239,52.2378,245,55.2378,239,58.2378,239,52.2378" style="stroke: #000000; stroke-width: 1.0;"/>
        <text fill="#000000" font-family="sans-serif" font-size="13" lengthAdjust="spacingAndGlyphs" textLength="7" x="126.9831" y="77.1153">1</text>
        <text fill="#000000" font-family="sans-serif" font-size="13" lengthAdjust="spacingAndGlyphs" textLength="5" x="267.1385" y="77.1943">*</text>
        <path d="M547.25,111.9058 C582.846,103.8309 639.298,91.0245 679.945,81.8037 " fill="none" style="stroke: #A80036; stroke-width: 1.0;"/>
        <text fill="#000000" font-family="sans-serif" font-size="13" lengthAdjust="spacingAndGlyphs" textLength="7" x="603.5" y="86.0572">é</text>
        <polygon fill="#000000" points="613.5,79.2379,619.5,82.2379,613.5,85.2379,613.5,79.2379" style="stroke: #000000; stroke-width: 1.0;"/>
        <text fill="#000000" font-family="sans-serif" font-size="13" lengthAdjust="spacingAndGlyphs" textLength="22" x="555.1133" y="125.4902">0..1</text>
        <text fill="#000000" font-family="sans-serif" font-size="13" lengthAdjust="spacingAndGlyphs" textLength="7" x="665.0057" y="98.1255">1</text>
        <path d="M547.23,130 C575.427,136.9812 616.322,142.9938 650,131.5621 C660.378,128.0392 670.463,122.556 679.771,116.2906 " fill="none" style="stroke: #A80036; stroke-width: 1.0;"/>
        <text fill="#000000" font-family="sans-serif" font-size="13" lengthAdjust="spacingAndGlyphs" textLength="58" x="578" y="128.0572">especifica</text>
        <polygon fill="#000000" points="639,121.2379,645,124.2379,639,127.2379,639,121.2379" style="stroke: #000000; stroke-width: 1.0;"/>
        <text fill="#000000" font-family="sans-serif" font-size="13" lengthAdjust="spacingAndGlyphs" textLength="7" x="555.1149" y="147.3342">1</text>
        <text fill="#000000" font-family="sans-serif" font-size="13" lengthAdjust="spacingAndGlyphs" textLength="5" x="666.953" y="137.6777">*</text>
        <path d="M381.183,61.4177 C443.874,60.2729 554.99,59.2379 650,63.5621 C659.689,64.0031 670.023,64.7263 679.925,65.5444 " fill="none" style="stroke: #A80036; stroke-width: 1.0;"/>
        <text fill="#000000" font-family="sans-serif" font-size="13" lengthAdjust="spacingAndGlyphs" textLength="22" x="495" y="57.0571">tem</text>
        <polygon fill="#000000" points="520,50.2378,526,53.2378,520,56.2378,520,50.2378" style="stroke: #000000; stroke-width: 1.0;"/>
        <text fill="#000000" font-family="sans-serif" font-size="13" lengthAdjust="spacingAndGlyphs" textLength="7" x="389.1411" y="75.9324">1</text>
        <text fill="#000000" font-family="sans-serif" font-size="13" lengthAdjust="spacingAndGlyphs" textLength="20" x="652.1638" y="79.4221">1..*</text>
        <path d="M381.162,78.2885 C411.964,88.0424 450.714,100.3132 477.927,108.9307 " fill="none" style="stroke: #A80036; stroke-width: 1.0;"/>
        <text fill="#000000" font-family="sans-serif" font-size="13" lengthAdjust="spacingAndGlyphs" textLength="22" x="412" y="86.0572">tem</text>
        <polygon fill="#000000" points="437,79.2379,443,82.2379,437,85.2379,437,79.2379" style="stroke: #000000; stroke-width: 1.0;"/>
        <text fill="#000000" font-family="sans-serif" font-size="13" lengthAdjust="spacingAndGlyphs" textLength="7" x="389.117" y="95.2811">1</text>
        <text fill="#000000" font-family="sans-serif" font-size="13" lengthAdjust="spacingAndGlyphs" textLength="7" x="463.0744" y="121.9193">1</text>
        <path d="M781.103,70.5621 C820.747,70.5621 876.185,70.5621 916.658,70.5621 " fill="none" style="stroke: #A80036; stroke-width: 1.0;"/>
        <text fill="#000000" font-family="sans-serif" font-size="13" lengthAdjust="spacingAndGlyphs" textLength="61" x="812" y="67.0572">atua como</text>
        <polygon fill="#000000" points="876,60.2379,882,63.2379,876,66.2379,876,60.2379" style="stroke: #000000; stroke-width: 1.0;"/>
        <text fill="#000000" font-family="sans-serif" font-size="13" lengthAdjust="spacingAndGlyphs" textLength="22" x="788.9959" y="85.0827">0..1</text>
        <text fill="#000000" font-family="sans-serif" font-size="13" lengthAdjust="spacingAndGlyphs" textLength="7" x="901.9527" y="85.1889">1</text>
        <!--
@startuml
hide methods
left to right direction

class Plataforma {
  -String designacao
}

class Organização {
  -String nome
  -String NIF
  -String website
  -String telefone
  -String email
}

class Colaborador {
  -String nome
  -String função
  -String telefone
  -String email
}

class Utilizador {
  -String nome
  -String email
  -String password
}


class Gestor{
}


Plataforma "1" - - "*" Organização : tem registadas >

Gestor "0..1" - - "1" Colaborador: é >
Gestor "1" - - "*" Colaborador: especifica >

Organização "1" - - "1..*" Colaborador: tem >
Organização "1" - - "1" Gestor: tem >

Colaborador "0..1" - - "1" Utilizador: atua como >


@enduml

PlantUML version 2017.11(Wed Apr 19 17:18:59 BST 2017)
(GPL source distribution)
Java Runtime: Java(TM) SE Runtime Environment
JVM: Java HotSpot(TM) 64-Bit Server VM
Java Version: 1.8.0_111-b14
Operating System: Windows 10
OS Version: 10.0
Default Encoding: UTF-8
Language: en
Country: US
-->
    </g>
</svg>
