@startuml
skinparam classAttributeIconSize 0
Class RegistarColaboradorUI

Class Plataforma{
+org procurarOrganizacao(Sessao)
}

Class RegistarColaboradorController{
+novoColaboradorOrganizacao(NomeC, função, tlfC, emailC)
+criarColaborador()
+getColaboradorString()
}

Class Organização{
+colab novoColaboradorOrganizacao(nomeC, função, tlfC, emailC)
-validarColaboradorOrganização(colab)
-addColaborador()
+criarColaborador(colab)
}

Class AutorizacaoFacade{
+registaUtilizadorComPapeis(nomeC,emailC,pwd,listaPapel)
}

Class Colaborador{
-String nome
-String funcao
-String telefone
-String emails
+Colaborador(nome,função,tlf, email)
+getNome()
+getEmail()
+gerarPWD()
}

RegistarColaboradorUI ..|> RegistarColaboradorController
RegistarColaboradorController ..|> Organização
RegistarColaboradorController ..|> Plataforma
Organização ..|> AutorizacaoFacade
Organização "1" -- "1..*" Colaborador: tem >
@enduml
