<?xml version="1.0" encoding="UTF-8"?><svg xmlns="http://www.w3.org/2000/svg" xmlns:xlink="http://www.w3.org/1999/xlink" contentScriptType="application/ecmascript" contentStyleType="text/css" height="431px" preserveAspectRatio="none" style="width:1466px;height:431px;" version="1.1" viewBox="0 0 1466 431" width="1466px" zoomAndPan="magnify">
    <defs>
        <filter height="300%" id="f1nazg98vp4dt2" width="300%" x="-1" y="-1">
            <feGaussianBlur result="blurOut" stdDeviation="2.0"/>
            <feColorMatrix in="blurOut" result="blurOut2" type="matrix" values="0 0 0 0 0 0 0 0 0 0 0 0 0 0 0 0 0 0 .4 0"/>
            <feOffset dx="4.0" dy="4.0" in="blurOut2" result="blurOut3"/>
            <feBlend in="SourceGraphic" in2="blurOut3" mode="normal"/>
        </filter>
    </defs>
    <g>
        <!--class Plataforma-->
        <rect fill="#FEFECE" filter="url(#f1nazg98vp4dt2)" height="52.9551" style="stroke: #A80036; stroke-width: 1.5;" width="114" x="6" y="156.44"/>
        <ellipse cx="30" cy="172.44" fill="#ADD1B2" rx="11" ry="11" style="stroke: #A80036; stroke-width: 1.0;"/>
        <path d="M32.4731,178.5831 Q31.8921,178.8819 31.2529,179.0313 Q30.6138,179.1807 29.9082,179.1807 Q27.4014,179.1807 26.0815,177.5289 Q24.7617,175.877 24.7617,172.7559 Q24.7617,169.6265 26.0815,167.9747 Q27.4014,166.3228 29.9082,166.3228 Q30.6138,166.3228 31.2612,166.4722 Q31.9087,166.6216 32.4731,166.9205 L32.4731,169.6431 Q31.8423,169.0621 31.2488,168.7923 Q30.6553,168.5225 30.0244,168.5225 Q28.6797,168.5225 27.9949,169.5892 Q27.3101,170.6558 27.3101,172.7559 Q27.3101,174.8477 27.9949,175.9144 Q28.6797,176.981 30.0244,176.981 Q30.6553,176.981 31.2488,176.7112 Q31.8423,176.4415 32.4731,175.8604 Z "/>
        <text fill="#000000" font-family="sans-serif" font-size="12" lengthAdjust="spacingAndGlyphs" textLength="62" x="46" y="176.9752">Plataforma</text>
        <line style="stroke: #A80036; stroke-width: 1.5;" x1="7" x2="119" y1="188.44" y2="188.44"/>
        <text fill="#000000" font-family="sans-serif" font-size="11" lengthAdjust="spacingAndGlyphs" textLength="102" x="12" y="203.0748">-String designacao</text>
        <!--class AreaAtividade-->
        <rect fill="#FEFECE" filter="url(#f1nazg98vp4dt2)" height="78.8652" style="stroke: #A80036; stroke-width: 1.5;" width="131" x="1326" y="95.44"/>
        <ellipse cx="1349.1" cy="111.44" fill="#ADD1B2" rx="11" ry="11" style="stroke: #A80036; stroke-width: 1.0;"/>
        <path d="M1351.5731,117.5831 Q1350.9921,117.8819 1350.3529,118.0313 Q1349.7138,118.1807 1349.0082,118.1807 Q1346.5014,118.1807 1345.1815,116.5289 Q1343.8617,114.877 1343.8617,111.7559 Q1343.8617,108.6265 1345.1815,106.9747 Q1346.5014,105.3228 1349.0082,105.3228 Q1349.7138,105.3228 1350.3612,105.4722 Q1351.0087,105.6216 1351.5731,105.9205 L1351.5731,108.6431 Q1350.9423,108.0621 1350.3488,107.7923 Q1349.7553,107.5225 1349.1244,107.5225 Q1347.7797,107.5225 1347.0949,108.5892 Q1346.4101,109.6558 1346.4101,111.7559 Q1346.4101,113.8477 1347.0949,114.9144 Q1347.7797,115.981 1349.1244,115.981 Q1349.7553,115.981 1350.3488,115.7112 Q1350.9423,115.4415 1351.5731,114.8604 Z "/>
        <text fill="#000000" font-family="sans-serif" font-size="12" lengthAdjust="spacingAndGlyphs" textLength="81" x="1364.9" y="115.9752">AreaAtividade</text>
        <line style="stroke: #A80036; stroke-width: 1.5;" x1="1327" x2="1456" y1="127.44" y2="127.44"/>
        <text fill="#000000" font-family="sans-serif" font-size="11" lengthAdjust="spacingAndGlyphs" textLength="78" x="1332" y="142.0748">-String codigo</text>
        <text fill="#000000" font-family="sans-serif" font-size="11" lengthAdjust="spacingAndGlyphs" textLength="95" x="1332" y="155.0298">-String descBreve</text>
        <text fill="#000000" font-family="sans-serif" font-size="11" lengthAdjust="spacingAndGlyphs" textLength="119" x="1332" y="167.9849">-String descDetalhada</text>
        <!--class CompetenciaTecnica-->
        <rect fill="#FEFECE" filter="url(#f1nazg98vp4dt2)" height="78.8652" style="stroke: #A80036; stroke-width: 1.5;" width="151" x="1033" y="95.44"/>
        <ellipse cx="1048" cy="111.44" fill="#ADD1B2" rx="11" ry="11" style="stroke: #A80036; stroke-width: 1.0;"/>
        <path d="M1050.4731,117.5831 Q1049.8921,117.8819 1049.2529,118.0313 Q1048.6138,118.1807 1047.9082,118.1807 Q1045.4014,118.1807 1044.0815,116.5289 Q1042.7617,114.877 1042.7617,111.7559 Q1042.7617,108.6265 1044.0815,106.9747 Q1045.4014,105.3228 1047.9082,105.3228 Q1048.6138,105.3228 1049.2612,105.4722 Q1049.9087,105.6216 1050.4731,105.9205 L1050.4731,108.6431 Q1049.8423,108.0621 1049.2488,107.7923 Q1048.6553,107.5225 1048.0244,107.5225 Q1046.6797,107.5225 1045.9949,108.5892 Q1045.3101,109.6558 1045.3101,111.7559 Q1045.3101,113.8477 1045.9949,114.9144 Q1046.6797,115.981 1048.0244,115.981 Q1048.6553,115.981 1049.2488,115.7112 Q1049.8423,115.4415 1050.4731,114.8604 Z "/>
        <text fill="#000000" font-family="sans-serif" font-size="12" lengthAdjust="spacingAndGlyphs" textLength="119" x="1062" y="115.9752">CompetenciaTecnica</text>
        <line style="stroke: #A80036; stroke-width: 1.5;" x1="1034" x2="1183" y1="127.44" y2="127.44"/>
        <text fill="#000000" font-family="sans-serif" font-size="11" lengthAdjust="spacingAndGlyphs" textLength="78" x="1039" y="142.0748">-String codigo</text>
        <text fill="#000000" font-family="sans-serif" font-size="11" lengthAdjust="spacingAndGlyphs" textLength="95" x="1039" y="155.0298">-String descBreve</text>
        <text fill="#000000" font-family="sans-serif" font-size="11" lengthAdjust="spacingAndGlyphs" textLength="119" x="1039" y="167.9849">-String descDetalhada</text>
        <!--class TipoCompetencia-->
        <rect fill="#FEFECE" filter="url(#f1nazg98vp4dt2)" height="52.9551" style="stroke: #A80036; stroke-width: 1.5;" width="153" x="738" y="157.44"/>
        <ellipse cx="762" cy="173.44" fill="#ADD1B2" rx="11" ry="11" style="stroke: #A80036; stroke-width: 1.0;"/>
        <path d="M764.4731,179.5831 Q763.8921,179.8819 763.2529,180.0313 Q762.6138,180.1807 761.9082,180.1807 Q759.4014,180.1807 758.0815,178.5289 Q756.7617,176.877 756.7617,173.7559 Q756.7617,170.6265 758.0815,168.9747 Q759.4014,167.3228 761.9082,167.3228 Q762.6138,167.3228 763.2612,167.4722 Q763.9087,167.6216 764.4731,167.9205 L764.4731,170.6431 Q763.8423,170.0621 763.2488,169.7923 Q762.6553,169.5225 762.0244,169.5225 Q760.6797,169.5225 759.9949,170.5892 Q759.3101,171.6558 759.3101,173.7559 Q759.3101,175.8477 759.9949,176.9144 Q760.6797,177.981 762.0244,177.981 Q762.6553,177.981 763.2488,177.7112 Q763.8423,177.4415 764.4731,176.8604 Z "/>
        <text fill="#000000" font-family="sans-serif" font-size="12" lengthAdjust="spacingAndGlyphs" textLength="101" x="778" y="177.9752">TipoCompetencia</text>
        <line style="stroke: #A80036; stroke-width: 1.5;" x1="739" x2="890" y1="189.44" y2="189.44"/>
        <text fill="#000000" font-family="sans-serif" font-size="11" lengthAdjust="spacingAndGlyphs" textLength="141" x="744" y="204.0748">-boolean obrigatoriedade;</text>
        <!--class Tarefa-->
        <rect fill="#FEFECE" filter="url(#f1nazg98vp4dt2)" height="117.7305" style="stroke: #A80036; stroke-width: 1.5;" width="114" x="237" y="235.94"/>
        <ellipse cx="271.8" cy="251.94" fill="#ADD1B2" rx="11" ry="11" style="stroke: #A80036; stroke-width: 1.0;"/>
        <path d="M274.2731,258.0831 Q273.6921,258.3819 273.0529,258.5313 Q272.4138,258.6807 271.7082,258.6807 Q269.2014,258.6807 267.8815,257.0289 Q266.5617,255.377 266.5617,252.2559 Q266.5617,249.1265 267.8815,247.4747 Q269.2014,245.8228 271.7082,245.8228 Q272.4138,245.8228 273.0612,245.9722 Q273.7087,246.1216 274.2731,246.4205 L274.2731,249.1431 Q273.6423,248.5621 273.0488,248.2923 Q272.4553,248.0225 271.8244,248.0225 Q270.4797,248.0225 269.7949,249.0892 Q269.1101,250.1558 269.1101,252.2559 Q269.1101,254.3477 269.7949,255.4144 Q270.4797,256.481 271.8244,256.481 Q272.4553,256.481 273.0488,256.2112 Q273.6423,255.9415 274.2731,255.3604 Z "/>
        <text fill="#000000" font-family="sans-serif" font-size="12" lengthAdjust="spacingAndGlyphs" textLength="38" x="290.2" y="256.4752">Tarefa</text>
        <line style="stroke: #A80036; stroke-width: 1.5;" x1="238" x2="350" y1="267.94" y2="267.94"/>
        <text fill="#000000" font-family="sans-serif" font-size="11" lengthAdjust="spacingAndGlyphs" textLength="86" x="243" y="282.5748">-String refUnica</text>
        <text fill="#000000" font-family="sans-serif" font-size="11" lengthAdjust="spacingAndGlyphs" textLength="102" x="243" y="295.5298">-String designacao</text>
        <text fill="#000000" font-family="sans-serif" font-size="11" lengthAdjust="spacingAndGlyphs" textLength="93" x="243" y="308.4849">-String dInformal</text>
        <text fill="#000000" font-family="sans-serif" font-size="11" lengthAdjust="spacingAndGlyphs" textLength="89" x="243" y="321.44">-String dTecnica</text>
        <text fill="#000000" font-family="sans-serif" font-size="11" lengthAdjust="spacingAndGlyphs" textLength="91" x="243" y="334.3951">-Double duracao</text>
        <text fill="#000000" font-family="sans-serif" font-size="11" lengthAdjust="spacingAndGlyphs" textLength="77" x="243" y="347.3502">-Double custo</text>
        <!--class CategoriaDeTarefa-->
        <rect fill="#FEFECE" filter="url(#f1nazg98vp4dt2)" height="65.9102" style="stroke: #A80036; stroke-width: 1.5;" width="153" x="468" y="258.94"/>
        <ellipse cx="488.4" cy="274.94" fill="#ADD1B2" rx="11" ry="11" style="stroke: #A80036; stroke-width: 1.0;"/>
        <path d="M490.8731,281.0831 Q490.2921,281.3819 489.6529,281.5313 Q489.0138,281.6807 488.3082,281.6807 Q485.8014,281.6807 484.4815,280.0289 Q483.1617,278.377 483.1617,275.2559 Q483.1617,272.1265 484.4815,270.4747 Q485.8014,268.8228 488.3082,268.8228 Q489.0138,268.8228 489.6612,268.9722 Q490.3087,269.1216 490.8731,269.4205 L490.8731,272.1431 Q490.2423,271.5621 489.6488,271.2923 Q489.0553,271.0225 488.4244,271.0225 Q487.0797,271.0225 486.3949,272.0892 Q485.7101,273.1558 485.7101,275.2559 Q485.7101,277.3477 486.3949,278.4144 Q487.0797,279.481 488.4244,279.481 Q489.0553,279.481 489.6488,279.2112 Q490.2423,278.9415 490.8731,278.3604 Z "/>
        <text fill="#000000" font-family="sans-serif" font-size="12" lengthAdjust="spacingAndGlyphs" textLength="109" x="503.6" y="279.4752">CategoriaDeTarefa</text>
        <line style="stroke: #A80036; stroke-width: 1.5;" x1="469" x2="620" y1="290.94" y2="290.94"/>
        <text fill="#000000" font-family="sans-serif" font-size="11" lengthAdjust="spacingAndGlyphs" textLength="141" x="474" y="305.5748">-String idenficadorInterno</text>
        <text fill="#000000" font-family="sans-serif" font-size="11" lengthAdjust="spacingAndGlyphs" textLength="93" x="474" y="318.5298">-String descrição</text>
        <path d="M84.09,156.14 C120.4,111.06 201.71,24.94 293,24.94 C293,24.94 293,24.94 1109.5,24.94 C1189.26,24.94 1273.54,63.85 1328.75,95.38 " fill="none" style="stroke: #A80036; stroke-width: 1.0;"/>
        <text fill="#000000" font-family="sans-serif" font-size="13" lengthAdjust="spacingAndGlyphs" textLength="42" x="652" y="21.5084">possui</text>
        <polygon fill="#000000" points="697,15.0953,703,18.0953,697,21.0953,697,15.0953" style="stroke: #000000; stroke-width: 1.0;"/>
        <text fill="#000000" font-family="sans-serif" font-size="13" lengthAdjust="spacingAndGlyphs" textLength="8" x="80.0421" y="145.8176">1</text>
        <text fill="#000000" font-family="sans-serif" font-size="13" lengthAdjust="spacingAndGlyphs" textLength="6" x="1311.8602" y="85.1909">*</text>
        <path d="M106.08,156.36 C150.7,130.78 224.1,95.94 293,95.94 C293,95.94 293,95.94 815.5,95.94 C889.92,95.94 974.07,108.54 1032.85,119.41 " fill="none" style="stroke: #A80036; stroke-width: 1.0;"/>
        <text fill="#000000" font-family="sans-serif" font-size="13" lengthAdjust="spacingAndGlyphs" textLength="42" x="517" y="92.5084">possui</text>
        <polygon fill="#000000" points="562,86.0953,568,89.0953,562,92.0953,562,86.0953" style="stroke: #000000; stroke-width: 1.0;"/>
        <text fill="#000000" font-family="sans-serif" font-size="13" lengthAdjust="spacingAndGlyphs" textLength="8" x="107.6058" y="145.6647">1</text>
        <text fill="#000000" font-family="sans-serif" font-size="13" lengthAdjust="spacingAndGlyphs" textLength="6" x="1019.1079" y="131.2098">*</text>
        <path d="M76.53,209.48 C100.23,256.14 156.57,351.45 237,388.94 C327.17,430.96 440.37,367.44 500.81,324.98 " fill="none" style="stroke: #A80036; stroke-width: 1.0;"/>
        <text fill="#000000" font-family="sans-serif" font-size="13" lengthAdjust="spacingAndGlyphs" textLength="42" x="266.5" y="385.5084">possui</text>
        <polygon fill="#000000" points="311.5,379.0953,317.5,382.0953,311.5,385.0953,311.5,379.0953" style="stroke: #000000; stroke-width: 1.0;"/>
        <text fill="#000000" font-family="sans-serif" font-size="13" lengthAdjust="spacingAndGlyphs" textLength="8" x="70.7338" y="229.9612">1</text>
        <text fill="#000000" font-family="sans-serif" font-size="13" lengthAdjust="spacingAndGlyphs" textLength="6" x="485.9097" y="345.3145">*</text>
        <path d="M117.16,209.66 C128.01,215.08 139.36,220.71 150,225.94 C178.58,239.98 210.48,255.39 236.88,268.09 " fill="none" style="stroke: #A80036; stroke-width: 1.0;"/>
        <text fill="#000000" font-family="sans-serif" font-size="13" lengthAdjust="spacingAndGlyphs" textLength="42" x="151" y="222.5084">possui</text>
        <polygon fill="#000000" points="196,216.0953,202,219.0953,196,222.0953,196,216.0953" style="stroke: #000000; stroke-width: 1.0;"/>
        <text fill="#000000" font-family="sans-serif" font-size="13" lengthAdjust="spacingAndGlyphs" textLength="8" x="120.1325" y="229.7529">1</text>
        <text fill="#000000" font-family="sans-serif" font-size="13" lengthAdjust="spacingAndGlyphs" textLength="6" x="223.1771" y="278.2163">*</text>
        <path d="M120.03,183.01 C252.91,183.19 587.26,183.64 737.88,183.84 " fill="none" style="stroke: #A80036; stroke-width: 1.0;"/>
        <text fill="#000000" font-family="sans-serif" font-size="13" lengthAdjust="spacingAndGlyphs" textLength="42" x="382" y="180.5084">possui</text>
        <polygon fill="#000000" points="427,174.0953,433,177.0953,427,180.0953,427,174.0953" style="stroke: #000000; stroke-width: 1.0;"/>
        <text fill="#000000" font-family="sans-serif" font-size="13" lengthAdjust="spacingAndGlyphs" textLength="8" x="127.8495" y="196.571">1</text>
        <text fill="#000000" font-family="sans-serif" font-size="13" lengthAdjust="spacingAndGlyphs" textLength="6" x="724.0424" y="197.1543">*</text>
        <path d="M621.21,282.92 C741.29,267.98 982.46,235.39 1184,191.94 C1231.99,181.59 1285.39,166.76 1325.87,154.82 " fill="none" style="stroke: #A80036; stroke-width: 1.0;"/>
        <text fill="#000000" font-family="sans-serif" font-size="13" lengthAdjust="spacingAndGlyphs" textLength="42" x="934.5" y="223.5084">possui</text>
        <polygon fill="#000000" points="979.5,217.0953,985.5,220.0953,979.5,223.0953,979.5,217.0953" style="stroke: #000000; stroke-width: 1.0;"/>
        <text fill="#000000" font-family="sans-serif" font-size="13" lengthAdjust="spacingAndGlyphs" textLength="6" x="629.0565" y="295.3584">*</text>
        <text fill="#000000" font-family="sans-serif" font-size="13" lengthAdjust="spacingAndGlyphs" textLength="8" x="1309.819" y="170.5799">1</text>
        <path d="M351.08,294.26 C385.58,293.84 430.23,293.31 467.84,292.85 " fill="none" style="stroke: #A80036; stroke-width: 1.0;"/>
        <text fill="#000000" font-family="sans-serif" font-size="13" lengthAdjust="spacingAndGlyphs" textLength="42" x="382" y="290.5084">possui</text>
        <polygon fill="#000000" points="427,284.0953,433,287.0953,427,290.0953,427,284.0953" style="stroke: #000000; stroke-width: 1.0;"/>
        <text fill="#000000" font-family="sans-serif" font-size="13" lengthAdjust="spacingAndGlyphs" textLength="6" x="359.1532" y="307.7838">*</text>
        <text fill="#000000" font-family="sans-serif" font-size="13" lengthAdjust="spacingAndGlyphs" textLength="8" x="451.9" y="306.2659">1</text>
        <path d="M621.19,261.78 C648.56,250.85 679.68,238.37 708,226.94 C721.11,221.64 735.13,215.95 748.53,210.5 " fill="none" style="stroke: #A80036; stroke-width: 1.0;"/>
        <text fill="#000000" font-family="sans-serif" font-size="13" lengthAdjust="spacingAndGlyphs" textLength="24" x="661" y="223.5084">tem</text>
        <polygon fill="#000000" points="688,217.0953,694,220.0953,688,223.0953,688,217.0953" style="stroke: #000000; stroke-width: 1.0;"/>
        <text fill="#000000" font-family="sans-serif" font-size="13" lengthAdjust="spacingAndGlyphs" textLength="8" x="628.8808" y="272.2077">1</text>
        <text fill="#000000" font-family="sans-serif" font-size="13" lengthAdjust="spacingAndGlyphs" textLength="6" x="726.5807" y="230.9858">*</text>
        <path d="M891.08,171.26 C934.76,163.93 989.5,154.74 1033,147.44 " fill="none" style="stroke: #A80036; stroke-width: 1.0;"/>
        <text fill="#000000" font-family="sans-serif" font-size="13" lengthAdjust="spacingAndGlyphs" textLength="67" x="922" y="150.5084">referente a</text>
        <polygon fill="#000000" points="992,144.0953,998,147.0953,992,150.0953,992,144.0953" style="stroke: #000000; stroke-width: 1.0;"/>
        <text fill="#000000" font-family="sans-serif" font-size="13" lengthAdjust="spacingAndGlyphs" textLength="6" x="898.9137" y="183.3359">*</text>
        <text fill="#000000" font-family="sans-serif" font-size="13" lengthAdjust="spacingAndGlyphs" textLength="8" x="1016.8016" y="162.0938">1</text>
        <path d="M1184.07,134.94 C1228.13,134.94 1283.38,134.94 1325.63,134.94 " fill="none" style="stroke: #A80036; stroke-width: 1.0;"/>
        <text fill="#000000" font-family="sans-serif" font-size="13" lengthAdjust="spacingAndGlyphs" textLength="67" x="1215" y="131.5084">referente a</text>
        <polygon fill="#000000" points="1285,125.0953,1291,128.0953,1285,131.0953,1285,125.0953" style="stroke: #000000; stroke-width: 1.0;"/>
        <text fill="#000000" font-family="sans-serif" font-size="13" lengthAdjust="spacingAndGlyphs" textLength="6" x="1192.1725" y="148.3048">*</text>
        <text fill="#000000" font-family="sans-serif" font-size="13" lengthAdjust="spacingAndGlyphs" textLength="8" x="1309.988" y="148.353">1</text>
        <!--
@startuml
hide methods
skinparam classAttributeIconSize 0
left to right direction

class Plataforma {
  -String designacao
}

class AreaAtividade {
  -String codigo
  -String descBreve
  -String descDetalhada
 
}

class CompetenciaTecnica {
  -String codigo
  -String descBreve
  -String descDetalhada
}


class TipoCompetencia{
  -boolean obrigatoriedade;
}



class Tarefa {
  -String refUnica
    -String designacao
    -String dInformal
    -String dTecnica
    -Double duracao
    -Double custo
}

class CategoriaDeTarefa {
  -String idenficadorInterno
  -String descrição
}


Plataforma "1" - - "*" AreaAtividade : possui >
Plataforma "1" - - "*" CompetenciaTecnica : possui >
Plataforma "1" - - "*" CategoriaDeTarefa: possui >
Plataforma "1" - - "*" Tarefa: possui >
Plataforma "1" - - "*" TipoCompetencia: possui >



CategoriaDeTarefa "*" - - "1" AreaAtividade: possui >

Tarefa "*" - - "1" CategoriaDeTarefa: possui >

CategoriaDeTarefa "1" - - "*" TipoCompetencia: tem >

TipoCompetencia "*" - - "1" CompetenciaTecnica: referente a >

CompetenciaTecnica "*" - - "1" AreaAtividade : referente a >
@enduml

PlantUML version 2017.11(Wed Apr 19 17:18:59 WEST 2017)
(GPL source distribution)
Java Runtime: Java(TM) SE Runtime Environment
JVM: Java HotSpot(TM) 64-Bit Server VM
Java Version: 1.8.0_191-b12
Operating System: Mac OS X
OS Version: 10.15.2
Default Encoding: UTF-8
Language: pt
Country: PT
-->
    </g>
</svg>
