<?xml version="1.0" encoding="UTF-8"?><svg xmlns="http://www.w3.org/2000/svg" xmlns:xlink="http://www.w3.org/1999/xlink" contentScriptType="application/ecmascript" contentStyleType="text/css" height="779px" preserveAspectRatio="none" style="width:909px;height:779px;" version="1.1" viewBox="0 0 909 779" width="909px" zoomAndPan="magnify">
    <defs>
        <filter height="300%" id="fj81wllqlm33u" width="300%" x="-1" y="-1">
            <feGaussianBlur result="blurOut" stdDeviation="2.0"/>
            <feColorMatrix in="blurOut" result="blurOut2" type="matrix" values="0 0 0 0 0 0 0 0 0 0 0 0 0 0 0 0 0 0 .4 0"/>
            <feOffset dx="4.0" dy="4.0" in="blurOut2" result="blurOut3"/>
            <feBlend in="SourceGraphic" in2="blurOut3" mode="normal"/>
        </filter>
    </defs>
    <g>
        <!--class Tarefa-->
        <rect fill="#FEFECE" filter="url(#fj81wllqlm33u)" height="138.6855" style="stroke: #A80036; stroke-width: 1.5;" width="511" x="6" y="481"/>
        <ellipse cx="238.25" cy="497" fill="#ADD1B2" rx="11" ry="11" style="stroke: #A80036; stroke-width: 1.0;"/>
        <path d="M240.7231,503.1431 Q240.1421,503.4419 239.5029,503.5913 Q238.8638,503.7407 238.1582,503.7407 Q235.6514,503.7407 234.3315,502.0889 Q233.0117,500.437 233.0117,497.3159 Q233.0117,494.1865 234.3315,492.5347 Q235.6514,490.8828 238.1582,490.8828 Q238.8638,490.8828 239.5112,491.0322 Q240.1587,491.1816 240.7231,491.4805 L240.7231,494.2031 Q240.0923,493.6221 239.4988,493.3523 Q238.9053,493.0825 238.2744,493.0825 Q236.9297,493.0825 236.2449,494.1492 Q235.5601,495.2158 235.5601,497.3159 Q235.5601,499.4077 236.2449,500.4744 Q236.9297,501.541 238.2744,501.541 Q238.9053,501.541 239.4988,501.2712 Q240.0923,501.0015 240.7231,500.4204 Z "/>
        <text fill="#000000" font-family="sans-serif" font-size="12" lengthAdjust="spacingAndGlyphs" textLength="38" x="258.75" y="501.5352">Tarefa</text>
        <line style="stroke: #A80036; stroke-width: 1.5;" x1="7" x2="516" y1="513" y2="513"/>
        <text fill="#000000" font-family="sans-serif" font-size="11" lengthAdjust="spacingAndGlyphs" textLength="86" x="12" y="527.6348">-String refUnica</text>
        <text fill="#000000" font-family="sans-serif" font-size="11" lengthAdjust="spacingAndGlyphs" textLength="102" x="12" y="540.5898">-String designacao</text>
        <text fill="#000000" font-family="sans-serif" font-size="11" lengthAdjust="spacingAndGlyphs" textLength="93" x="12" y="553.5449">-String dInformal</text>
        <text fill="#000000" font-family="sans-serif" font-size="11" lengthAdjust="spacingAndGlyphs" textLength="89" x="12" y="566.5">-String dTecnica</text>
        <text fill="#000000" font-family="sans-serif" font-size="11" lengthAdjust="spacingAndGlyphs" textLength="91" x="12" y="579.4551">-Double duracao</text>
        <text fill="#000000" font-family="sans-serif" font-size="11" lengthAdjust="spacingAndGlyphs" textLength="77" x="12" y="592.4102">-Double custo</text>
        <line style="stroke: #A80036; stroke-width: 1.5;" x1="7" x2="516" y1="598.7305" y2="598.7305"/>
        <text fill="#000000" font-family="sans-serif" font-size="11" lengthAdjust="spacingAndGlyphs" textLength="499" x="12" y="613.3652">+Tarefa(refUnica, designacao, dInformal, dTecnica, duracao, custo, CategoriaDeTarefa categ)</text>
        <!--class Plataforma-->
        <rect fill="#FEFECE" filter="url(#fj81wllqlm33u)" height="138.6855" style="stroke: #A80036; stroke-width: 1.5;" width="574" x="213.5" y="265"/>
        <ellipse cx="465.25" cy="281" fill="#ADD1B2" rx="11" ry="11" style="stroke: #A80036; stroke-width: 1.0;"/>
        <path d="M467.7231,287.1431 Q467.1421,287.4419 466.5029,287.5913 Q465.8638,287.7407 465.1582,287.7407 Q462.6514,287.7407 461.3315,286.0889 Q460.0117,284.437 460.0117,281.3159 Q460.0117,278.1865 461.3315,276.5347 Q462.6514,274.8828 465.1582,274.8828 Q465.8638,274.8828 466.5112,275.0322 Q467.1587,275.1816 467.7231,275.4805 L467.7231,278.2031 Q467.0923,277.6221 466.4988,277.3523 Q465.9053,277.0825 465.2744,277.0825 Q463.9297,277.0825 463.2449,278.1492 Q462.5601,279.2158 462.5601,281.3159 Q462.5601,283.4077 463.2449,284.4744 Q463.9297,285.541 465.2744,285.541 Q465.9053,285.541 466.4988,285.2712 Q467.0923,285.0015 467.7231,284.4204 Z "/>
        <text fill="#000000" font-family="sans-serif" font-size="12" lengthAdjust="spacingAndGlyphs" textLength="62" x="485.75" y="285.5352">Plataforma</text>
        <line style="stroke: #A80036; stroke-width: 1.5;" x1="214.5" x2="786.5" y1="297" y2="297"/>
        <text fill="#000000" font-family="sans-serif" font-size="11" lengthAdjust="spacingAndGlyphs" textLength="102" x="219.5" y="311.6348">-String designacao</text>
        <line style="stroke: #A80036; stroke-width: 1.5;" x1="214.5" x2="786.5" y1="317.9551" y2="317.9551"/>
        <text fill="#000000" font-family="sans-serif" font-size="11" lengthAdjust="spacingAndGlyphs" textLength="126" x="219.5" y="332.5898">+getCategoriasTarefa()</text>
        <text fill="#000000" font-family="sans-serif" font-size="11" lengthAdjust="spacingAndGlyphs" textLength="170" x="219.5" y="345.5449">+getCategoriaByID(String catId)</text>
        <text fill="#000000" font-family="sans-serif" font-size="11" lengthAdjust="spacingAndGlyphs" textLength="562" x="219.5" y="358.5">+Tarefa novaTarefa(refUnica, designacao, dInformal, dTecnica, duracao, custo, CategoriaDeTarefa categ)</text>
        <text fill="#000000" font-family="sans-serif" font-size="11" lengthAdjust="spacingAndGlyphs" textLength="150" x="219.5" y="371.4551">+validaTarefa(Tarefa tarefa)</text>
        <text fill="#000000" font-family="sans-serif" font-size="11" lengthAdjust="spacingAndGlyphs" textLength="156" x="219.5" y="384.4102">+registaTarefa(Tarefa tarefa)</text>
        <text fill="#000000" font-family="sans-serif" font-size="11" lengthAdjust="spacingAndGlyphs" textLength="136" x="219.5" y="397.3652">-addTarefa(Tarefa tarefa)</text>
        <!--class EspecificarTarefaController-->
        <rect fill="#FEFECE" filter="url(#fj81wllqlm33u)" height="86.8652" style="stroke: #A80036; stroke-width: 1.5;" width="434" x="283.5" y="117"/>
        <ellipse cx="418.25" cy="133" fill="#ADD1B2" rx="11" ry="11" style="stroke: #A80036; stroke-width: 1.0;"/>
        <path d="M420.7231,139.1431 Q420.1421,139.4419 419.5029,139.5913 Q418.8638,139.7407 418.1582,139.7407 Q415.6514,139.7407 414.3315,138.0889 Q413.0117,136.437 413.0117,133.3159 Q413.0117,130.1865 414.3315,128.5347 Q415.6514,126.8828 418.1582,126.8828 Q418.8638,126.8828 419.5112,127.0322 Q420.1587,127.1816 420.7231,127.4805 L420.7231,130.2031 Q420.0923,129.6221 419.4988,129.3523 Q418.9053,129.0825 418.2744,129.0825 Q416.9297,129.0825 416.2449,130.1492 Q415.5601,131.2158 415.5601,133.3159 Q415.5601,135.4077 416.2449,136.4744 Q416.9297,137.541 418.2744,137.541 Q418.9053,137.541 419.4988,137.2712 Q420.0923,137.0015 420.7231,136.4204 Z "/>
        <text fill="#000000" font-family="sans-serif" font-size="12" lengthAdjust="spacingAndGlyphs" textLength="156" x="438.75" y="137.5352">EspecificarTarefaController</text>
        <line style="stroke: #A80036; stroke-width: 1.5;" x1="284.5" x2="716.5" y1="149" y2="149"/>
        <line style="stroke: #A80036; stroke-width: 1.5;" x1="284.5" x2="716.5" y1="157" y2="157"/>
        <text fill="#000000" font-family="sans-serif" font-size="11" lengthAdjust="spacingAndGlyphs" textLength="129" x="289.5" y="171.6348">+getCategoriasTarefa();</text>
        <text fill="#000000" font-family="sans-serif" font-size="11" lengthAdjust="spacingAndGlyphs" textLength="422" x="289.5" y="184.5898">+novaTarefa(refUnica, designacao, dInformal, dTecnica, duracao, custo, categ)</text>
        <text fill="#000000" font-family="sans-serif" font-size="11" lengthAdjust="spacingAndGlyphs" textLength="88" x="289.5" y="197.5449">+registaTarefa()</text>
        <!--class EspecificarTarefaUI-->
        <rect fill="#FEFECE" filter="url(#fj81wllqlm33u)" height="48" style="stroke: #A80036; stroke-width: 1.5;" width="143" x="429" y="8"/>
        <ellipse cx="444" cy="24" fill="#ADD1B2" rx="11" ry="11" style="stroke: #A80036; stroke-width: 1.0;"/>
        <path d="M446.4731,30.1431 Q445.8921,30.4419 445.2529,30.5913 Q444.6138,30.7407 443.9082,30.7407 Q441.4014,30.7407 440.0815,29.0889 Q438.7617,27.437 438.7617,24.3159 Q438.7617,21.1865 440.0815,19.5347 Q441.4014,17.8828 443.9082,17.8828 Q444.6138,17.8828 445.2612,18.0322 Q445.9087,18.1816 446.4731,18.4805 L446.4731,21.2031 Q445.8423,20.6221 445.2488,20.3523 Q444.6553,20.0825 444.0244,20.0825 Q442.6797,20.0825 441.9949,21.1492 Q441.3101,22.2158 441.3101,24.3159 Q441.3101,26.4077 441.9949,27.4744 Q442.6797,28.541 444.0244,28.541 Q444.6553,28.541 445.2488,28.2712 Q445.8423,28.0015 446.4731,27.4204 Z "/>
        <text fill="#000000" font-family="sans-serif" font-size="12" lengthAdjust="spacingAndGlyphs" textLength="111" x="458" y="28.5352">EspecificarTarefaUI</text>
        <line style="stroke: #A80036; stroke-width: 1.5;" x1="430" x2="571" y1="40" y2="40"/>
        <line style="stroke: #A80036; stroke-width: 1.5;" x1="430" x2="571" y1="48" y2="48"/>
        <!--class CategoriaDeTarefa-->
        <rect fill="#FEFECE" filter="url(#fj81wllqlm33u)" height="73.9102" style="stroke: #A80036; stroke-width: 1.5;" width="141" x="517" y="697"/>
        <ellipse cx="532" cy="713" fill="#ADD1B2" rx="11" ry="11" style="stroke: #A80036; stroke-width: 1.0;"/>
        <path d="M534.4731,719.1431 Q533.8921,719.4419 533.2529,719.5913 Q532.6138,719.7407 531.9082,719.7407 Q529.4014,719.7407 528.0815,718.0889 Q526.7617,716.437 526.7617,713.3159 Q526.7617,710.1865 528.0815,708.5347 Q529.4014,706.8828 531.9082,706.8828 Q532.6138,706.8828 533.2612,707.0322 Q533.9087,707.1816 534.4731,707.4805 L534.4731,710.2031 Q533.8423,709.6221 533.2488,709.3523 Q532.6553,709.0825 532.0244,709.0825 Q530.6797,709.0825 529.9949,710.1492 Q529.3101,711.2158 529.3101,713.3159 Q529.3101,715.4077 529.9949,716.4744 Q530.6797,717.541 532.0244,717.541 Q532.6553,717.541 533.2488,717.2712 Q533.8423,717.0015 534.4731,716.4204 Z "/>
        <text fill="#000000" font-family="sans-serif" font-size="12" lengthAdjust="spacingAndGlyphs" textLength="109" x="546" y="717.5352">CategoriaDeTarefa</text>
        <line style="stroke: #A80036; stroke-width: 1.5;" x1="518" x2="657" y1="729" y2="729"/>
        <text fill="#000000" font-family="sans-serif" font-size="11" lengthAdjust="spacingAndGlyphs" textLength="95" x="523" y="743.6348">-String identificar</text>
        <text fill="#000000" font-family="sans-serif" font-size="11" lengthAdjust="spacingAndGlyphs" textLength="93" x="523" y="756.5898">-String descricao</text>
        <line style="stroke: #A80036; stroke-width: 1.5;" x1="518" x2="657" y1="762.9102" y2="762.9102"/>
        <path d="M500.5,56.2 C500.5,71.72 500.5,92.7 500.5,111.7 " fill="none" style="stroke: #A80036; stroke-width: 1.0; stroke-dasharray: 7.0,7.0;"/>
        <polygon fill="#A80036" points="500.5,117,504.5,108,500.5,112,496.5,108,500.5,117" style="stroke: #A80036; stroke-width: 1.0;"/>
        <path d="M283.31,197.48 C248.85,212.79 217.41,234.43 195.5,265 C151.03,327.06 181.7,414.54 214.51,476.07 " fill="none" style="stroke: #A80036; stroke-width: 1.0; stroke-dasharray: 7.0,7.0;"/>
        <polygon fill="#A80036" points="217.08,480.82,216.3312,470.9996,214.7078,476.4186,209.2889,474.7952,217.08,480.82" style="stroke: #A80036; stroke-width: 1.0;"/>
        <path d="M500.5,204.02 C500.5,220.75 500.5,240.46 500.5,259.39 " fill="none" style="stroke: #A80036; stroke-width: 1.0; stroke-dasharray: 7.0,7.0;"/>
        <polygon fill="#A80036" points="500.5,264.7,504.5,255.7,500.5,259.7,496.5,255.7,500.5,264.7" style="stroke: #A80036; stroke-width: 1.0;"/>
        <path d="M384.75,620.12 C429.8,645.2 479.16,672.68 517.9,694.25 " fill="none" style="stroke: #A80036; stroke-width: 1.0;"/>
        <polygon fill="#A80036" points="522.57,696.85,516.6452,688.9826,518.1992,694.4218,512.76,695.9758,522.57,696.85" style="stroke: #A80036; stroke-width: 1.0;"/>
        <text fill="#000000" font-family="sans-serif" font-size="13" lengthAdjust="spacingAndGlyphs" textLength="69" x="464.5" y="663.5684">catalogado</text>
        <text fill="#000000" font-family="sans-serif" font-size="13" lengthAdjust="spacingAndGlyphs" textLength="6" x="390.5871" y="640.3106">*</text>
        <text fill="#000000" font-family="sans-serif" font-size="13" lengthAdjust="spacingAndGlyphs" textLength="8" x="501.861" y="686.2229">1</text>
        <path d="M717.69,197.48 C752.15,212.79 783.59,234.43 805.5,265 C908.63,408.9 722.85,609.33 632.59,693.41 " fill="none" style="stroke: #A80036; stroke-width: 1.0; stroke-dasharray: 7.0,7.0;"/>
        <polygon fill="#A80036" points="628.89,696.84,638.205,693.6415,632.5519,693.4356,632.7579,687.7824,628.89,696.84" style="stroke: #A80036; stroke-width: 1.0;"/>
        <path d="M516.9,404.26 C522.59,428.49 528.93,455.93 534.5,481 C550.94,555.05 568.87,641.64 579.09,691.62 " fill="none" style="stroke: #A80036; stroke-width: 1.0;"/>
        <polygon fill="#A80036" points="580.12,696.64,582.2396,687.0219,579.1202,691.741,574.4011,688.6216,580.12,696.64" style="stroke: #A80036; stroke-width: 1.0;"/>
        <text fill="#000000" font-family="sans-serif" font-size="13" lengthAdjust="spacingAndGlyphs" textLength="24" x="565.5" y="555.5684">tem</text>
        <text fill="#000000" font-family="sans-serif" font-size="13" lengthAdjust="spacingAndGlyphs" textLength="8" x="510.0819" y="424.222">1</text>
        <text fill="#000000" font-family="sans-serif" font-size="13" lengthAdjust="spacingAndGlyphs" textLength="6" x="572.2711" y="686.2533">*</text>
        <path d="M423.89,404.09 C397.74,427.52 368.42,453.77 341.96,477.45 " fill="none" style="stroke: #A80036; stroke-width: 1.0;"/>
        <polygon fill="#A80036" points="338.08,480.93,347.4513,477.9004,341.8028,477.5923,342.1109,471.9438,338.08,480.93" style="stroke: #A80036; stroke-width: 1.0;"/>
        <text fill="#000000" font-family="sans-serif" font-size="13" lengthAdjust="spacingAndGlyphs" textLength="42" x="389.5" y="447.5684">possui</text>
        <text fill="#000000" font-family="sans-serif" font-size="13" lengthAdjust="spacingAndGlyphs" textLength="8" x="407.955" y="424.2777">1</text>
        <text fill="#000000" font-family="sans-serif" font-size="13" lengthAdjust="spacingAndGlyphs" textLength="6" x="340.1278" y="470.103">*</text>
        <!--
@startuml
skinparam classAttributeIconSize 0
class Tarefa {
    -String refUnica
    -String designacao
    -String dInformal
    -String dTecnica
    -Double duracao
    -Double custo
    +Tarefa(refUnica, designacao, dInformal, dTecnica, duracao, custo, CategoriaDeTarefa categ)
}

class Plataforma {
    - String designacao 
    +getCategoriasTarefa()
    +getCategoriaByID(String catId)
    +Tarefa novaTarefa(refUnica, designacao, dInformal, dTecnica, duracao, custo, CategoriaDeTarefa categ)
    +validaTarefa(Tarefa tarefa)
    +registaTarefa(Tarefa tarefa)
    - addTarefa(Tarefa tarefa)
}

class EspecificarTarefaController {
    +getCategoriasTarefa();
    +novaTarefa(refUnica, designacao, dInformal, dTecnica, duracao, custo, categ)
    +registaTarefa()
}

class EspecificarTarefaUI {
}

class CategoriaDeTarefa {
-String identificar
-String descricao
}

EspecificarTarefaUI ..> EspecificarTarefaController
EspecificarTarefaController ..> Tarefa
EspecificarTarefaController ..> Plataforma
Tarefa "*" - -> "1" CategoriaDeTarefa : catalogado
EspecificarTarefaController ..> CategoriaDeTarefa
Plataforma "1" - -> "*" CategoriaDeTarefa : tem
Plataforma "1" - -> "*" Tarefa : possui







@enduml

PlantUML version 2017.11(Wed Apr 19 17:18:59 WEST 2017)
(GPL source distribution)
Java Runtime: Java(TM) SE Runtime Environment
JVM: Java HotSpot(TM) 64-Bit Server VM
Java Version: 1.8.0_191-b12
Operating System: Mac OS X
OS Version: 10.15.2
Default Encoding: UTF-8
Language: pt
Country: PT
-->
    </g>
</svg>
