<?xml version="1.0" encoding="UTF-8"?><svg xmlns="http://www.w3.org/2000/svg" xmlns:xlink="http://www.w3.org/1999/xlink" contentScriptType="application/ecmascript" contentStyleType="text/css" height="576px" preserveAspectRatio="none" style="width:890px;height:576px;" version="1.1" viewBox="0 0 890 576" width="890px" zoomAndPan="magnify">
    <defs>
        <filter height="300%" id="f1c2iueublacc" width="300%" x="-1" y="-1">
            <feGaussianBlur result="blurOut" stdDeviation="2.0"/>
            <feColorMatrix in="blurOut" result="blurOut2" type="matrix" values="0 0 0 0 0 0 0 0 0 0 0 0 0 0 0 0 0 0 .4 0"/>
            <feOffset dx="4.0" dy="4.0" in="blurOut2" result="blurOut3"/>
            <feBlend in="SourceGraphic" in2="blurOut3" mode="normal"/>
        </filter>
    </defs>
    <g>
        <rect fill="#FFFFFF" filter="url(#f1c2iueublacc)" height="360.8633" style="stroke: #A80036; stroke-width: 1.0;" width="10" x="94" y="142.5977"/>
        <rect fill="#FFFFFF" filter="url(#f1c2iueublacc)" height="30" style="stroke: #A80036; stroke-width: 1.0;" width="10" x="332" y="176.9082"/>
        <rect fill="#FFFFFF" filter="url(#f1c2iueublacc)" height="30" style="stroke: #A80036; stroke-width: 1.0;" width="10" x="332" y="236.2188"/>
        <rect fill="#FFFFFF" filter="url(#f1c2iueublacc)" height="30" style="stroke: #A80036; stroke-width: 1.0;" width="10" x="463" y="295.5293"/>
        <rect fill="#FFFFFF" filter="url(#f1c2iueublacc)" height="30" style="stroke: #A80036; stroke-width: 1.0;" width="10" x="463" y="414.1504"/>
        <rect fill="#FFFFFF" filter="url(#f1c2iueublacc)" height="30" style="stroke: #A80036; stroke-width: 1.0;" width="10" x="643" y="354.8398"/>
        <rect fill="#FFFFFF" filter="url(#f1c2iueublacc)" height="30" style="stroke: #A80036; stroke-width: 1.0;" width="10" x="827.5" y="473.4609"/>
        <line style="stroke: #A80036; stroke-width: 1.0; stroke-dasharray: 5.0,5.0;" x1="99" x2="99" y1="54.9766" y2="521.7715"/>
        <line style="stroke: #A80036; stroke-width: 1.0; stroke-dasharray: 5.0,5.0;" x1="337" x2="337" y1="54.9766" y2="521.7715"/>
        <line style="stroke: #A80036; stroke-width: 1.0; stroke-dasharray: 5.0,5.0;" x1="468" x2="468" y1="54.9766" y2="521.7715"/>
        <line style="stroke: #A80036; stroke-width: 1.0; stroke-dasharray: 5.0,5.0;" x1="648" x2="648" y1="54.9766" y2="521.7715"/>
        <line style="stroke: #A80036; stroke-width: 1.0; stroke-dasharray: 5.0,5.0;" x1="832" x2="832" y1="54.9766" y2="521.7715"/>
        <rect fill="#FEFECE" filter="url(#f1c2iueublacc)" height="30.4883" style="stroke: #A80036; stroke-width: 1.5;" width="178" x="8" y="19.4883"/>
        <text fill="#000000" font-family="sans-serif" font-size="14" lengthAdjust="spacingAndGlyphs" textLength="164" x="15" y="40.0234">ro:RegistoOrganizacoes</text>
        <rect fill="#FEFECE" filter="url(#f1c2iueublacc)" height="30.4883" style="stroke: #A80036; stroke-width: 1.5;" width="178" x="8" y="520.7715"/>
        <text fill="#000000" font-family="sans-serif" font-size="14" lengthAdjust="spacingAndGlyphs" textLength="164" x="15" y="541.3066">ro:RegistoOrganizacoes</text>
        <rect fill="#FEFECE" filter="url(#f1c2iueublacc)" height="30.4883" style="stroke: #A80036; stroke-width: 1.5;" width="142" x="264" y="19.4883"/>
        <text fill="#000000" font-family="sans-serif" font-size="14" lengthAdjust="spacingAndGlyphs" textLength="128" x="271" y="40.0234">colab:Colaborador</text>
        <rect fill="#FEFECE" filter="url(#f1c2iueublacc)" height="30.4883" style="stroke: #A80036; stroke-width: 1.5;" width="142" x="264" y="520.7715"/>
        <text fill="#000000" font-family="sans-serif" font-size="14" lengthAdjust="spacingAndGlyphs" textLength="128" x="271" y="541.3066">colab:Colaborador</text>
        <rect fill="#FEFECE" filter="url(#f1c2iueublacc)" height="30.4883" style="stroke: #A80036; stroke-width: 1.5;" width="92" x="420" y="19.4883"/>
        <text fill="#000000" font-family="sans-serif" font-size="14" lengthAdjust="spacingAndGlyphs" textLength="78" x="427" y="40.0234">:Plataforma</text>
        <rect fill="#FEFECE" filter="url(#f1c2iueublacc)" height="30.4883" style="stroke: #A80036; stroke-width: 1.5;" width="92" x="420" y="520.7715"/>
        <text fill="#000000" font-family="sans-serif" font-size="14" lengthAdjust="spacingAndGlyphs" textLength="78" x="427" y="541.3066">:Plataforma</text>
        <rect fill="#FEFECE" filter="url(#f1c2iueublacc)" height="46.9766" style="stroke: #A80036; stroke-width: 1.5;" width="240" x="526" y="3"/>
        <text fill="#000000" font-family="sans-serif" font-size="14" lengthAdjust="spacingAndGlyphs" textLength="104" x="594" y="23.5352">&lt;&lt;interface&gt;&gt;</text>
        <text fill="#000000" font-family="sans-serif" font-size="14" lengthAdjust="spacingAndGlyphs" textLength="222" x="537" y="40.0234">alg:AlgoritmoGeradorPasswords</text>
        <rect fill="#FEFECE" filter="url(#f1c2iueublacc)" height="46.9766" style="stroke: #A80036; stroke-width: 1.5;" width="240" x="526" y="520.7715"/>
        <text fill="#000000" font-family="sans-serif" font-size="14" lengthAdjust="spacingAndGlyphs" textLength="104" x="594" y="541.3066">&lt;&lt;interface&gt;&gt;</text>
        <text fill="#000000" font-family="sans-serif" font-size="14" lengthAdjust="spacingAndGlyphs" textLength="222" x="537" y="557.7949">alg:AlgoritmoGeradorPasswords</text>
        <rect fill="#FEFECE" filter="url(#f1c2iueublacc)" height="46.9766" style="stroke: #A80036; stroke-width: 1.5;" width="101" x="780" y="3"/>
        <text fill="#000000" font-family="sans-serif" font-size="14" lengthAdjust="spacingAndGlyphs" textLength="87" x="787" y="23.5352">:Autorizacao</text>
        <text fill="#000000" font-family="sans-serif" font-size="14" lengthAdjust="spacingAndGlyphs" textLength="48" x="806.5" y="40.0234">Facade</text>
        <rect fill="#FEFECE" filter="url(#f1c2iueublacc)" height="46.9766" style="stroke: #A80036; stroke-width: 1.5;" width="101" x="780" y="520.7715"/>
        <text fill="#000000" font-family="sans-serif" font-size="14" lengthAdjust="spacingAndGlyphs" textLength="87" x="787" y="541.3066">:Autorizacao</text>
        <text fill="#000000" font-family="sans-serif" font-size="14" lengthAdjust="spacingAndGlyphs" textLength="48" x="806.5" y="557.7949">Facade</text>
        <rect fill="#FFFFFF" filter="url(#f1c2iueublacc)" height="360.8633" style="stroke: #A80036; stroke-width: 1.0;" width="10" x="94" y="142.5977"/>
        <rect fill="#FFFFFF" filter="url(#f1c2iueublacc)" height="30" style="stroke: #A80036; stroke-width: 1.0;" width="10" x="332" y="176.9082"/>
        <rect fill="#FFFFFF" filter="url(#f1c2iueublacc)" height="30" style="stroke: #A80036; stroke-width: 1.0;" width="10" x="332" y="236.2188"/>
        <rect fill="#FFFFFF" filter="url(#f1c2iueublacc)" height="30" style="stroke: #A80036; stroke-width: 1.0;" width="10" x="463" y="295.5293"/>
        <rect fill="#FFFFFF" filter="url(#f1c2iueublacc)" height="30" style="stroke: #A80036; stroke-width: 1.0;" width="10" x="463" y="414.1504"/>
        <rect fill="#FFFFFF" filter="url(#f1c2iueublacc)" height="30" style="stroke: #A80036; stroke-width: 1.0;" width="10" x="643" y="354.8398"/>
        <rect fill="#FFFFFF" filter="url(#f1c2iueublacc)" height="30" style="stroke: #A80036; stroke-width: 1.0;" width="10" x="827.5" y="473.4609"/>
        <rect fill="#FBFB77" filter="url(#f1c2iueublacc)" height="38" style="stroke: #A80036; stroke-width: 1.0;" width="228" x="534" y="69.9766"/>
        <text fill="#000000" font-family="sans-serif" font-size="13" lengthAdjust="spacingAndGlyphs" textLength="220" x="538" y="86.5449">É uma instância de qualquer classe</text>
        <text fill="#000000" font-family="sans-serif" font-size="13" lengthAdjust="spacingAndGlyphs" textLength="190" x="538" y="101.8555">que implementa esta interface</text>
        <line style="stroke: #A80036; stroke-width: 1.0;" x1="99" x2="146" y1="129.9082" y2="129.9082"/>
        <line style="stroke: #A80036; stroke-width: 1.0;" x1="146" x2="146" y1="129.9082" y2="142.9082"/>
        <line style="stroke: #A80036; stroke-width: 1.0;" x1="105" x2="146" y1="142.9082" y2="142.9082"/>
        <polygon fill="#A80036" points="115,138.9082,105,142.9082,115,146.9082,111,142.9082" style="stroke: #A80036; stroke-width: 1.0;"/>
        <text fill="#000000" font-family="sans-serif" font-size="13" lengthAdjust="spacingAndGlyphs" textLength="224" x="111" y="125.166">registaGestorComoUtilizador(colab)</text>
        <polygon fill="#A80036" points="320,172.9082,330,176.9082,320,180.9082,324,176.9082" style="stroke: #A80036; stroke-width: 1.0;"/>
        <line style="stroke: #A80036; stroke-width: 1.0;" x1="104" x2="326" y1="176.9082" y2="176.9082"/>
        <text fill="#000000" font-family="sans-serif" font-size="13" lengthAdjust="spacingAndGlyphs" textLength="127" x="111" y="172.4766">nomeG = getNome()</text>
        <polygon fill="#A80036" points="320,232.2188,330,236.2188,320,240.2188,324,236.2188" style="stroke: #A80036; stroke-width: 1.0;"/>
        <line style="stroke: #A80036; stroke-width: 1.0;" x1="104" x2="326" y1="236.2188" y2="236.2188"/>
        <text fill="#000000" font-family="sans-serif" font-size="13" lengthAdjust="spacingAndGlyphs" textLength="123" x="111" y="231.7871">emailG = getEmail()</text>
        <polygon fill="#A80036" points="451,291.5293,461,295.5293,451,299.5293,455,295.5293" style="stroke: #A80036; stroke-width: 1.0;"/>
        <line style="stroke: #A80036; stroke-width: 1.0;" x1="104" x2="457" y1="295.5293" y2="295.5293"/>
        <text fill="#000000" font-family="sans-serif" font-size="13" lengthAdjust="spacingAndGlyphs" textLength="188" x="111" y="291.0977">alg:getAlgoritmoGeradorPwd()</text>
        <polygon fill="#A80036" points="631,350.8398,641,354.8398,631,358.8398,635,354.8398" style="stroke: #A80036; stroke-width: 1.0;"/>
        <line style="stroke: #A80036; stroke-width: 1.0;" x1="104" x2="637" y1="354.8398" y2="354.8398"/>
        <text fill="#000000" font-family="sans-serif" font-size="13" lengthAdjust="spacingAndGlyphs" textLength="229" x="111" y="350.4082">pwd = geraPassword(nomeG,emailG)</text>
        <polygon fill="#A80036" points="451,410.1504,461,414.1504,451,418.1504,455,414.1504" style="stroke: #A80036; stroke-width: 1.0;"/>
        <line style="stroke: #A80036; stroke-width: 1.0;" x1="104" x2="457" y1="414.1504" y2="414.1504"/>
        <text fill="#000000" font-family="sans-serif" font-size="13" lengthAdjust="spacingAndGlyphs" textLength="176" x="111" y="409.7188">aut = getAtorizacaoFacade()</text>
        <polygon fill="#A80036" points="815.5,469.4609,825.5,473.4609,815.5,477.4609,819.5,473.4609" style="stroke: #A80036; stroke-width: 1.0;"/>
        <line style="stroke: #A80036; stroke-width: 1.0;" x1="104" x2="821.5" y1="473.4609" y2="473.4609"/>
        <text fill="#000000" font-family="sans-serif" font-size="13" lengthAdjust="spacingAndGlyphs" textLength="484" x="111" y="469.0293">registaUtilizadorComPapeis(nomeG,emailG,pwd,["GESTOR","COLABORADOR"])</text>
        <!--
@startuml


participant "ro:RegistoOrganizacoes" as RO
participant "colab:Colaborador" as COLAB
participant ":Plataforma" as PLAT
participant "<<interface>>\n alg:AlgoritmoGeradorPasswords" as ALG
participant ":Autorizacao\nFacade" as AUT

rnote over ALG
 É uma instância de qualquer classe
 que implementa esta interface
endrnote

RO -> RO: registaGestorComoUtilizador(colab)
activate RO
RO -> COLAB: nomeG = getNome()
activate COLAB
deactivate COLAB
RO -> COLAB: emailG = getEmail()
activate COLAB
deactivate COLAB
RO -> PLAT: alg:getAlgoritmoGeradorPwd()
activate PLAT
deactivate PLAT
RO -> ALG: pwd = geraPassword(nomeG,emailG)
activate ALG
deactivate ALG
RO -> PLAT: aut = getAtorizacaoFacade()
activate PLAT
deactivate PLAT
RO -> AUT: registaUtilizadorComPapeis(nomeG,emailG,pwd,["GESTOR","COLABORADOR"])
activate AUT
deactivate AUT
deactivate RO
@enduml

PlantUML version 2017.11(Wed Apr 19 17:18:59 WEST 2017)
(GPL source distribution)
Java Runtime: Java(TM) SE Runtime Environment
JVM: Java HotSpot(TM) 64-Bit Server VM
Java Version: 1.8.0_111-b14
Operating System: Mac OS X
OS Version: 10.15
Default Encoding: UTF-8
Language: pt
Country: PT
-->
    </g>
</svg>
