<?xml version="1.0" encoding="UTF-8"?><svg xmlns="http://www.w3.org/2000/svg" xmlns:xlink="http://www.w3.org/1999/xlink" contentScriptType="application/ecmascript" contentStyleType="text/css" height="867px" preserveAspectRatio="none" style="width:609px;height:867px;" version="1.1" viewBox="0 0 609 867" width="609px" zoomAndPan="magnify">
    <defs>
        <filter height="300%" id="f1c1c9se8hsuoe" width="300%" x="-1" y="-1">
            <feGaussianBlur result="blurOut" stdDeviation="2.0"/>
            <feColorMatrix in="blurOut" result="blurOut2" type="matrix" values="0 0 0 0 0 0 0 0 0 0 0 0 0 0 0 0 0 0 .4 0"/>
            <feOffset dx="4.0" dy="4.0" in="blurOut2" result="blurOut3"/>
            <feBlend in="SourceGraphic" in2="blurOut3" mode="normal"/>
        </filter>
    </defs>
    <g>
        <ellipse cx="433.4756" cy="827.3951" fill="#FEFECE" filter="url(#f1c1c9se8hsuoe)" rx="107.4756" ry="23.8951" style="stroke: #A80036; stroke-width: 1.5;"/>
        <text fill="#000000" font-family="sans-serif" font-size="14" lengthAdjust="spacingAndGlyphs" textLength="192" x="337.4756" y="832.1393">UC1 - Registar Organização</text>
        <ellipse cx="433.5991" cy="471.6198" fill="#FEFECE" filter="url(#f1c1c9se8hsuoe)" rx="118.5991" ry="26.1198" style="stroke: #A80036; stroke-width: 1.5;"/>
        <text fill="#000000" font-family="sans-serif" font-size="14" lengthAdjust="spacingAndGlyphs" textLength="216" x="325.5991" y="476.364">UC2 - Definir Área de Atividade</text>
        <ellipse cx="433.3554" cy="561.4711" fill="#FEFECE" filter="url(#f1c1c9se8hsuoe)" rx="130.3554" ry="28.4711" style="stroke: #A80036; stroke-width: 1.5;"/>
        <text fill="#000000" font-family="sans-serif" font-size="14" lengthAdjust="spacingAndGlyphs" textLength="241" x="312.8554" y="566.2152">UC3 - Definir Categoria (de Tarefa)</text>
        <ellipse cx="433.6968" cy="656.5394" fill="#FEFECE" filter="url(#f1c1c9se8hsuoe)" rx="143.1968" ry="31.0394" style="stroke: #A80036; stroke-width: 1.5;"/>
        <text fill="#000000" font-family="sans-serif" font-size="14" lengthAdjust="spacingAndGlyphs" textLength="268" x="299.6968" y="661.2835">UC4 - Especificar Competência Técnica</text>
        <ellipse cx="433.7088" cy="374.6418" fill="#FEFECE" filter="url(#f1c1c9se8hsuoe)" rx="168.7088" ry="36.1418" style="stroke: #A80036; stroke-width: 1.5;"/>
        <text fill="#000000" font-family="sans-serif" font-size="14" lengthAdjust="spacingAndGlyphs" textLength="321" x="273.2088" y="379.3859">UC5 - Especificar Colaborador de Organização</text>
        <ellipse cx="433.6723" cy="129.5345" fill="#FEFECE" filter="url(#f1c1c9se8hsuoe)" rx="95.6723" ry="21.5345" style="stroke: #A80036; stroke-width: 1.5;"/>
        <text fill="#000000" font-family="sans-serif" font-size="14" lengthAdjust="spacingAndGlyphs" textLength="166" x="350.6723" y="134.2786">UC6 - Especificar Tarefa</text>
        <ellipse cx="433.6289" cy="745.5258" fill="#FEFECE" filter="url(#f1c1c9se8hsuoe)" rx="100.6289" ry="22.5258" style="stroke: #A80036; stroke-width: 1.5;"/>
        <text fill="#000000" font-family="sans-serif" font-size="14" lengthAdjust="spacingAndGlyphs" textLength="177" x="345.1289" y="750.2699">UC7 - Registar Freelancer</text>
        <ellipse cx="433.7062" cy="206.4412" fill="#FEFECE" filter="url(#f1c1c9se8hsuoe)" rx="87.7062" ry="19.9412" style="stroke: #A80036; stroke-width: 1.5;"/>
        <text fill="#000000" font-family="sans-serif" font-size="14" lengthAdjust="spacingAndGlyphs" textLength="148" x="359.7062" y="211.1854">UC8 - Publicar Tarefa</text>
        <ellipse cx="433.3563" cy="49.5713" fill="#FEFECE" filter="url(#f1c1c9se8hsuoe)" rx="103.3563" ry="23.0713" style="stroke: #A80036; stroke-width: 1.5;"/>
        <text fill="#000000" font-family="sans-serif" font-size="14" lengthAdjust="spacingAndGlyphs" textLength="183" x="341.8563" y="54.3154">UC9 - Efetuar Candidatura</text>
        <ellipse cx="433.2804" cy="282.5561" fill="#FEFECE" filter="url(#f1c1c9se8hsuoe)" rx="90.7804" ry="20.5561" style="stroke: #A80036; stroke-width: 1.5;"/>
        <text fill="#000000" font-family="sans-serif" font-size="14" lengthAdjust="spacingAndGlyphs" textLength="155" x="355.7804" y="287.3002">UC10 - Seriar Anúncio</text>
        <!--entity UNR-->
        <ellipse cx="105.5" cy="796" fill="#FEFECE" filter="url(#f1c1c9se8hsuoe)" rx="8" ry="8" style="stroke: #A80036; stroke-width: 2.0;"/>
        <path d="M105.5,804 L105.5,831 M92.5,812 L118.5,812 M105.5,831 L92.5,846 M105.5,831 L118.5,846 " fill="#FEFECE" filter="url(#f1c1c9se8hsuoe)" style="stroke: #A80036; stroke-width: 2.0;"/>
        <text fill="#000000" font-family="sans-serif" font-size="14" lengthAdjust="spacingAndGlyphs" textLength="170" x="20.5" y="866.5352">Utilizador Não Registado</text>
        <!--entity ADM-->
        <ellipse cx="105.5" cy="578" fill="#FEFECE" filter="url(#f1c1c9se8hsuoe)" rx="8" ry="8" style="stroke: #A80036; stroke-width: 2.0;"/>
        <path d="M105.5,586 L105.5,613 M92.5,594 L118.5,594 M105.5,613 L92.5,628 M105.5,613 L118.5,628 " fill="#FEFECE" filter="url(#f1c1c9se8hsuoe)" style="stroke: #A80036; stroke-width: 2.0;"/>
        <text fill="#000000" font-family="sans-serif" font-size="14" lengthAdjust="spacingAndGlyphs" textLength="100" x="55.5" y="648.5352">Administrativo</text>
        <!--entity GO-->
        <ellipse cx="105.5" cy="343" fill="#FEFECE" filter="url(#f1c1c9se8hsuoe)" rx="8" ry="8" style="stroke: #A80036; stroke-width: 2.0;"/>
        <path d="M105.5,351 L105.5,378 M92.5,359 L118.5,359 M105.5,378 L92.5,393 M105.5,378 L118.5,393 " fill="#FEFECE" filter="url(#f1c1c9se8hsuoe)" style="stroke: #A80036; stroke-width: 2.0;"/>
        <text fill="#000000" font-family="sans-serif" font-size="14" lengthAdjust="spacingAndGlyphs" textLength="157" x="27" y="413.5352">Gestor de Organização</text>
        <!--entity CO-->
        <ellipse cx="105.5" cy="175" fill="#FEFECE" filter="url(#f1c1c9se8hsuoe)" rx="8" ry="8" style="stroke: #A80036; stroke-width: 2.0;"/>
        <path d="M105.5,183 L105.5,210 M92.5,191 L118.5,191 M105.5,210 L92.5,225 M105.5,210 L118.5,225 " fill="#FEFECE" filter="url(#f1c1c9se8hsuoe)" style="stroke: #A80036; stroke-width: 2.0;"/>
        <text fill="#000000" font-family="sans-serif" font-size="14" lengthAdjust="spacingAndGlyphs" textLength="199" x="6" y="245.5352">Colaborador de Organização</text>
        <!--entity FRL-->
        <ellipse cx="105.5" cy="18" fill="#FEFECE" filter="url(#f1c1c9se8hsuoe)" rx="8" ry="8" style="stroke: #A80036; stroke-width: 2.0;"/>
        <path d="M105.5,26 L105.5,53 M92.5,34 L118.5,34 M105.5,53 L92.5,68 M105.5,53 L118.5,68 " fill="#FEFECE" filter="url(#f1c1c9se8hsuoe)" style="stroke: #A80036; stroke-width: 2.0;"/>
        <text fill="#000000" font-family="sans-serif" font-size="14" lengthAdjust="spacingAndGlyphs" textLength="72" x="69.5" y="88.5352">Freelancer</text>
        <path d="M190.88,827.5 C230.49,827.5 278.25,827.5 320.81,827.5 " fill="none" style="stroke: #A80036; stroke-width: 1.0;"/>
        <polygon fill="#A80036" points="325.97,827.5,316.97,823.5,320.97,827.5,316.97,831.5,325.97,827.5" style="stroke: #A80036; stroke-width: 1.0;"/>
        <path d="M155.66,575.49 C186.05,555.72 226.48,531.61 265,515.5 C289.05,505.44 316.03,497.15 341.19,490.58 " fill="none" style="stroke: #A80036; stroke-width: 1.0;"/>
        <polygon fill="#A80036" points="346.2,489.29,336.4837,487.6797,341.3604,490.5463,338.4938,495.423,346.2,489.29" style="stroke: #A80036; stroke-width: 1.0;"/>
        <path d="M155.66,602.26 C199,595.88 263.78,586.34 319.78,578.1 " fill="none" style="stroke: #A80036; stroke-width: 1.0;"/>
        <polygon fill="#A80036" points="324.83,577.35,315.3429,574.7052,319.8834,578.0791,316.5095,582.6197,324.83,577.35" style="stroke: #A80036; stroke-width: 1.0;"/>
        <path d="M155.66,616.59 C196.15,622.43 255.37,630.96 308.65,638.64 " fill="none" style="stroke: #A80036; stroke-width: 1.0;"/>
        <polygon fill="#A80036" points="313.79,639.39,305.4546,634.1439,308.8414,638.6749,304.3104,642.0617,313.79,639.39" style="stroke: #A80036; stroke-width: 1.0;"/>
        <path d="M155.77,644.83 C186.04,665.11 226.31,689.62 265,705.5 C291.3,716.29 321.17,724.59 348.33,730.75 " fill="none" style="stroke: #A80036; stroke-width: 1.0;"/>
        <polygon fill="#A80036" points="353.37,731.88,345.4721,725.9959,348.4928,730.7787,343.71,733.7994,353.37,731.88" style="stroke: #A80036; stroke-width: 1.0;"/>
        <path d="M184.17,374.5 C207.12,374.5 233.22,374.5 259.66,374.5 " fill="none" style="stroke: #A80036; stroke-width: 1.0;"/>
        <polygon fill="#A80036" points="264.95,374.5,255.95,370.5,259.95,374.5,255.95,378.5,264.95,374.5" style="stroke: #A80036; stroke-width: 1.0;"/>
        <path d="M205.2,183.19 C255.64,171.27 315.88,157.05 361.66,146.23 " fill="none" style="stroke: #A80036; stroke-width: 1.0;"/>
        <polygon fill="#A80036" points="366.61,145.06,356.9343,143.2214,361.7422,146.202,358.7615,151.0099,366.61,145.06" style="stroke: #A80036; stroke-width: 1.0;"/>
        <path d="M205.2,206.5 C248.24,206.5 298.4,206.5 340.63,206.5 " fill="none" style="stroke: #A80036; stroke-width: 1.0;"/>
        <polygon fill="#A80036" points="345.75,206.5,336.75,202.5,340.75,206.5,336.75,210.5,345.75,206.5" style="stroke: #A80036; stroke-width: 1.0;"/>
        <path d="M205.38,230.4 C225.12,235.12 245.71,240 265,244.5 C297.25,252.02 333.05,260.17 363.25,266.99 " fill="none" style="stroke: #A80036; stroke-width: 1.0;"/>
        <polygon fill="#A80036" points="368.43,268.16,360.5321,262.2759,363.5528,267.0587,358.77,270.0794,368.43,268.16" style="stroke: #A80036; stroke-width: 1.0;"/>
        <path d="M141.7,49.5 C185.18,49.5 261.16,49.5 324.56,49.5 " fill="none" style="stroke: #A80036; stroke-width: 1.0;"/>
        <polygon fill="#A80036" points="329.88,49.5,320.88,45.5,324.88,49.5,320.88,53.5,329.88,49.5" style="stroke: #A80036; stroke-width: 1.0;"/>
        <!--
@startuml

usecase UC1 as "UC1 - Registar Organização"
usecase UC2 as "UC2 - Definir Área de Atividade"
usecase UC3 as "UC3 - Definir Categoria (de Tarefa)"
usecase UC4 as "UC4 - Especificar Competência Técnica"
usecase UC5 as "UC5 - Especificar Colaborador de Organização"
usecase UC6 as "UC6 - Especificar Tarefa"
usecase UC7 as "UC7 - Registar Freelancer"
usecase UC8 as "UC8 - Publicar Tarefa"
usecase UC9 as "UC9 - Efetuar Candidatura"
usecase UC10 as "UC10 - Seriar Anúncio"

actor "Utilizador Não Registado" as UNR
actor "Administrativo" as ADM
actor "Gestor de Organização" as GO
actor "Colaborador de Organização" as CO
actor "Freelancer" as FRL

left to right direction
UNR - ->(UC1)

ADM - ->(UC2)
ADM - ->(UC3)
ADM - ->(UC4)
ADM - ->(UC7)


GO - ->(UC5)

CO - -> (UC6)
CO - -> (UC8)
CO - -> (UC10)

FRL - -> (UC9)

@enduml

PlantUML version 2017.11(Wed Apr 19 17:18:59 WEST 2017)
(GPL source distribution)
Java Runtime: Java(TM) SE Runtime Environment
JVM: Java HotSpot(TM) 64-Bit Server VM
Java Version: 1.8.0_191-b12
Operating System: Mac OS X
OS Version: 10.15.2
Default Encoding: UTF-8
Language: pt
Country: PT
-->
    </g>
</svg>
