<?xml version="1.0" encoding="UTF-8"?><svg xmlns="http://www.w3.org/2000/svg" xmlns:xlink="http://www.w3.org/1999/xlink" contentScriptType="application/ecmascript" contentStyleType="text/css" height="1296px" preserveAspectRatio="none" style="width:2602px;height:1296px;" version="1.1" viewBox="0 0 2602 1296" width="2602px" zoomAndPan="magnify">
    <defs>
        <filter height="300%" id="fyci7b0iemyu3" width="300%" x="-1" y="-1">
            <feGaussianBlur result="blurOut" stdDeviation="2.0"/>
            <feColorMatrix in="blurOut" result="blurOut2" type="matrix" values="0 0 0 0 0 0 0 0 0 0 0 0 0 0 0 0 0 0 .4 0"/>
            <feOffset dx="4.0" dy="4.0" in="blurOut2" result="blurOut3"/>
            <feBlend in="SourceGraphic" in2="blurOut3" mode="normal"/>
        </filter>
    </defs>
    <g>
        <rect fill="#FFFFFF" filter="url(#fyci7b0iemyu3)" height="1094.7109" style="stroke: #A80036; stroke-width: 1.0;" width="10" x="65" y="97.6094"/>
        <rect fill="#FFFFFF" filter="url(#fyci7b0iemyu3)" height="46.3516" style="stroke: #A80036; stroke-width: 1.0;" width="10" x="441" y="119.6094"/>
        <rect fill="#FFFFFF" filter="url(#fyci7b0iemyu3)" height="211.7578" style="stroke: #A80036; stroke-width: 1.0;" width="10" x="441" y="196.6641"/>
        <rect fill="#FFFFFF" filter="url(#fyci7b0iemyu3)" height="198.0156" style="stroke: #A80036; stroke-width: 1.0;" width="10" x="441" y="438.7734"/>
        <rect fill="#FFFFFF" filter="url(#fyci7b0iemyu3)" height="291.7188" style="stroke: #A80036; stroke-width: 1.0;" width="10" x="441" y="692.4922"/>
        <rect fill="#FFFFFF" filter="url(#fyci7b0iemyu3)" height="177.7578" style="stroke: #A80036; stroke-width: 1.0;" width="10" x="441" y="1014.5625"/>
        <rect fill="#FFFFFF" filter="url(#fyci7b0iemyu3)" height="181.4063" style="stroke: #A80036; stroke-width: 1.0;" width="10" x="799" y="227.0156"/>
        <rect fill="#FFFFFF" filter="url(#fyci7b0iemyu3)" height="167.6641" style="stroke: #A80036; stroke-width: 1.0;" width="10" x="799" y="469.125"/>
        <rect fill="#FFFFFF" filter="url(#fyci7b0iemyu3)" height="231.0156" style="stroke: #A80036; stroke-width: 1.0;" width="10" x="799" y="722.8438"/>
        <rect fill="#FFFFFF" filter="url(#fyci7b0iemyu3)" height="110.0547" style="stroke: #A80036; stroke-width: 1.0;" width="10" x="799" y="1044.9141"/>
        <rect fill="#FFFFFF" filter="url(#fyci7b0iemyu3)" height="30" style="stroke: #A80036; stroke-width: 1.0;" width="10" x="1053" y="257.3672"/>
        <rect fill="#FFFFFF" filter="url(#fyci7b0iemyu3)" height="30" style="stroke: #A80036; stroke-width: 1.0;" width="10" x="1053" y="317.7188"/>
        <rect fill="#FFFFFF" filter="url(#fyci7b0iemyu3)" height="30.3516" style="stroke: #A80036; stroke-width: 1.0;" width="10" x="1197.5" y="378.0703"/>
        <rect fill="#FFFFFF" filter="url(#fyci7b0iemyu3)" height="30" style="stroke: #A80036; stroke-width: 1.0;" width="10" x="1197.5" y="499.4766"/>
        <rect fill="#FFFFFF" filter="url(#fyci7b0iemyu3)" height="30.3516" style="stroke: #A80036; stroke-width: 1.0;" width="10" x="1414" y="559.8281"/>
        <rect fill="#FFFFFF" filter="url(#fyci7b0iemyu3)" height="30" style="stroke: #A80036; stroke-width: 1.0;" width="10" x="1414" y="923.8594"/>
        <rect fill="#FFFFFF" filter="url(#fyci7b0iemyu3)" height="79.7031" style="stroke: #A80036; stroke-width: 1.0;" width="10" x="1414" y="1075.2656"/>
        <rect fill="#FFFFFF" filter="url(#fyci7b0iemyu3)" height="126.3125" style="stroke: #A80036; stroke-width: 1.0;" width="10" x="1824.5" y="753.1953"/>
        <rect fill="#FEFECE" filter="url(#fyci7b0iemyu3)" height="31.6094" style="stroke: #A80036; stroke-width: 1.5;" width="231" x="1712" y="568.1797"/>
        <text fill="#000000" font-family="sans-serif" font-size="14" lengthAdjust="spacingAndGlyphs" textLength="217" x="1719" y="589.7129">competencia:CompetenciaTecnica</text>
        <rect fill="#FFFFFF" filter="url(#fyci7b0iemyu3)" height="242.7188" style="stroke: #000000; stroke-width: 2.0;" width="2179.5" x="13" y="652.1406"/>
        <rect fill="#FEFECE" filter="url(#fyci7b0iemyu3)" height="31.6094" style="stroke: #A80036; stroke-width: 1.5;" width="139" x="2039.5" y="761.5469"/>
        <text fill="#000000" font-family="sans-serif" font-size="14" lengthAdjust="spacingAndGlyphs" textLength="125" x="2046.5" y="783.0801">gp:GrauProficiencia</text>
        <line style="stroke: #A80036; stroke-width: 1.0; stroke-dasharray: 5.0,5.0;" x1="70" x2="70" y1="87.6094" y2="1210.6719"/>
        <line style="stroke: #A80036; stroke-width: 1.0; stroke-dasharray: 5.0,5.0;" x1="446" x2="446" y1="87.6094" y2="1210.6719"/>
        <line style="stroke: #A80036; stroke-width: 1.0; stroke-dasharray: 5.0,5.0;" x1="804" x2="804" y1="87.6094" y2="1210.6719"/>
        <line style="stroke: #A80036; stroke-width: 1.0; stroke-dasharray: 5.0,5.0;" x1="1058" x2="1058" y1="87.6094" y2="1210.6719"/>
        <line style="stroke: #A80036; stroke-width: 1.0; stroke-dasharray: 5.0,5.0;" x1="1202" x2="1202" y1="87.6094" y2="1210.6719"/>
        <line style="stroke: #A80036; stroke-width: 1.0; stroke-dasharray: 5.0,5.0;" x1="1419" x2="1419" y1="87.6094" y2="1210.6719"/>
        <line style="stroke: #A80036; stroke-width: 1.0; stroke-dasharray: 5.0,5.0;" x1="1829" x2="1829" y1="601.4844" y2="1210.6719"/>
        <line style="stroke: #A80036; stroke-width: 1.0; stroke-dasharray: 5.0,5.0;" x1="2110.5" x2="2110.5" y1="794.8516" y2="1210.6719"/>
        <line style="stroke: #A80036; stroke-width: 1.0; stroke-dasharray: 5.0,5.0;" x1="2266.5" x2="2266.5" y1="87.6094" y2="1210.6719"/>
        <line style="stroke: #A80036; stroke-width: 1.0; stroke-dasharray: 5.0,5.0;" x1="2405.5" x2="2405.5" y1="87.6094" y2="1210.6719"/>
        <line style="stroke: #A80036; stroke-width: 1.0; stroke-dasharray: 5.0,5.0;" x1="2533.5" x2="2533.5" y1="87.6094" y2="1210.6719"/>
        <text fill="#000000" font-family="sans-serif" font-size="14" lengthAdjust="spacingAndGlyphs" textLength="88" x="23" y="84.5332">Administrativo</text>
        <ellipse cx="70" cy="13" fill="#FEFECE" filter="url(#fyci7b0iemyu3)" rx="8" ry="8" style="stroke: #A80036; stroke-width: 2.0;"/>
        <path d="M70,21 L70,48 M57,29 L83,29 M70,48 L57,63 M70,48 L83,63 " fill="#FEFECE" filter="url(#fyci7b0iemyu3)" style="stroke: #A80036; stroke-width: 2.0;"/>
        <text fill="#000000" font-family="sans-serif" font-size="14" lengthAdjust="spacingAndGlyphs" textLength="88" x="23" y="1224.2051">Administrativo</text>
        <ellipse cx="70" cy="1237.2813" fill="#FEFECE" filter="url(#fyci7b0iemyu3)" rx="8" ry="8" style="stroke: #A80036; stroke-width: 2.0;"/>
        <path d="M70,1245.2813 L70,1272.2813 M57,1253.2813 L83,1253.2813 M70,1272.2813 L57,1287.2813 M70,1272.2813 L83,1287.2813 " fill="#FEFECE" filter="url(#fyci7b0iemyu3)" style="stroke: #A80036; stroke-width: 2.0;"/>
        <rect fill="#FEFECE" filter="url(#fyci7b0iemyu3)" height="31.6094" style="stroke: #A80036; stroke-width: 1.5;" width="182" x="353" y="51"/>
        <text fill="#000000" font-family="sans-serif" font-size="14" lengthAdjust="spacingAndGlyphs" textLength="168" x="360" y="72.5332">:EspecificarCompetenciaUI</text>
        <rect fill="#FEFECE" filter="url(#fyci7b0iemyu3)" height="31.6094" style="stroke: #A80036; stroke-width: 1.5;" width="182" x="353" y="1209.6719"/>
        <text fill="#000000" font-family="sans-serif" font-size="14" lengthAdjust="spacingAndGlyphs" textLength="168" x="360" y="1231.2051">:EspecificarCompetenciaUI</text>
        <rect fill="#FEFECE" filter="url(#fyci7b0iemyu3)" height="31.6094" style="stroke: #A80036; stroke-width: 1.5;" width="232" x="686" y="51"/>
        <text fill="#000000" font-family="sans-serif" font-size="14" lengthAdjust="spacingAndGlyphs" textLength="218" x="693" y="72.5332">:EspecificarCompetenciaController</text>
        <rect fill="#FEFECE" filter="url(#fyci7b0iemyu3)" height="31.6094" style="stroke: #A80036; stroke-width: 1.5;" width="232" x="686" y="1209.6719"/>
        <text fill="#000000" font-family="sans-serif" font-size="14" lengthAdjust="spacingAndGlyphs" textLength="218" x="693" y="1231.2051">:EspecificarCompetenciaController</text>
        <rect fill="#FEFECE" filter="url(#fyci7b0iemyu3)" height="31.6094" style="stroke: #A80036; stroke-width: 1.5;" width="86" x="1013" y="51"/>
        <text fill="#000000" font-family="sans-serif" font-size="14" lengthAdjust="spacingAndGlyphs" textLength="72" x="1020" y="72.5332">:Plataforma</text>
        <rect fill="#FEFECE" filter="url(#fyci7b0iemyu3)" height="31.6094" style="stroke: #A80036; stroke-width: 1.5;" width="86" x="1013" y="1209.6719"/>
        <text fill="#000000" font-family="sans-serif" font-size="14" lengthAdjust="spacingAndGlyphs" textLength="72" x="1020" y="1231.2051">:Plataforma</text>
        <rect fill="#FEFECE" filter="url(#fyci7b0iemyu3)" height="31.6094" style="stroke: #A80036; stroke-width: 1.5;" width="175" x="1113" y="51"/>
        <text fill="#000000" font-family="sans-serif" font-size="14" lengthAdjust="spacingAndGlyphs" textLength="161" x="1120" y="72.5332">raa:RegistoAreaAtividade</text>
        <rect fill="#FEFECE" filter="url(#fyci7b0iemyu3)" height="31.6094" style="stroke: #A80036; stroke-width: 1.5;" width="175" x="1113" y="1209.6719"/>
        <text fill="#000000" font-family="sans-serif" font-size="14" lengthAdjust="spacingAndGlyphs" textLength="161" x="1120" y="1231.2051">raa:RegistoAreaAtividade</text>
        <rect fill="#FEFECE" filter="url(#fyci7b0iemyu3)" height="31.6094" style="stroke: #A80036; stroke-width: 1.5;" width="230" x="1302" y="51"/>
        <text fill="#000000" font-family="sans-serif" font-size="14" lengthAdjust="spacingAndGlyphs" textLength="216" x="1309" y="72.5332">rctec:RegistoCompetenciaTecnica</text>
        <rect fill="#FEFECE" filter="url(#fyci7b0iemyu3)" height="31.6094" style="stroke: #A80036; stroke-width: 1.5;" width="230" x="1302" y="1209.6719"/>
        <text fill="#000000" font-family="sans-serif" font-size="14" lengthAdjust="spacingAndGlyphs" textLength="216" x="1309" y="1231.2051">rctec:RegistoCompetenciaTecnica</text>
        <rect fill="#FEFECE" filter="url(#fyci7b0iemyu3)" height="31.6094" style="stroke: #A80036; stroke-width: 1.5;" width="231" x="1712" y="1209.6719"/>
        <text fill="#000000" font-family="sans-serif" font-size="14" lengthAdjust="spacingAndGlyphs" textLength="217" x="1719" y="1231.2051">competencia:CompetenciaTecnica</text>
        <rect fill="#FEFECE" filter="url(#fyci7b0iemyu3)" height="31.6094" style="stroke: #A80036; stroke-width: 1.5;" width="139" x="2039.5" y="1209.6719"/>
        <text fill="#000000" font-family="sans-serif" font-size="14" lengthAdjust="spacingAndGlyphs" textLength="125" x="2046.5" y="1231.2051">gp:GrauProficiencia</text>
        <rect fill="#FEFECE" filter="url(#fyci7b0iemyu3)" height="49.2188" style="stroke: #A80036; stroke-width: 1.5;" width="144" x="2192.5" y="33.3906"/>
        <text fill="#000000" font-family="sans-serif" font-size="14" lengthAdjust="spacingAndGlyphs" textLength="11" x="2259" y="54.9238">la</text>
        <text fill="#000000" font-family="sans-serif" font-size="14" lengthAdjust="spacingAndGlyphs" textLength="130" x="2199.5" y="72.5332">:List&lt;AreaAtividade&gt;</text>
        <rect fill="#FEFECE" filter="url(#fyci7b0iemyu3)" height="49.2188" style="stroke: #A80036; stroke-width: 1.5;" width="144" x="2192.5" y="1209.6719"/>
        <text fill="#000000" font-family="sans-serif" font-size="14" lengthAdjust="spacingAndGlyphs" textLength="11" x="2259" y="1231.2051">la</text>
        <text fill="#000000" font-family="sans-serif" font-size="14" lengthAdjust="spacingAndGlyphs" textLength="130" x="2199.5" y="1248.8145">:List&lt;AreaAtividade&gt;</text>
        <rect fill="#FEFECE" filter="url(#fyci7b0iemyu3)" height="49.2188" style="stroke: #A80036; stroke-width: 1.5;" width="106" x="2350.5" y="33.3906"/>
        <text fill="#000000" font-family="sans-serif" font-size="14" lengthAdjust="spacingAndGlyphs" textLength="12" x="2397.5" y="54.9238">at</text>
        <text fill="#000000" font-family="sans-serif" font-size="14" lengthAdjust="spacingAndGlyphs" textLength="92" x="2357.5" y="72.5332">:AreaAtividade</text>
        <rect fill="#FEFECE" filter="url(#fyci7b0iemyu3)" height="49.2188" style="stroke: #A80036; stroke-width: 1.5;" width="106" x="2350.5" y="1209.6719"/>
        <text fill="#000000" font-family="sans-serif" font-size="14" lengthAdjust="spacingAndGlyphs" textLength="12" x="2397.5" y="1231.2051">at</text>
        <text fill="#000000" font-family="sans-serif" font-size="14" lengthAdjust="spacingAndGlyphs" textLength="92" x="2357.5" y="1248.8145">:AreaAtividade</text>
        <rect fill="#FEFECE" filter="url(#fyci7b0iemyu3)" height="49.2188" style="stroke: #A80036; stroke-width: 1.5;" width="123" x="2470.5" y="33.3906"/>
        <text fill="#000000" font-family="sans-serif" font-size="14" lengthAdjust="spacingAndGlyphs" textLength="16" x="2524" y="54.9238">gp</text>
        <text fill="#000000" font-family="sans-serif" font-size="14" lengthAdjust="spacingAndGlyphs" textLength="109" x="2477.5" y="72.5332">:GrauProficiencia</text>
        <rect fill="#FEFECE" filter="url(#fyci7b0iemyu3)" height="49.2188" style="stroke: #A80036; stroke-width: 1.5;" width="123" x="2470.5" y="1209.6719"/>
        <text fill="#000000" font-family="sans-serif" font-size="14" lengthAdjust="spacingAndGlyphs" textLength="16" x="2524" y="1231.2051">gp</text>
        <text fill="#000000" font-family="sans-serif" font-size="14" lengthAdjust="spacingAndGlyphs" textLength="109" x="2477.5" y="1248.8145">:GrauProficiencia</text>
        <rect fill="#FFFFFF" filter="url(#fyci7b0iemyu3)" height="1094.7109" style="stroke: #A80036; stroke-width: 1.0;" width="10" x="65" y="97.6094"/>
        <rect fill="#FFFFFF" filter="url(#fyci7b0iemyu3)" height="46.3516" style="stroke: #A80036; stroke-width: 1.0;" width="10" x="441" y="119.6094"/>
        <rect fill="#FFFFFF" filter="url(#fyci7b0iemyu3)" height="211.7578" style="stroke: #A80036; stroke-width: 1.0;" width="10" x="441" y="196.6641"/>
        <rect fill="#FFFFFF" filter="url(#fyci7b0iemyu3)" height="198.0156" style="stroke: #A80036; stroke-width: 1.0;" width="10" x="441" y="438.7734"/>
        <rect fill="#FFFFFF" filter="url(#fyci7b0iemyu3)" height="291.7188" style="stroke: #A80036; stroke-width: 1.0;" width="10" x="441" y="692.4922"/>
        <rect fill="#FFFFFF" filter="url(#fyci7b0iemyu3)" height="177.7578" style="stroke: #A80036; stroke-width: 1.0;" width="10" x="441" y="1014.5625"/>
        <rect fill="#FFFFFF" filter="url(#fyci7b0iemyu3)" height="181.4063" style="stroke: #A80036; stroke-width: 1.0;" width="10" x="799" y="227.0156"/>
        <rect fill="#FFFFFF" filter="url(#fyci7b0iemyu3)" height="167.6641" style="stroke: #A80036; stroke-width: 1.0;" width="10" x="799" y="469.125"/>
        <rect fill="#FFFFFF" filter="url(#fyci7b0iemyu3)" height="231.0156" style="stroke: #A80036; stroke-width: 1.0;" width="10" x="799" y="722.8438"/>
        <rect fill="#FFFFFF" filter="url(#fyci7b0iemyu3)" height="110.0547" style="stroke: #A80036; stroke-width: 1.0;" width="10" x="799" y="1044.9141"/>
        <rect fill="#FFFFFF" filter="url(#fyci7b0iemyu3)" height="30" style="stroke: #A80036; stroke-width: 1.0;" width="10" x="1053" y="257.3672"/>
        <rect fill="#FFFFFF" filter="url(#fyci7b0iemyu3)" height="30" style="stroke: #A80036; stroke-width: 1.0;" width="10" x="1053" y="317.7188"/>
        <rect fill="#FFFFFF" filter="url(#fyci7b0iemyu3)" height="30.3516" style="stroke: #A80036; stroke-width: 1.0;" width="10" x="1197.5" y="378.0703"/>
        <rect fill="#FFFFFF" filter="url(#fyci7b0iemyu3)" height="30" style="stroke: #A80036; stroke-width: 1.0;" width="10" x="1197.5" y="499.4766"/>
        <rect fill="#FFFFFF" filter="url(#fyci7b0iemyu3)" height="30.3516" style="stroke: #A80036; stroke-width: 1.0;" width="10" x="1414" y="559.8281"/>
        <rect fill="#FFFFFF" filter="url(#fyci7b0iemyu3)" height="30" style="stroke: #A80036; stroke-width: 1.0;" width="10" x="1414" y="923.8594"/>
        <rect fill="#FFFFFF" filter="url(#fyci7b0iemyu3)" height="79.7031" style="stroke: #A80036; stroke-width: 1.0;" width="10" x="1414" y="1075.2656"/>
        <rect fill="#FFFFFF" filter="url(#fyci7b0iemyu3)" height="126.3125" style="stroke: #A80036; stroke-width: 1.0;" width="10" x="1824.5" y="753.1953"/>
        <polygon fill="#A80036" points="429,115.6094,439,119.6094,429,123.6094,433,119.6094" style="stroke: #A80036; stroke-width: 1.0;"/>
        <line style="stroke: #A80036; stroke-width: 1.0;" x1="75" x2="435" y1="119.6094" y2="119.6094"/>
        <text fill="#000000" font-family="sans-serif" font-size="13" font-weight="bold" lengthAdjust="spacingAndGlyphs" textLength="7" x="82" y="115.1045">1</text>
        <text fill="#000000" font-family="sans-serif" font-size="13" lengthAdjust="spacingAndGlyphs" textLength="325" x="93" y="115.1045">Inicia a especificação de uma nova competência técnica</text>
        <polygon fill="#A80036" points="86,161.9609,76,165.9609,86,169.9609,82,165.9609" style="stroke: #A80036; stroke-width: 1.0;"/>
        <line style="stroke: #A80036; stroke-width: 1.0; stroke-dasharray: 2.0,2.0;" x1="80" x2="445" y1="165.9609" y2="165.9609"/>
        <text fill="#000000" font-family="sans-serif" font-size="13" font-weight="bold" lengthAdjust="spacingAndGlyphs" textLength="7" x="92" y="153.6318">2</text>
        <text fill="#000000" font-family="sans-serif" font-size="13" lengthAdjust="spacingAndGlyphs" textLength="82" x="103" y="145.4561">Solicita dados</text>
        <text fill="#000000" font-family="sans-serif" font-size="13" lengthAdjust="spacingAndGlyphs" textLength="268" x="103" y="161.8076">(código, descrição breve, descrição detalhada)</text>
        <polygon fill="#A80036" points="429,192.6641,439,196.6641,429,200.6641,433,196.6641" style="stroke: #A80036; stroke-width: 1.0;"/>
        <line style="stroke: #A80036; stroke-width: 1.0;" x1="75" x2="435" y1="196.6641" y2="196.6641"/>
        <text fill="#000000" font-family="sans-serif" font-size="13" font-weight="bold" lengthAdjust="spacingAndGlyphs" textLength="7" x="82" y="192.1592">3</text>
        <text fill="#000000" font-family="sans-serif" font-size="13" lengthAdjust="spacingAndGlyphs" textLength="169" x="93" y="192.1592">Introduz os dados solicitados</text>
        <polygon fill="#A80036" points="787,223.0156,797,227.0156,787,231.0156,791,227.0156" style="stroke: #A80036; stroke-width: 1.0;"/>
        <line style="stroke: #A80036; stroke-width: 1.0;" x1="451" x2="793" y1="227.0156" y2="227.0156"/>
        <text fill="#000000" font-family="sans-serif" font-size="13" font-weight="bold" lengthAdjust="spacingAndGlyphs" textLength="7" x="458" y="222.5107">4</text>
        <text fill="#000000" font-family="sans-serif" font-size="13" lengthAdjust="spacingAndGlyphs" textLength="238" x="469" y="222.5107">listaAreasAtividade = getAreasAtividade()</text>
        <polygon fill="#A80036" points="1041,253.3672,1051,257.3672,1041,261.3672,1045,257.3672" style="stroke: #A80036; stroke-width: 1.0;"/>
        <line style="stroke: #A80036; stroke-width: 1.0;" x1="809" x2="1047" y1="257.3672" y2="257.3672"/>
        <text fill="#000000" font-family="sans-serif" font-size="13" font-weight="bold" lengthAdjust="spacingAndGlyphs" textLength="7" x="816" y="252.8623">5</text>
        <text fill="#000000" font-family="sans-serif" font-size="13" lengthAdjust="spacingAndGlyphs" textLength="183" x="827" y="252.8623">raa = getRegistoAreaAtividade()</text>
        <polygon fill="#A80036" points="1041,313.7188,1051,317.7188,1041,321.7188,1045,317.7188" style="stroke: #A80036; stroke-width: 1.0;"/>
        <line style="stroke: #A80036; stroke-width: 1.0;" x1="809" x2="1047" y1="317.7188" y2="317.7188"/>
        <text fill="#000000" font-family="sans-serif" font-size="13" font-weight="bold" lengthAdjust="spacingAndGlyphs" textLength="7" x="816" y="313.2139">6</text>
        <text fill="#000000" font-family="sans-serif" font-size="13" lengthAdjust="spacingAndGlyphs" textLength="214" x="827" y="313.2139">rct=getRegistoCompetenciaTecnica()</text>
        <polygon fill="#A80036" points="1185.5,374.0703,1195.5,378.0703,1185.5,382.0703,1189.5,378.0703" style="stroke: #A80036; stroke-width: 1.0;"/>
        <line style="stroke: #A80036; stroke-width: 1.0;" x1="809" x2="1191.5" y1="378.0703" y2="378.0703"/>
        <text fill="#000000" font-family="sans-serif" font-size="13" font-weight="bold" lengthAdjust="spacingAndGlyphs" textLength="7" x="816" y="373.5654">7</text>
        <text fill="#000000" font-family="sans-serif" font-size="13" lengthAdjust="spacingAndGlyphs" textLength="238" x="827" y="373.5654">listaAreasAtividade = getAreasAtividade()</text>
        <polygon fill="#A80036" points="86,404.4219,76,408.4219,86,412.4219,82,408.4219" style="stroke: #A80036; stroke-width: 1.0;"/>
        <line style="stroke: #A80036; stroke-width: 1.0; stroke-dasharray: 2.0,2.0;" x1="80" x2="445" y1="408.4219" y2="408.4219"/>
        <text fill="#000000" font-family="sans-serif" font-size="13" font-weight="bold" lengthAdjust="spacingAndGlyphs" textLength="7" x="92" y="403.917">8</text>
        <text fill="#000000" font-family="sans-serif" font-size="13" lengthAdjust="spacingAndGlyphs" textLength="331" x="103" y="403.917">Apresenta as áreas atividade e pede para selecionar uma</text>
        <polygon fill="#A80036" points="429,434.7734,439,438.7734,429,442.7734,433,438.7734" style="stroke: #A80036; stroke-width: 1.0;"/>
        <line style="stroke: #A80036; stroke-width: 1.0;" x1="75" x2="435" y1="438.7734" y2="438.7734"/>
        <text fill="#000000" font-family="sans-serif" font-size="13" font-weight="bold" lengthAdjust="spacingAndGlyphs" textLength="7" x="82" y="434.2686">9</text>
        <text fill="#000000" font-family="sans-serif" font-size="13" lengthAdjust="spacingAndGlyphs" textLength="215" x="93" y="434.2686">Seleciona a área atividade pretendida</text>
        <polygon fill="#A80036" points="787,465.125,797,469.125,787,473.125,791,469.125" style="stroke: #A80036; stroke-width: 1.0;"/>
        <line style="stroke: #A80036; stroke-width: 1.0;" x1="451" x2="793" y1="469.125" y2="469.125"/>
        <text fill="#000000" font-family="sans-serif" font-size="13" font-weight="bold" lengthAdjust="spacingAndGlyphs" textLength="14" x="458" y="464.6201">10</text>
        <text fill="#000000" font-family="sans-serif" font-size="13" lengthAdjust="spacingAndGlyphs" textLength="311" x="476" y="464.6201">areaAtividade = getAreaAtividadeById(areaAtividadeId)</text>
        <polygon fill="#A80036" points="1185.5,495.4766,1195.5,499.4766,1185.5,503.4766,1189.5,499.4766" style="stroke: #A80036; stroke-width: 1.0;"/>
        <line style="stroke: #A80036; stroke-width: 1.0;" x1="809" x2="1191.5" y1="499.4766" y2="499.4766"/>
        <text fill="#000000" font-family="sans-serif" font-size="13" font-weight="bold" lengthAdjust="spacingAndGlyphs" textLength="14" x="816" y="494.9717">11</text>
        <text fill="#000000" font-family="sans-serif" font-size="13" lengthAdjust="spacingAndGlyphs" textLength="311" x="834" y="494.9717">areaAtividade = getAreaAtividadeById(areaAtividadeId)</text>
        <polygon fill="#A80036" points="1402,555.8281,1412,559.8281,1402,563.8281,1406,559.8281" style="stroke: #A80036; stroke-width: 1.0;"/>
        <line style="stroke: #A80036; stroke-width: 1.0;" x1="809" x2="1408" y1="559.8281" y2="559.8281"/>
        <text fill="#000000" font-family="sans-serif" font-size="13" font-weight="bold" lengthAdjust="spacingAndGlyphs" textLength="14" x="816" y="555.3232">12</text>
        <text fill="#000000" font-family="sans-serif" font-size="13" lengthAdjust="spacingAndGlyphs" textLength="447" x="834" y="555.3232">competencia = novaCompetenciaTecnica(cod, dsBreve, dsDet, areaAtividade)</text>
        <polygon fill="#A80036" points="1700,586.1797,1710,590.1797,1700,594.1797,1704,590.1797" style="stroke: #A80036; stroke-width: 1.0;"/>
        <line style="stroke: #A80036; stroke-width: 1.0; stroke-dasharray: 2.0,2.0;" x1="1419" x2="1706" y1="590.1797" y2="590.1797"/>
        <text fill="#000000" font-family="sans-serif" font-size="13" font-weight="bold" lengthAdjust="spacingAndGlyphs" textLength="14" x="1426" y="585.6748">13</text>
        <text fill="#000000" font-family="sans-serif" font-size="13" lengthAdjust="spacingAndGlyphs" textLength="246" x="1444" y="585.6748">create(cod, dsBreve, dsDet, areaAtividade)</text>
        <rect fill="#FEFECE" filter="url(#fyci7b0iemyu3)" height="31.6094" style="stroke: #A80036; stroke-width: 1.5;" width="231" x="1712" y="568.1797"/>
        <text fill="#000000" font-family="sans-serif" font-size="14" lengthAdjust="spacingAndGlyphs" textLength="217" x="1719" y="589.7129">competencia:CompetenciaTecnica</text>
        <polygon fill="#A80036" points="86,632.7891,76,636.7891,86,640.7891,82,636.7891" style="stroke: #A80036; stroke-width: 1.0;"/>
        <line style="stroke: #A80036; stroke-width: 1.0; stroke-dasharray: 2.0,2.0;" x1="80" x2="445" y1="636.7891" y2="636.7891"/>
        <text fill="#000000" font-family="sans-serif" font-size="13" font-weight="bold" lengthAdjust="spacingAndGlyphs" textLength="14" x="92" y="632.2842">14</text>
        <text fill="#000000" font-family="sans-serif" font-size="13" lengthAdjust="spacingAndGlyphs" textLength="238" x="110" y="632.2842">Solicita dados do GP(valor e designação)</text>
        <rect fill="none" height="242.7188" style="stroke: #000000; stroke-width: 2.0;" width="2179.5" x="13" y="652.1406"/>
        <polygon fill="#EEEEEE" points="13,652.1406,86,652.1406,86,660.1406,76,670.1406,13,670.1406,13,652.1406" style="stroke: #000000; stroke-width: 2.0;"/>
        <text fill="#000000" font-family="sans-serif" font-size="13" font-weight="bold" lengthAdjust="spacingAndGlyphs" textLength="28" x="28" y="666.6357">loop</text>
        <polygon fill="#A80036" points="429,688.4922,439,692.4922,429,696.4922,433,692.4922" style="stroke: #A80036; stroke-width: 1.0;"/>
        <line style="stroke: #A80036; stroke-width: 1.0;" x1="75" x2="435" y1="692.4922" y2="692.4922"/>
        <text fill="#000000" font-family="sans-serif" font-size="13" font-weight="bold" lengthAdjust="spacingAndGlyphs" textLength="14" x="82" y="687.9873">15</text>
        <text fill="#000000" font-family="sans-serif" font-size="13" lengthAdjust="spacingAndGlyphs" textLength="151" x="100" y="687.9873">Introduz dados solicitados</text>
        <polygon fill="#A80036" points="787,718.8438,797,722.8438,787,726.8438,791,722.8438" style="stroke: #A80036; stroke-width: 1.0;"/>
        <line style="stroke: #A80036; stroke-width: 1.0;" x1="451" x2="793" y1="722.8438" y2="722.8438"/>
        <text fill="#000000" font-family="sans-serif" font-size="13" font-weight="bold" lengthAdjust="spacingAndGlyphs" textLength="14" x="458" y="718.3389">16</text>
        <text fill="#000000" font-family="sans-serif" font-size="13" lengthAdjust="spacingAndGlyphs" textLength="148" x="476" y="718.3389">addGP(valor, designacao)</text>
        <polygon fill="#A80036" points="1812.5,749.1953,1822.5,753.1953,1812.5,757.1953,1816.5,753.1953" style="stroke: #A80036; stroke-width: 1.0;"/>
        <line style="stroke: #A80036; stroke-width: 1.0;" x1="809" x2="1818.5" y1="753.1953" y2="753.1953"/>
        <text fill="#000000" font-family="sans-serif" font-size="13" font-weight="bold" lengthAdjust="spacingAndGlyphs" textLength="14" x="816" y="748.6904">17</text>
        <text fill="#000000" font-family="sans-serif" font-size="13" lengthAdjust="spacingAndGlyphs" textLength="148" x="834" y="748.6904">addGP(valor, designacao)</text>
        <polygon fill="#A80036" points="2027.5,779.5469,2037.5,783.5469,2027.5,787.5469,2031.5,783.5469" style="stroke: #A80036; stroke-width: 1.0;"/>
        <line style="stroke: #A80036; stroke-width: 1.0; stroke-dasharray: 2.0,2.0;" x1="1834.5" x2="2033.5" y1="783.5469" y2="783.5469"/>
        <text fill="#000000" font-family="sans-serif" font-size="13" font-weight="bold" lengthAdjust="spacingAndGlyphs" textLength="14" x="1841.5" y="779.042">18</text>
        <text fill="#000000" font-family="sans-serif" font-size="13" lengthAdjust="spacingAndGlyphs" textLength="163" x="1859.5" y="779.042">createGP(valor, designacao)</text>
        <rect fill="#FEFECE" filter="url(#fyci7b0iemyu3)" height="31.6094" style="stroke: #A80036; stroke-width: 1.5;" width="139" x="2039.5" y="761.5469"/>
        <text fill="#000000" font-family="sans-serif" font-size="14" lengthAdjust="spacingAndGlyphs" textLength="125" x="2046.5" y="783.0801">gp:GrauProficiencia</text>
        <line style="stroke: #A80036; stroke-width: 1.0; stroke-dasharray: 2.0,2.0;" x1="1834.5" x2="1876.5" y1="830.5078" y2="830.5078"/>
        <line style="stroke: #A80036; stroke-width: 1.0; stroke-dasharray: 2.0,2.0;" x1="1876.5" x2="1876.5" y1="830.5078" y2="843.5078"/>
        <line style="stroke: #A80036; stroke-width: 1.0; stroke-dasharray: 2.0,2.0;" x1="1835.5" x2="1876.5" y1="843.5078" y2="843.5078"/>
        <polygon fill="#A80036" points="1845.5,839.5078,1835.5,843.5078,1845.5,847.5078,1841.5,843.5078" style="stroke: #A80036; stroke-width: 1.0;"/>
        <text fill="#000000" font-family="sans-serif" font-size="13" font-weight="bold" lengthAdjust="spacingAndGlyphs" textLength="14" x="1841.5" y="825.6514">19</text>
        <text fill="#000000" font-family="sans-serif" font-size="13" lengthAdjust="spacingAndGlyphs" textLength="73" x="1859.5" y="825.6514">validaGP(gp)</text>
        <line style="stroke: #A80036; stroke-width: 1.0; stroke-dasharray: 2.0,2.0;" x1="1834.5" x2="1876.5" y1="878.8594" y2="878.8594"/>
        <line style="stroke: #A80036; stroke-width: 1.0; stroke-dasharray: 2.0,2.0;" x1="1876.5" x2="1876.5" y1="878.8594" y2="891.8594"/>
        <line style="stroke: #A80036; stroke-width: 1.0; stroke-dasharray: 2.0,2.0;" x1="1829.5" x2="1876.5" y1="891.8594" y2="891.8594"/>
        <polygon fill="#A80036" points="1839.5,887.8594,1829.5,891.8594,1839.5,895.8594,1835.5,891.8594" style="stroke: #A80036; stroke-width: 1.0;"/>
        <text fill="#000000" font-family="sans-serif" font-size="13" font-weight="bold" lengthAdjust="spacingAndGlyphs" textLength="14" x="1841.5" y="874.0029">20</text>
        <text fill="#000000" font-family="sans-serif" font-size="13" lengthAdjust="spacingAndGlyphs" textLength="62" x="1859.5" y="874.0029">addGP(gp)</text>
        <polygon fill="#A80036" points="1402,919.8594,1412,923.8594,1402,927.8594,1406,923.8594" style="stroke: #A80036; stroke-width: 1.0;"/>
        <line style="stroke: #A80036; stroke-width: 1.0; stroke-dasharray: 2.0,2.0;" x1="809" x2="1408" y1="923.8594" y2="923.8594"/>
        <text fill="#000000" font-family="sans-serif" font-size="13" font-weight="bold" lengthAdjust="spacingAndGlyphs" textLength="14" x="816" y="919.3545">21</text>
        <text fill="#000000" font-family="sans-serif" font-size="13" lengthAdjust="spacingAndGlyphs" textLength="235" x="834" y="919.3545">validaCompetenciaTecnica(competencia)</text>
        <polygon fill="#A80036" points="86,980.2109,76,984.2109,86,988.2109,82,984.2109" style="stroke: #A80036; stroke-width: 1.0;"/>
        <line style="stroke: #A80036; stroke-width: 1.0; stroke-dasharray: 2.0,2.0;" x1="80" x2="445" y1="984.2109" y2="984.2109"/>
        <text fill="#000000" font-family="sans-serif" font-size="13" font-weight="bold" lengthAdjust="spacingAndGlyphs" textLength="14" x="92" y="979.7061">22</text>
        <text fill="#000000" font-family="sans-serif" font-size="13" lengthAdjust="spacingAndGlyphs" textLength="282" x="110" y="979.7061">Apresenta todos os dados e solicita confirmação</text>
        <polygon fill="#A80036" points="429,1010.5625,439,1014.5625,429,1018.5625,433,1014.5625" style="stroke: #A80036; stroke-width: 1.0;"/>
        <line style="stroke: #A80036; stroke-width: 1.0;" x1="75" x2="435" y1="1014.5625" y2="1014.5625"/>
        <text fill="#000000" font-family="sans-serif" font-size="13" font-weight="bold" lengthAdjust="spacingAndGlyphs" textLength="14" x="82" y="1010.0576">23</text>
        <text fill="#000000" font-family="sans-serif" font-size="13" lengthAdjust="spacingAndGlyphs" textLength="49" x="100" y="1010.0576">confirma</text>
        <polygon fill="#A80036" points="787,1040.9141,797,1044.9141,787,1048.9141,791,1044.9141" style="stroke: #A80036; stroke-width: 1.0;"/>
        <line style="stroke: #A80036; stroke-width: 1.0;" x1="451" x2="793" y1="1044.9141" y2="1044.9141"/>
        <text fill="#000000" font-family="sans-serif" font-size="13" font-weight="bold" lengthAdjust="spacingAndGlyphs" textLength="14" x="458" y="1040.4092">24</text>
        <text fill="#000000" font-family="sans-serif" font-size="13" lengthAdjust="spacingAndGlyphs" textLength="168" x="476" y="1040.4092">registaCompetenciaTecnica()</text>
        <polygon fill="#A80036" points="1402,1071.2656,1412,1075.2656,1402,1079.2656,1406,1075.2656" style="stroke: #A80036; stroke-width: 1.0;"/>
        <line style="stroke: #A80036; stroke-width: 1.0;" x1="809" x2="1408" y1="1075.2656" y2="1075.2656"/>
        <text fill="#000000" font-family="sans-serif" font-size="13" font-weight="bold" lengthAdjust="spacingAndGlyphs" textLength="14" x="816" y="1070.7607">25</text>
        <text fill="#000000" font-family="sans-serif" font-size="13" lengthAdjust="spacingAndGlyphs" textLength="242" x="834" y="1070.7607">registaCompetenciaTecnica(competencia)</text>
        <line style="stroke: #A80036; stroke-width: 1.0;" x1="1424" x2="1466" y1="1105.9688" y2="1105.9688"/>
        <line style="stroke: #A80036; stroke-width: 1.0;" x1="1466" x2="1466" y1="1105.9688" y2="1118.9688"/>
        <line style="stroke: #A80036; stroke-width: 1.0;" x1="1425" x2="1466" y1="1118.9688" y2="1118.9688"/>
        <polygon fill="#A80036" points="1435,1114.9688,1425,1118.9688,1435,1122.9688,1431,1118.9688" style="stroke: #A80036; stroke-width: 1.0;"/>
        <text fill="#000000" font-family="sans-serif" font-size="13" font-weight="bold" lengthAdjust="spacingAndGlyphs" textLength="14" x="1431" y="1101.1123">26</text>
        <text fill="#000000" font-family="sans-serif" font-size="13" lengthAdjust="spacingAndGlyphs" textLength="235" x="1449" y="1101.1123">validaCompetenciaTecnica(competencia)</text>
        <line style="stroke: #A80036; stroke-width: 1.0;" x1="1424" x2="1466" y1="1154.3203" y2="1154.3203"/>
        <line style="stroke: #A80036; stroke-width: 1.0;" x1="1466" x2="1466" y1="1154.3203" y2="1167.3203"/>
        <line style="stroke: #A80036; stroke-width: 1.0;" x1="1419" x2="1466" y1="1167.3203" y2="1167.3203"/>
        <polygon fill="#A80036" points="1429,1163.3203,1419,1167.3203,1429,1171.3203,1425,1167.3203" style="stroke: #A80036; stroke-width: 1.0;"/>
        <text fill="#000000" font-family="sans-serif" font-size="13" font-weight="bold" lengthAdjust="spacingAndGlyphs" textLength="14" x="1431" y="1149.4639">27</text>
        <text fill="#000000" font-family="sans-serif" font-size="13" lengthAdjust="spacingAndGlyphs" textLength="224" x="1449" y="1149.4639">addCompetenciaTecnica(competencia)</text>
        <polygon fill="#A80036" points="81,1188.3203,71,1192.3203,81,1196.3203,77,1192.3203" style="stroke: #A80036; stroke-width: 1.0;"/>
        <line style="stroke: #A80036; stroke-width: 1.0; stroke-dasharray: 2.0,2.0;" x1="75" x2="445" y1="1192.3203" y2="1192.3203"/>
        <text fill="#000000" font-family="sans-serif" font-size="13" font-weight="bold" lengthAdjust="spacingAndGlyphs" textLength="14" x="87" y="1187.8154">28</text>
        <text fill="#000000" font-family="sans-serif" font-size="13" lengthAdjust="spacingAndGlyphs" textLength="138" x="105" y="1187.8154">operação bem sucedida</text>
        <!--
@startuml
autonumber
actor "Administrativo" as ADM

participant ":EspecificarCompetenciaUI" as UI
participant ":EspecificarCompetenciaController" as CTRL
participant ":Plataforma" as PLAT
participant "raa:RegistoAreaAtividade" as RAA
participant "rctec:RegistoCompetenciaTecnica" as RCT
participant "competencia:CompetenciaTecnica" as COMPETENCIA
participant "gp:GrauProficiencia" as GRAU
participant "la\n:List<AreaAtividade>" as LIST_AT
participant "at\n:AreaAtividade" as AT
participant "gp\n:GrauProficiencia" as grau

activate ADM
ADM -> UI : Inicia a especificação de uma nova competência técnica
activate UI
UI - -> ADM : Solicita dados \n(código, descrição breve, descrição detalhada)
deactivate UI

ADM -> UI : Introduz os dados solicitados
activate UI

UI -> CTRL : listaAreasAtividade = getAreasAtividade()

activate CTRL
CTRL -> PLAT : raa = getRegistoAreaAtividade() 
activate PLAT
deactivate PLAT
CTRL -> PLAT : rct=getRegistoCompetenciaTecnica()
activate PLAT
deactivate PLAT
CTRL -> RAA : listaAreasAtividade = getAreasAtividade()
activate RAA
UI - -> ADM : Apresenta as áreas atividade e pede para selecionar uma
deactivate UI
deactivate RAA
deactivate CTRL
ADM -> UI : Seleciona a área atividade pretendida
activate UI
UI -> CTRL : areaAtividade = getAreaAtividadeById(areaAtividadeId)
activate CTRL

CTRL -> RAA : areaAtividade = getAreaAtividadeById(areaAtividadeId)
activate RAA
deactivate RAA
CTRL -> RCT : competencia = novaCompetenciaTecnica(cod, dsBreve, dsDet, areaAtividade)
activate RCT

RCT - -> COMPETENCIA ** : create(cod, dsBreve, dsDet, areaAtividade)
deactivate RCT
UI - -> ADM : Solicita dados do GP(valor e designação)
deactivate PLAT
deactivate UI
deactivate CTRL

loop
ADM -> UI : Introduz dados solicitados
activate UI
UI -> CTRL : addGP(valor, designacao)

activate CTRL 
CTRL -> COMPETENCIA : addGP(valor, designacao)
activate COMPETENCIA

COMPETENCIA - -> GRAU ** : createGP(valor, designacao)

COMPETENCIA - -> COMPETENCIA : validaGP(gp)

COMPETENCIA - -> COMPETENCIA : addGP(gp)
deactivate COMPETENCIA
end loop

CTRL - -> RCT : validaCompetenciaTecnica(competencia)
activate RCT
deactivate RCT

deactivate PLAT
deactivate CTRL
UI - -> ADM : Apresenta todos os dados e solicita confirmação
deactivate UI

ADM -> UI : confirma
activate UI

UI -> CTRL: registaCompetenciaTecnica()
activate CTRL
CTRL ->RCT: registaCompetenciaTecnica(competencia)
activate RCT

RCT -> RCT: validaCompetenciaTecnica(competencia)
RCT -> RCT: addCompetenciaTecnica(competencia)
deactivate CTRL
deactivate RCT


UI - -> ADM : operação bem sucedida
deactivate CTRL
deactivate UI

deactivate ADM
@enduml

PlantUML version 2017.11(Wed Apr 19 17:18:59 BST 2017)
(GPL source distribution)
Java Runtime: Java(TM) SE Runtime Environment
JVM: Java HotSpot(TM) 64-Bit Server VM
Java Version: 1.8.0_111-b14
Operating System: Windows 10
OS Version: 10.0
Default Encoding: UTF-8
Language: pt
Country: PT
-->
    </g>
</svg>
